# gnuplot_animation.plt

#-------------------------------------------------------------------------------
# ループ処理
#-------------------------------------------------------------------------------
if(exist("n")==0 || n<0) n = n0 # ループ変数の初期化

#-------------------------------------------------------------------------------
# プロット
#-------------------------------------------------------------------------------
filename = sprintf("result/output_%04d.txt", n) # n番目のデータファイルの名前の生成
plot filename using 1:3 with lines ti "Exact Solution", filename using 1:2 with lines ti "Numerical Solution(Implicit Method)", filename using 1:4 with lines ti "Numerical Solution(Explicit Method)"            # n番目のデータのプロット

#-------------------------------------------------------------------------------
# ループ処理
#-------------------------------------------------------------------------------
n = n + dn            # ループ変数の増加
if ( n < n1 ) reread  # ループの評価
undefine n            # ループ変数の削除
