0.000000 1.000000 1.000000 0.999814
0.010000 0.999990 0.999991 0.999585
0.020000 0.999975 0.999977 0.999085
0.030000 0.999952 0.999956 0.998487
0.040000 0.999919 0.999926 0.997781
0.050000 0.999874 0.999884 0.996953
0.060000 0.999811 0.999826 0.995991
0.070000 0.999725 0.999747 0.994879
0.080000 0.999611 0.999640 0.993603
0.090000 0.999460 0.999500 0.992147
0.100000 0.999264 0.999316 0.990494
0.110000 0.999010 0.999078 0.988627
0.120000 0.998687 0.998772 0.986526
0.130000 0.998276 0.998384 0.984175
0.140000 0.997761 0.997895 0.981552
0.150000 0.997119 0.997284 0.978639
0.160000 0.996326 0.996527 0.975416
0.170000 0.995353 0.995595 0.971862
0.180000 0.994167 0.994457 0.967956
0.190000 0.992734 0.993076 0.963679
0.200000 0.991011 0.991413 0.959010
0.210000 0.988955 0.989422 0.953930
0.220000 0.986517 0.987056 0.948418
0.230000 0.983645 0.984260 0.942457
0.240000 0.980281 0.980978 0.936029
0.250000 0.976367 0.977148 0.929116
0.260000 0.971838 0.972707 0.921704
0.270000 0.966630 0.967589 0.913778
0.280000 0.960677 0.961724 0.905325
0.290000 0.953909 0.955043 0.896334
0.300000 0.946261 0.947476 0.886798
0.310000 0.937666 0.938957 0.876707
0.320000 0.928061 0.929418 0.866059
0.330000 0.917388 0.918799 0.854850
0.340000 0.905594 0.907044 0.843081
0.350000 0.892632 0.894103 0.830753
0.360000 0.878463 0.879936 0.817874
0.370000 0.863059 0.864512 0.804450
0.380000 0.846404 0.847812 0.790492
0.390000 0.828491 0.829828 0.776014
0.400000 0.809328 0.810567 0.761032
0.410000 0.788936 0.790050 0.745565
0.420000 0.767351 0.768311 0.729636
0.430000 0.744624 0.745403 0.713267
0.440000 0.720820 0.721390 0.696487
0.450000 0.696016 0.696354 0.679324
0.460000 0.670306 0.670390 0.661810
0.470000 0.643795 0.643605 0.643979
0.480000 0.616599 0.616119 0.625865
0.490000 0.588843 0.588063 0.607506
0.500000 0.560662 0.559574 0.588941
0.510000 0.532196 0.530798 0.570209
0.520000 0.503589 0.501884 0.551350
0.530000 0.474987 0.472982 0.532407
0.540000 0.446536 0.444243 0.513421
0.550000 0.418379 0.415815 0.494433
0.560000 0.390653 0.387839 0.475486
0.570000 0.363491 0.360452 0.456621
0.580000 0.337016 0.333779 0.437879
0.590000 0.311340 0.307936 0.419299
0.600000 0.286565 0.283027 0.400921
0.610000 0.262779 0.259140 0.382781
0.620000 0.240059 0.236352 0.364915
0.630000 0.218464 0.214724 0.347357
0.640000 0.198043 0.194302 0.330139
0.650000 0.178828 0.175118 0.313290
0.660000 0.160839 0.157189 0.296839
0.670000 0.144081 0.140518 0.280810
0.680000 0.128548 0.125097 0.265226
0.690000 0.114223 0.110904 0.250107
0.700000 0.101078 0.097909 0.235470
0.710000 0.089075 0.086070 0.221330
0.720000 0.078170 0.075341 0.207699
0.730000 0.068312 0.065665 0.194588
0.740000 0.059445 0.056985 0.182002
0.750000 0.051508 0.049237 0.169946
0.760000 0.044440 0.042357 0.158423
0.770000 0.038176 0.036277 0.147433
0.780000 0.032653 0.030933 0.136973
0.790000 0.027808 0.026259 0.127038
0.800000 0.023578 0.022192 0.117623
0.810000 0.019903 0.018670 0.108719
0.820000 0.016727 0.015637 0.100318
0.830000 0.013995 0.013037 0.092407
0.840000 0.011657 0.010820 0.084976
0.850000 0.009666 0.008940 0.078011
0.860000 0.007980 0.007352 0.071500
0.870000 0.006557 0.006019 0.065428
0.880000 0.005364 0.004904 0.059782
0.890000 0.004368 0.003978 0.054548
0.900000 0.003541 0.003212 0.049717
0.910000 0.002857 0.002581 0.045276
0.920000 0.002295 0.002065 0.041219
0.930000 0.001835 0.001644 0.037543
0.940000 0.001461 0.001303 0.034248
0.950000 0.001159 0.001027 0.031345
0.960000 0.000917 0.000807 0.028849
0.970000 0.000728 0.000630 0.026794
0.980000 0.000585 0.000490 0.025225
0.990000 0.000490 0.000379 0.024212
1.000000 0.000456 0.000292 0.023856
