0.000000 1.000000 1.000000 0.998929
0.010000 0.999705 0.999722 0.997610
0.020000 0.999253 0.999293 0.994733
0.030000 0.998592 0.998663 0.991316
0.040000 0.997658 0.997770 0.987307
0.050000 0.996375 0.996537 0.982653
0.060000 0.994653 0.994876 0.977300
0.070000 0.992388 0.992684 0.971197
0.080000 0.989461 0.989841 0.964293
0.090000 0.985741 0.986214 0.956538
0.100000 0.981082 0.981657 0.947889
0.110000 0.975329 0.976012 0.938303
0.120000 0.968318 0.969111 0.927744
0.130000 0.959881 0.960781 0.916182
0.140000 0.949850 0.950849 0.903591
0.150000 0.938061 0.939146 0.889953
0.160000 0.924361 0.925512 0.875260
0.170000 0.908616 0.909805 0.859508
0.180000 0.890711 0.891906 0.842706
0.190000 0.870564 0.871724 0.824868
0.200000 0.848125 0.849205 0.806020
0.210000 0.823387 0.824338 0.786197
0.220000 0.796385 0.797155 0.765443
0.230000 0.767199 0.767737 0.743810
0.240000 0.735960 0.736215 0.721360
0.250000 0.702844 0.702770 0.698162
0.260000 0.668071 0.667629 0.674295
0.270000 0.631903 0.631060 0.649842
0.280000 0.594636 0.593371 0.624893
0.290000 0.556591 0.554894 0.599544
0.300000 0.518113 0.515986 0.573893
0.310000 0.479553 0.477009 0.548043
0.320000 0.441263 0.438330 0.522096
0.330000 0.403587 0.400303 0.496157
0.340000 0.366852 0.363262 0.470328
0.350000 0.331355 0.327516 0.444711
0.360000 0.297364 0.293337 0.419403
0.370000 0.265106 0.260956 0.394499
0.380000 0.234766 0.230557 0.370087
0.390000 0.206484 0.202281 0.346250
0.400000 0.180356 0.176218 0.323065
0.410000 0.156430 0.152413 0.300600
0.420000 0.134715 0.130867 0.278916
0.430000 0.115182 0.111542 0.258065
0.440000 0.097765 0.094365 0.238092
0.450000 0.082373 0.079235 0.219033
0.460000 0.068890 0.066028 0.200913
0.470000 0.057182 0.054602 0.183752
0.480000 0.047106 0.044807 0.167560
0.490000 0.038511 0.036484 0.152340
0.500000 0.031242 0.029476 0.138086
0.510000 0.025150 0.023627 0.124788
0.520000 0.020088 0.018790 0.112427
0.530000 0.015920 0.014824 0.100980
0.540000 0.012517 0.011602 0.090420
0.550000 0.009763 0.009008 0.080712
0.560000 0.007555 0.006938 0.071823
0.570000 0.005799 0.005300 0.063712
0.580000 0.004416 0.004016 0.056339
0.590000 0.003335 0.003018 0.049661
0.600000 0.002499 0.002250 0.043636
0.610000 0.001857 0.001664 0.038220
0.620000 0.001368 0.001220 0.033368
0.630000 0.001000 0.000887 0.029038
0.640000 0.000725 0.000640 0.025189
0.650000 0.000521 0.000458 0.021779
0.660000 0.000371 0.000325 0.018769
0.670000 0.000262 0.000228 0.016122
0.680000 0.000184 0.000159 0.013803
0.690000 0.000128 0.000110 0.011779
0.700000 0.000088 0.000076 0.010018
0.710000 0.000060 0.000051 0.008493
0.720000 0.000041 0.000035 0.007176
0.730000 0.000027 0.000023 0.006043
0.740000 0.000018 0.000015 0.005071
0.750000 0.000012 0.000010 0.004242
0.760000 0.000008 0.000007 0.003536
0.770000 0.000005 0.000004 0.002938
0.780000 0.000003 0.000003 0.002433
0.790000 0.000002 0.000002 0.002008
0.800000 0.000001 0.000001 0.001651
0.810000 0.000001 0.000001 0.001354
0.820000 0.000001 0.000000 0.001106
0.830000 0.000000 0.000000 0.000900
0.840000 0.000000 0.000000 0.000730
0.850000 0.000000 0.000000 0.000591
0.860000 0.000000 0.000000 0.000476
0.870000 0.000000 0.000000 0.000382
0.880000 0.000000 0.000000 0.000306
0.890000 0.000000 0.000000 0.000244
0.900000 0.000000 0.000000 0.000194
0.910000 0.000000 0.000000 0.000154
0.920000 0.000000 0.000000 0.000121
0.930000 0.000000 0.000000 0.000096
0.940000 0.000000 0.000000 0.000075
0.950000 0.000000 0.000000 0.000059
0.960000 0.000000 0.000000 0.000047
0.970000 0.000000 0.000000 0.000038
0.980000 0.000000 0.000000 0.000031
0.990000 0.000000 0.000000 0.000027
1.000000 0.000000 0.000000 0.000025
