0.000000 1.000000 1.000000 0.999652
0.010000 0.999965 0.999968 0.999222
0.020000 0.999912 0.999919 0.998284
0.030000 0.999834 0.999846 0.997165
0.040000 0.999722 0.999742 0.995845
0.050000 0.999565 0.999595 0.994303
0.060000 0.999350 0.999393 0.992514
0.070000 0.999062 0.999122 0.990456
0.080000 0.998680 0.998761 0.988102
0.090000 0.998181 0.998288 0.985427
0.100000 0.997538 0.997675 0.982405
0.110000 0.996717 0.996891 0.979008
0.120000 0.995681 0.995899 0.975208
0.130000 0.994387 0.994654 0.970979
0.140000 0.992785 0.993110 0.966293
0.150000 0.990819 0.991209 0.961122
0.160000 0.988428 0.988890 0.955440
0.170000 0.985546 0.986086 0.949221
0.180000 0.982097 0.982722 0.942441
0.190000 0.978004 0.978718 0.935077
0.200000 0.973183 0.973991 0.927106
0.210000 0.967548 0.968451 0.918511
0.220000 0.961009 0.962007 0.909273
0.230000 0.953478 0.954566 0.899378
0.240000 0.944863 0.946037 0.888814
0.250000 0.935079 0.936329 0.877573
0.260000 0.924044 0.925357 0.865649
0.270000 0.911682 0.913043 0.853041
0.280000 0.897928 0.899316 0.839750
0.290000 0.882728 0.884119 0.825783
0.300000 0.866041 0.867409 0.811148
0.310000 0.847840 0.849157 0.795860
0.320000 0.828120 0.829352 0.779937
0.330000 0.806890 0.808006 0.763400
0.340000 0.784184 0.785149 0.746275
0.350000 0.760052 0.760832 0.728593
0.360000 0.734569 0.735132 0.710386
0.370000 0.707829 0.708144 0.691693
0.380000 0.679947 0.679986 0.672553
0.390000 0.651056 0.650795 0.653010
0.400000 0.621307 0.620725 0.633111
0.410000 0.590864 0.589948 0.612904
0.420000 0.559903 0.558646 0.592442
0.430000 0.528611 0.527011 0.571776
0.440000 0.497179 0.495239 0.550962
0.450000 0.465799 0.463532 0.530054
0.460000 0.434663 0.432086 0.509108
0.470000 0.403957 0.401095 0.488180
0.480000 0.373861 0.370741 0.467326
0.490000 0.344541 0.341197 0.446599
0.500000 0.316150 0.312619 0.426053
0.510000 0.288826 0.285146 0.405740
0.520000 0.262686 0.258900 0.385711
0.530000 0.237831 0.233979 0.366011
0.540000 0.214339 0.210463 0.346688
0.550000 0.192270 0.188410 0.327781
0.560000 0.171661 0.167854 0.309331
0.570000 0.152532 0.148813 0.291372
0.580000 0.134882 0.131282 0.273937
0.590000 0.118695 0.115240 0.257054
0.600000 0.103937 0.100651 0.240747
0.610000 0.090564 0.087464 0.225036
0.620000 0.078518 0.075616 0.209939
0.630000 0.067731 0.065038 0.195469
0.640000 0.058130 0.055650 0.181635
0.650000 0.049636 0.047369 0.168442
0.660000 0.042164 0.040108 0.155893
0.670000 0.035632 0.033782 0.143986
0.680000 0.029955 0.028302 0.132718
0.690000 0.025051 0.023585 0.122081
0.700000 0.020840 0.019549 0.112064
0.710000 0.017245 0.016116 0.102656
0.720000 0.014194 0.013214 0.093842
0.730000 0.011620 0.010776 0.085605
0.740000 0.009462 0.008740 0.077927
0.750000 0.007664 0.007050 0.070787
0.760000 0.006173 0.005655 0.064165
0.770000 0.004946 0.004512 0.058038
0.780000 0.003941 0.003579 0.052384
0.790000 0.003123 0.002824 0.047179
0.800000 0.002461 0.002216 0.042399
0.810000 0.001929 0.001729 0.038022
0.820000 0.001503 0.001341 0.034022
0.830000 0.001165 0.001035 0.030377
0.840000 0.000898 0.000794 0.027064
0.850000 0.000688 0.000606 0.024061
0.860000 0.000525 0.000460 0.021344
0.870000 0.000398 0.000347 0.018895
0.880000 0.000300 0.000260 0.016692
0.890000 0.000224 0.000194 0.014718
0.900000 0.000167 0.000144 0.012954
0.910000 0.000124 0.000106 0.011384
0.920000 0.000091 0.000078 0.009995
0.930000 0.000067 0.000057 0.008774
0.940000 0.000049 0.000041 0.007710
0.950000 0.000035 0.000030 0.006796
0.960000 0.000025 0.000021 0.006029
0.970000 0.000018 0.000015 0.005409
0.980000 0.000013 0.000011 0.004943
0.990000 0.000010 0.000008 0.004646
1.000000 0.000009 0.000005 0.004541
