0.000000 1.000000 1.000000 0.999055
0.010000 0.999766 0.999780 0.997891
0.020000 0.999408 0.999441 0.995350
0.030000 0.998883 0.998942 0.992332
0.040000 0.998140 0.998234 0.988787
0.050000 0.997117 0.997254 0.984668
0.060000 0.995741 0.995930 0.979926
0.070000 0.993924 0.994177 0.974511
0.080000 0.991569 0.991896 0.968376
0.090000 0.988564 0.988975 0.961475
0.100000 0.984784 0.985288 0.953762
0.110000 0.980095 0.980700 0.945198
0.120000 0.974351 0.975062 0.935743
0.130000 0.967401 0.968219 0.925365
0.140000 0.959090 0.960013 0.914036
0.150000 0.949261 0.950283 0.901732
0.160000 0.937764 0.938871 0.888438
0.170000 0.924459 0.925631 0.874144
0.180000 0.909217 0.910430 0.858848
0.190000 0.891933 0.893155 0.842556
0.200000 0.872528 0.873722 0.825282
0.210000 0.850952 0.852076 0.807048
0.220000 0.827191 0.828199 0.787885
0.230000 0.801272 0.802114 0.767832
0.240000 0.773260 0.773889 0.746936
0.250000 0.743267 0.743634 0.725253
0.260000 0.711445 0.711505 0.702845
0.270000 0.677989 0.677701 0.679781
0.280000 0.643128 0.642461 0.656139
0.290000 0.607129 0.606059 0.631999
0.300000 0.570283 0.568795 0.607448
0.310000 0.532901 0.530993 0.582577
0.320000 0.495308 0.492989 0.557479
0.330000 0.457831 0.455120 0.532249
0.340000 0.420793 0.417722 0.506983
0.350000 0.384507 0.381115 0.481777
0.360000 0.349260 0.345597 0.456725
0.370000 0.315318 0.311439 0.431921
0.380000 0.282911 0.278874 0.407452
0.390000 0.252234 0.248101 0.383404
0.400000 0.223439 0.219272 0.359856
0.410000 0.196642 0.192500 0.336884
0.420000 0.171915 0.167853 0.314556
0.430000 0.149289 0.145357 0.292931
0.440000 0.128762 0.125003 0.272065
0.450000 0.110294 0.106745 0.252004
0.460000 0.093820 0.090507 0.232786
0.470000 0.079247 0.076190 0.214442
0.480000 0.066463 0.063675 0.196996
0.490000 0.055344 0.052829 0.180463
0.500000 0.045754 0.043508 0.164851
0.510000 0.037551 0.035567 0.150162
0.520000 0.030593 0.028860 0.136391
0.530000 0.024741 0.023242 0.123525
0.540000 0.019860 0.018577 0.111548
0.550000 0.015824 0.014737 0.100439
0.560000 0.012513 0.011601 0.090170
0.570000 0.009820 0.009063 0.080712
0.580000 0.007648 0.007026 0.072032
0.590000 0.005912 0.005405 0.064093
0.600000 0.004534 0.004126 0.056858
0.610000 0.003451 0.003125 0.050288
0.620000 0.002606 0.002348 0.044342
0.630000 0.001953 0.001751 0.038980
0.640000 0.001452 0.001296 0.034162
0.650000 0.001071 0.000951 0.029848
0.660000 0.000784 0.000693 0.025998
0.670000 0.000569 0.000500 0.022575
0.680000 0.000410 0.000359 0.019542
0.690000 0.000293 0.000255 0.016863
0.700000 0.000208 0.000180 0.014507
0.710000 0.000146 0.000126 0.012440
0.720000 0.000102 0.000087 0.010635
0.730000 0.000070 0.000060 0.009062
0.740000 0.000048 0.000041 0.007698
0.750000 0.000033 0.000028 0.006519
0.760000 0.000022 0.000019 0.005503
0.770000 0.000015 0.000013 0.004630
0.780000 0.000010 0.000008 0.003883
0.790000 0.000007 0.000005 0.003246
0.800000 0.000004 0.000004 0.002705
0.810000 0.000003 0.000002 0.002247
0.820000 0.000002 0.000001 0.001861
0.830000 0.000001 0.000001 0.001536
0.840000 0.000001 0.000001 0.001263
0.850000 0.000000 0.000000 0.001036
0.860000 0.000000 0.000000 0.000847
0.870000 0.000000 0.000000 0.000690
0.880000 0.000000 0.000000 0.000560
0.890000 0.000000 0.000000 0.000453
0.900000 0.000000 0.000000 0.000366
0.910000 0.000000 0.000000 0.000294
0.920000 0.000000 0.000000 0.000236
0.930000 0.000000 0.000000 0.000189
0.940000 0.000000 0.000000 0.000151
0.950000 0.000000 0.000000 0.000121
0.960000 0.000000 0.000000 0.000097
0.970000 0.000000 0.000000 0.000079
0.980000 0.000000 0.000000 0.000066
0.990000 0.000000 0.000000 0.000058
1.000000 0.000000 0.000000 0.000056
