0.000000 1.000000 1.000000 0.999262
0.010000 0.999853 0.999863 0.998353
0.020000 0.999628 0.999651 0.996369
0.030000 0.999298 0.999339 0.994009
0.040000 0.998829 0.998894 0.991235
0.050000 0.998180 0.998276 0.988005
0.060000 0.997303 0.997438 0.984278
0.070000 0.996139 0.996321 0.980013
0.080000 0.994621 0.994859 0.975167
0.090000 0.992669 0.992973 0.969699
0.100000 0.990196 0.990575 0.963568
0.110000 0.987102 0.987565 0.956735
0.120000 0.983278 0.983833 0.949163
0.130000 0.978606 0.979260 0.940817
0.140000 0.972960 0.973717 0.931664
0.150000 0.966210 0.967070 0.921676
0.160000 0.958221 0.959183 0.910830
0.170000 0.948860 0.949917 0.899106
0.180000 0.937995 0.939136 0.886490
0.190000 0.925505 0.926713 0.872973
0.200000 0.911278 0.912531 0.858552
0.210000 0.895219 0.896490 0.843231
0.220000 0.877254 0.878510 0.827021
0.230000 0.857331 0.858536 0.809939
0.240000 0.835429 0.836542 0.792008
0.250000 0.811557 0.812535 0.773260
0.260000 0.785758 0.786556 0.753732
0.270000 0.758108 0.758684 0.733470
0.280000 0.728723 0.729033 0.712522
0.290000 0.697749 0.697754 0.690948
0.300000 0.665368 0.665034 0.668808
0.310000 0.631791 0.631091 0.646170
0.320000 0.597254 0.596169 0.623107
0.330000 0.562015 0.560534 0.599693
0.340000 0.526347 0.524468 0.576007
0.350000 0.490531 0.488264 0.552131
0.360000 0.454851 0.452216 0.528146
0.370000 0.419588 0.416611 0.504135
0.380000 0.385010 0.381727 0.480182
0.390000 0.351369 0.347823 0.456367
0.400000 0.318895 0.315135 0.432770
0.410000 0.287792 0.283871 0.409470
0.420000 0.258234 0.254207 0.386539
0.430000 0.230360 0.226282 0.364049
0.440000 0.204279 0.200204 0.342063
0.450000 0.180063 0.176043 0.320644
0.460000 0.157752 0.153834 0.299845
0.470000 0.137354 0.133579 0.279715
0.480000 0.118849 0.115252 0.260298
0.490000 0.102189 0.098800 0.241630
0.500000 0.087306 0.084146 0.223742
0.510000 0.074112 0.071196 0.206656
0.520000 0.062504 0.059841 0.190390
0.530000 0.052370 0.049962 0.174956
0.540000 0.043590 0.041434 0.160358
0.550000 0.036042 0.034130 0.146597
0.560000 0.029602 0.027922 0.133666
0.570000 0.024149 0.022688 0.121556
0.580000 0.019568 0.018308 0.110249
0.590000 0.015748 0.014672 0.099728
0.600000 0.012587 0.011676 0.089969
0.610000 0.009991 0.009228 0.080947
0.620000 0.007876 0.007241 0.072632
0.630000 0.006165 0.005643 0.064994
0.640000 0.004793 0.004366 0.058000
0.650000 0.003699 0.003355 0.051616
0.660000 0.002836 0.002559 0.045808
0.670000 0.002158 0.001938 0.040541
0.680000 0.001631 0.001458 0.035780
0.690000 0.001223 0.001088 0.031489
0.700000 0.000911 0.000807 0.027636
0.710000 0.000674 0.000594 0.024186
0.720000 0.000495 0.000434 0.021106
0.730000 0.000361 0.000315 0.018367
0.740000 0.000261 0.000227 0.015938
0.750000 0.000187 0.000162 0.013790
0.760000 0.000134 0.000115 0.011898
0.770000 0.000095 0.000081 0.010236
0.780000 0.000067 0.000057 0.008781
0.790000 0.000046 0.000039 0.007511
0.800000 0.000032 0.000027 0.006406
0.810000 0.000022 0.000019 0.005448
0.820000 0.000015 0.000013 0.004619
0.830000 0.000010 0.000008 0.003905
0.840000 0.000007 0.000006 0.003292
0.850000 0.000005 0.000004 0.002767
0.860000 0.000003 0.000002 0.002319
0.870000 0.000002 0.000002 0.001938
0.880000 0.000001 0.000001 0.001615
0.890000 0.000001 0.000001 0.001342
0.900000 0.000001 0.000000 0.001112
0.910000 0.000000 0.000000 0.000919
0.920000 0.000000 0.000000 0.000758
0.930000 0.000000 0.000000 0.000624
0.940000 0.000000 0.000000 0.000513
0.950000 0.000000 0.000000 0.000423
0.960000 0.000000 0.000000 0.000351
0.970000 0.000000 0.000000 0.000295
0.980000 0.000000 0.000000 0.000254
0.990000 0.000000 0.000000 0.000229
1.000000 0.000000 0.000000 0.000220
