0.000000 1.000000 1.000000 0.999891
0.010000 0.999997 0.999997 0.999757
0.020000 0.999991 0.999992 0.999464
0.030000 0.999984 0.999985 0.999114
0.040000 0.999973 0.999975 0.998700
0.050000 0.999957 0.999961 0.998213
0.060000 0.999935 0.999941 0.997646
0.070000 0.999906 0.999914 0.996990
0.080000 0.999866 0.999878 0.996235
0.090000 0.999813 0.999829 0.995371
0.100000 0.999744 0.999765 0.994387
0.110000 0.999654 0.999682 0.993271
0.120000 0.999538 0.999574 0.992012
0.130000 0.999389 0.999435 0.990597
0.140000 0.999201 0.999259 0.989012
0.150000 0.998965 0.999037 0.987243
0.160000 0.998669 0.998759 0.985277
0.170000 0.998302 0.998413 0.983099
0.180000 0.997850 0.997985 0.980693
0.190000 0.997297 0.997459 0.978043
0.200000 0.996623 0.996817 0.975134
0.210000 0.995807 0.996039 0.971951
0.220000 0.994827 0.995100 0.968476
0.230000 0.993654 0.993973 0.964693
0.240000 0.992259 0.992631 0.960586
0.250000 0.990610 0.991038 0.956140
0.260000 0.988670 0.989160 0.951338
0.270000 0.986400 0.986958 0.946165
0.280000 0.983758 0.984388 0.940606
0.290000 0.980699 0.981406 0.934647
0.300000 0.977176 0.977963 0.928274
0.310000 0.973138 0.974009 0.921474
0.320000 0.968535 0.969490 0.914237
0.330000 0.963311 0.964351 0.906550
0.340000 0.957414 0.958538 0.898406
0.350000 0.950788 0.951994 0.889796
0.360000 0.943381 0.944663 0.880713
0.370000 0.935139 0.936492 0.871152
0.380000 0.926013 0.927428 0.861110
0.390000 0.915956 0.917421 0.850586
0.400000 0.904924 0.906428 0.839580
0.410000 0.892882 0.894409 0.828095
0.420000 0.879797 0.881331 0.816133
0.430000 0.865645 0.867167 0.803702
0.440000 0.850412 0.851900 0.790810
0.450000 0.834088 0.835522 0.777468
0.460000 0.816678 0.818034 0.763687
0.470000 0.798195 0.799448 0.749483
0.480000 0.778660 0.779786 0.734871
0.490000 0.758109 0.759085 0.719871
0.500000 0.736587 0.737389 0.704503
0.510000 0.714150 0.714755 0.688789
0.520000 0.690865 0.691252 0.672753
0.530000 0.666809 0.666958 0.656421
0.540000 0.642066 0.641963 0.639820
0.550000 0.616733 0.616363 0.622979
0.560000 0.590911 0.590264 0.605927
0.570000 0.564708 0.563777 0.588696
0.580000 0.538236 0.537018 0.571318
0.590000 0.511611 0.510108 0.553824
0.600000 0.484953 0.483168 0.536249
0.610000 0.458378 0.456321 0.518625
0.620000 0.432004 0.429686 0.500986
0.630000 0.405944 0.403382 0.483367
0.640000 0.380309 0.377522 0.465800
0.650000 0.355202 0.352212 0.448319
0.660000 0.330721 0.327553 0.430956
0.670000 0.306955 0.303635 0.413743
0.680000 0.283984 0.280539 0.396711
0.690000 0.261879 0.258339 0.379891
0.700000 0.240701 0.237094 0.363310
0.710000 0.220499 0.216855 0.346995
0.720000 0.201312 0.197659 0.330974
0.730000 0.183170 0.179535 0.315270
0.740000 0.166089 0.162499 0.299905
0.750000 0.150078 0.146556 0.284901
0.760000 0.135136 0.131704 0.270276
0.770000 0.121251 0.117929 0.256049
0.780000 0.108406 0.105209 0.242234
0.790000 0.096573 0.093517 0.228844
0.800000 0.085720 0.082816 0.215893
0.810000 0.075810 0.073067 0.203389
0.820000 0.066800 0.064224 0.191342
0.830000 0.058643 0.056238 0.179759
0.840000 0.051291 0.049058 0.168645
0.850000 0.044694 0.042632 0.158006
0.860000 0.038798 0.036905 0.147846
0.870000 0.033553 0.031824 0.138168
0.880000 0.028908 0.027337 0.128979
0.890000 0.024810 0.023391 0.120284
0.900000 0.021212 0.019937 0.112090
0.910000 0.018067 0.016926 0.104410
0.920000 0.015330 0.014313 0.097260
0.930000 0.012960 0.012055 0.090663
0.940000 0.010918 0.010114 0.084652
0.950000 0.009174 0.008451 0.079275
0.960000 0.007700 0.007034 0.074593
0.970000 0.006482 0.005831 0.070694
0.980000 0.005526 0.004814 0.067692
0.990000 0.004872 0.003959 0.065745
1.000000 0.004629 0.003242 0.065056
