0.000000 1.000000 1.000000 0.999989
0.010000 1.000000 1.000000 0.999976
0.020000 1.000000 1.000000 0.999948
0.030000 1.000000 1.000000 0.999914
0.040000 1.000000 1.000000 0.999873
0.050000 1.000000 1.000000 0.999825
0.060000 0.999999 1.000000 0.999769
0.070000 0.999999 0.999999 0.999704
0.080000 0.999999 0.999999 0.999628
0.090000 0.999998 0.999999 0.999540
0.100000 0.999998 0.999998 0.999440
0.110000 0.999997 0.999998 0.999325
0.120000 0.999996 0.999997 0.999195
0.130000 0.999995 0.999995 0.999046
0.140000 0.999993 0.999994 0.998878
0.150000 0.999991 0.999992 0.998688
0.160000 0.999988 0.999989 0.998474
0.170000 0.999984 0.999986 0.998234
0.180000 0.999979 0.999982 0.997966
0.190000 0.999973 0.999976 0.997666
0.200000 0.999966 0.999970 0.997331
0.210000 0.999956 0.999961 0.996960
0.220000 0.999945 0.999951 0.996547
0.230000 0.999930 0.999937 0.996091
0.240000 0.999912 0.999921 0.995587
0.250000 0.999889 0.999901 0.995030
0.260000 0.999862 0.999876 0.994419
0.270000 0.999828 0.999845 0.993747
0.280000 0.999787 0.999808 0.993010
0.290000 0.999737 0.999762 0.992203
0.300000 0.999677 0.999706 0.991322
0.310000 0.999604 0.999639 0.990362
0.320000 0.999516 0.999559 0.989316
0.330000 0.999411 0.999462 0.988179
0.340000 0.999286 0.999345 0.986946
0.350000 0.999137 0.999207 0.985609
0.360000 0.998961 0.999042 0.984164
0.370000 0.998752 0.998847 0.982603
0.380000 0.998506 0.998616 0.980919
0.390000 0.998217 0.998345 0.979107
0.400000 0.997880 0.998027 0.977158
0.410000 0.997485 0.997654 0.975067
0.420000 0.997027 0.997220 0.972824
0.430000 0.996495 0.996715 0.970425
0.440000 0.995881 0.996131 0.967860
0.450000 0.995173 0.995456 0.965122
0.460000 0.994359 0.994678 0.962204
0.470000 0.993428 0.993786 0.959099
0.480000 0.992364 0.992765 0.955799
0.490000 0.991153 0.991600 0.952296
0.500000 0.989779 0.990276 0.948584
0.510000 0.988225 0.988774 0.944654
0.520000 0.986471 0.987076 0.940500
0.530000 0.984498 0.985162 0.936115
0.540000 0.982286 0.983012 0.931492
0.550000 0.979812 0.980602 0.926625
0.560000 0.977054 0.977911 0.921508
0.570000 0.973988 0.974914 0.916135
0.580000 0.970589 0.971586 0.910499
0.590000 0.966833 0.967902 0.904597
0.600000 0.962694 0.963834 0.898424
0.610000 0.958146 0.959358 0.891975
0.620000 0.953163 0.954445 0.885247
0.630000 0.947719 0.949069 0.878236
0.640000 0.941789 0.943204 0.870941
0.650000 0.935346 0.936823 0.863359
0.660000 0.928368 0.929902 0.855490
0.670000 0.920832 0.922416 0.847332
0.680000 0.912714 0.914343 0.838886
0.690000 0.903996 0.905661 0.830154
0.700000 0.894660 0.896352 0.821136
0.710000 0.884690 0.886399 0.811836
0.720000 0.874072 0.875788 0.802258
0.730000 0.862797 0.864507 0.792407
0.740000 0.850857 0.852549 0.782288
0.750000 0.838249 0.839910 0.771910
0.760000 0.824973 0.826588 0.761279
0.770000 0.811032 0.812587 0.750406
0.780000 0.796433 0.797914 0.739303
0.790000 0.781189 0.782581 0.727983
0.800000 0.765315 0.766602 0.716460
0.810000 0.748831 0.749998 0.704754
0.820000 0.731762 0.732794 0.692883
0.830000 0.714135 0.715019 0.680873
0.840000 0.695983 0.696704 0.668748
0.850000 0.677344 0.677887 0.656542
0.860000 0.658259 0.658609 0.644290
0.870000 0.638772 0.638914 0.632035
0.880000 0.618936 0.618849 0.619829
0.890000 0.598807 0.598466 0.607729
0.900000 0.578449 0.577817 0.595807
0.910000 0.557941 0.556958 0.584147
0.920000 0.537375 0.535945 0.572847
0.930000 0.516878 0.514837 0.562028
0.940000 0.496619 0.493693 0.551833
0.950000 0.476851 0.472571 0.542435
0.960000 0.457958 0.451532 0.534039
0.970000 0.440549 0.430633 0.526898
0.980000 0.425606 0.409931 0.521313
0.990000 0.414730 0.389481 0.517648
1.000000 0.410558 0.369338 0.516347
