0.000000 1.000000 1.000000 0.999970
0.010000 1.000000 1.000000 0.999933
0.020000 0.999999 0.999999 0.999852
0.030000 0.999999 0.999999 0.999756
0.040000 0.999998 0.999998 0.999641
0.050000 0.999997 0.999997 0.999506
0.060000 0.999995 0.999996 0.999348
0.070000 0.999993 0.999994 0.999165
0.080000 0.999990 0.999992 0.998953
0.090000 0.999987 0.999988 0.998709
0.100000 0.999981 0.999984 0.998430
0.110000 0.999975 0.999977 0.998112
0.120000 0.999966 0.999969 0.997751
0.130000 0.999954 0.999959 0.997342
0.140000 0.999939 0.999946 0.996880
0.150000 0.999920 0.999929 0.996362
0.160000 0.999896 0.999907 0.995781
0.170000 0.999866 0.999879 0.995131
0.180000 0.999827 0.999844 0.994407
0.190000 0.999779 0.999800 0.993603
0.200000 0.999720 0.999745 0.992712
0.210000 0.999646 0.999677 0.991726
0.220000 0.999555 0.999592 0.990638
0.230000 0.999443 0.999489 0.989442
0.240000 0.999306 0.999362 0.988128
0.250000 0.999140 0.999207 0.986688
0.260000 0.998940 0.999019 0.985115
0.270000 0.998698 0.998793 0.983398
0.280000 0.998408 0.998520 0.981529
0.290000 0.998062 0.998193 0.979499
0.300000 0.997650 0.997804 0.977297
0.310000 0.997161 0.997341 0.974915
0.320000 0.996585 0.996794 0.972341
0.330000 0.995908 0.996149 0.969567
0.340000 0.995116 0.995392 0.966581
0.350000 0.994191 0.994508 0.963374
0.360000 0.993118 0.993477 0.959936
0.370000 0.991876 0.992283 0.956256
0.380000 0.990443 0.990902 0.952324
0.390000 0.988799 0.989313 0.948130
0.400000 0.986917 0.987490 0.943665
0.410000 0.984771 0.985408 0.938919
0.420000 0.982335 0.983038 0.933882
0.430000 0.979578 0.980351 0.928547
0.440000 0.976469 0.977315 0.922904
0.450000 0.972977 0.973898 0.916947
0.460000 0.969068 0.970065 0.910666
0.470000 0.964709 0.965782 0.904057
0.480000 0.959864 0.961014 0.897111
0.490000 0.954498 0.955724 0.889825
0.500000 0.948577 0.949876 0.882194
0.510000 0.942067 0.943435 0.874213
0.520000 0.934933 0.936366 0.865880
0.530000 0.927144 0.928636 0.857193
0.540000 0.918668 0.920212 0.848151
0.550000 0.909478 0.911064 0.838754
0.560000 0.899547 0.901165 0.829002
0.570000 0.888854 0.890492 0.818899
0.580000 0.877378 0.879025 0.808447
0.590000 0.865106 0.866746 0.797650
0.600000 0.852027 0.853645 0.786514
0.610000 0.838135 0.839716 0.775046
0.620000 0.823431 0.824957 0.763253
0.630000 0.807920 0.809374 0.751145
0.640000 0.791613 0.792976 0.738731
0.650000 0.774528 0.775782 0.726023
0.660000 0.756687 0.757816 0.713032
0.670000 0.738122 0.739106 0.699773
0.680000 0.718867 0.719689 0.686260
0.690000 0.698963 0.699608 0.672509
0.700000 0.678460 0.678912 0.658535
0.710000 0.657408 0.657654 0.644356
0.720000 0.635866 0.635894 0.629991
0.730000 0.613897 0.613697 0.615459
0.740000 0.591566 0.591131 0.600781
0.750000 0.568944 0.568267 0.585976
0.760000 0.546104 0.545182 0.571067
0.770000 0.523119 0.521952 0.556077
0.780000 0.500067 0.498655 0.541028
0.790000 0.477023 0.475372 0.525947
0.800000 0.454064 0.452180 0.510857
0.810000 0.431266 0.429158 0.495787
0.820000 0.408703 0.406382 0.480763
0.830000 0.386447 0.383925 0.465816
0.840000 0.364565 0.361859 0.450977
0.850000 0.343123 0.340249 0.436282
0.860000 0.322182 0.319157 0.421768
0.870000 0.301798 0.298641 0.407476
0.880000 0.282024 0.278752 0.393456
0.890000 0.262907 0.259535 0.379759
0.900000 0.244490 0.241031 0.366451
0.910000 0.226816 0.223274 0.353603
0.920000 0.209926 0.206289 0.341304
0.930000 0.193869 0.190099 0.329660
0.940000 0.178706 0.174718 0.318797
0.950000 0.164535 0.160155 0.308870
0.960000 0.151513 0.146412 0.300070
0.970000 0.139914 0.133486 0.292630
0.980000 0.130223 0.121370 0.286839
0.990000 0.123299 0.110052 0.283051
1.000000 0.120666 0.099513 0.281707
