0.000000 1.000000 1.000000 0.998812
0.010000 0.999642 0.999661 0.997348
0.020000 0.999094 0.999141 0.994155
0.030000 0.998293 0.998376 0.990366
0.040000 0.997164 0.997293 0.985923
0.050000 0.995616 0.995803 0.980770
0.060000 0.993544 0.993799 0.974849
0.070000 0.990825 0.991162 0.968106
0.080000 0.987324 0.987752 0.960488
0.090000 0.982888 0.983417 0.951945
0.100000 0.977355 0.977992 0.942432
0.110000 0.970551 0.971299 0.931908
0.120000 0.962296 0.963154 0.920339
0.130000 0.952411 0.953372 0.907696
0.140000 0.940718 0.941770 0.893959
0.150000 0.927052 0.928174 0.879117
0.160000 0.911265 0.912430 0.863165
0.170000 0.893232 0.894405 0.846110
0.180000 0.872861 0.874002 0.827968
0.190000 0.850096 0.851157 0.808766
0.200000 0.824926 0.825856 0.788539
0.210000 0.797385 0.798130 0.767334
0.220000 0.767561 0.768066 0.745208
0.230000 0.735591 0.735804 0.722226
0.240000 0.701665 0.701539 0.698464
0.250000 0.666021 0.665513 0.674004
0.260000 0.628940 0.628019 0.648936
0.270000 0.590741 0.589385 0.623359
0.280000 0.551772 0.549972 0.597373
0.290000 0.512399 0.510160 0.571086
0.300000 0.473001 0.470338 0.544606
0.310000 0.433950 0.430896 0.518044
0.320000 0.395613 0.392208 0.491512
0.330000 0.358330 0.354627 0.465117
0.340000 0.322413 0.318471 0.438969
0.350000 0.288135 0.284021 0.413171
0.360000 0.255728 0.251510 0.387822
0.370000 0.225375 0.221120 0.363014
0.380000 0.197208 0.192983 0.338835
0.390000 0.171313 0.167178 0.315362
0.400000 0.147726 0.143737 0.292667
0.410000 0.126439 0.122644 0.270810
0.420000 0.107406 0.103841 0.249845
0.430000 0.090543 0.087238 0.229815
0.440000 0.075741 0.072715 0.210753
0.450000 0.062867 0.060129 0.192684
0.460000 0.051773 0.049326 0.175624
0.470000 0.042299 0.040138 0.159579
0.480000 0.034284 0.032397 0.144547
0.490000 0.027565 0.025936 0.130520
0.500000 0.021983 0.020593 0.117482
0.510000 0.017389 0.016216 0.105409
0.520000 0.013642 0.012664 0.094273
0.530000 0.010615 0.009807 0.084043
0.540000 0.008191 0.007531 0.074679
0.550000 0.006268 0.005735 0.066142
0.560000 0.004756 0.004330 0.058389
0.570000 0.003578 0.003242 0.051375
0.580000 0.002669 0.002407 0.045054
0.590000 0.001975 0.001771 0.039379
0.600000 0.001448 0.001293 0.034304
0.610000 0.001053 0.000935 0.029783
0.620000 0.000759 0.000671 0.025771
0.630000 0.000542 0.000477 0.022223
0.640000 0.000384 0.000336 0.019099
0.650000 0.000270 0.000235 0.016359
0.660000 0.000188 0.000163 0.013963
0.670000 0.000129 0.000112 0.011878
0.680000 0.000089 0.000076 0.010069
0.690000 0.000060 0.000051 0.008506
0.700000 0.000040 0.000034 0.007161
0.710000 0.000027 0.000023 0.006008
0.720000 0.000018 0.000015 0.005023
0.730000 0.000012 0.000010 0.004185
0.740000 0.000007 0.000006 0.003474
0.750000 0.000005 0.000004 0.002874
0.760000 0.000003 0.000003 0.002369
0.770000 0.000002 0.000002 0.001946
0.780000 0.000001 0.000001 0.001593
0.790000 0.000001 0.000001 0.001300
0.800000 0.000000 0.000000 0.001056
0.810000 0.000000 0.000000 0.000855
0.820000 0.000000 0.000000 0.000690
0.830000 0.000000 0.000000 0.000555
0.840000 0.000000 0.000000 0.000445
0.850000 0.000000 0.000000 0.000355
0.860000 0.000000 0.000000 0.000283
0.870000 0.000000 0.000000 0.000224
0.880000 0.000000 0.000000 0.000177
0.890000 0.000000 0.000000 0.000139
0.900000 0.000000 0.000000 0.000109
0.910000 0.000000 0.000000 0.000085
0.920000 0.000000 0.000000 0.000066
0.930000 0.000000 0.000000 0.000052
0.940000 0.000000 0.000000 0.000040
0.950000 0.000000 0.000000 0.000031
0.960000 0.000000 0.000000 0.000024
0.970000 0.000000 0.000000 0.000019
0.980000 0.000000 0.000000 0.000015
0.990000 0.000000 0.000000 0.000013
1.000000 0.000000 0.000000 0.000013
