0.000000 1.000000 1.000000 0.999601
0.010000 0.999955 0.999959 0.999110
0.020000 0.999886 0.999894 0.998036
0.030000 0.999784 0.999799 0.996756
0.040000 0.999638 0.999663 0.995247
0.050000 0.999435 0.999472 0.993485
0.060000 0.999157 0.999211 0.991443
0.070000 0.998785 0.998859 0.989095
0.080000 0.998293 0.998392 0.986412
0.090000 0.997652 0.997782 0.983368
0.100000 0.996827 0.996994 0.979931
0.110000 0.995778 0.995989 0.976074
0.120000 0.994458 0.994720 0.971766
0.130000 0.992815 0.993135 0.966977
0.140000 0.990788 0.991174 0.961680
0.150000 0.988311 0.988771 0.955844
0.160000 0.985312 0.985852 0.949444
0.170000 0.981710 0.982337 0.942452
0.180000 0.977422 0.978140 0.934845
0.190000 0.972357 0.973170 0.926599
0.200000 0.966421 0.967332 0.917694
0.210000 0.959520 0.960526 0.908112
0.220000 0.951558 0.952655 0.897839
0.230000 0.942438 0.943619 0.886863
0.240000 0.932070 0.933325 0.875175
0.250000 0.920369 0.921682 0.862771
0.260000 0.907256 0.908610 0.849650
0.270000 0.892666 0.894039 0.835816
0.280000 0.876546 0.877911 0.821277
0.290000 0.858859 0.860187 0.806043
0.300000 0.839585 0.840845 0.790133
0.310000 0.818725 0.819883 0.773567
0.320000 0.796300 0.797321 0.756370
0.330000 0.772356 0.773204 0.738573
0.340000 0.746960 0.747600 0.720208
0.350000 0.720202 0.720601 0.701314
0.360000 0.692195 0.692322 0.681933
0.370000 0.663073 0.662902 0.662110
0.380000 0.632989 0.632497 0.641894
0.390000 0.602114 0.601285 0.621336
0.400000 0.570632 0.569454 0.600490
0.410000 0.538738 0.537208 0.579412
0.420000 0.506635 0.504756 0.558159
0.430000 0.474527 0.472310 0.536791
0.440000 0.442621 0.440081 0.515366
0.450000 0.411117 0.408279 0.493945
0.460000 0.380208 0.377099 0.472586
0.470000 0.350074 0.346730 0.451349
0.480000 0.320883 0.317341 0.430290
0.490000 0.292783 0.289085 0.409466
0.500000 0.265904 0.262092 0.388929
0.510000 0.240355 0.236473 0.368732
0.520000 0.216222 0.212314 0.348922
0.530000 0.193570 0.189677 0.329544
0.540000 0.172441 0.168602 0.310641
0.550000 0.152856 0.149108 0.292251
0.560000 0.134815 0.131191 0.274406
0.570000 0.118301 0.114829 0.257138
0.580000 0.103279 0.099981 0.240473
0.590000 0.089698 0.086593 0.224433
0.600000 0.077498 0.074599 0.209035
0.610000 0.066605 0.063921 0.194292
0.620000 0.056940 0.054476 0.180215
0.630000 0.048419 0.046174 0.166809
0.640000 0.040952 0.038923 0.154076
0.650000 0.034449 0.032630 0.142013
0.660000 0.028821 0.027203 0.130617
0.670000 0.023981 0.022553 0.119877
0.680000 0.019845 0.018593 0.109784
0.690000 0.016331 0.015242 0.100323
0.700000 0.013364 0.012425 0.091477
0.710000 0.010876 0.010071 0.083229
0.720000 0.008801 0.008116 0.075558
0.730000 0.007082 0.006504 0.068443
0.740000 0.005667 0.005182 0.061860
0.750000 0.004508 0.004105 0.055786
0.760000 0.003566 0.003233 0.050196
0.770000 0.002805 0.002532 0.045064
0.780000 0.002194 0.001971 0.040366
0.790000 0.001706 0.001525 0.036076
0.800000 0.001318 0.001174 0.032168
0.810000 0.001013 0.000898 0.028619
0.820000 0.000774 0.000683 0.025403
0.830000 0.000588 0.000516 0.022497
0.840000 0.000444 0.000388 0.019878
0.850000 0.000333 0.000290 0.017524
0.860000 0.000249 0.000215 0.015414
0.870000 0.000185 0.000159 0.013527
0.880000 0.000136 0.000117 0.011846
0.890000 0.000100 0.000085 0.010351
0.900000 0.000073 0.000062 0.009028
0.910000 0.000053 0.000045 0.007861
0.920000 0.000038 0.000032 0.006837
0.930000 0.000027 0.000023 0.005944
0.940000 0.000019 0.000016 0.005172
0.950000 0.000014 0.000011 0.004514
0.960000 0.000010 0.000008 0.003965
0.970000 0.000007 0.000006 0.003524
0.980000 0.000005 0.000004 0.003193
0.990000 0.000004 0.000003 0.002983
1.000000 0.000003 0.000002 0.002910
