0.000000 1.000000 1.000000 0.999985
0.010000 1.000000 1.000000 0.999966
0.020000 1.000000 1.000000 0.999926
0.030000 1.000000 1.000000 0.999877
0.040000 1.000000 1.000000 0.999819
0.050000 0.999999 0.999999 0.999751
0.060000 0.999999 0.999999 0.999671
0.070000 0.999998 0.999999 0.999578
0.080000 0.999998 0.999998 0.999470
0.090000 0.999997 0.999997 0.999346
0.100000 0.999996 0.999996 0.999204
0.110000 0.999994 0.999995 0.999041
0.120000 0.999992 0.999993 0.998856
0.130000 0.999989 0.999990 0.998645
0.140000 0.999985 0.999987 0.998408
0.150000 0.999981 0.999983 0.998140
0.160000 0.999974 0.999977 0.997839
0.170000 0.999967 0.999971 0.997501
0.180000 0.999957 0.999962 0.997124
0.190000 0.999945 0.999951 0.996703
0.200000 0.999929 0.999937 0.996234
0.210000 0.999910 0.999919 0.995714
0.220000 0.999886 0.999898 0.995139
0.230000 0.999856 0.999871 0.994502
0.240000 0.999820 0.999837 0.993801
0.250000 0.999775 0.999796 0.993029
0.260000 0.999720 0.999746 0.992181
0.270000 0.999653 0.999684 0.991252
0.280000 0.999572 0.999609 0.990235
0.290000 0.999474 0.999519 0.989125
0.300000 0.999356 0.999409 0.987916
0.310000 0.999214 0.999277 0.986599
0.320000 0.999045 0.999119 0.985170
0.330000 0.998843 0.998931 0.983620
0.340000 0.998604 0.998707 0.981942
0.350000 0.998321 0.998441 0.980130
0.360000 0.997987 0.998127 0.978174
0.370000 0.997596 0.997757 0.976068
0.380000 0.997138 0.997323 0.973804
0.390000 0.996604 0.996816 0.971373
0.400000 0.995983 0.996225 0.968767
0.410000 0.995263 0.995539 0.965978
0.420000 0.994432 0.994745 0.962997
0.430000 0.993476 0.993829 0.959817
0.440000 0.992380 0.992776 0.956430
0.450000 0.991126 0.991570 0.952826
0.460000 0.989697 0.990191 0.948998
0.470000 0.988074 0.988622 0.944937
0.480000 0.986235 0.986842 0.940637
0.490000 0.984160 0.984828 0.936089
0.500000 0.981826 0.982557 0.931286
0.510000 0.979207 0.980005 0.926221
0.520000 0.976278 0.977146 0.920887
0.530000 0.973015 0.973953 0.915278
0.540000 0.969388 0.970399 0.909387
0.550000 0.965370 0.966455 0.903210
0.560000 0.960934 0.962092 0.896742
0.570000 0.956050 0.957280 0.889977
0.580000 0.950689 0.951990 0.882912
0.590000 0.944824 0.946194 0.875543
0.600000 0.938427 0.939861 0.867869
0.610000 0.931470 0.932964 0.859887
0.620000 0.923927 0.925476 0.851596
0.630000 0.915774 0.917370 0.842996
0.640000 0.906989 0.908624 0.834087
0.650000 0.897550 0.899216 0.824871
0.660000 0.887441 0.889126 0.815349
0.670000 0.876645 0.878338 0.805525
0.680000 0.865150 0.866840 0.795403
0.690000 0.852949 0.854621 0.784987
0.700000 0.840036 0.841677 0.774283
0.710000 0.826410 0.828005 0.763300
0.720000 0.812076 0.813609 0.752043
0.730000 0.797040 0.798497 0.740524
0.740000 0.781317 0.782680 0.728751
0.750000 0.764922 0.766177 0.716737
0.760000 0.747879 0.749008 0.704493
0.770000 0.730212 0.731202 0.692036
0.780000 0.711955 0.712790 0.679379
0.790000 0.693143 0.693809 0.666541
0.800000 0.673816 0.674300 0.653541
0.810000 0.654019 0.654309 0.640401
0.820000 0.633799 0.633885 0.627143
0.830000 0.613209 0.613082 0.613795
0.840000 0.592303 0.591955 0.600388
0.850000 0.571140 0.570564 0.586955
0.860000 0.549780 0.548971 0.573535
0.870000 0.528286 0.527238 0.560174
0.880000 0.506725 0.505430 0.546924
0.890000 0.485164 0.483612 0.533846
0.900000 0.463677 0.461849 0.521011
0.910000 0.442346 0.440206 0.508505
0.920000 0.421263 0.418745 0.496429
0.930000 0.400544 0.397529 0.484903
0.940000 0.380342 0.376617 0.474073
0.950000 0.360878 0.356066 0.464113
0.960000 0.342488 0.335929 0.455236
0.970000 0.325708 0.316257 0.447698
0.980000 0.311415 0.297096 0.441811
0.990000 0.301068 0.278489 0.437951
1.000000 0.297108 0.260472 0.436581
