0.000000 1.000000 1.000000 0.999963
0.010000 1.000000 1.000000 0.999917
0.020000 0.999999 0.999999 0.999817
0.030000 0.999998 0.999998 0.999698
0.040000 0.999997 0.999997 0.999556
0.050000 0.999995 0.999996 0.999389
0.060000 0.999993 0.999994 0.999194
0.070000 0.999990 0.999991 0.998968
0.080000 0.999985 0.999987 0.998706
0.090000 0.999979 0.999981 0.998405
0.100000 0.999971 0.999974 0.998061
0.110000 0.999961 0.999965 0.997669
0.120000 0.999947 0.999952 0.997225
0.130000 0.999929 0.999936 0.996722
0.140000 0.999907 0.999916 0.996155
0.150000 0.999877 0.999889 0.995519
0.160000 0.999841 0.999856 0.994806
0.170000 0.999794 0.999813 0.994011
0.180000 0.999736 0.999759 0.993126
0.190000 0.999663 0.999692 0.992144
0.200000 0.999573 0.999609 0.991056
0.210000 0.999461 0.999505 0.989856
0.220000 0.999324 0.999378 0.988533
0.230000 0.999157 0.999222 0.987080
0.240000 0.998953 0.999031 0.985486
0.250000 0.998707 0.998800 0.983743
0.260000 0.998409 0.998520 0.981841
0.270000 0.998053 0.998184 0.979770
0.280000 0.997627 0.997781 0.977518
0.290000 0.997120 0.997301 0.975077
0.300000 0.996520 0.996730 0.972435
0.310000 0.995812 0.996056 0.969581
0.320000 0.994981 0.995261 0.966504
0.330000 0.994008 0.994330 0.963194
0.340000 0.992875 0.993242 0.959639
0.350000 0.991561 0.991976 0.955829
0.360000 0.990042 0.990511 0.951753
0.370000 0.988293 0.988820 0.947400
0.380000 0.986289 0.986877 0.942760
0.390000 0.983999 0.984652 0.937823
0.400000 0.981394 0.982116 0.932579
0.410000 0.978442 0.979236 0.927019
0.420000 0.975109 0.975978 0.921134
0.430000 0.971360 0.972306 0.914915
0.440000 0.967160 0.968184 0.908356
0.450000 0.962471 0.963573 0.901449
0.460000 0.957257 0.958436 0.894188
0.470000 0.951480 0.952735 0.886567
0.480000 0.945103 0.946430 0.878583
0.490000 0.938090 0.939485 0.870231
0.500000 0.930405 0.931862 0.861509
0.510000 0.922015 0.923527 0.852416
0.520000 0.912889 0.914447 0.842951
0.530000 0.902998 0.904592 0.833114
0.540000 0.892316 0.893935 0.822907
0.550000 0.880824 0.882453 0.812335
0.560000 0.868502 0.870129 0.801400
0.570000 0.855339 0.856947 0.790108
0.580000 0.841328 0.842900 0.778466
0.590000 0.826468 0.827987 0.766483
0.600000 0.810762 0.812210 0.754166
0.610000 0.794223 0.795580 0.741528
0.620000 0.776867 0.778115 0.728579
0.630000 0.758719 0.759839 0.715332
0.640000 0.739809 0.740782 0.701802
0.650000 0.720176 0.720984 0.688003
0.660000 0.699863 0.700490 0.673953
0.670000 0.678920 0.679350 0.659668
0.680000 0.657404 0.657623 0.645167
0.690000 0.635377 0.635372 0.630469
0.700000 0.612905 0.612666 0.615594
0.710000 0.590059 0.589579 0.600563
0.720000 0.566915 0.566187 0.585398
0.730000 0.543549 0.542570 0.570122
0.740000 0.520043 0.518813 0.554756
0.750000 0.496477 0.494997 0.539325
0.760000 0.472932 0.471209 0.523853
0.770000 0.449492 0.447531 0.508364
0.780000 0.426235 0.424048 0.492883
0.790000 0.403241 0.400839 0.477437
0.800000 0.380585 0.377983 0.462051
0.810000 0.358339 0.355554 0.446753
0.820000 0.336571 0.333621 0.431570
0.830000 0.315345 0.312249 0.416531
0.840000 0.294717 0.291497 0.401667
0.850000 0.274742 0.271418 0.387011
0.860000 0.255463 0.252059 0.372598
0.870000 0.236923 0.233458 0.358465
0.880000 0.219154 0.215650 0.344657
0.890000 0.202186 0.198660 0.331222
0.900000 0.186039 0.182507 0.318217
0.910000 0.170735 0.167205 0.305707
0.920000 0.156289 0.152759 0.293773
0.930000 0.142722 0.139168 0.282509
0.940000 0.130065 0.126428 0.272030
0.950000 0.118368 0.114527 0.262478
0.960000 0.107734 0.103447 0.254029
0.970000 0.098349 0.093169 0.246898
0.980000 0.090566 0.083668 0.241354
0.990000 0.085034 0.074916 0.237731
1.000000 0.082936 0.066881 0.236447
