0.000000 1.000000 1.000000 0.999618
0.010000 0.999959 0.999962 0.999148
0.020000 0.999895 0.999903 0.998120
0.030000 0.999802 0.999816 0.996895
0.040000 0.999668 0.999691 0.995450
0.050000 0.999481 0.999516 0.993763
0.060000 0.999225 0.999275 0.991807
0.070000 0.998883 0.998952 0.989557
0.080000 0.998429 0.998522 0.986986
0.090000 0.997838 0.997960 0.984067
0.100000 0.997077 0.997234 0.980771
0.110000 0.996109 0.996307 0.977069
0.120000 0.994888 0.995135 0.972933
0.130000 0.993367 0.993669 0.968334
0.140000 0.991489 0.991854 0.963242
0.150000 0.989190 0.989626 0.957631
0.160000 0.986403 0.986916 0.951473
0.170000 0.983051 0.983649 0.944742
0.180000 0.979054 0.979741 0.937413
0.190000 0.974325 0.975106 0.929463
0.200000 0.968774 0.969651 0.920871
0.210000 0.962309 0.963282 0.911620
0.220000 0.954836 0.955902 0.901694
0.230000 0.946260 0.947413 0.891079
0.240000 0.936491 0.937722 0.879766
0.250000 0.925442 0.926738 0.867749
0.260000 0.913034 0.914379 0.855027
0.270000 0.899197 0.900570 0.841599
0.280000 0.883873 0.885251 0.827473
0.290000 0.867019 0.868375 0.812658
0.300000 0.848608 0.849911 0.797169
0.310000 0.828630 0.829848 0.781023
0.320000 0.807098 0.808197 0.764244
0.330000 0.784045 0.784989 0.746858
0.340000 0.759524 0.760280 0.728897
0.350000 0.733615 0.734148 0.710397
0.360000 0.706416 0.706695 0.691396
0.370000 0.678049 0.678045 0.671936
0.380000 0.648654 0.648342 0.652064
0.390000 0.618389 0.617751 0.631829
0.400000 0.587429 0.586450 0.611282
0.410000 0.555958 0.554631 0.590478
0.420000 0.524172 0.522496 0.569470
0.430000 0.492271 0.490252 0.548317
0.440000 0.460456 0.458107 0.527076
0.450000 0.428926 0.426268 0.505805
0.460000 0.397876 0.394932 0.484564
0.470000 0.367490 0.364291 0.463408
0.480000 0.337938 0.334521 0.442397
0.490000 0.309378 0.305780 0.421584
0.500000 0.281947 0.278211 0.401024
0.510000 0.255765 0.251933 0.380768
0.520000 0.230930 0.227045 0.360865
0.530000 0.207519 0.203622 0.341362
0.540000 0.185585 0.181718 0.322301
0.550000 0.165164 0.161363 0.303722
0.560000 0.146267 0.142568 0.285660
0.570000 0.128888 0.125322 0.268148
0.580000 0.113005 0.109597 0.251214
0.590000 0.098577 0.095348 0.234882
0.600000 0.085552 0.082519 0.219171
0.610000 0.073866 0.071040 0.204099
0.620000 0.063444 0.060834 0.189676
0.630000 0.054208 0.051815 0.175912
0.640000 0.046073 0.043897 0.162809
0.650000 0.038951 0.036987 0.150370
0.660000 0.032754 0.030996 0.138590
0.670000 0.027395 0.025833 0.127465
0.680000 0.022789 0.021412 0.116984
0.690000 0.018855 0.017649 0.107137
0.700000 0.015515 0.014467 0.097909
0.710000 0.012696 0.011793 0.089284
0.720000 0.010332 0.009559 0.081242
0.730000 0.008362 0.007705 0.073764
0.740000 0.006730 0.006175 0.066829
0.750000 0.005386 0.004921 0.060413
0.760000 0.004287 0.003900 0.054492
0.770000 0.003392 0.003073 0.049044
0.780000 0.002670 0.002407 0.044042
0.790000 0.002089 0.001875 0.039462
0.800000 0.001625 0.001452 0.035280
0.810000 0.001257 0.001118 0.031471
0.820000 0.000967 0.000856 0.028009
0.830000 0.000739 0.000652 0.024873
0.840000 0.000562 0.000493 0.022038
0.850000 0.000425 0.000371 0.019482
0.860000 0.000319 0.000278 0.017185
0.870000 0.000239 0.000206 0.015125
0.880000 0.000177 0.000153 0.013284
0.890000 0.000131 0.000112 0.011643
0.900000 0.000096 0.000082 0.010186
0.910000 0.000070 0.000060 0.008897
0.920000 0.000051 0.000043 0.007762
0.930000 0.000037 0.000031 0.006770
0.940000 0.000026 0.000022 0.005910
0.950000 0.000019 0.000016 0.005175
0.960000 0.000013 0.000011 0.004561
0.970000 0.000009 0.000008 0.004066
0.980000 0.000007 0.000005 0.003695
0.990000 0.000005 0.000004 0.003459
1.000000 0.000005 0.000003 0.003376
