0.000000 1.000000 1.000000 0.964827
0.010000 0.914668 0.913973 0.922409
0.020000 0.798848 0.796167 0.832972
0.030000 0.661384 0.655887 0.735133
0.040000 0.515838 0.507672 0.633068
0.050000 0.376953 0.367259 0.531216
0.060000 0.256851 0.247263 0.433790
0.070000 0.162462 0.154413 0.344336
0.080000 0.094973 0.089206 0.265418
0.090000 0.051080 0.047574 0.198480
0.100000 0.025149 0.023382 0.143870
0.110000 0.011269 0.010576 0.101004
0.120000 0.004562 0.004398 0.068627
0.130000 0.001654 0.001680 0.045095
0.140000 0.000530 0.000589 0.028638
0.150000 0.000147 0.000189 0.017565
0.160000 0.000034 0.000056 0.010398
0.170000 0.000006 0.000015 0.005937
0.180000 0.000001 0.000004 0.003267
0.190000 0.000000 0.000001 0.001732
0.200000 -0.000000 0.000000 0.000884
0.210000 -0.000000 0.000000 0.000434
0.220000 -0.000000 0.000000 0.000205
0.230000 0.000000 0.000000 0.000093
0.240000 0.000000 0.000000 0.000040
0.250000 -0.000000 0.000000 0.000017
0.260000 -0.000000 0.000000 0.000007
0.270000 -0.000000 0.000000 0.000003
0.280000 0.000000 0.000000 0.000001
0.290000 0.000000 0.000000 0.000000
0.300000 -0.000000 0.000000 0.000000
0.310000 -0.000000 0.000000 0.000000
0.320000 0.000000 0.000000 0.000000
0.330000 0.000000 0.000000 0.000000
0.340000 -0.000000 0.000000 0.000000
0.350000 -0.000000 0.000000 0.000000
0.360000 0.000000 0.000000 0.000000
0.370000 0.000000 0.000000 0.000000
0.380000 -0.000000 0.000000 0.000000
0.390000 0.000000 0.000000 0.000000
0.400000 0.000000 0.000000 0.000000
0.410000 -0.000000 0.000000 0.000000
0.420000 -0.000000 0.000000 0.000000
0.430000 0.000000 0.000000 0.000000
0.440000 0.000000 0.000000 0.000000
0.450000 -0.000000 0.000000 0.000000
0.460000 0.000000 0.000000 0.000000
0.470000 0.000000 0.000000 0.000000
0.480000 -0.000000 0.000000 0.000000
0.490000 0.000000 0.000000 0.000000
0.500000 0.000000 0.000000 0.000000
0.510000 -0.000000 0.000000 0.000000
0.520000 0.000000 0.000000 0.000000
0.530000 0.000000 0.000000 0.000000
0.540000 -0.000000 0.000000 0.000000
0.550000 0.000000 0.000000 0.000000
0.560000 0.000000 0.000000 0.000000
0.570000 -0.000000 0.000000 0.000000
0.580000 0.000000 0.000000 0.000000
0.590000 0.000000 0.000000 0.000000
0.600000 -0.000000 0.000000 0.000000
0.610000 0.000000 0.000000 0.000000
0.620000 0.000000 0.000000 0.000000
0.630000 -0.000000 0.000000 0.000000
0.640000 0.000000 0.000000 0.000000
0.650000 0.000000 0.000000 0.000000
0.660000 -0.000000 0.000000 0.000000
0.670000 0.000000 0.000000 0.000000
0.680000 -0.000000 0.000000 0.000000
0.690000 -0.000000 0.000000 0.000000
0.700000 0.000000 0.000000 0.000000
0.710000 -0.000000 0.000000 0.000000
0.720000 -0.000000 0.000000 0.000000
0.730000 0.000000 0.000000 0.000000
0.740000 -0.000000 0.000000 0.000000
0.750000 0.000000 0.000000 0.000000
0.760000 0.000000 0.000000 0.000000
0.770000 -0.000000 0.000000 0.000000
0.780000 0.000000 0.000000 0.000000
0.790000 -0.000000 0.000000 0.000000
0.800000 -0.000000 0.000000 0.000000
0.810000 0.000000 0.000000 0.000000
0.820000 -0.000000 0.000000 0.000000
0.830000 0.000000 0.000000 0.000000
0.840000 0.000000 0.000000 0.000000
0.850000 -0.000000 0.000000 0.000000
0.860000 0.000000 0.000000 0.000000
0.870000 -0.000000 0.000000 0.000000
0.880000 0.000000 0.000000 0.000000
0.890000 0.000000 0.000000 0.000000
0.900000 -0.000000 0.000000 0.000000
0.910000 0.000000 0.000000 0.000000
0.920000 -0.000000 0.000000 0.000000
0.930000 -0.000000 0.000000 0.000000
0.940000 0.000000 0.000000 0.000000
0.950000 -0.000000 0.000000 0.000000
0.960000 0.000000 0.000000 0.000000
0.970000 -0.000000 0.000000 0.000000
0.980000 -0.000000 0.000000 0.000000
0.990000 0.000000 0.000000 0.000000
1.000000 -0.000000 0.000000 0.000000
