0.000000 1.000000 1.000000 0.999851
0.010000 0.999994 0.999994 0.999668
0.020000 0.999984 0.999985 0.999267
0.030000 0.999969 0.999972 0.998789
0.040000 0.999948 0.999953 0.998223
0.050000 0.999919 0.999926 0.997559
0.060000 0.999878 0.999889 0.996786
0.070000 0.999823 0.999838 0.995893
0.080000 0.999749 0.999770 0.994867
0.090000 0.999652 0.999679 0.993694
0.100000 0.999524 0.999560 0.992361
0.110000 0.999358 0.999405 0.990852
0.120000 0.999146 0.999206 0.989153
0.130000 0.998876 0.998953 0.987247
0.140000 0.998536 0.998632 0.985118
0.150000 0.998110 0.998229 0.982748
0.160000 0.997581 0.997727 0.980121
0.170000 0.996929 0.997106 0.977217
0.180000 0.996131 0.996344 0.974019
0.190000 0.995160 0.995414 0.970508
0.200000 0.993986 0.994287 0.966666
0.210000 0.992577 0.992931 0.962475
0.220000 0.990896 0.991308 0.957915
0.230000 0.988902 0.989377 0.952970
0.240000 0.986551 0.987095 0.947621
0.250000 0.983795 0.984414 0.941851
0.260000 0.980583 0.981281 0.935645
0.270000 0.976861 0.977643 0.928987
0.280000 0.972573 0.973440 0.921863
0.290000 0.967658 0.968612 0.914259
0.300000 0.962057 0.963098 0.906163
0.310000 0.955707 0.956834 0.897566
0.320000 0.948548 0.949757 0.888459
0.330000 0.940519 0.941804 0.878835
0.340000 0.931561 0.932915 0.868689
0.350000 0.921620 0.923032 0.858018
0.360000 0.910644 0.912102 0.846821
0.370000 0.898589 0.900077 0.835099
0.380000 0.885416 0.886916 0.822858
0.390000 0.871093 0.872587 0.810101
0.400000 0.855601 0.857066 0.796839
0.410000 0.838928 0.840340 0.783081
0.420000 0.821073 0.822408 0.768842
0.430000 0.802048 0.803280 0.754137
0.440000 0.781879 0.782980 0.738985
0.450000 0.760600 0.761546 0.723405
0.460000 0.738263 0.739027 0.707422
0.470000 0.714929 0.715487 0.691060
0.480000 0.690674 0.691003 0.674346
0.490000 0.665585 0.665665 0.657309
0.500000 0.639759 0.639572 0.639981
0.510000 0.613303 0.612836 0.622393
0.520000 0.586335 0.585576 0.604580
0.530000 0.558977 0.557920 0.586577
0.540000 0.531356 0.529999 0.568420
0.550000 0.503605 0.501951 0.550146
0.560000 0.475858 0.473913 0.531794
0.570000 0.448246 0.446022 0.513400
0.580000 0.420902 0.418413 0.495003
0.590000 0.393951 0.391217 0.476642
0.600000 0.367516 0.364559 0.458354
0.610000 0.341708 0.338555 0.440176
0.620000 0.316635 0.313312 0.422144
0.630000 0.292390 0.288927 0.404295
0.640000 0.269057 0.265486 0.386662
0.650000 0.246708 0.243062 0.369279
0.660000 0.225404 0.221713 0.352176
0.670000 0.205191 0.201486 0.335384
0.680000 0.186104 0.182416 0.318929
0.690000 0.168166 0.164523 0.302839
0.700000 0.151387 0.147815 0.287137
0.710000 0.135765 0.132289 0.271844
0.720000 0.121291 0.117931 0.256980
0.730000 0.107941 0.104716 0.242561
0.740000 0.095688 0.092613 0.228603
0.750000 0.084493 0.081580 0.215118
0.760000 0.074314 0.071572 0.202117
0.770000 0.065101 0.062537 0.189607
0.780000 0.056803 0.054419 0.177593
0.790000 0.049363 0.047160 0.166081
0.800000 0.042724 0.040701 0.155070
0.810000 0.036827 0.034980 0.144562
0.820000 0.031614 0.029938 0.134553
0.830000 0.027028 0.025516 0.125041
0.840000 0.023011 0.021655 0.116021
0.850000 0.019510 0.018300 0.107487
0.860000 0.016473 0.015399 0.099431
0.870000 0.013850 0.012903 0.091848
0.880000 0.011596 0.010765 0.084730
0.890000 0.009668 0.008943 0.078071
0.900000 0.008026 0.007397 0.071866
0.910000 0.006635 0.006092 0.066112
0.920000 0.005462 0.004996 0.060810
0.930000 0.004478 0.004079 0.055967
0.940000 0.003656 0.003316 0.051593
0.950000 0.002976 0.002683 0.047711
0.960000 0.002418 0.002162 0.044356
0.970000 0.001970 0.001735 0.041577
0.980000 0.001626 0.001385 0.039449
0.990000 0.001395 0.001102 0.038071
1.000000 0.001309 0.000872 0.037585
