0.000000 1.000000 1.000000 0.999924
0.010000 0.999998 0.999999 0.999830
0.020000 0.999996 0.999996 0.999624
0.030000 0.999992 0.999993 0.999377
0.040000 0.999987 0.999988 0.999086
0.050000 0.999979 0.999981 0.998743
0.060000 0.999968 0.999972 0.998343
0.070000 0.999954 0.999958 0.997880
0.080000 0.999934 0.999941 0.997347
0.090000 0.999908 0.999917 0.996735
0.100000 0.999874 0.999885 0.996037
0.110000 0.999829 0.999844 0.995244
0.120000 0.999771 0.999791 0.994347
0.130000 0.999696 0.999722 0.993337
0.140000 0.999601 0.999633 0.992204
0.150000 0.999480 0.999521 0.990936
0.160000 0.999329 0.999380 0.989523
0.170000 0.999140 0.999204 0.987953
0.180000 0.998906 0.998984 0.986213
0.190000 0.998617 0.998712 0.984293
0.200000 0.998263 0.998378 0.982177
0.210000 0.997831 0.997969 0.979855
0.220000 0.997307 0.997473 0.977310
0.230000 0.996676 0.996872 0.974531
0.240000 0.995919 0.996150 0.971503
0.250000 0.995016 0.995286 0.968212
0.260000 0.993944 0.994258 0.964644
0.270000 0.992677 0.993040 0.960785
0.280000 0.991189 0.991605 0.956620
0.290000 0.989449 0.989923 0.952136
0.300000 0.987423 0.987961 0.947319
0.310000 0.985076 0.985682 0.942156
0.320000 0.982371 0.983048 0.936634
0.330000 0.979266 0.980019 0.930742
0.340000 0.975719 0.976551 0.924467
0.350000 0.971686 0.972599 0.917799
0.360000 0.967121 0.968117 0.910728
0.370000 0.961977 0.963055 0.903244
0.380000 0.956206 0.957365 0.895341
0.390000 0.949761 0.950998 0.887011
0.400000 0.942594 0.943906 0.878249
0.410000 0.934660 0.936040 0.869050
0.420000 0.925914 0.927356 0.859412
0.430000 0.916317 0.917809 0.849334
0.440000 0.905829 0.907361 0.838815
0.450000 0.894418 0.895976 0.827858
0.460000 0.882055 0.883624 0.816466
0.470000 0.868719 0.870281 0.804644
0.480000 0.854393 0.855931 0.792400
0.490000 0.839070 0.840563 0.779742
0.500000 0.822748 0.824175 0.766680
0.510000 0.805436 0.806776 0.753226
0.520000 0.787150 0.788381 0.739394
0.530000 0.767917 0.769016 0.725201
0.540000 0.747772 0.748717 0.710662
0.550000 0.726758 0.727529 0.695797
0.560000 0.704930 0.705506 0.680627
0.570000 0.682350 0.682712 0.665171
0.580000 0.659088 0.659219 0.649455
0.590000 0.635221 0.635107 0.633501
0.600000 0.610836 0.610465 0.617336
0.610000 0.586022 0.585386 0.600986
0.620000 0.560876 0.559968 0.584478
0.630000 0.535497 0.534316 0.567840
0.640000 0.509988 0.508534 0.551101
0.650000 0.484453 0.482730 0.534290
0.660000 0.458994 0.457011 0.517436
0.670000 0.433716 0.431483 0.500570
0.680000 0.408719 0.406250 0.483719
0.690000 0.384100 0.381412 0.466915
0.700000 0.359950 0.357063 0.450186
0.710000 0.336358 0.333293 0.433561
0.720000 0.313403 0.310184 0.417067
0.730000 0.291157 0.287810 0.400734
0.740000 0.269687 0.266237 0.384587
0.750000 0.249048 0.245522 0.368652
0.760000 0.229288 0.225712 0.352953
0.770000 0.210445 0.206846 0.337516
0.780000 0.192549 0.188952 0.322362
0.790000 0.175622 0.172051 0.307513
0.800000 0.159673 0.156152 0.292989
0.810000 0.144708 0.141257 0.278811
0.820000 0.130722 0.127361 0.264995
0.830000 0.117702 0.114448 0.251560
0.840000 0.105631 0.102499 0.238523
0.850000 0.094485 0.091487 0.225901
0.860000 0.084233 0.081380 0.213709
0.870000 0.074842 0.072141 0.201968
0.880000 0.066273 0.063730 0.190694
0.890000 0.058487 0.056104 0.179910
0.900000 0.051440 0.049219 0.169641
0.910000 0.045089 0.043026 0.159917
0.920000 0.039390 0.037481 0.150776
0.930000 0.034301 0.032534 0.142267
0.940000 0.029783 0.028140 0.134449
0.950000 0.025803 0.024252 0.127402
0.960000 0.022344 0.020826 0.121227
0.970000 0.019411 0.017820 0.116057
0.980000 0.017058 0.015192 0.112061
0.990000 0.015424 0.012905 0.109461
1.000000 0.014811 0.010922 0.108541
