0.000000 1.000000 1.000000 0.999739
0.010000 0.999980 0.999982 0.999417
0.020000 0.999950 0.999954 0.998713
0.030000 0.999906 0.999913 0.997873
0.040000 0.999842 0.999854 0.996882
0.050000 0.999752 0.999771 0.995722
0.060000 0.999629 0.999656 0.994374
0.070000 0.999463 0.999501 0.992821
0.080000 0.999242 0.999294 0.991042
0.090000 0.998952 0.999021 0.989016
0.100000 0.998577 0.998665 0.986721
0.110000 0.998094 0.998208 0.984135
0.120000 0.997482 0.997626 0.981235
0.130000 0.996712 0.996891 0.977997
0.140000 0.995752 0.995972 0.974398
0.150000 0.994565 0.994832 0.970414
0.160000 0.993110 0.993431 0.966022
0.170000 0.991340 0.991722 0.961196
0.180000 0.989204 0.989653 0.955915
0.190000 0.986645 0.987167 0.950155
0.200000 0.983601 0.984203 0.943895
0.210000 0.980006 0.980693 0.937113
0.220000 0.975791 0.976566 0.929791
0.230000 0.970880 0.971747 0.921911
0.240000 0.965197 0.966156 0.913456
0.250000 0.958665 0.959715 0.904413
0.260000 0.951204 0.952342 0.894768
0.270000 0.942737 0.943957 0.884513
0.280000 0.933190 0.934482 0.873641
0.290000 0.922490 0.923843 0.862148
0.300000 0.910575 0.911973 0.850032
0.310000 0.897385 0.898811 0.837295
0.320000 0.882874 0.884306 0.823942
0.330000 0.867006 0.868420 0.809982
0.340000 0.849757 0.851126 0.795427
0.350000 0.831118 0.832415 0.780291
0.360000 0.811097 0.812291 0.764593
0.370000 0.789718 0.790777 0.748356
0.380000 0.767021 0.767915 0.731603
0.390000 0.743065 0.743764 0.714364
0.400000 0.717927 0.718402 0.696670
0.410000 0.691701 0.691925 0.678556
0.420000 0.664495 0.664445 0.660058
0.430000 0.636436 0.636091 0.641215
0.440000 0.607661 0.607005 0.622071
0.450000 0.578319 0.577343 0.602668
0.460000 0.548569 0.547266 0.583051
0.470000 0.518575 0.516946 0.563267
0.480000 0.488506 0.486556 0.543365
0.490000 0.458530 0.456271 0.523392
0.500000 0.428815 0.426264 0.503397
0.510000 0.399523 0.396702 0.483428
0.520000 0.370810 0.367745 0.463535
0.530000 0.342819 0.339541 0.443764
0.540000 0.315686 0.312228 0.424162
0.550000 0.289530 0.285927 0.404774
0.560000 0.264454 0.260745 0.385645
0.570000 0.240549 0.236770 0.366815
0.580000 0.217884 0.214074 0.348324
0.590000 0.196514 0.192709 0.330209
0.600000 0.176477 0.172711 0.312504
0.610000 0.157791 0.154098 0.295242
0.620000 0.140464 0.136871 0.278450
0.630000 0.124482 0.121017 0.262155
0.640000 0.109824 0.106508 0.246378
0.650000 0.096453 0.093304 0.231140
0.660000 0.084324 0.081356 0.216457
0.670000 0.073380 0.070604 0.202341
0.680000 0.063561 0.060983 0.188802
0.690000 0.054798 0.052422 0.175846
0.700000 0.047022 0.044846 0.163479
0.710000 0.040158 0.038180 0.151699
0.720000 0.034133 0.032347 0.140506
0.730000 0.028873 0.027272 0.129895
0.740000 0.024306 0.022880 0.119859
0.750000 0.020363 0.019101 0.110389
0.760000 0.016976 0.015867 0.101473
0.770000 0.014084 0.013116 0.093099
0.780000 0.011627 0.010787 0.085252
0.790000 0.009552 0.008828 0.077916
0.800000 0.007808 0.007188 0.071073
0.810000 0.006351 0.005823 0.064705
0.820000 0.005140 0.004693 0.058794
0.830000 0.004139 0.003764 0.053318
0.840000 0.003316 0.003003 0.048259
0.850000 0.002643 0.002384 0.043596
0.860000 0.002097 0.001883 0.039308
0.870000 0.001655 0.001479 0.035377
0.880000 0.001299 0.001156 0.031781
0.890000 0.001015 0.000899 0.028504
0.900000 0.000789 0.000696 0.025528
0.910000 0.000610 0.000535 0.022836
0.920000 0.000469 0.000410 0.020415
0.930000 0.000359 0.000312 0.018254
0.940000 0.000273 0.000237 0.016344
0.950000 0.000207 0.000178 0.014681
0.960000 0.000157 0.000134 0.013269
0.970000 0.000118 0.000100 0.012116
0.980000 0.000091 0.000074 0.011242
0.990000 0.000073 0.000055 0.010681
1.000000 0.000066 0.000040 0.010484
