0.000000 1.000000 1.000000 0.999884
0.010000 0.999996 0.999997 0.999741
0.020000 0.999990 0.999991 0.999428
0.030000 0.999981 0.999983 0.999055
0.040000 0.999969 0.999972 0.998612
0.050000 0.999951 0.999955 0.998094
0.060000 0.999926 0.999933 0.997489
0.070000 0.999892 0.999902 0.996790
0.080000 0.999847 0.999860 0.995985
0.090000 0.999787 0.999805 0.995064
0.100000 0.999709 0.999732 0.994016
0.110000 0.999606 0.999637 0.992828
0.120000 0.999475 0.999515 0.991488
0.130000 0.999307 0.999358 0.989982
0.140000 0.999094 0.999158 0.988296
0.150000 0.998826 0.998907 0.986417
0.160000 0.998492 0.998592 0.984328
0.170000 0.998078 0.998201 0.982015
0.180000 0.997569 0.997717 0.979462
0.190000 0.996946 0.997125 0.976652
0.200000 0.996189 0.996403 0.973569
0.210000 0.995274 0.995528 0.970197
0.220000 0.994176 0.994474 0.966519
0.230000 0.992865 0.993213 0.962518
0.240000 0.991308 0.991711 0.958178
0.250000 0.989469 0.989934 0.953482
0.260000 0.987311 0.987841 0.948414
0.270000 0.984791 0.985392 0.942959
0.280000 0.981864 0.982540 0.937103
0.290000 0.978481 0.979238 0.930830
0.300000 0.974594 0.975432 0.924127
0.310000 0.970148 0.971071 0.916983
0.320000 0.965089 0.966098 0.909385
0.330000 0.959363 0.960457 0.901324
0.340000 0.952914 0.954090 0.892791
0.350000 0.945685 0.946941 0.883779
0.360000 0.937624 0.938952 0.874283
0.370000 0.928677 0.930070 0.864298
0.380000 0.918796 0.920243 0.853822
0.390000 0.907935 0.909425 0.842856
0.400000 0.896056 0.897573 0.831400
0.410000 0.883124 0.884651 0.819459
0.420000 0.869113 0.870632 0.807039
0.430000 0.854004 0.855494 0.794148
0.440000 0.837788 0.839228 0.780795
0.450000 0.820466 0.821831 0.766994
0.460000 0.802048 0.803315 0.752758
0.470000 0.782557 0.783701 0.738104
0.480000 0.762025 0.763021 0.723051
0.490000 0.740496 0.741320 0.707619
0.500000 0.718026 0.718655 0.691831
0.510000 0.694682 0.695095 0.675711
0.520000 0.670541 0.670717 0.659286
0.530000 0.645689 0.645612 0.642582
0.540000 0.620223 0.619878 0.625630
0.550000 0.594245 0.593621 0.608460
0.560000 0.567865 0.566956 0.591102
0.570000 0.541199 0.540001 0.573590
0.580000 0.514366 0.512878 0.555958
0.590000 0.487485 0.485713 0.538238
0.600000 0.460678 0.458631 0.520466
0.610000 0.434065 0.431755 0.502676
0.620000 0.407764 0.405206 0.484902
0.630000 0.381886 0.379100 0.467179
0.640000 0.356540 0.353548 0.449541
0.650000 0.331824 0.328651 0.432021
0.660000 0.307832 0.304505 0.414653
0.670000 0.284645 0.281192 0.397467
0.680000 0.262337 0.258787 0.380495
0.690000 0.240970 0.237353 0.363765
0.700000 0.220594 0.216939 0.347306
0.710000 0.201250 0.197587 0.331145
0.720000 0.182968 0.179324 0.315306
0.730000 0.165765 0.162166 0.299813
0.740000 0.149650 0.146121 0.284686
0.750000 0.134620 0.131183 0.269945
0.760000 0.120665 0.117340 0.255608
0.770000 0.107764 0.104568 0.241690
0.780000 0.095892 0.092839 0.228205
0.790000 0.085014 0.082115 0.215165
0.800000 0.075090 0.072355 0.202579
0.810000 0.066078 0.063512 0.190456
0.820000 0.057929 0.055536 0.178802
0.830000 0.050594 0.048374 0.167622
0.840000 0.044019 0.041973 0.156919
0.850000 0.038153 0.036276 0.146697
0.860000 0.032941 0.031230 0.136958
0.870000 0.028332 0.026780 0.127703
0.880000 0.024273 0.022873 0.118934
0.890000 0.020715 0.019459 0.110655
0.900000 0.017610 0.016488 0.102870
0.910000 0.014911 0.013915 0.095589
0.920000 0.012578 0.011696 0.088823
0.930000 0.010569 0.009792 0.082593
0.940000 0.008850 0.008164 0.076927
0.950000 0.007390 0.006780 0.071865
0.960000 0.006163 0.005607 0.067464
0.970000 0.005155 0.004618 0.063802
0.980000 0.004368 0.003788 0.060986
0.990000 0.003831 0.003095 0.059160
1.000000 0.003631 0.002518 0.058515
