0.000000 1.000000 1.000000 0.999684
0.010000 0.999972 0.999974 0.999295
0.020000 0.999928 0.999933 0.998444
0.030000 0.999863 0.999873 0.997429
0.040000 0.999770 0.999787 0.996232
0.050000 0.999640 0.999666 0.994832
0.060000 0.999463 0.999500 0.993208
0.070000 0.999224 0.999275 0.991338
0.080000 0.998906 0.998976 0.989198
0.090000 0.998492 0.998583 0.986764
0.100000 0.997955 0.998074 0.984012
0.110000 0.997270 0.997421 0.980916
0.120000 0.996403 0.996592 0.977450
0.130000 0.995317 0.995551 0.973587
0.140000 0.993969 0.994254 0.969302
0.150000 0.992311 0.992655 0.964569
0.160000 0.990289 0.990698 0.959362
0.170000 0.987843 0.988325 0.953655
0.180000 0.984907 0.985468 0.947425
0.190000 0.981412 0.982058 0.940647
0.200000 0.977281 0.978016 0.933302
0.210000 0.972434 0.973262 0.925367
0.220000 0.966789 0.967710 0.916825
0.230000 0.960259 0.961275 0.907660
0.240000 0.952761 0.953866 0.897859
0.250000 0.944208 0.945397 0.887409
0.260000 0.934517 0.935782 0.876304
0.270000 0.923612 0.924939 0.864539
0.280000 0.911420 0.912794 0.852111
0.290000 0.897879 0.899280 0.839022
0.300000 0.882937 0.884343 0.825279
0.310000 0.866555 0.867940 0.810889
0.320000 0.848707 0.850043 0.795868
0.330000 0.829386 0.830642 0.780230
0.340000 0.808601 0.809746 0.763996
0.350000 0.786380 0.787381 0.747192
0.360000 0.762772 0.763595 0.729845
0.370000 0.737844 0.738458 0.711987
0.380000 0.711685 0.712059 0.693652
0.390000 0.684400 0.684507 0.674880
0.400000 0.656114 0.655931 0.655711
0.410000 0.626969 0.626474 0.636189
0.420000 0.597118 0.596298 0.616361
0.430000 0.566729 0.565575 0.596274
0.440000 0.535977 0.534485 0.575980
0.450000 0.505044 0.503217 0.555530
0.460000 0.474113 0.471961 0.534975
0.470000 0.443369 0.440907 0.514370
0.480000 0.412992 0.410240 0.493767
0.490000 0.383154 0.380139 0.473220
0.500000 0.354019 0.350772 0.452780
0.510000 0.325737 0.322292 0.432500
0.520000 0.298446 0.294841 0.412429
0.530000 0.272264 0.268538 0.392615
0.540000 0.247294 0.243487 0.373104
0.550000 0.223618 0.219770 0.353941
0.560000 0.201302 0.197452 0.335167
0.570000 0.180389 0.176575 0.316819
0.580000 0.160905 0.157162 0.298934
0.590000 0.142858 0.139217 0.281543
0.600000 0.126240 0.122729 0.264674
0.610000 0.111026 0.107669 0.248353
0.620000 0.097178 0.093995 0.232602
0.630000 0.084647 0.081652 0.217437
0.640000 0.073373 0.070578 0.202873
0.650000 0.063289 0.060700 0.188921
0.660000 0.054321 0.051941 0.175589
0.670000 0.046392 0.044221 0.162879
0.680000 0.039423 0.037456 0.150794
0.690000 0.033331 0.031563 0.139330
0.700000 0.028039 0.026460 0.128482
0.710000 0.023466 0.022067 0.118242
0.720000 0.019539 0.018308 0.108600
0.730000 0.016185 0.015109 0.099543
0.740000 0.013338 0.012404 0.091057
0.750000 0.010934 0.010129 0.083124
0.760000 0.008917 0.008228 0.075727
0.770000 0.007234 0.006648 0.068847
0.780000 0.005838 0.005343 0.062462
0.790000 0.004686 0.004271 0.056552
0.800000 0.003742 0.003396 0.051095
0.810000 0.002972 0.002685 0.046069
0.820000 0.002348 0.002112 0.041450
0.830000 0.001845 0.001652 0.037216
0.840000 0.001442 0.001286 0.033345
0.850000 0.001121 0.000995 0.029815
0.860000 0.000866 0.000766 0.026603
0.870000 0.000666 0.000586 0.023690
0.880000 0.000510 0.000446 0.021055
0.890000 0.000388 0.000338 0.018678
0.900000 0.000293 0.000254 0.016542
0.910000 0.000221 0.000190 0.014630
0.920000 0.000165 0.000142 0.012928
0.930000 0.000123 0.000105 0.011424
0.940000 0.000091 0.000077 0.010106
0.950000 0.000067 0.000057 0.008969
0.960000 0.000049 0.000041 0.008010
0.970000 0.000036 0.000030 0.007232
0.980000 0.000027 0.000022 0.006646
0.990000 0.000021 0.000015 0.006271
1.000000 0.000019 0.000011 0.006140
