0.000000 1.000000 1.000000 0.998350
0.010000 0.999347 0.999378 0.996319
0.020000 0.998349 0.998424 0.991891
0.030000 0.996899 0.997029 0.986645
0.040000 0.994866 0.995065 0.980509
0.050000 0.992099 0.992381 0.973413
0.060000 0.988426 0.988804 0.965291
0.070000 0.983657 0.984142 0.956080
0.080000 0.977583 0.978183 0.945725
0.090000 0.969985 0.970702 0.934176
0.100000 0.960636 0.961468 0.921391
0.110000 0.949312 0.950248 0.907339
0.120000 0.935795 0.936817 0.891999
0.130000 0.919890 0.920968 0.875361
0.140000 0.901426 0.902525 0.857430
0.150000 0.880274 0.881347 0.838221
0.160000 0.856352 0.857345 0.817763
0.170000 0.829635 0.830489 0.796100
0.180000 0.800160 0.800812 0.773290
0.190000 0.768032 0.768419 0.749402
0.200000 0.733427 0.733488 0.724519
0.210000 0.696588 0.696267 0.698736
0.220000 0.657820 0.657072 0.672160
0.230000 0.617488 0.616279 0.644905
0.240000 0.576001 0.574311 0.617095
0.250000 0.533801 0.531628 0.588860
0.260000 0.491353 0.488711 0.560334
0.270000 0.449125 0.446043 0.531656
0.280000 0.407575 0.404099 0.502964
0.290000 0.367136 0.363326 0.474394
0.300000 0.328206 0.324131 0.446083
0.310000 0.291131 0.286868 0.418160
0.320000 0.256202 0.251831 0.390749
0.330000 0.223647 0.219248 0.363966
0.340000 0.193628 0.189279 0.337919
0.350000 0.166241 0.162012 0.312703
0.360000 0.141521 0.137475 0.288405
0.370000 0.119445 0.115632 0.265099
0.380000 0.099937 0.096398 0.242845
0.390000 0.082881 0.079644 0.221693
0.400000 0.068126 0.065206 0.201680
0.410000 0.055496 0.052899 0.182829
0.420000 0.044799 0.042519 0.165152
0.430000 0.035833 0.033860 0.148652
0.440000 0.028398 0.026712 0.133318
0.450000 0.022296 0.020875 0.119132
0.460000 0.017342 0.016159 0.106067
0.470000 0.013362 0.012390 0.094087
0.480000 0.010198 0.009409 0.083151
0.490000 0.007709 0.007077 0.073212
0.500000 0.005771 0.005271 0.064220
0.510000 0.004279 0.003889 0.056120
0.520000 0.003142 0.002841 0.048856
0.530000 0.002284 0.002055 0.042370
0.540000 0.001645 0.001472 0.036604
0.550000 0.001172 0.001044 0.031502
0.560000 0.000827 0.000733 0.027006
0.570000 0.000578 0.000510 0.023062
0.580000 0.000400 0.000351 0.019618
0.590000 0.000274 0.000239 0.016622
0.600000 0.000186 0.000161 0.014029
0.610000 0.000125 0.000108 0.011794
0.620000 0.000083 0.000071 0.009876
0.630000 0.000054 0.000047 0.008237
0.640000 0.000035 0.000030 0.006842
0.650000 0.000023 0.000019 0.005661
0.660000 0.000015 0.000012 0.004666
0.670000 0.000009 0.000008 0.003829
0.680000 0.000006 0.000005 0.003131
0.690000 0.000004 0.000003 0.002549
0.700000 0.000002 0.000002 0.002067
0.710000 0.000001 0.000001 0.001669
0.720000 0.000001 0.000001 0.001343
0.730000 0.000000 0.000000 0.001076
0.740000 0.000000 0.000000 0.000858
0.750000 0.000000 0.000000 0.000682
0.760000 0.000000 0.000000 0.000539
0.770000 0.000000 0.000000 0.000425
0.780000 0.000000 0.000000 0.000334
0.790000 0.000000 0.000000 0.000261
0.800000 0.000000 0.000000 0.000203
0.810000 0.000000 0.000000 0.000157
0.820000 0.000000 0.000000 0.000121
0.830000 0.000000 0.000000 0.000093
0.840000 0.000000 0.000000 0.000071
0.850000 0.000000 0.000000 0.000054
0.860000 0.000000 0.000000 0.000041
0.870000 0.000000 0.000000 0.000031
0.880000 0.000000 0.000000 0.000024
0.890000 0.000000 0.000000 0.000018
0.900000 0.000000 0.000000 0.000013
0.910000 0.000000 0.000000 0.000010
0.920000 0.000000 0.000000 0.000007
0.930000 0.000000 0.000000 0.000005
0.940000 0.000000 0.000000 0.000004
0.950000 0.000000 0.000000 0.000003
0.960000 0.000000 0.000000 0.000002
0.970000 0.000000 0.000000 0.000002
0.980000 0.000000 0.000000 0.000001
0.990000 0.000000 0.000000 0.000001
1.000000 0.000000 0.000000 0.000001
