0.000000 1.000000 1.000000 0.999823
0.010000 0.999991 0.999992 0.999604
0.020000 0.999977 0.999979 0.999125
0.030000 0.999956 0.999960 0.998553
0.040000 0.999926 0.999933 0.997878
0.050000 0.999884 0.999894 0.997086
0.060000 0.999827 0.999841 0.996165
0.070000 0.999748 0.999768 0.995102
0.080000 0.999644 0.999671 0.993880
0.090000 0.999506 0.999542 0.992486
0.100000 0.999326 0.999374 0.990903
0.110000 0.999093 0.999155 0.989114
0.120000 0.998795 0.998875 0.987101
0.130000 0.998418 0.998519 0.984847
0.140000 0.997944 0.998069 0.982332
0.150000 0.997353 0.997507 0.979537
0.160000 0.996621 0.996810 0.976443
0.170000 0.995723 0.995950 0.973030
0.180000 0.994627 0.994900 0.969278
0.190000 0.993301 0.993624 0.965167
0.200000 0.991705 0.992085 0.960677
0.210000 0.989798 0.990241 0.955788
0.220000 0.987534 0.988045 0.950482
0.230000 0.984863 0.985448 0.944739
0.240000 0.981730 0.982394 0.938543
0.250000 0.978079 0.978826 0.931875
0.260000 0.973849 0.974682 0.924720
0.270000 0.968976 0.969898 0.917065
0.280000 0.963396 0.964407 0.908894
0.290000 0.957043 0.958141 0.900198
0.300000 0.949850 0.951032 0.890967
0.310000 0.941752 0.943013 0.881192
0.320000 0.932686 0.934017 0.870868
0.330000 0.922592 0.923983 0.859992
0.340000 0.911415 0.912853 0.848563
0.350000 0.899106 0.900574 0.836581
0.360000 0.885624 0.887104 0.824051
0.370000 0.870935 0.872407 0.810980
0.380000 0.855017 0.856457 0.797376
0.390000 0.837858 0.839242 0.783252
0.400000 0.819460 0.820760 0.768622
0.410000 0.799835 0.801026 0.753503
0.420000 0.779012 0.780065 0.737916
0.430000 0.757032 0.757920 0.721883
0.440000 0.733951 0.734647 0.705428
0.450000 0.709840 0.710318 0.688580
0.460000 0.684780 0.685018 0.671368
0.470000 0.658870 0.658846 0.653824
0.480000 0.632217 0.631914 0.635981
0.490000 0.604938 0.604343 0.617875
0.500000 0.577162 0.576265 0.599544
0.510000 0.549023 0.547818 0.581025
0.520000 0.520659 0.519148 0.562358
0.530000 0.492215 0.490400 0.543582
0.540000 0.463832 0.461723 0.524740
0.550000 0.435653 0.433265 0.505871
0.560000 0.407818 0.405167 0.487017
0.570000 0.380459 0.377569 0.468218
0.580000 0.353702 0.350598 0.449516
0.590000 0.327666 0.324376 0.430950
0.600000 0.302457 0.299012 0.412558
0.610000 0.278170 0.274602 0.394378
0.620000 0.254887 0.251230 0.376446
0.630000 0.232679 0.228966 0.358797
0.640000 0.211600 0.207864 0.341462
0.650000 0.191692 0.187966 0.324473
0.660000 0.172983 0.169297 0.307859
0.670000 0.155488 0.151870 0.291645
0.680000 0.139209 0.135685 0.275855
0.690000 0.124136 0.120729 0.260510
0.700000 0.110249 0.106978 0.245630
0.710000 0.097517 0.094399 0.231231
0.720000 0.085902 0.082950 0.217326
0.730000 0.075358 0.072582 0.203928
0.740000 0.065833 0.063240 0.191044
0.750000 0.057271 0.054864 0.178680
0.760000 0.049613 0.047393 0.166842
0.770000 0.042797 0.040762 0.155529
0.780000 0.036759 0.034907 0.144742
0.790000 0.031438 0.029761 0.134478
0.800000 0.026772 0.025263 0.124732
0.810000 0.022699 0.021350 0.115498
0.820000 0.019162 0.017963 0.106768
0.830000 0.016106 0.015046 0.098531
0.840000 0.013477 0.012546 0.090779
0.850000 0.011228 0.010415 0.083498
0.860000 0.009313 0.008607 0.076678
0.870000 0.007690 0.007080 0.070305
0.880000 0.006321 0.005798 0.064367
0.890000 0.005173 0.004727 0.058853
0.900000 0.004215 0.003836 0.053752
0.910000 0.003418 0.003098 0.049056
0.920000 0.002760 0.002491 0.044757
0.930000 0.002219 0.001994 0.040855
0.940000 0.001776 0.001589 0.037352
0.950000 0.001416 0.001260 0.034260
0.960000 0.001127 0.000994 0.031600
0.970000 0.000899 0.000781 0.029406
0.980000 0.000727 0.000611 0.027730
0.990000 0.000612 0.000476 0.026648
1.000000 0.000570 0.000369 0.026267
