0.000000 1.000000 1.000000 0.999852
0.010000 0.999994 0.999994 0.999669
0.020000 0.999984 0.999986 0.999270
0.030000 0.999970 0.999972 0.998793
0.040000 0.999949 0.999953 0.998229
0.050000 0.999920 0.999927 0.997568
0.060000 0.999879 0.999890 0.996798
0.070000 0.999825 0.999839 0.995908
0.080000 0.999751 0.999771 0.994886
0.090000 0.999654 0.999681 0.993717
0.100000 0.999527 0.999563 0.992389
0.110000 0.999363 0.999410 0.990885
0.120000 0.999152 0.999212 0.989192
0.130000 0.998884 0.998960 0.987293
0.140000 0.998546 0.998641 0.985171
0.150000 0.998123 0.998241 0.982809
0.160000 0.997598 0.997743 0.980191
0.170000 0.996950 0.997126 0.977297
0.180000 0.996157 0.996369 0.974109
0.190000 0.995192 0.995445 0.970610
0.200000 0.994026 0.994326 0.966780
0.210000 0.992626 0.992978 0.962602
0.220000 0.990956 0.991365 0.958057
0.230000 0.988974 0.989447 0.953127
0.240000 0.986636 0.987179 0.947795
0.250000 0.983897 0.984514 0.942043
0.260000 0.980704 0.981399 0.935855
0.270000 0.977003 0.977781 0.929216
0.280000 0.972738 0.973602 0.922112
0.290000 0.967850 0.968801 0.914529
0.300000 0.962278 0.963316 0.906456
0.310000 0.955961 0.957085 0.897882
0.320000 0.948838 0.950044 0.888799
0.330000 0.940847 0.942130 0.879200
0.340000 0.931932 0.933284 0.869079
0.350000 0.922036 0.923446 0.858434
0.360000 0.911109 0.912565 0.847264
0.370000 0.899104 0.900591 0.835569
0.380000 0.885984 0.887485 0.823355
0.390000 0.871718 0.873212 0.810626
0.400000 0.856283 0.857750 0.797391
0.410000 0.839669 0.841084 0.783662
0.420000 0.821874 0.823213 0.769450
0.430000 0.802910 0.804147 0.754773
0.440000 0.782800 0.783909 0.739647
0.450000 0.761581 0.762535 0.724094
0.460000 0.739301 0.740075 0.708137
0.470000 0.716024 0.716592 0.691799
0.480000 0.691822 0.692163 0.675109
0.490000 0.666782 0.666874 0.658096
0.500000 0.641001 0.640828 0.640789
0.510000 0.614586 0.614133 0.623222
0.520000 0.587653 0.586909 0.605428
0.530000 0.560324 0.559283 0.587443
0.540000 0.532727 0.531386 0.569302
0.550000 0.504993 0.503355 0.551043
0.560000 0.477256 0.475326 0.532702
0.570000 0.449648 0.447438 0.514319
0.580000 0.422300 0.419825 0.495931
0.590000 0.395339 0.392618 0.477576
0.600000 0.368887 0.365942 0.459293
0.610000 0.343057 0.339913 0.441117
0.620000 0.317954 0.314640 0.423086
0.630000 0.293674 0.290219 0.405236
0.640000 0.270301 0.266736 0.387599
0.650000 0.247908 0.244265 0.370210
0.660000 0.226555 0.222866 0.353100
0.670000 0.206290 0.202586 0.336299
0.680000 0.187149 0.183460 0.319833
0.690000 0.169154 0.165508 0.303730
0.700000 0.152317 0.148741 0.288013
0.710000 0.136636 0.133154 0.272704
0.720000 0.122102 0.118736 0.257822
0.730000 0.108695 0.105462 0.243385
0.740000 0.096383 0.093299 0.229407
0.750000 0.085132 0.082210 0.215900
0.760000 0.074899 0.072147 0.202877
0.770000 0.065634 0.063058 0.190343
0.780000 0.057285 0.054890 0.178306
0.790000 0.049798 0.047584 0.166768
0.800000 0.043114 0.041080 0.155733
0.810000 0.037175 0.035318 0.145199
0.820000 0.031924 0.030238 0.135164
0.830000 0.027302 0.025779 0.125627
0.840000 0.023252 0.021886 0.116580
0.850000 0.019721 0.018502 0.108020
0.860000 0.016657 0.015575 0.099939
0.870000 0.014010 0.013055 0.092331
0.880000 0.011734 0.010896 0.085188
0.890000 0.009787 0.009055 0.078505
0.900000 0.008128 0.007493 0.072277
0.910000 0.006722 0.006173 0.066501
0.920000 0.005535 0.005064 0.061178
0.930000 0.004539 0.004136 0.056314
0.940000 0.003708 0.003364 0.051921
0.950000 0.003019 0.002723 0.048023
0.960000 0.002454 0.002195 0.044652
0.970000 0.002000 0.001762 0.041861
0.980000 0.001652 0.001408 0.039723
0.990000 0.001417 0.001120 0.038339
1.000000 0.001331 0.000887 0.037851
