0.000000 1.000000 1.000000 0.999887
0.010000 0.999996 0.999997 0.999748
0.020000 0.999991 0.999992 0.999445
0.030000 0.999982 0.999984 0.999082
0.040000 0.999971 0.999973 0.998652
0.050000 0.999954 0.999958 0.998148
0.060000 0.999930 0.999937 0.997560
0.070000 0.999899 0.999908 0.996880
0.080000 0.999856 0.999868 0.996098
0.090000 0.999799 0.999816 0.995203
0.100000 0.999725 0.999747 0.994184
0.110000 0.999628 0.999658 0.993029
0.120000 0.999504 0.999542 0.991725
0.130000 0.999345 0.999393 0.990260
0.140000 0.999143 0.999205 0.988620
0.150000 0.998890 0.998967 0.986791
0.160000 0.998574 0.998669 0.984758
0.170000 0.998181 0.998298 0.982505
0.180000 0.997698 0.997840 0.980019
0.190000 0.997107 0.997279 0.977281
0.200000 0.996388 0.996593 0.974277
0.210000 0.995519 0.995762 0.970990
0.220000 0.994475 0.994761 0.967404
0.230000 0.993227 0.993562 0.963501
0.240000 0.991744 0.992133 0.959266
0.250000 0.989992 0.990440 0.954683
0.260000 0.987934 0.988446 0.949735
0.270000 0.985528 0.986110 0.944407
0.280000 0.982731 0.983387 0.938685
0.290000 0.979496 0.980230 0.932553
0.300000 0.975774 0.976590 0.925999
0.310000 0.971514 0.972414 0.919010
0.320000 0.966663 0.967648 0.911574
0.330000 0.961165 0.962235 0.903682
0.340000 0.954967 0.956120 0.895324
0.350000 0.948012 0.949245 0.886492
0.360000 0.940247 0.941555 0.877181
0.370000 0.931619 0.932995 0.867387
0.380000 0.922079 0.923513 0.857106
0.390000 0.911582 0.913061 0.846337
0.400000 0.900085 0.901597 0.835083
0.410000 0.887553 0.889082 0.823346
0.420000 0.873959 0.875486 0.811131
0.430000 0.859280 0.860786 0.798445
0.440000 0.843505 0.844968 0.785299
0.450000 0.826630 0.828028 0.771702
0.460000 0.808663 0.809971 0.757669
0.470000 0.789621 0.790815 0.743215
0.480000 0.769533 0.770589 0.728358
0.490000 0.748438 0.749332 0.713118
0.500000 0.726388 0.727096 0.697516
0.510000 0.703445 0.703944 0.681576
0.520000 0.679680 0.679952 0.665323
0.530000 0.655176 0.655202 0.648784
0.540000 0.630025 0.629789 0.631987
0.550000 0.604326 0.603817 0.614961
0.560000 0.578186 0.577394 0.597738
0.570000 0.551716 0.550637 0.580349
0.580000 0.525033 0.523666 0.562826
0.590000 0.498255 0.496602 0.545205
0.600000 0.471502 0.469571 0.527517
0.610000 0.444894 0.442695 0.509798
0.620000 0.418547 0.416095 0.492081
0.630000 0.392576 0.389888 0.474401
0.640000 0.367089 0.364186 0.456791
0.650000 0.342187 0.339093 0.439285
0.660000 0.317966 0.314706 0.421915
0.670000 0.294510 0.291113 0.404714
0.680000 0.271897 0.268390 0.387711
0.690000 0.250192 0.246605 0.370937
0.700000 0.229450 0.225814 0.354420
0.710000 0.209717 0.206059 0.338187
0.720000 0.191026 0.187375 0.322263
0.730000 0.173400 0.169782 0.306672
0.740000 0.156851 0.153292 0.291436
0.750000 0.141382 0.137904 0.276574
0.760000 0.126986 0.123611 0.262106
0.770000 0.113647 0.110392 0.248047
0.780000 0.101342 0.098223 0.234412
0.790000 0.090041 0.087070 0.221214
0.800000 0.079706 0.076894 0.208463
0.810000 0.070297 0.067651 0.196168
0.820000 0.061769 0.059294 0.184337
0.830000 0.054072 0.051770 0.172975
0.840000 0.047157 0.045027 0.162088
0.850000 0.040970 0.039011 0.151679
0.860000 0.035460 0.033668 0.141750
0.870000 0.030574 0.028944 0.132306
0.880000 0.026260 0.024785 0.123349
0.890000 0.022467 0.021140 0.114884
0.900000 0.019148 0.017959 0.106917
0.910000 0.016257 0.015197 0.099458
0.920000 0.013749 0.012809 0.092521
0.930000 0.011585 0.010752 0.086128
0.940000 0.009727 0.008990 0.080308
0.950000 0.008145 0.007486 0.075106
0.960000 0.006812 0.006209 0.070580
0.970000 0.005715 0.005129 0.066813
0.980000 0.004855 0.004219 0.063914
0.990000 0.004268 0.003457 0.062034
1.000000 0.004050 0.002821 0.061370
