0.000000 1.000000 1.000000 0.971535
0.010000 0.935833 0.935609 0.937059
0.020000 0.846660 0.845328 0.863874
0.030000 0.736358 0.733109 0.782486
0.040000 0.612614 0.607080 0.695537
0.050000 0.485435 0.477898 0.606048
0.060000 0.364999 0.356324 0.517138
0.070000 0.259549 0.250887 0.431747
0.080000 0.174020 0.166408 0.352390
0.090000 0.109694 0.103772 0.280978
0.100000 0.064824 0.060743 0.218717
0.110000 0.035808 0.033331 0.166108
0.120000 0.018431 0.017127 0.123012
0.130000 0.008809 0.008234 0.088782
0.140000 0.003893 0.003701 0.062417
0.150000 0.001583 0.001554 0.042726
0.160000 0.000589 0.000610 0.028463
0.170000 0.000199 0.000223 0.018445
0.180000 0.000060 0.000076 0.011623
0.190000 0.000016 0.000024 0.007119
0.200000 0.000004 0.000007 0.004236
0.210000 0.000001 0.000002 0.002448
0.220000 0.000000 0.000001 0.001373
0.230000 0.000000 0.000000 0.000748
0.240000 -0.000000 0.000000 0.000395
0.250000 -0.000000 0.000000 0.000202
0.260000 -0.000000 0.000000 0.000100
0.270000 0.000000 0.000000 0.000048
0.280000 0.000000 0.000000 0.000022
0.290000 0.000000 0.000000 0.000010
0.300000 -0.000000 0.000000 0.000004
0.310000 -0.000000 0.000000 0.000002
0.320000 -0.000000 0.000000 0.000001
0.330000 0.000000 0.000000 0.000000
0.340000 0.000000 0.000000 0.000000
0.350000 -0.000000 0.000000 0.000000
0.360000 -0.000000 0.000000 0.000000
0.370000 0.000000 0.000000 0.000000
0.380000 0.000000 0.000000 0.000000
0.390000 -0.000000 0.000000 0.000000
0.400000 -0.000000 0.000000 0.000000
0.410000 0.000000 0.000000 0.000000
0.420000 0.000000 0.000000 0.000000
0.430000 -0.000000 0.000000 0.000000
0.440000 -0.000000 0.000000 0.000000
0.450000 0.000000 0.000000 0.000000
0.460000 0.000000 0.000000 0.000000
0.470000 -0.000000 0.000000 0.000000
0.480000 -0.000000 0.000000 0.000000
0.490000 0.000000 0.000000 0.000000
0.500000 -0.000000 0.000000 0.000000
0.510000 -0.000000 0.000000 0.000000
0.520000 0.000000 0.000000 0.000000
0.530000 0.000000 0.000000 0.000000
0.540000 -0.000000 0.000000 0.000000
0.550000 0.000000 0.000000 0.000000
0.560000 0.000000 0.000000 0.000000
0.570000 -0.000000 0.000000 0.000000
0.580000 -0.000000 0.000000 0.000000
0.590000 0.000000 0.000000 0.000000
0.600000 -0.000000 0.000000 0.000000
0.610000 -0.000000 0.000000 0.000000
0.620000 0.000000 0.000000 0.000000
0.630000 -0.000000 0.000000 0.000000
0.640000 -0.000000 0.000000 0.000000
0.650000 0.000000 0.000000 0.000000
0.660000 0.000000 0.000000 0.000000
0.670000 -0.000000 0.000000 0.000000
0.680000 0.000000 0.000000 0.000000
0.690000 0.000000 0.000000 0.000000
0.700000 -0.000000 0.000000 0.000000
0.710000 0.000000 0.000000 0.000000
0.720000 0.000000 0.000000 0.000000
0.730000 -0.000000 0.000000 0.000000
0.740000 0.000000 0.000000 0.000000
0.750000 -0.000000 0.000000 0.000000
0.760000 -0.000000 0.000000 0.000000
0.770000 0.000000 0.000000 0.000000
0.780000 -0.000000 0.000000 0.000000
0.790000 -0.000000 0.000000 0.000000
0.800000 0.000000 0.000000 0.000000
0.810000 -0.000000 0.000000 0.000000
0.820000 -0.000000 0.000000 0.000000
0.830000 0.000000 0.000000 0.000000
0.840000 -0.000000 0.000000 0.000000
0.850000 0.000000 0.000000 0.000000
0.860000 0.000000 0.000000 0.000000
0.870000 -0.000000 0.000000 0.000000
0.880000 0.000000 0.000000 0.000000
0.890000 0.000000 0.000000 0.000000
0.900000 -0.000000 0.000000 0.000000
0.910000 0.000000 0.000000 0.000000
0.920000 -0.000000 0.000000 0.000000
0.930000 -0.000000 0.000000 0.000000
0.940000 0.000000 0.000000 0.000000
0.950000 -0.000000 0.000000 0.000000
0.960000 0.000000 0.000000 0.000000
0.970000 0.000000 0.000000 0.000000
0.980000 -0.000000 0.000000 0.000000
0.990000 0.000000 0.000000 0.000000
1.000000 -0.000000 0.000000 0.000000
