0.000000 1.000000 1.000000 0.999530
0.010000 0.999938 0.999943 0.998950
0.020000 0.999843 0.999854 0.997683
0.030000 0.999703 0.999723 0.996175
0.040000 0.999502 0.999535 0.994398
0.050000 0.999224 0.999272 0.992323
0.060000 0.998844 0.998913 0.989922
0.070000 0.998336 0.998431 0.987164
0.080000 0.997667 0.997794 0.984018
0.090000 0.996798 0.996963 0.980452
0.100000 0.995684 0.995895 0.976433
0.110000 0.994273 0.994537 0.971930
0.120000 0.992505 0.992830 0.966909
0.130000 0.990313 0.990708 0.961341
0.140000 0.987623 0.988095 0.955193
0.150000 0.984353 0.984909 0.948436
0.160000 0.980415 0.981061 0.941042
0.170000 0.975713 0.976454 0.932985
0.180000 0.970148 0.970988 0.924242
0.190000 0.963618 0.964555 0.914791
0.200000 0.956017 0.957050 0.904615
0.210000 0.947242 0.948365 0.893699
0.220000 0.937190 0.938393 0.882031
0.230000 0.925766 0.927035 0.869605
0.240000 0.912882 0.914199 0.856420
0.250000 0.898460 0.899804 0.842475
0.260000 0.882437 0.883781 0.827779
0.270000 0.864767 0.866082 0.812343
0.280000 0.845423 0.846676 0.796182
0.290000 0.824399 0.825555 0.779320
0.300000 0.801714 0.802735 0.761782
0.310000 0.777409 0.778258 0.743599
0.320000 0.751555 0.752194 0.724808
0.330000 0.724244 0.724639 0.705448
0.340000 0.695596 0.695713 0.685566
0.350000 0.665754 0.665565 0.665210
0.360000 0.634883 0.634364 0.644432
0.370000 0.603167 0.602300 0.623288
0.380000 0.570806 0.569579 0.601837
0.390000 0.538011 0.536422 0.580140
0.400000 0.505003 0.503054 0.558259
0.410000 0.472004 0.469707 0.536259
0.420000 0.439238 0.436612 0.514203
0.430000 0.406921 0.403991 0.492157
0.440000 0.375260 0.372059 0.470186
0.450000 0.344451 0.341015 0.448352
0.460000 0.314670 0.311040 0.426719
0.470000 0.286074 0.282295 0.405345
0.480000 0.258799 0.254917 0.384289
0.490000 0.232956 0.229017 0.363606
0.500000 0.208632 0.204683 0.343347
0.510000 0.185890 0.181973 0.323561
0.520000 0.164766 0.160922 0.304290
0.530000 0.145275 0.141541 0.285575
0.540000 0.127410 0.123818 0.267452
0.550000 0.111141 0.107719 0.249951
0.560000 0.096424 0.093194 0.233098
0.570000 0.083199 0.080178 0.216915
0.580000 0.071391 0.068590 0.201420
0.590000 0.060919 0.058344 0.186624
0.600000 0.051692 0.049345 0.172535
0.610000 0.043614 0.041494 0.159158
0.620000 0.036590 0.034690 0.146490
0.630000 0.030522 0.028833 0.134530
0.640000 0.025314 0.023824 0.123267
0.650000 0.020873 0.019570 0.112691
0.660000 0.017111 0.015980 0.102787
0.670000 0.013945 0.012972 0.093540
0.680000 0.011298 0.010466 0.084927
0.690000 0.009099 0.008395 0.076930
0.700000 0.007285 0.006692 0.069523
0.710000 0.005798 0.005303 0.062683
0.720000 0.004587 0.004177 0.056382
0.730000 0.003607 0.003270 0.050596
0.740000 0.002819 0.002544 0.045296
0.750000 0.002190 0.001968 0.040454
0.760000 0.001691 0.001512 0.036044
0.770000 0.001298 0.001155 0.032038
0.780000 0.000990 0.000877 0.028409
0.790000 0.000750 0.000662 0.025130
0.800000 0.000565 0.000496 0.022176
0.810000 0.000423 0.000370 0.019521
0.820000 0.000315 0.000274 0.017143
0.830000 0.000233 0.000202 0.015018
0.840000 0.000171 0.000147 0.013124
0.850000 0.000125 0.000107 0.011441
0.860000 0.000091 0.000077 0.009950
0.870000 0.000065 0.000056 0.008632
0.880000 0.000047 0.000040 0.007471
0.890000 0.000033 0.000028 0.006452
0.900000 0.000024 0.000020 0.005560
0.910000 0.000017 0.000014 0.004782
0.920000 0.000012 0.000010 0.004107
0.930000 0.000008 0.000007 0.003525
0.940000 0.000006 0.000005 0.003027
0.950000 0.000004 0.000003 0.002607
0.960000 0.000003 0.000002 0.002260
0.970000 0.000002 0.000001 0.001982
0.980000 0.000001 0.000001 0.001776
0.990000 0.000001 0.000001 0.001646
1.000000 0.000001 0.000000 0.001600
