0.000000 1.000000 1.000000 0.995286
0.010000 0.995903 0.996021 0.989495
0.020000 0.989732 0.989988 0.976920
0.030000 0.980957 0.981365 0.962151
0.040000 0.969028 0.969584 0.945090
0.050000 0.953401 0.954083 0.925669
0.060000 0.933575 0.934337 0.903859
0.070000 0.909135 0.909909 0.879667
0.080000 0.879791 0.880484 0.853143
0.090000 0.845415 0.845919 0.824379
0.100000 0.806072 0.806268 0.793508
0.110000 0.762035 0.761803 0.760707
0.120000 0.713791 0.713023 0.726190
0.130000 0.662027 0.660638 0.690204
0.140000 0.607605 0.605541 0.653027
0.150000 0.551515 0.548760 0.614959
0.160000 0.494825 0.491408 0.576317
0.170000 0.438621 0.434612 0.537425
0.180000 0.383951 0.379455 0.498610
0.190000 0.331763 0.326915 0.460192
0.200000 0.282866 0.277818 0.422477
0.210000 0.237893 0.232802 0.385750
0.220000 0.197283 0.192299 0.350271
0.230000 0.161280 0.156534 0.316270
0.240000 0.129936 0.125538 0.283942
0.250000 0.103141 0.099168 0.253443
0.260000 0.080646 0.077145 0.224893
0.270000 0.062099 0.059089 0.198375
0.280000 0.047082 0.044554 0.173933
0.290000 0.035140 0.033067 0.151576
0.300000 0.025813 0.024153 0.131282
0.310000 0.018660 0.017359 0.113002
0.320000 0.013272 0.012276 0.096659
0.330000 0.009286 0.008541 0.082159
0.340000 0.006390 0.005845 0.069391
0.350000 0.004324 0.003935 0.058232
0.360000 0.002877 0.002606 0.048553
0.370000 0.001882 0.001697 0.040221
0.380000 0.001210 0.001087 0.033101
0.390000 0.000765 0.000684 0.027062
0.400000 0.000475 0.000424 0.021979
0.410000 0.000290 0.000258 0.017733
0.420000 0.000174 0.000154 0.014211
0.430000 0.000102 0.000091 0.011313
0.440000 0.000059 0.000053 0.008945
0.450000 0.000034 0.000030 0.007025
0.460000 0.000019 0.000017 0.005479
0.470000 0.000010 0.000009 0.004245
0.480000 0.000005 0.000005 0.003266
0.490000 0.000003 0.000003 0.002495
0.500000 0.000001 0.000001 0.001893
0.510000 0.000001 0.000001 0.001427
0.520000 0.000000 0.000000 0.001068
0.530000 0.000000 0.000000 0.000793
0.540000 0.000000 0.000000 0.000586
0.550000 0.000000 0.000000 0.000429
0.560000 0.000000 0.000000 0.000312
0.570000 0.000000 0.000000 0.000226
0.580000 0.000000 0.000000 0.000162
0.590000 0.000000 0.000000 0.000115
0.600000 0.000000 0.000000 0.000081
0.610000 0.000000 0.000000 0.000057
0.620000 0.000000 0.000000 0.000040
0.630000 0.000000 0.000000 0.000028
0.640000 0.000000 0.000000 0.000019
0.650000 0.000000 0.000000 0.000013
0.660000 0.000000 0.000000 0.000009
0.670000 0.000000 0.000000 0.000006
0.680000 0.000000 0.000000 0.000004
0.690000 0.000000 0.000000 0.000003
0.700000 0.000000 0.000000 0.000002
0.710000 0.000000 0.000000 0.000001
0.720000 0.000000 0.000000 0.000001
0.730000 0.000000 0.000000 0.000000
0.740000 0.000000 0.000000 0.000000
0.750000 0.000000 0.000000 0.000000
0.760000 0.000000 0.000000 0.000000
0.770000 0.000000 0.000000 0.000000
0.780000 0.000000 0.000000 0.000000
0.790000 0.000000 0.000000 0.000000
0.800000 0.000000 0.000000 0.000000
0.810000 0.000000 0.000000 0.000000
0.820000 0.000000 0.000000 0.000000
0.830000 0.000000 0.000000 0.000000
0.840000 0.000000 0.000000 0.000000
0.850000 0.000000 0.000000 0.000000
0.860000 0.000000 0.000000 0.000000
0.870000 0.000000 0.000000 0.000000
0.880000 -0.000000 0.000000 0.000000
0.890000 -0.000000 0.000000 0.000000
0.900000 -0.000000 0.000000 0.000000
0.910000 -0.000000 0.000000 0.000000
0.920000 -0.000000 0.000000 0.000000
0.930000 0.000000 0.000000 0.000000
0.940000 0.000000 0.000000 0.000000
0.950000 0.000000 0.000000 0.000000
0.960000 0.000000 0.000000 0.000000
0.970000 -0.000000 0.000000 0.000000
0.980000 -0.000000 0.000000 0.000000
0.990000 -0.000000 0.000000 0.000000
1.000000 -0.000000 0.000000 0.000000
