0.000000 1.000000 1.000000 0.999683
0.010000 0.999971 0.999974 0.999292
0.020000 0.999927 0.999933 0.998438
0.030000 0.999862 0.999872 0.997419
0.040000 0.999768 0.999785 0.996217
0.050000 0.999638 0.999663 0.994812
0.060000 0.999459 0.999496 0.993182
0.070000 0.999218 0.999269 0.991304
0.080000 0.998898 0.998968 0.989156
0.090000 0.998480 0.998572 0.986713
0.100000 0.997940 0.998059 0.983951
0.110000 0.997250 0.997401 0.980843
0.120000 0.996376 0.996567 0.977364
0.130000 0.995283 0.995518 0.973488
0.140000 0.993925 0.994212 0.969188
0.150000 0.992256 0.992602 0.964438
0.160000 0.990220 0.990632 0.959212
0.170000 0.987758 0.988242 0.953486
0.180000 0.984804 0.985367 0.947234
0.190000 0.981286 0.981935 0.940435
0.200000 0.977129 0.977867 0.933065
0.210000 0.972253 0.973084 0.925105
0.220000 0.966574 0.967499 0.916536
0.230000 0.960008 0.961026 0.907343
0.240000 0.952467 0.953575 0.897512
0.250000 0.943867 0.945059 0.887032
0.260000 0.934126 0.935393 0.875895
0.270000 0.923165 0.924494 0.864097
0.280000 0.910914 0.912288 0.851635
0.290000 0.897309 0.898710 0.838512
0.300000 0.882300 0.883705 0.824734
0.310000 0.865847 0.867230 0.810309
0.320000 0.847927 0.849259 0.795252
0.330000 0.828531 0.829782 0.779579
0.340000 0.807670 0.808809 0.763310
0.350000 0.785374 0.786367 0.746471
0.360000 0.761691 0.762505 0.729090
0.370000 0.736691 0.737294 0.711198
0.380000 0.710461 0.710823 0.692831
0.390000 0.683110 0.683204 0.674028
0.400000 0.654764 0.654565 0.654829
0.410000 0.625563 0.625053 0.635279
0.420000 0.595664 0.594828 0.615425
0.430000 0.565235 0.564063 0.595315
0.440000 0.534451 0.532941 0.574999
0.450000 0.503494 0.501650 0.554529
0.460000 0.472550 0.470381 0.533958
0.470000 0.441802 0.439323 0.513338
0.480000 0.411430 0.408663 0.492724
0.490000 0.381607 0.378578 0.472168
0.500000 0.352495 0.349236 0.451722
0.510000 0.324246 0.320791 0.431438
0.520000 0.296995 0.293381 0.411367
0.530000 0.270861 0.267129 0.391556
0.540000 0.245946 0.242134 0.372051
0.550000 0.222331 0.218481 0.352896
0.560000 0.200079 0.196229 0.334133
0.570000 0.179234 0.175423 0.315799
0.580000 0.159821 0.156083 0.297930
0.590000 0.141848 0.138213 0.280557
0.600000 0.125303 0.121800 0.263709
0.610000 0.110162 0.106814 0.247411
0.620000 0.096387 0.093213 0.231684
0.630000 0.083926 0.080942 0.216545
0.640000 0.072720 0.069937 0.202010
0.650000 0.062701 0.060125 0.188087
0.660000 0.053795 0.051428 0.174785
0.670000 0.045924 0.043766 0.162106
0.680000 0.039009 0.037055 0.150052
0.690000 0.032967 0.031212 0.138621
0.700000 0.027720 0.026154 0.127805
0.710000 0.023190 0.021802 0.117598
0.720000 0.019300 0.018079 0.107989
0.730000 0.015980 0.014914 0.098965
0.740000 0.013163 0.012238 0.090510
0.750000 0.010786 0.009989 0.082609
0.760000 0.008792 0.008110 0.075244
0.770000 0.007129 0.006550 0.068394
0.780000 0.005750 0.005261 0.062039
0.790000 0.004613 0.004203 0.056158
0.800000 0.003682 0.003340 0.050728
0.810000 0.002923 0.002640 0.045728
0.820000 0.002308 0.002076 0.041135
0.830000 0.001812 0.001623 0.036925
0.840000 0.001416 0.001262 0.033077
0.850000 0.001100 0.000976 0.029569
0.860000 0.000850 0.000751 0.026378
0.870000 0.000653 0.000574 0.023484
0.880000 0.000499 0.000437 0.020866
0.890000 0.000379 0.000331 0.018506
0.900000 0.000287 0.000249 0.016386
0.910000 0.000216 0.000186 0.014489
0.920000 0.000161 0.000139 0.012800
0.930000 0.000120 0.000103 0.011307
0.940000 0.000089 0.000075 0.010001
0.950000 0.000065 0.000055 0.008873
0.960000 0.000048 0.000040 0.007923
0.970000 0.000035 0.000029 0.007152
0.980000 0.000026 0.000021 0.006571
0.990000 0.000020 0.000015 0.006199
1.000000 0.000018 0.000011 0.006068
