0.000000 1.000000 1.000000 0.999912
0.010000 0.999998 0.999998 0.999803
0.020000 0.999994 0.999995 0.999565
0.030000 0.999989 0.999990 0.999280
0.040000 0.999982 0.999984 0.998943
0.050000 0.999972 0.999975 0.998547
0.060000 0.999957 0.999962 0.998086
0.070000 0.999938 0.999944 0.997551
0.080000 0.999912 0.999920 0.996935
0.090000 0.999877 0.999888 0.996230
0.100000 0.999831 0.999846 0.995426
0.110000 0.999771 0.999791 0.994513
0.120000 0.999694 0.999719 0.993482
0.130000 0.999594 0.999627 0.992321
0.140000 0.999468 0.999510 0.991020
0.150000 0.999309 0.999361 0.989565
0.160000 0.999109 0.999174 0.987946
0.170000 0.998861 0.998941 0.986148
0.180000 0.998553 0.998651 0.984159
0.190000 0.998175 0.998294 0.981966
0.200000 0.997712 0.997856 0.979553
0.210000 0.997150 0.997322 0.976907
0.220000 0.996470 0.996674 0.974012
0.230000 0.995654 0.995895 0.970855
0.240000 0.994678 0.994960 0.967419
0.250000 0.993517 0.993845 0.963691
0.260000 0.992145 0.992524 0.959656
0.270000 0.990529 0.990965 0.955297
0.280000 0.988639 0.989136 0.950602
0.290000 0.986436 0.986999 0.945555
0.300000 0.983883 0.984516 0.940144
0.310000 0.980938 0.981646 0.934354
0.320000 0.977557 0.978344 0.928173
0.330000 0.973695 0.974563 0.921590
0.340000 0.969303 0.970254 0.914594
0.350000 0.964333 0.965368 0.907174
0.360000 0.958735 0.959852 0.899322
0.370000 0.952458 0.953656 0.891030
0.380000 0.945452 0.946728 0.882292
0.390000 0.937669 0.939016 0.873102
0.400000 0.929062 0.930473 0.863458
0.410000 0.919585 0.921051 0.853357
0.420000 0.909198 0.910707 0.842799
0.430000 0.897865 0.899404 0.831786
0.440000 0.885554 0.887107 0.820320
0.450000 0.872239 0.873790 0.808407
0.460000 0.857903 0.859433 0.796053
0.470000 0.842535 0.844024 0.783268
0.480000 0.826132 0.827558 0.770061
0.490000 0.808702 0.810042 0.756445
0.500000 0.790260 0.791492 0.742434
0.510000 0.770832 0.771932 0.728045
0.520000 0.750453 0.751399 0.713295
0.530000 0.729169 0.729939 0.698204
0.540000 0.707036 0.707609 0.682793
0.550000 0.684118 0.684474 0.667085
0.560000 0.660488 0.660610 0.651104
0.570000 0.636228 0.636101 0.634875
0.580000 0.611428 0.611039 0.618425
0.590000 0.586183 0.585523 0.601782
0.600000 0.560594 0.559658 0.584975
0.610000 0.534766 0.533550 0.568034
0.620000 0.508806 0.507313 0.550987
0.630000 0.482825 0.481059 0.533868
0.640000 0.456931 0.454900 0.516705
0.650000 0.431233 0.428949 0.499531
0.660000 0.405837 0.403314 0.482377
0.670000 0.380843 0.378101 0.465273
0.680000 0.356349 0.353407 0.448250
0.690000 0.332444 0.329326 0.431339
0.700000 0.309213 0.305944 0.414569
0.710000 0.286730 0.283336 0.397969
0.720000 0.265062 0.261569 0.381566
0.730000 0.244266 0.240703 0.365388
0.740000 0.224391 0.220785 0.349459
0.750000 0.205474 0.201852 0.333805
0.760000 0.187544 0.183932 0.318449
0.770000 0.170620 0.167044 0.303411
0.780000 0.154712 0.151194 0.288712
0.790000 0.139821 0.136383 0.274372
0.800000 0.125940 0.122600 0.260406
0.810000 0.113053 0.109829 0.246832
0.820000 0.101139 0.098046 0.233664
0.830000 0.090170 0.087219 0.220916
0.840000 0.080113 0.077314 0.208600
0.850000 0.070930 0.068290 0.196728
0.860000 0.062580 0.060103 0.185313
0.870000 0.055018 0.052707 0.174366
0.880000 0.048199 0.046054 0.163901
0.890000 0.042075 0.040094 0.153933
0.900000 0.036598 0.034778 0.144480
0.910000 0.031721 0.030056 0.135563
0.920000 0.027397 0.025879 0.127213
0.930000 0.023582 0.022200 0.119466
0.940000 0.020235 0.018974 0.112372
0.950000 0.017322 0.016155 0.105996
0.960000 0.014817 0.013704 0.100423
0.970000 0.012716 0.011581 0.095766
0.980000 0.011043 0.009749 0.092172
0.990000 0.009888 0.008177 0.089836
1.000000 0.009457 0.006832 0.089010
