0.000000 1.000000 1.000000 0.999975
0.010000 1.000000 1.000000 0.999944
0.020000 1.000000 1.000000 0.999876
0.030000 0.999999 0.999999 0.999795
0.040000 0.999999 0.999999 0.999699
0.050000 0.999998 0.999998 0.999585
0.060000 0.999997 0.999997 0.999452
0.070000 0.999995 0.999996 0.999298
0.080000 0.999993 0.999994 0.999120
0.090000 0.999991 0.999992 0.998915
0.100000 0.999987 0.999989 0.998680
0.110000 0.999982 0.999984 0.998411
0.120000 0.999976 0.999979 0.998106
0.130000 0.999968 0.999972 0.997761
0.140000 0.999958 0.999962 0.997371
0.150000 0.999944 0.999950 0.996933
0.160000 0.999927 0.999935 0.996441
0.170000 0.999906 0.999915 0.995891
0.180000 0.999879 0.999891 0.995278
0.190000 0.999845 0.999860 0.994595
0.200000 0.999802 0.999821 0.993838
0.210000 0.999749 0.999772 0.993000
0.220000 0.999684 0.999712 0.992075
0.230000 0.999604 0.999639 0.991055
0.240000 0.999506 0.999548 0.989934
0.250000 0.999387 0.999437 0.988704
0.260000 0.999242 0.999302 0.987359
0.270000 0.999067 0.999139 0.985889
0.280000 0.998856 0.998942 0.984286
0.290000 0.998604 0.998705 0.982543
0.300000 0.998302 0.998421 0.980649
0.310000 0.997944 0.998083 0.978598
0.320000 0.997520 0.997682 0.976378
0.330000 0.997019 0.997207 0.973981
0.340000 0.996431 0.996648 0.971398
0.350000 0.995743 0.995993 0.968619
0.360000 0.994940 0.995226 0.965634
0.370000 0.994007 0.994333 0.962433
0.380000 0.992927 0.993296 0.959008
0.390000 0.991682 0.992098 0.955348
0.400000 0.990251 0.990718 0.951444
0.410000 0.988612 0.989135 0.947286
0.420000 0.986742 0.987324 0.942865
0.430000 0.984616 0.985261 0.938173
0.440000 0.982208 0.982919 0.933201
0.450000 0.979490 0.980270 0.927940
0.460000 0.976432 0.977283 0.922382
0.470000 0.973004 0.973929 0.916520
0.480000 0.969174 0.970174 0.910348
0.490000 0.964911 0.965987 0.903858
0.500000 0.960181 0.961332 0.897044
0.510000 0.954951 0.956177 0.889903
0.520000 0.949188 0.950487 0.882428
0.530000 0.942859 0.944228 0.874617
0.540000 0.935933 0.937367 0.866467
0.550000 0.928379 0.929872 0.857976
0.560000 0.920167 0.921712 0.849142
0.570000 0.911269 0.912858 0.839966
0.580000 0.901661 0.903285 0.830448
0.590000 0.891322 0.892969 0.820590
0.600000 0.880231 0.881889 0.810395
0.610000 0.868374 0.870030 0.799867
0.620000 0.855740 0.857380 0.789011
0.630000 0.842323 0.843931 0.777833
0.640000 0.828120 0.829681 0.766340
0.650000 0.813136 0.814632 0.754540
0.660000 0.797379 0.798793 0.742442
0.670000 0.780864 0.782178 0.730057
0.680000 0.763611 0.764808 0.717397
0.690000 0.745645 0.746708 0.704473
0.700000 0.726999 0.727910 0.691300
0.710000 0.707709 0.708453 0.677891
0.720000 0.687818 0.688379 0.664263
0.730000 0.667373 0.667739 0.650433
0.740000 0.646429 0.646586 0.636416
0.750000 0.625041 0.624980 0.622234
0.760000 0.603271 0.602982 0.607904
0.770000 0.581183 0.580660 0.593448
0.780000 0.558846 0.558084 0.578887
0.790000 0.536329 0.535326 0.564245
0.800000 0.513704 0.512460 0.549545
0.810000 0.491043 0.489561 0.534815
0.820000 0.468419 0.466703 0.520080
0.830000 0.445905 0.443962 0.505372
0.840000 0.423571 0.421412 0.490722
0.850000 0.401489 0.399122 0.476165
0.860000 0.379724 0.377164 0.461742
0.870000 0.358344 0.355602 0.447495
0.880000 0.337408 0.334498 0.433474
0.890000 0.316978 0.313910 0.419738
0.900000 0.297110 0.293891 0.406352
0.910000 0.277861 0.274489 0.393396
0.920000 0.259294 0.255745 0.380961
0.930000 0.241476 0.237697 0.369161
0.940000 0.224499 0.220374 0.358130
0.950000 0.208495 0.203802 0.348031
0.960000 0.193671 0.188001 0.339065
0.970000 0.180376 0.172982 0.331474
0.980000 0.169206 0.158753 0.325559
0.990000 0.161194 0.145317 0.321688
1.000000 0.158143 0.132671 0.320314
