0.000000 1.000000 1.000000 0.999981
0.010000 1.000000 1.000000 0.999958
0.020000 1.000000 1.000000 0.999907
0.030000 1.000000 1.000000 0.999846
0.040000 0.999999 0.999999 0.999773
0.050000 0.999999 0.999999 0.999688
0.060000 0.999998 0.999998 0.999588
0.070000 0.999997 0.999998 0.999472
0.080000 0.999996 0.999997 0.999338
0.090000 0.999995 0.999996 0.999183
0.100000 0.999993 0.999994 0.999005
0.110000 0.999990 0.999991 0.998803
0.120000 0.999987 0.999988 0.998572
0.130000 0.999982 0.999984 0.998311
0.140000 0.999977 0.999979 0.998015
0.150000 0.999969 0.999973 0.997683
0.160000 0.999960 0.999964 0.997309
0.170000 0.999947 0.999953 0.996890
0.180000 0.999932 0.999939 0.996423
0.190000 0.999913 0.999922 0.995902
0.200000 0.999889 0.999900 0.995324
0.210000 0.999859 0.999873 0.994682
0.220000 0.999821 0.999839 0.993972
0.230000 0.999775 0.999796 0.993189
0.240000 0.999719 0.999744 0.992327
0.250000 0.999649 0.999681 0.991379
0.260000 0.999565 0.999603 0.990339
0.270000 0.999463 0.999508 0.989202
0.280000 0.999339 0.999393 0.987959
0.290000 0.999190 0.999254 0.986604
0.300000 0.999011 0.999087 0.985130
0.310000 0.998797 0.998887 0.983528
0.320000 0.998542 0.998648 0.981791
0.330000 0.998240 0.998364 0.979912
0.340000 0.997884 0.998028 0.977881
0.350000 0.997463 0.997630 0.975691
0.360000 0.996970 0.997163 0.973332
0.370000 0.996394 0.996616 0.970797
0.380000 0.995723 0.995976 0.968076
0.390000 0.994944 0.995232 0.965160
0.400000 0.994042 0.994369 0.962042
0.410000 0.993003 0.993372 0.958711
0.420000 0.991809 0.992224 0.955159
0.430000 0.990442 0.990907 0.951378
0.440000 0.988882 0.989401 0.947359
0.450000 0.987108 0.987684 0.943092
0.460000 0.985097 0.985733 0.938571
0.470000 0.982825 0.983525 0.933787
0.480000 0.980267 0.981034 0.928732
0.490000 0.977396 0.978233 0.923400
0.500000 0.974185 0.975094 0.917782
0.510000 0.970605 0.971587 0.911873
0.520000 0.966627 0.967682 0.905666
0.530000 0.962220 0.963350 0.899156
0.540000 0.957354 0.958558 0.892338
0.550000 0.951998 0.953275 0.885207
0.560000 0.946123 0.947470 0.877761
0.570000 0.939699 0.941111 0.869996
0.580000 0.932696 0.934170 0.861909
0.590000 0.925086 0.926616 0.853500
0.600000 0.916844 0.918422 0.844767
0.610000 0.907944 0.909563 0.835712
0.620000 0.898366 0.900016 0.826334
0.630000 0.888089 0.889759 0.816637
0.640000 0.877097 0.878775 0.806624
0.650000 0.865377 0.867051 0.796297
0.660000 0.852920 0.854576 0.785662
0.670000 0.839721 0.841344 0.774726
0.680000 0.825779 0.827354 0.763495
0.690000 0.811099 0.812610 0.751976
0.700000 0.795689 0.797119 0.740180
0.710000 0.779563 0.780895 0.728116
0.720000 0.762740 0.763958 0.715795
0.730000 0.745244 0.746332 0.703230
0.740000 0.727103 0.728045 0.690434
0.750000 0.708354 0.709134 0.677422
0.760000 0.689033 0.689638 0.664209
0.770000 0.669186 0.669602 0.650812
0.780000 0.648860 0.649075 0.637251
0.790000 0.628107 0.628112 0.623544
0.800000 0.606984 0.606769 0.609714
0.810000 0.585550 0.585108 0.595784
0.820000 0.563866 0.563192 0.581781
0.830000 0.541996 0.541089 0.567732
0.840000 0.520007 0.518864 0.553670
0.850000 0.497965 0.496587 0.539629
0.860000 0.475939 0.474328 0.525649
0.870000 0.453996 0.452156 0.511775
0.880000 0.432206 0.430137 0.498061
0.890000 0.410637 0.408340 0.484565
0.900000 0.389362 0.386829 0.471359
0.910000 0.368454 0.365666 0.458526
0.920000 0.347997 0.344909 0.446165
0.930000 0.328092 0.324613 0.434395
0.940000 0.308868 0.304831 0.423358
0.950000 0.290512 0.285607 0.413228
0.960000 0.273311 0.266985 0.404212
0.970000 0.257725 0.249000 0.396566
0.980000 0.244524 0.231685 0.390600
0.990000 0.235004 0.215066 0.386691
1.000000 0.231367 0.199164 0.385304
