0.000000 1.000000 1.000000 0.999930
0.010000 0.999999 0.999999 0.999843
0.020000 0.999996 0.999997 0.999653
0.030000 0.999993 0.999994 0.999426
0.040000 0.999989 0.999990 0.999157
0.050000 0.999982 0.999984 0.998841
0.060000 0.999973 0.999976 0.998472
0.070000 0.999961 0.999965 0.998044
0.080000 0.999944 0.999950 0.997551
0.090000 0.999922 0.999930 0.996986
0.100000 0.999893 0.999903 0.996341
0.110000 0.999855 0.999868 0.995608
0.120000 0.999805 0.999822 0.994779
0.130000 0.999741 0.999764 0.993845
0.140000 0.999660 0.999688 0.992795
0.150000 0.999557 0.999593 0.991621
0.160000 0.999428 0.999472 0.990312
0.170000 0.999266 0.999321 0.988856
0.180000 0.999065 0.999133 0.987242
0.190000 0.998816 0.998900 0.985459
0.200000 0.998511 0.998613 0.983494
0.210000 0.998139 0.998261 0.981335
0.220000 0.997687 0.997833 0.978968
0.230000 0.997141 0.997315 0.976381
0.240000 0.996485 0.996691 0.973560
0.250000 0.995701 0.995942 0.970491
0.260000 0.994768 0.995050 0.967161
0.270000 0.993664 0.993990 0.963557
0.280000 0.992365 0.992740 0.959663
0.290000 0.990841 0.991271 0.955468
0.300000 0.989064 0.989553 0.950956
0.310000 0.987001 0.987553 0.946116
0.320000 0.984617 0.985237 0.940935
0.330000 0.981874 0.982567 0.935400
0.340000 0.978733 0.979502 0.929499
0.350000 0.975153 0.976000 0.923222
0.360000 0.971089 0.972017 0.916558
0.370000 0.966498 0.967508 0.909498
0.380000 0.961334 0.962425 0.902033
0.390000 0.955549 0.956721 0.894155
0.400000 0.949099 0.950349 0.885859
0.410000 0.941937 0.943260 0.877138
0.420000 0.934018 0.935409 0.867989
0.430000 0.925302 0.926752 0.858410
0.440000 0.915746 0.917247 0.848399
0.450000 0.905316 0.906856 0.837956
0.460000 0.893979 0.895545 0.827084
0.470000 0.881708 0.883284 0.815786
0.480000 0.868481 0.870051 0.804066
0.490000 0.854284 0.855829 0.791933
0.500000 0.839107 0.840609 0.779393
0.510000 0.822951 0.824389 0.766458
0.520000 0.805824 0.807176 0.753139
0.530000 0.787741 0.788985 0.739450
0.540000 0.768727 0.769842 0.725405
0.550000 0.748816 0.749781 0.711021
0.560000 0.728051 0.728844 0.696317
0.570000 0.706483 0.707084 0.681311
0.580000 0.684172 0.684563 0.666025
0.590000 0.661186 0.661351 0.650482
0.600000 0.637599 0.637523 0.634704
0.610000 0.613495 0.613166 0.618716
0.620000 0.588960 0.588369 0.602544
0.630000 0.564088 0.563229 0.586215
0.640000 0.538974 0.537844 0.569754
0.650000 0.513718 0.512318 0.553191
0.660000 0.488421 0.486754 0.536554
0.670000 0.463184 0.461257 0.519870
0.680000 0.438107 0.435930 0.503169
0.690000 0.413287 0.410875 0.486479
0.700000 0.388822 0.386189 0.469830
0.710000 0.364800 0.361965 0.453249
0.720000 0.341307 0.338293 0.436765
0.730000 0.318424 0.315251 0.420405
0.740000 0.296222 0.292916 0.404197
0.750000 0.274767 0.271352 0.388166
0.760000 0.254114 0.250617 0.372338
0.770000 0.234313 0.230760 0.356738
0.780000 0.215404 0.211820 0.341389
0.790000 0.197417 0.193828 0.326315
0.800000 0.180375 0.176805 0.311537
0.810000 0.164292 0.160763 0.297075
0.820000 0.149173 0.145708 0.282951
0.830000 0.135017 0.131634 0.269184
0.840000 0.121814 0.118532 0.255794
0.850000 0.109549 0.106383 0.242798
0.860000 0.098200 0.095162 0.230217
0.870000 0.087740 0.084841 0.218072
0.880000 0.078136 0.075385 0.206385
0.890000 0.069354 0.066756 0.195180
0.900000 0.061356 0.058914 0.184487
0.910000 0.054102 0.051815 0.174342
0.920000 0.047550 0.045415 0.164786
0.930000 0.041662 0.039668 0.155873
0.940000 0.036400 0.034528 0.147672
0.950000 0.031738 0.029949 0.140267
0.960000 0.027661 0.025886 0.133771
0.970000 0.024186 0.022296 0.128326
0.980000 0.021386 0.019136 0.124115
0.990000 0.019435 0.016365 0.121372
1.000000 0.018702 0.013946 0.120402
