0.000000 1.000000 1.000000 0.998939
0.010000 0.999710 0.999726 0.997632
0.020000 0.999265 0.999305 0.994780
0.030000 0.998615 0.998685 0.991394
0.040000 0.997696 0.997807 0.987420
0.050000 0.996434 0.996594 0.982807
0.060000 0.994739 0.994960 0.977500
0.070000 0.992510 0.992803 0.971450
0.080000 0.989628 0.990004 0.964603
0.090000 0.985965 0.986433 0.956914
0.100000 0.981375 0.981945 0.948335
0.110000 0.975705 0.976382 0.938826
0.120000 0.968794 0.969580 0.928351
0.130000 0.960472 0.961366 0.916878
0.140000 0.950574 0.951568 0.904381
0.150000 0.938937 0.940018 0.890844
0.160000 0.925406 0.926555 0.876255
0.170000 0.909847 0.911037 0.860612
0.180000 0.892145 0.893342 0.843922
0.190000 0.872214 0.873380 0.826199
0.200000 0.850003 0.851093 0.807467
0.210000 0.825500 0.826466 0.787761
0.220000 0.798737 0.799527 0.767123
0.230000 0.769790 0.770352 0.745606
0.240000 0.738784 0.739069 0.723268
0.250000 0.705890 0.705851 0.700180
0.260000 0.671325 0.670921 0.676417
0.270000 0.635343 0.634543 0.652063
0.280000 0.598237 0.597017 0.627206
0.290000 0.560325 0.558674 0.601941
0.300000 0.521946 0.519865 0.576366
0.310000 0.483450 0.480952 0.550582
0.320000 0.445188 0.442298 0.524691
0.330000 0.407503 0.404257 0.498797
0.340000 0.370721 0.367166 0.473003
0.350000 0.335143 0.331333 0.447408
0.360000 0.301038 0.297033 0.422112
0.370000 0.268636 0.264500 0.397208
0.380000 0.238127 0.233926 0.372784
0.390000 0.209655 0.205451 0.348924
0.400000 0.183319 0.179174 0.325705
0.410000 0.159175 0.155144 0.303195
0.420000 0.137235 0.133366 0.281456
0.430000 0.117473 0.113808 0.260542
0.440000 0.099830 0.096400 0.240498
0.450000 0.084217 0.081046 0.221359
0.460000 0.070522 0.067625 0.203154
0.470000 0.058614 0.055998 0.185902
0.480000 0.048351 0.046015 0.169615
0.490000 0.039582 0.037521 0.154295
0.500000 0.032157 0.030357 0.139940
0.510000 0.025924 0.024369 0.126538
0.520000 0.020737 0.019409 0.114073
0.530000 0.016459 0.015336 0.102523
0.540000 0.012961 0.012022 0.091859
0.550000 0.010126 0.009349 0.082050
0.560000 0.007848 0.007212 0.073062
0.570000 0.006035 0.005519 0.064855
0.580000 0.004603 0.004189 0.057389
0.590000 0.003482 0.003154 0.050623
0.600000 0.002613 0.002355 0.044513
0.610000 0.001945 0.001745 0.039016
0.620000 0.001436 0.001282 0.034088
0.630000 0.001052 0.000934 0.029688
0.640000 0.000764 0.000675 0.025772
0.650000 0.000550 0.000484 0.022300
0.660000 0.000393 0.000344 0.019234
0.670000 0.000278 0.000242 0.016535
0.680000 0.000195 0.000169 0.014168
0.690000 0.000136 0.000117 0.012101
0.700000 0.000094 0.000081 0.010301
0.710000 0.000064 0.000055 0.008740
0.720000 0.000044 0.000037 0.007391
0.730000 0.000029 0.000025 0.006229
0.740000 0.000020 0.000017 0.005233
0.750000 0.000013 0.000011 0.004381
0.760000 0.000009 0.000007 0.003656
0.770000 0.000006 0.000005 0.003040
0.780000 0.000004 0.000003 0.002520
0.790000 0.000002 0.000002 0.002082
0.800000 0.000001 0.000001 0.001714
0.810000 0.000001 0.000001 0.001406
0.820000 0.000001 0.000000 0.001150
0.830000 0.000000 0.000000 0.000937
0.840000 0.000000 0.000000 0.000761
0.850000 0.000000 0.000000 0.000616
0.860000 0.000000 0.000000 0.000497
0.870000 0.000000 0.000000 0.000399
0.880000 0.000000 0.000000 0.000320
0.890000 0.000000 0.000000 0.000256
0.900000 0.000000 0.000000 0.000203
0.910000 0.000000 0.000000 0.000161
0.920000 0.000000 0.000000 0.000128
0.930000 0.000000 0.000000 0.000101
0.940000 0.000000 0.000000 0.000079
0.950000 0.000000 0.000000 0.000062
0.960000 0.000000 0.000000 0.000049
0.970000 0.000000 0.000000 0.000040
0.980000 0.000000 0.000000 0.000033
0.990000 0.000000 0.000000 0.000028
1.000000 0.000000 0.000000 0.000027
