0.000000 1.000000 1.000000 0.999984
0.010000 1.000000 1.000000 0.999964
0.020000 1.000000 1.000000 0.999921
0.030000 1.000000 1.000000 0.999868
0.040000 0.999999 1.000000 0.999807
0.050000 0.999999 0.999999 0.999734
0.060000 0.999999 0.999999 0.999648
0.070000 0.999998 0.999998 0.999549
0.080000 0.999997 0.999998 0.999434
0.090000 0.999996 0.999997 0.999302
0.100000 0.999995 0.999996 0.999150
0.110000 0.999993 0.999994 0.998976
0.120000 0.999991 0.999992 0.998779
0.130000 0.999987 0.999989 0.998555
0.140000 0.999983 0.999985 0.998301
0.150000 0.999978 0.999980 0.998016
0.160000 0.999971 0.999974 0.997695
0.170000 0.999962 0.999966 0.997336
0.180000 0.999951 0.999956 0.996934
0.190000 0.999937 0.999944 0.996485
0.200000 0.999919 0.999928 0.995987
0.210000 0.999897 0.999908 0.995434
0.220000 0.999870 0.999883 0.994822
0.230000 0.999836 0.999852 0.994146
0.240000 0.999795 0.999814 0.993400
0.250000 0.999744 0.999767 0.992580
0.260000 0.999681 0.999710 0.991680
0.270000 0.999605 0.999640 0.990694
0.280000 0.999513 0.999555 0.989616
0.290000 0.999402 0.999452 0.988439
0.300000 0.999269 0.999328 0.987156
0.310000 0.999109 0.999179 0.985762
0.320000 0.998918 0.999001 0.984248
0.330000 0.998691 0.998788 0.982607
0.340000 0.998422 0.998535 0.980833
0.350000 0.998104 0.998236 0.978916
0.360000 0.997730 0.997883 0.976850
0.370000 0.997291 0.997468 0.974625
0.380000 0.996778 0.996981 0.972235
0.390000 0.996181 0.996413 0.969670
0.400000 0.995487 0.995753 0.966922
0.410000 0.994685 0.994986 0.963983
0.420000 0.993760 0.994101 0.960845
0.430000 0.992697 0.993081 0.957498
0.440000 0.991480 0.991910 0.953934
0.450000 0.990090 0.990570 0.950146
0.460000 0.988509 0.989042 0.946125
0.470000 0.986715 0.987306 0.941863
0.480000 0.984687 0.985339 0.937352
0.490000 0.982402 0.983117 0.932584
0.500000 0.979835 0.980617 0.927553
0.510000 0.976961 0.977812 0.922251
0.520000 0.973753 0.974675 0.916672
0.530000 0.970183 0.971178 0.910809
0.540000 0.966224 0.967292 0.904657
0.550000 0.961847 0.962988 0.898211
0.560000 0.957022 0.958236 0.891466
0.570000 0.951720 0.953006 0.884417
0.580000 0.945913 0.947268 0.877062
0.590000 0.939571 0.940992 0.869397
0.600000 0.932668 0.934150 0.861421
0.610000 0.925176 0.926713 0.853133
0.620000 0.917071 0.918656 0.844531
0.630000 0.908328 0.909954 0.835616
0.640000 0.898927 0.900585 0.826389
0.650000 0.888849 0.890528 0.816853
0.660000 0.878078 0.879767 0.807009
0.670000 0.866602 0.868289 0.796863
0.680000 0.854411 0.856082 0.786418
0.690000 0.841500 0.843141 0.775680
0.700000 0.827868 0.829463 0.764657
0.710000 0.813518 0.815053 0.753357
0.720000 0.798457 0.799916 0.741787
0.730000 0.782699 0.784065 0.729958
0.740000 0.766259 0.767517 0.717882
0.750000 0.749161 0.750294 0.705570
0.760000 0.731431 0.732424 0.693036
0.770000 0.713100 0.713938 0.680296
0.780000 0.694205 0.694874 0.667366
0.790000 0.674787 0.675274 0.654264
0.800000 0.654890 0.655183 0.641010
0.810000 0.634564 0.634652 0.627626
0.820000 0.613860 0.613734 0.614137
0.830000 0.592836 0.592488 0.600569
0.840000 0.571549 0.570974 0.586955
0.850000 0.550060 0.549253 0.573328
0.860000 0.528433 0.527390 0.559727
0.870000 0.506733 0.505451 0.546198
0.880000 0.485027 0.483501 0.532794
0.890000 0.463385 0.461608 0.519575
0.900000 0.441880 0.439837 0.506613
0.910000 0.420593 0.418251 0.493992
0.920000 0.399615 0.396915 0.481814
0.930000 0.379056 0.375888 0.470198
0.940000 0.359065 0.355229 0.459290
0.950000 0.339853 0.334991 0.449264
0.960000 0.321743 0.315226 0.440332
0.970000 0.305252 0.295981 0.432749
0.980000 0.291227 0.277297 0.426828
0.990000 0.281084 0.259214 0.422948
1.000000 0.277205 0.241764 0.421570
