0.000000 1.000000 1.000000 0.996423
0.010000 0.997435 0.997521 0.992024
0.020000 0.993555 0.993748 0.982462
0.030000 0.987994 0.988315 0.971197
0.040000 0.980356 0.980814 0.958130
0.050000 0.970220 0.970817 0.943175
0.060000 0.957161 0.957884 0.926272
0.070000 0.940775 0.941596 0.907382
0.080000 0.920701 0.921573 0.886492
0.090000 0.896651 0.897511 0.863620
0.100000 0.868436 0.869203 0.838813
0.110000 0.835988 0.836570 0.812148
0.120000 0.799380 0.799678 0.783733
0.130000 0.758836 0.758752 0.753706
0.140000 0.714734 0.714178 0.722231
0.150000 0.667597 0.666495 0.689499
0.160000 0.618076 0.616377 0.655721
0.170000 0.566923 0.564606 0.621126
0.180000 0.514959 0.512031 0.585957
0.190000 0.463031 0.459535 0.550464
0.200000 0.411978 0.407986 0.514902
0.210000 0.362588 0.358196 0.479523
0.220000 0.315565 0.310890 0.444573
0.230000 0.271501 0.266668 0.410286
0.240000 0.230857 0.225995 0.376881
0.250000 0.193952 0.189183 0.344557
0.260000 0.160962 0.156395 0.313491
0.270000 0.131928 0.127654 0.283834
0.280000 0.106769 0.102857 0.255711
0.290000 0.085305 0.081799 0.229221
0.300000 0.067273 0.064197 0.204434
0.310000 0.052358 0.049713 0.181393
0.320000 0.040209 0.037980 0.160115
0.330000 0.030465 0.028623 0.140594
0.340000 0.022770 0.021278 0.122802
0.350000 0.016786 0.015600 0.106690
0.360000 0.012204 0.011279 0.092195
0.370000 0.008749 0.008042 0.079239
0.380000 0.006184 0.005653 0.067733
0.390000 0.004309 0.003918 0.057580
0.400000 0.002960 0.002678 0.048679
0.410000 0.002004 0.001804 0.040925
0.420000 0.001337 0.001198 0.034215
0.430000 0.000879 0.000784 0.028444
0.440000 0.000569 0.000506 0.023513
0.450000 0.000363 0.000322 0.019327
0.460000 0.000228 0.000202 0.015795
0.470000 0.000141 0.000125 0.012835
0.480000 0.000086 0.000076 0.010370
0.490000 0.000052 0.000046 0.008330
0.500000 0.000031 0.000027 0.006652
0.510000 0.000018 0.000016 0.005282
0.520000 0.000010 0.000009 0.004169
0.530000 0.000006 0.000005 0.003271
0.540000 0.000003 0.000003 0.002552
0.550000 0.000002 0.000002 0.001979
0.560000 0.000001 0.000001 0.001526
0.570000 0.000000 0.000000 0.001169
0.580000 0.000000 0.000000 0.000891
0.590000 0.000000 0.000000 0.000674
0.600000 0.000000 0.000000 0.000508
0.610000 0.000000 0.000000 0.000380
0.620000 0.000000 0.000000 0.000282
0.630000 0.000000 0.000000 0.000209
0.640000 0.000000 0.000000 0.000153
0.650000 0.000000 0.000000 0.000112
0.660000 0.000000 0.000000 0.000081
0.670000 0.000000 0.000000 0.000059
0.680000 0.000000 0.000000 0.000042
0.690000 0.000000 0.000000 0.000030
0.700000 0.000000 0.000000 0.000021
0.710000 0.000000 0.000000 0.000015
0.720000 0.000000 0.000000 0.000010
0.730000 0.000000 0.000000 0.000007
0.740000 0.000000 0.000000 0.000005
0.750000 0.000000 0.000000 0.000003
0.760000 0.000000 0.000000 0.000002
0.770000 0.000000 0.000000 0.000002
0.780000 0.000000 0.000000 0.000001
0.790000 0.000000 0.000000 0.000001
0.800000 0.000000 0.000000 0.000000
0.810000 0.000000 0.000000 0.000000
0.820000 0.000000 0.000000 0.000000
0.830000 0.000000 0.000000 0.000000
0.840000 0.000000 0.000000 0.000000
0.850000 0.000000 0.000000 0.000000
0.860000 0.000000 0.000000 0.000000
0.870000 0.000000 0.000000 0.000000
0.880000 0.000000 0.000000 0.000000
0.890000 0.000000 0.000000 0.000000
0.900000 0.000000 0.000000 0.000000
0.910000 0.000000 0.000000 0.000000
0.920000 0.000000 0.000000 0.000000
0.930000 0.000000 0.000000 0.000000
0.940000 0.000000 0.000000 0.000000
0.950000 0.000000 0.000000 0.000000
0.960000 0.000000 0.000000 0.000000
0.970000 0.000000 0.000000 0.000000
0.980000 0.000000 0.000000 0.000000
0.990000 0.000000 0.000000 0.000000
1.000000 0.000000 0.000000 0.000000
