0.000000 1.000000 1.000000 0.999798
0.010000 0.999988 0.999989 0.999548
0.020000 0.999970 0.999973 0.999002
0.030000 0.999943 0.999948 0.998351
0.040000 0.999904 0.999912 0.997581
0.050000 0.999850 0.999862 0.996680
0.060000 0.999775 0.999793 0.995632
0.070000 0.999674 0.999699 0.994422
0.080000 0.999539 0.999573 0.993034
0.090000 0.999361 0.999406 0.991451
0.100000 0.999129 0.999189 0.989654
0.110000 0.998831 0.998908 0.987626
0.120000 0.998450 0.998548 0.985346
0.130000 0.997968 0.998091 0.982796
0.140000 0.997364 0.997516 0.979954
0.150000 0.996613 0.996800 0.976800
0.160000 0.995686 0.995914 0.973312
0.170000 0.994552 0.994825 0.969470
0.180000 0.993173 0.993498 0.965253
0.190000 0.991510 0.991893 0.960638
0.200000 0.989516 0.989963 0.955606
0.210000 0.987142 0.987660 0.950137
0.220000 0.984334 0.984928 0.944210
0.230000 0.981035 0.981710 0.937807
0.240000 0.977183 0.977944 0.930911
0.250000 0.972713 0.973562 0.923505
0.260000 0.967558 0.968496 0.915573
0.270000 0.961648 0.962676 0.907103
0.280000 0.954914 0.956030 0.898083
0.290000 0.947285 0.948484 0.888503
0.300000 0.938694 0.939969 0.878357
0.310000 0.929074 0.930417 0.867638
0.320000 0.918364 0.919762 0.856343
0.330000 0.906508 0.907946 0.844474
0.340000 0.893457 0.894918 0.832032
0.350000 0.879172 0.880635 0.819023
0.360000 0.863623 0.865065 0.805454
0.370000 0.846790 0.848187 0.791338
0.380000 0.828669 0.829994 0.776688
0.390000 0.809266 0.810492 0.761520
0.400000 0.788605 0.789702 0.745855
0.410000 0.766723 0.767663 0.729716
0.420000 0.743672 0.744426 0.713127
0.430000 0.719520 0.720062 0.696116
0.440000 0.694350 0.694654 0.678715
0.450000 0.668258 0.668303 0.660956
0.460000 0.641355 0.641121 0.642873
0.470000 0.613762 0.613233 0.624505
0.480000 0.585611 0.584776 0.605889
0.490000 0.557041 0.555893 0.587065
0.500000 0.528198 0.526737 0.568075
0.510000 0.499233 0.497461 0.548962
0.520000 0.470296 0.468222 0.529768
0.530000 0.441539 0.439176 0.510536
0.540000 0.413109 0.410475 0.491310
0.550000 0.385147 0.382266 0.472134
0.560000 0.357790 0.354686 0.453050
0.570000 0.331162 0.327865 0.434101
0.580000 0.305378 0.301920 0.415327
0.590000 0.280539 0.276954 0.396768
0.600000 0.256735 0.253057 0.378462
0.610000 0.234040 0.230304 0.360447
0.620000 0.212514 0.208754 0.342756
0.630000 0.192200 0.188450 0.325423
0.640000 0.173129 0.169420 0.308477
0.650000 0.155317 0.151679 0.291946
0.660000 0.138766 0.135225 0.275856
0.670000 0.123464 0.120045 0.260228
0.680000 0.109391 0.106113 0.245083
0.690000 0.096513 0.093394 0.230439
0.700000 0.084790 0.081842 0.216308
0.710000 0.074171 0.071405 0.202704
0.720000 0.064603 0.062024 0.189634
0.730000 0.056024 0.053637 0.177106
0.740000 0.048372 0.046177 0.165122
0.750000 0.041582 0.039576 0.153684
0.760000 0.035587 0.033766 0.142791
0.770000 0.030321 0.028678 0.132439
0.780000 0.025718 0.024245 0.122623
0.790000 0.021716 0.020404 0.113335
0.800000 0.018254 0.017093 0.104566
0.810000 0.015275 0.014252 0.096305
0.820000 0.012723 0.011829 0.088540
0.830000 0.010549 0.009772 0.081257
0.840000 0.008707 0.008035 0.074443
0.850000 0.007153 0.006576 0.068081
0.860000 0.005849 0.005356 0.062157
0.870000 0.004761 0.004342 0.056655
0.880000 0.003857 0.003504 0.051558
0.890000 0.003110 0.002814 0.046853
0.900000 0.002496 0.002249 0.042526
0.910000 0.001994 0.001789 0.038564
0.920000 0.001585 0.001416 0.034958
0.930000 0.001255 0.001116 0.031701
0.940000 0.000988 0.000875 0.028792
0.950000 0.000776 0.000683 0.026235
0.960000 0.000607 0.000530 0.024044
0.970000 0.000476 0.000410 0.022243
0.980000 0.000378 0.000315 0.020870
0.990000 0.000314 0.000241 0.019986
1.000000 0.000291 0.000184 0.019674
