0.000000 1.000000 1.000000 0.999975
0.010000 1.000000 1.000000 0.999945
0.020000 1.000000 1.000000 0.999879
0.030000 0.999999 0.999999 0.999799
0.040000 0.999999 0.999999 0.999705
0.050000 0.999998 0.999998 0.999593
0.060000 0.999997 0.999997 0.999463
0.070000 0.999996 0.999996 0.999312
0.080000 0.999994 0.999994 0.999137
0.090000 0.999991 0.999992 0.998936
0.100000 0.999988 0.999989 0.998706
0.110000 0.999983 0.999985 0.998443
0.120000 0.999977 0.999980 0.998144
0.130000 0.999969 0.999973 0.997805
0.140000 0.999959 0.999964 0.997423
0.150000 0.999947 0.999952 0.996993
0.160000 0.999930 0.999937 0.996510
0.170000 0.999910 0.999919 0.995971
0.180000 0.999883 0.999895 0.995369
0.190000 0.999851 0.999865 0.994699
0.200000 0.999810 0.999828 0.993956
0.210000 0.999759 0.999781 0.993134
0.220000 0.999697 0.999724 0.992225
0.230000 0.999620 0.999653 0.991224
0.240000 0.999525 0.999565 0.990123
0.250000 0.999410 0.999459 0.988916
0.260000 0.999271 0.999329 0.987594
0.270000 0.999102 0.999172 0.986150
0.280000 0.998899 0.998982 0.984576
0.290000 0.998655 0.998753 0.982863
0.300000 0.998365 0.998480 0.981002
0.310000 0.998019 0.998154 0.978986
0.320000 0.997610 0.997767 0.976804
0.330000 0.997126 0.997309 0.974447
0.340000 0.996558 0.996770 0.971907
0.350000 0.995893 0.996136 0.969173
0.360000 0.995117 0.995395 0.966237
0.370000 0.994215 0.994532 0.963088
0.380000 0.993170 0.993530 0.959716
0.390000 0.991964 0.992370 0.956114
0.400000 0.990578 0.991034 0.952270
0.410000 0.988990 0.989501 0.948175
0.420000 0.987177 0.987746 0.943821
0.430000 0.985115 0.985745 0.939199
0.440000 0.982777 0.983473 0.934299
0.450000 0.980137 0.980902 0.929114
0.460000 0.977166 0.978001 0.923634
0.470000 0.973833 0.974741 0.917854
0.480000 0.970108 0.971091 0.911766
0.490000 0.965958 0.967017 0.905363
0.500000 0.961351 0.962485 0.898639
0.510000 0.956254 0.957464 0.891590
0.520000 0.950634 0.951917 0.884210
0.530000 0.944459 0.945812 0.876496
0.540000 0.937697 0.939116 0.868444
0.550000 0.930316 0.931795 0.860053
0.560000 0.922287 0.923820 0.851322
0.570000 0.913582 0.915162 0.842249
0.580000 0.904175 0.905793 0.832836
0.590000 0.894045 0.895689 0.823083
0.600000 0.883172 0.884830 0.812995
0.610000 0.871538 0.873198 0.802573
0.620000 0.859134 0.860781 0.791823
0.630000 0.845950 0.847570 0.780751
0.640000 0.831984 0.833561 0.769363
0.650000 0.817238 0.818755 0.757668
0.660000 0.801720 0.803159 0.745673
0.670000 0.785441 0.786786 0.733390
0.680000 0.768422 0.769655 0.720829
0.690000 0.750685 0.751788 0.708003
0.700000 0.732261 0.733218 0.694924
0.710000 0.713185 0.713980 0.681607
0.720000 0.693498 0.694115 0.668067
0.730000 0.673245 0.673671 0.654321
0.740000 0.652479 0.652700 0.640386
0.750000 0.631255 0.631260 0.626280
0.760000 0.609632 0.609412 0.612022
0.770000 0.587673 0.587222 0.597633
0.780000 0.565446 0.564757 0.583135
0.790000 0.543019 0.542090 0.568551
0.800000 0.520463 0.519294 0.553904
0.810000 0.497849 0.496441 0.539220
0.820000 0.475251 0.473608 0.524527
0.830000 0.452740 0.450869 0.509855
0.840000 0.430388 0.428297 0.495235
0.850000 0.408265 0.405963 0.480704
0.860000 0.386439 0.383939 0.466300
0.870000 0.364975 0.362289 0.452068
0.880000 0.343936 0.341076 0.438057
0.890000 0.323384 0.320361 0.424325
0.900000 0.303376 0.300195 0.410940
0.910000 0.283973 0.280629 0.397980
0.920000 0.265235 0.261707 0.385539
0.930000 0.247237 0.243466 0.373730
0.940000 0.230070 0.225939 0.362688
0.950000 0.213871 0.209152 0.352577
0.960000 0.198855 0.193126 0.343598
0.970000 0.185377 0.177877 0.335996
0.980000 0.174045 0.163413 0.330071
0.990000 0.165915 0.149739 0.326194
1.000000 0.162818 0.136852 0.324818
