0.000000 1.000000 1.000000 0.999964
0.010000 1.000000 1.000000 0.999919
0.020000 0.999999 0.999999 0.999822
0.030000 0.999998 0.999999 0.999705
0.040000 0.999997 0.999998 0.999566
0.050000 0.999996 0.999996 0.999403
0.060000 0.999993 0.999994 0.999213
0.070000 0.999990 0.999991 0.998992
0.080000 0.999986 0.999987 0.998736
0.090000 0.999980 0.999982 0.998443
0.100000 0.999972 0.999976 0.998107
0.110000 0.999963 0.999967 0.997724
0.120000 0.999949 0.999955 0.997289
0.130000 0.999933 0.999939 0.996797
0.140000 0.999911 0.999920 0.996244
0.150000 0.999883 0.999895 0.995622
0.160000 0.999848 0.999862 0.994925
0.170000 0.999804 0.999822 0.994148
0.180000 0.999748 0.999771 0.993282
0.190000 0.999678 0.999706 0.992322
0.200000 0.999592 0.999627 0.991258
0.210000 0.999486 0.999528 0.990083
0.220000 0.999355 0.999406 0.988789
0.230000 0.999195 0.999257 0.987367
0.240000 0.999000 0.999075 0.985807
0.250000 0.998764 0.998854 0.984101
0.260000 0.998479 0.998586 0.982239
0.270000 0.998138 0.998264 0.980210
0.280000 0.997730 0.997879 0.978005
0.290000 0.997244 0.997418 0.975613
0.300000 0.996668 0.996871 0.973024
0.310000 0.995989 0.996224 0.970226
0.320000 0.995191 0.995462 0.967210
0.330000 0.994256 0.994567 0.963964
0.340000 0.993167 0.993522 0.960477
0.350000 0.991903 0.992306 0.956739
0.360000 0.990441 0.990896 0.952739
0.370000 0.988757 0.989269 0.948466
0.380000 0.986825 0.987397 0.943911
0.390000 0.984617 0.985254 0.939062
0.400000 0.982104 0.982808 0.933910
0.410000 0.979253 0.980029 0.928446
0.420000 0.976033 0.976883 0.922661
0.430000 0.972408 0.973334 0.916547
0.440000 0.968344 0.969347 0.910095
0.450000 0.963804 0.964885 0.903299
0.460000 0.958752 0.959910 0.896153
0.470000 0.953149 0.954384 0.888651
0.480000 0.946960 0.948268 0.880788
0.490000 0.940148 0.941526 0.872560
0.500000 0.932678 0.934119 0.863964
0.510000 0.924516 0.926014 0.855000
0.520000 0.915630 0.917177 0.845665
0.530000 0.905990 0.907577 0.835961
0.540000 0.895572 0.897186 0.825888
0.550000 0.884352 0.885982 0.815450
0.560000 0.872312 0.873943 0.804650
0.570000 0.859438 0.861056 0.793493
0.580000 0.845722 0.847310 0.781986
0.590000 0.831161 0.832700 0.770137
0.600000 0.815756 0.817231 0.757953
0.610000 0.799518 0.800908 0.745445
0.620000 0.782461 0.783748 0.732625
0.630000 0.764607 0.765773 0.719505
0.640000 0.745985 0.747011 0.706098
0.650000 0.726630 0.727497 0.692419
0.660000 0.706584 0.707276 0.678484
0.670000 0.685894 0.686394 0.664310
0.680000 0.664615 0.664909 0.649916
0.690000 0.642806 0.642881 0.635318
0.700000 0.620531 0.620376 0.620539
0.710000 0.597861 0.597466 0.605597
0.720000 0.574867 0.574227 0.590515
0.730000 0.551626 0.550737 0.575314
0.740000 0.528218 0.527078 0.560017
0.750000 0.504721 0.503332 0.544647
0.760000 0.481218 0.479583 0.529229
0.770000 0.457790 0.455916 0.513786
0.780000 0.434516 0.432412 0.498344
0.790000 0.411476 0.409154 0.482928
0.800000 0.388746 0.386218 0.467564
0.810000 0.366398 0.363681 0.452280
0.820000 0.344502 0.341613 0.437103
0.830000 0.323121 0.320081 0.422063
0.840000 0.302317 0.299144 0.407190
0.850000 0.282142 0.278858 0.392517
0.860000 0.262645 0.259271 0.378080
0.870000 0.243868 0.240425 0.363918
0.880000 0.225848 0.222356 0.350074
0.890000 0.208614 0.205093 0.336598
0.900000 0.192192 0.188656 0.323547
0.910000 0.176604 0.173061 0.310989
0.920000 0.161870 0.158316 0.299003
0.930000 0.148012 0.144424 0.287686
0.940000 0.135065 0.131380 0.277154
0.950000 0.123086 0.119177 0.267552
0.960000 0.112180 0.107798 0.259055
0.970000 0.102546 0.097226 0.251883
0.980000 0.094549 0.087438 0.246306
0.990000 0.088862 0.078406 0.242662
1.000000 0.086704 0.070101 0.241369
