0.000000 1.000000 1.000000 0.998042
0.010000 0.999110 0.999150 0.995631
0.020000 0.997754 0.997847 0.990380
0.030000 0.995787 0.995949 0.984165
0.040000 0.993039 0.993285 0.976906
0.050000 0.989317 0.989661 0.968528
0.060000 0.984403 0.984857 0.958959
0.070000 0.978060 0.978632 0.948136
0.080000 0.970037 0.970731 0.936004
0.090000 0.960078 0.960890 0.922518
0.100000 0.947928 0.948844 0.907643
0.110000 0.933345 0.934342 0.891358
0.120000 0.916112 0.917158 0.873657
0.130000 0.896049 0.897100 0.854547
0.140000 0.873026 0.874028 0.834052
0.150000 0.846972 0.847865 0.812211
0.160000 0.817887 0.818603 0.789081
0.170000 0.785848 0.786318 0.764732
0.180000 0.751012 0.751169 0.739252
0.190000 0.713619 0.713398 0.712741
0.200000 0.673985 0.673331 0.685316
0.210000 0.632496 0.631368 0.657102
0.220000 0.589598 0.587970 0.628237
0.230000 0.545782 0.543645 0.598866
0.240000 0.501565 0.498931 0.569139
0.250000 0.457478 0.454376 0.539212
0.260000 0.414039 0.410518 0.509241
0.270000 0.371744 0.367867 0.479383
0.280000 0.331044 0.326887 0.449791
0.290000 0.292337 0.287982 0.420611
0.300000 0.255950 0.251487 0.391985
0.310000 0.222141 0.217658 0.364044
0.320000 0.191088 0.186669 0.336907
0.330000 0.162894 0.158616 0.310684
0.340000 0.137589 0.133518 0.285469
0.350000 0.115138 0.111326 0.261344
0.360000 0.095444 0.091932 0.238374
0.370000 0.078366 0.075181 0.216612
0.380000 0.063726 0.060880 0.196096
0.390000 0.051317 0.048813 0.176847
0.400000 0.040919 0.038747 0.158876
0.410000 0.032305 0.030449 0.142178
0.420000 0.025250 0.023686 0.126739
0.430000 0.019537 0.018237 0.112532
0.440000 0.014963 0.013898 0.099522
0.450000 0.011343 0.010483 0.087665
0.460000 0.008511 0.007825 0.076911
0.470000 0.006319 0.005780 0.067204
0.480000 0.004643 0.004225 0.058483
0.490000 0.003376 0.003056 0.050686
0.500000 0.002429 0.002188 0.043748
0.510000 0.001729 0.001549 0.037605
0.520000 0.001218 0.001086 0.032189
0.530000 0.000848 0.000753 0.027439
0.540000 0.000585 0.000516 0.023292
0.550000 0.000398 0.000350 0.019689
0.560000 0.000269 0.000235 0.016573
0.570000 0.000179 0.000156 0.013891
0.580000 0.000118 0.000103 0.011593
0.590000 0.000077 0.000067 0.009635
0.600000 0.000050 0.000043 0.007973
0.610000 0.000032 0.000027 0.006569
0.620000 0.000020 0.000017 0.005389
0.630000 0.000012 0.000011 0.004402
0.640000 0.000008 0.000007 0.003580
0.650000 0.000005 0.000004 0.002899
0.660000 0.000003 0.000002 0.002337
0.670000 0.000002 0.000001 0.001876
0.680000 0.000001 0.000001 0.001500
0.690000 0.000001 0.000000 0.001193
0.700000 0.000000 0.000000 0.000945
0.710000 0.000000 0.000000 0.000745
0.720000 0.000000 0.000000 0.000585
0.730000 0.000000 0.000000 0.000458
0.740000 0.000000 0.000000 0.000356
0.750000 0.000000 0.000000 0.000276
0.760000 0.000000 0.000000 0.000213
0.770000 0.000000 0.000000 0.000163
0.780000 0.000000 0.000000 0.000125
0.790000 0.000000 0.000000 0.000095
0.800000 0.000000 0.000000 0.000072
0.810000 0.000000 0.000000 0.000054
0.820000 0.000000 0.000000 0.000041
0.830000 0.000000 0.000000 0.000030
0.840000 0.000000 0.000000 0.000023
0.850000 0.000000 0.000000 0.000017
0.860000 0.000000 0.000000 0.000012
0.870000 0.000000 0.000000 0.000009
0.880000 0.000000 0.000000 0.000007
0.890000 0.000000 0.000000 0.000005
0.900000 0.000000 0.000000 0.000003
0.910000 0.000000 0.000000 0.000003
0.920000 0.000000 0.000000 0.000002
0.930000 0.000000 0.000000 0.000001
0.940000 0.000000 0.000000 0.000001
0.950000 0.000000 0.000000 0.000001
0.960000 0.000000 0.000000 0.000000
0.970000 0.000000 0.000000 0.000000
0.980000 0.000000 0.000000 0.000000
0.990000 0.000000 0.000000 0.000000
1.000000 0.000000 0.000000 0.000000
