0.000000 1.000000 1.000000 0.999978
0.010000 1.000000 1.000000 0.999950
0.020000 1.000000 1.000000 0.999889
0.030000 0.999999 0.999999 0.999817
0.040000 0.999999 0.999999 0.999731
0.050000 0.999998 0.999999 0.999630
0.060000 0.999997 0.999998 0.999511
0.070000 0.999996 0.999997 0.999373
0.080000 0.999995 0.999995 0.999214
0.090000 0.999993 0.999994 0.999030
0.100000 0.999990 0.999991 0.998820
0.110000 0.999986 0.999988 0.998580
0.120000 0.999981 0.999983 0.998307
0.130000 0.999975 0.999978 0.997998
0.140000 0.999966 0.999970 0.997649
0.150000 0.999956 0.999961 0.997256
0.160000 0.999942 0.999948 0.996815
0.170000 0.999925 0.999933 0.996321
0.180000 0.999904 0.999913 0.995770
0.190000 0.999876 0.999889 0.995157
0.200000 0.999842 0.999858 0.994476
0.210000 0.999800 0.999819 0.993722
0.220000 0.999748 0.999771 0.992889
0.230000 0.999684 0.999712 0.991971
0.240000 0.999605 0.999639 0.990960
0.250000 0.999508 0.999550 0.989851
0.260000 0.999391 0.999441 0.988636
0.270000 0.999250 0.999310 0.987307
0.280000 0.999079 0.999150 0.985858
0.290000 0.998874 0.998958 0.984280
0.300000 0.998628 0.998728 0.982565
0.310000 0.998336 0.998453 0.980704
0.320000 0.997989 0.998126 0.978690
0.330000 0.997579 0.997739 0.976512
0.340000 0.997096 0.997281 0.974163
0.350000 0.996529 0.996742 0.971633
0.360000 0.995866 0.996111 0.968913
0.370000 0.995094 0.995374 0.965993
0.380000 0.994198 0.994517 0.962865
0.390000 0.993162 0.993524 0.959519
0.400000 0.991969 0.992376 0.955945
0.410000 0.990598 0.991055 0.952135
0.420000 0.989030 0.989541 0.948079
0.430000 0.987242 0.987810 0.943769
0.440000 0.985210 0.985840 0.939195
0.450000 0.982910 0.983604 0.934350
0.460000 0.980314 0.981076 0.929224
0.470000 0.977395 0.978227 0.923812
0.480000 0.974123 0.975028 0.918104
0.490000 0.970469 0.971448 0.912095
0.500000 0.966401 0.967455 0.905777
0.510000 0.961888 0.963018 0.899145
0.520000 0.956899 0.958103 0.892194
0.530000 0.951400 0.952677 0.884920
0.540000 0.945359 0.946707 0.877318
0.550000 0.938747 0.940161 0.869385
0.560000 0.931532 0.933007 0.861120
0.570000 0.923686 0.925216 0.852520
0.580000 0.915181 0.916758 0.843586
0.590000 0.905991 0.907607 0.834318
0.600000 0.896095 0.897740 0.824716
0.610000 0.885472 0.887135 0.814784
0.620000 0.874107 0.875774 0.804525
0.630000 0.861986 0.863645 0.793943
0.640000 0.849102 0.850737 0.783043
0.650000 0.835450 0.837046 0.771832
0.660000 0.821031 0.822572 0.760318
0.670000 0.805851 0.807320 0.748508
0.680000 0.789921 0.791302 0.736413
0.690000 0.773258 0.774533 0.724043
0.700000 0.755883 0.757035 0.711409
0.710000 0.737824 0.738836 0.698525
0.720000 0.719114 0.719970 0.685404
0.730000 0.699791 0.700476 0.672062
0.740000 0.679898 0.680397 0.658514
0.750000 0.659483 0.659784 0.644776
0.760000 0.638599 0.638691 0.630868
0.770000 0.617303 0.617175 0.616809
0.780000 0.595655 0.595300 0.602619
0.790000 0.573720 0.573131 0.588319
0.800000 0.551562 0.550737 0.573934
0.810000 0.529251 0.528187 0.559489
0.820000 0.506856 0.505554 0.545010
0.830000 0.484447 0.482911 0.530527
0.840000 0.462096 0.460330 0.516071
0.850000 0.439872 0.437883 0.501680
0.860000 0.417844 0.415640 0.487391
0.870000 0.396081 0.393671 0.473250
0.880000 0.374648 0.372042 0.459309
0.890000 0.353610 0.350814 0.445625
0.900000 0.333033 0.330048 0.432267
0.910000 0.312981 0.309799 0.419316
0.920000 0.293525 0.290115 0.406869
0.930000 0.274748 0.271043 0.395040
0.940000 0.256758 0.252622 0.383968
0.950000 0.239708 0.234886 0.373821
0.960000 0.223841 0.217865 0.364802
0.970000 0.209550 0.201582 0.357162
0.980000 0.197502 0.186054 0.351205
0.990000 0.188842 0.171292 0.347305
1.000000 0.185540 0.157305 0.345921
