0.000000 1.000000 1.000000 0.999984
0.010000 1.000000 1.000000 0.999963
0.020000 1.000000 1.000000 0.999919
0.030000 1.000000 1.000000 0.999866
0.040000 0.999999 1.000000 0.999803
0.050000 0.999999 0.999999 0.999728
0.060000 0.999999 0.999999 0.999641
0.070000 0.999998 0.999998 0.999540
0.080000 0.999997 0.999998 0.999423
0.090000 0.999996 0.999997 0.999288
0.100000 0.999995 0.999995 0.999133
0.110000 0.999993 0.999994 0.998956
0.120000 0.999990 0.999991 0.998755
0.130000 0.999987 0.999988 0.998526
0.140000 0.999982 0.999984 0.998268
0.150000 0.999977 0.999979 0.997977
0.160000 0.999970 0.999973 0.997650
0.170000 0.999960 0.999965 0.997284
0.180000 0.999949 0.999954 0.996874
0.190000 0.999934 0.999941 0.996417
0.200000 0.999916 0.999925 0.995910
0.210000 0.999893 0.999904 0.995346
0.220000 0.999865 0.999878 0.994723
0.230000 0.999830 0.999846 0.994034
0.240000 0.999786 0.999807 0.993275
0.250000 0.999733 0.999758 0.992440
0.260000 0.999669 0.999698 0.991523
0.270000 0.999590 0.999626 0.990520
0.280000 0.999494 0.999538 0.989422
0.290000 0.999379 0.999431 0.988224
0.300000 0.999241 0.999302 0.986919
0.310000 0.999075 0.999147 0.985500
0.320000 0.998877 0.998962 0.983960
0.330000 0.998641 0.998742 0.982292
0.340000 0.998363 0.998480 0.980487
0.350000 0.998033 0.998170 0.978538
0.360000 0.997646 0.997804 0.976437
0.370000 0.997192 0.997374 0.974176
0.380000 0.996661 0.996871 0.971746
0.390000 0.996044 0.996283 0.969140
0.400000 0.995327 0.995600 0.966348
0.410000 0.994499 0.994808 0.963363
0.420000 0.993543 0.993893 0.960175
0.430000 0.992446 0.992839 0.956776
0.440000 0.991191 0.991631 0.953159
0.450000 0.989757 0.990249 0.949314
0.460000 0.988127 0.988673 0.945233
0.470000 0.986280 0.986883 0.940908
0.480000 0.984192 0.984857 0.936332
0.490000 0.981840 0.982569 0.931497
0.500000 0.979199 0.979996 0.926396
0.510000 0.976244 0.977111 0.921021
0.520000 0.972948 0.973886 0.915366
0.530000 0.969281 0.970292 0.909426
0.540000 0.965218 0.966302 0.903193
0.550000 0.960727 0.961885 0.896664
0.560000 0.955780 0.957011 0.889834
0.570000 0.950347 0.951649 0.882699
0.580000 0.944400 0.945771 0.875255
0.590000 0.937910 0.939345 0.867500
0.600000 0.930849 0.932344 0.859432
0.610000 0.923191 0.924740 0.851050
0.620000 0.914910 0.916506 0.842353
0.630000 0.905985 0.907619 0.833343
0.640000 0.896394 0.898057 0.824019
0.650000 0.886119 0.887801 0.814386
0.660000 0.875145 0.876833 0.804445
0.670000 0.863460 0.865142 0.794201
0.680000 0.851056 0.852719 0.783658
0.690000 0.837929 0.839557 0.772824
0.700000 0.824078 0.825657 0.761705
0.710000 0.809508 0.811022 0.750309
0.720000 0.794228 0.795662 0.738645
0.730000 0.778252 0.779588 0.726723
0.740000 0.761598 0.762821 0.714556
0.750000 0.744290 0.745384 0.702156
0.760000 0.726356 0.727305 0.689536
0.770000 0.707829 0.708619 0.676712
0.780000 0.688747 0.689363 0.663701
0.790000 0.669152 0.669582 0.650520
0.800000 0.649090 0.649323 0.637191
0.810000 0.628612 0.628637 0.623736
0.820000 0.607771 0.607580 0.610179
0.830000 0.586625 0.586210 0.596548
0.840000 0.565233 0.564589 0.582874
0.850000 0.543657 0.542779 0.569191
0.860000 0.521961 0.520847 0.555538
0.870000 0.500210 0.498858 0.541962
0.880000 0.478473 0.476879 0.528514
0.890000 0.456820 0.454976 0.515256
0.900000 0.435323 0.433215 0.502258
0.910000 0.414062 0.411660 0.489606
0.920000 0.393127 0.390375 0.477400
0.930000 0.372629 0.369418 0.465760
0.940000 0.352714 0.348847 0.454831
0.950000 0.333589 0.328716 0.444788
0.960000 0.315575 0.309075 0.435841
0.970000 0.299181 0.289969 0.428247
0.980000 0.285245 0.271440 0.422318
0.990000 0.275171 0.253525 0.418432
1.000000 0.271318 0.236254 0.417053
