0.000000 1.000000 1.000000 0.999896
0.010000 0.999997 0.999997 0.999768
0.020000 0.999992 0.999993 0.999487
0.030000 0.999985 0.999987 0.999151
0.040000 0.999975 0.999977 0.998754
0.050000 0.999961 0.999964 0.998288
0.060000 0.999941 0.999946 0.997745
0.070000 0.999913 0.999921 0.997117
0.080000 0.999877 0.999888 0.996393
0.090000 0.999829 0.999843 0.995564
0.100000 0.999765 0.999785 0.994621
0.110000 0.999682 0.999708 0.993551
0.120000 0.999576 0.999609 0.992343
0.130000 0.999439 0.999482 0.990984
0.140000 0.999266 0.999320 0.989463
0.150000 0.999048 0.999116 0.987765
0.160000 0.998775 0.998860 0.985876
0.170000 0.998437 0.998540 0.983783
0.180000 0.998019 0.998146 0.981470
0.190000 0.997508 0.997660 0.978922
0.200000 0.996884 0.997067 0.976124
0.210000 0.996129 0.996347 0.973060
0.220000 0.995220 0.995477 0.969714
0.230000 0.994131 0.994433 0.966070
0.240000 0.992836 0.993187 0.962112
0.250000 0.991301 0.991707 0.957825
0.260000 0.989495 0.989961 0.953192
0.270000 0.987378 0.987909 0.948199
0.280000 0.984912 0.985513 0.942830
0.290000 0.982053 0.982728 0.937072
0.300000 0.978755 0.979509 0.930910
0.310000 0.974970 0.975806 0.924332
0.320000 0.970648 0.971567 0.917326
0.330000 0.965738 0.966741 0.909881
0.340000 0.960185 0.961273 0.901987
0.350000 0.953937 0.955108 0.893636
0.360000 0.946940 0.948190 0.884820
0.370000 0.939143 0.940466 0.875534
0.380000 0.930494 0.931883 0.865774
0.390000 0.920945 0.922391 0.855538
0.400000 0.910454 0.911945 0.844824
0.410000 0.898980 0.900502 0.833635
0.420000 0.886489 0.888027 0.821974
0.430000 0.872955 0.874490 0.809845
0.440000 0.858357 0.859870 0.797256
0.450000 0.842684 0.844154 0.784215
0.460000 0.825934 0.827338 0.770735
0.470000 0.808113 0.809429 0.756829
0.480000 0.789239 0.790442 0.742511
0.490000 0.769341 0.770407 0.727798
0.500000 0.748456 0.749362 0.712711
0.510000 0.726634 0.727357 0.697269
0.520000 0.703936 0.704453 0.681496
0.530000 0.680430 0.680723 0.665416
0.540000 0.656198 0.656248 0.649055
0.550000 0.631326 0.631118 0.632440
0.560000 0.605912 0.605434 0.615601
0.570000 0.580058 0.579302 0.598566
0.580000 0.553872 0.552832 0.581366
0.590000 0.527468 0.526143 0.564034
0.600000 0.500960 0.499351 0.546602
0.610000 0.474464 0.472579 0.529102
0.620000 0.448096 0.445945 0.511567
0.630000 0.421972 0.419567 0.494031
0.640000 0.396200 0.393560 0.476527
0.650000 0.370888 0.368031 0.459087
0.660000 0.346135 0.343085 0.441744
0.670000 0.322034 0.318816 0.424530
0.680000 0.298671 0.295311 0.407476
0.690000 0.276120 0.272646 0.390611
0.700000 0.254448 0.250889 0.373966
0.710000 0.233710 0.230095 0.357567
0.720000 0.213953 0.210310 0.341441
0.730000 0.195212 0.191568 0.325613
0.740000 0.177510 0.173893 0.310107
0.750000 0.160862 0.157297 0.294943
0.760000 0.145273 0.141783 0.280143
0.770000 0.130739 0.127344 0.265724
0.780000 0.117247 0.113965 0.251704
0.790000 0.104775 0.101623 0.238096
0.800000 0.093297 0.090288 0.224913
0.810000 0.082778 0.079923 0.212169
0.820000 0.073179 0.070486 0.199871
0.830000 0.064459 0.061932 0.188029
0.840000 0.056570 0.054213 0.176651
0.850000 0.049463 0.047278 0.165742
0.860000 0.043090 0.041074 0.155308
0.870000 0.037398 0.035549 0.145356
0.880000 0.032336 0.030649 0.135892
0.890000 0.027855 0.026323 0.126924
0.900000 0.023904 0.022521 0.118462
0.910000 0.020437 0.019193 0.110519
0.920000 0.017407 0.016294 0.103115
0.930000 0.014773 0.013778 0.096275
0.940000 0.012496 0.011606 0.090037
0.950000 0.010541 0.009737 0.084450
0.960000 0.008884 0.008137 0.079581
0.970000 0.007510 0.006774 0.075523
0.980000 0.006428 0.005616 0.072398
0.990000 0.005687 0.004638 0.070370
1.000000 0.005411 0.003815 0.069653
