0.000000 1.000000 1.000000 0.999993
0.010000 1.000000 1.000000 0.999985
0.020000 1.000000 1.000000 0.999966
0.030000 1.000000 1.000000 0.999944
0.040000 1.000000 1.000000 0.999918
0.050000 1.000000 1.000000 0.999887
0.060000 1.000000 1.000000 0.999851
0.070000 1.000000 1.000000 0.999808
0.080000 1.000000 1.000000 0.999759
0.090000 0.999999 0.999999 0.999703
0.100000 0.999999 0.999999 0.999637
0.110000 0.999999 0.999999 0.999563
0.120000 0.999998 0.999999 0.999478
0.130000 0.999998 0.999998 0.999381
0.140000 0.999997 0.999998 0.999271
0.150000 0.999996 0.999997 0.999147
0.160000 0.999995 0.999996 0.999007
0.170000 0.999994 0.999994 0.998850
0.180000 0.999992 0.999993 0.998674
0.190000 0.999989 0.999991 0.998477
0.200000 0.999986 0.999988 0.998256
0.210000 0.999982 0.999984 0.998011
0.220000 0.999977 0.999980 0.997738
0.230000 0.999971 0.999975 0.997436
0.240000 0.999964 0.999968 0.997101
0.250000 0.999954 0.999960 0.996731
0.260000 0.999943 0.999949 0.996323
0.270000 0.999929 0.999936 0.995874
0.280000 0.999911 0.999921 0.995381
0.290000 0.999890 0.999901 0.994839
0.300000 0.999864 0.999878 0.994246
0.310000 0.999832 0.999849 0.993598
0.320000 0.999794 0.999814 0.992890
0.330000 0.999748 0.999772 0.992119
0.340000 0.999693 0.999722 0.991279
0.350000 0.999627 0.999661 0.990367
0.360000 0.999548 0.999588 0.989378
0.370000 0.999454 0.999501 0.988306
0.380000 0.999342 0.999398 0.987147
0.390000 0.999210 0.999276 0.985895
0.400000 0.999055 0.999131 0.984544
0.410000 0.998872 0.998960 0.983090
0.420000 0.998657 0.998759 0.981525
0.430000 0.998406 0.998524 0.979845
0.440000 0.998114 0.998249 0.978043
0.450000 0.997774 0.997929 0.976112
0.460000 0.997381 0.997557 0.974047
0.470000 0.996926 0.997127 0.971841
0.480000 0.996402 0.996630 0.969487
0.490000 0.995800 0.996057 0.966980
0.500000 0.995111 0.995400 0.964311
0.510000 0.994323 0.994647 0.961475
0.520000 0.993426 0.993788 0.958465
0.530000 0.992406 0.992810 0.955274
0.540000 0.991251 0.991699 0.951895
0.550000 0.989946 0.990442 0.948323
0.560000 0.988476 0.989023 0.944550
0.570000 0.986825 0.987425 0.940571
0.580000 0.984974 0.985631 0.936379
0.590000 0.982906 0.983623 0.931968
0.600000 0.980602 0.981381 0.927333
0.610000 0.978041 0.978884 0.922467
0.620000 0.975202 0.976112 0.917367
0.630000 0.972065 0.973042 0.912026
0.640000 0.968606 0.969652 0.906441
0.650000 0.964802 0.965919 0.900608
0.660000 0.960632 0.961818 0.894522
0.670000 0.956072 0.957327 0.888181
0.680000 0.951097 0.952420 0.881582
0.690000 0.945686 0.947075 0.874723
0.700000 0.939816 0.941267 0.867602
0.710000 0.933464 0.934974 0.860219
0.720000 0.926608 0.928173 0.852575
0.730000 0.919229 0.920842 0.844669
0.740000 0.911308 0.912963 0.836505
0.750000 0.902826 0.904516 0.828084
0.760000 0.893768 0.895484 0.819411
0.770000 0.884120 0.885854 0.810493
0.780000 0.873871 0.875611 0.801335
0.790000 0.863012 0.864747 0.791946
0.800000 0.851535 0.853255 0.782338
0.810000 0.839439 0.841129 0.772523
0.820000 0.826721 0.828370 0.762518
0.830000 0.813387 0.814979 0.752340
0.840000 0.799442 0.800962 0.742012
0.850000 0.784897 0.786329 0.731562
0.860000 0.769768 0.771093 0.721021
0.870000 0.754075 0.755271 0.710427
0.880000 0.737843 0.738882 0.699826
0.890000 0.721106 0.721953 0.689272
0.900000 0.703908 0.704510 0.678830
0.910000 0.686305 0.686586 0.668576
0.920000 0.668379 0.668215 0.658605
0.930000 0.650239 0.649435 0.649027
0.940000 0.632052 0.630288 0.639974
0.950000 0.614067 0.610817 0.631607
0.960000 0.596671 0.591068 0.624117
0.970000 0.580478 0.571091 0.617735
0.980000 0.566466 0.550934 0.612737
0.990000 0.556214 0.530650 0.609455
1.000000 0.552271 0.510291 0.608288
