0.000000 1.000000 1.000000 0.999961
0.010000 1.000000 1.000000 0.999914
0.020000 0.999999 0.999999 0.999810
0.030000 0.999998 0.999998 0.999685
0.040000 0.999997 0.999997 0.999538
0.050000 0.999995 0.999995 0.999364
0.060000 0.999992 0.999993 0.999161
0.070000 0.999989 0.999990 0.998925
0.080000 0.999984 0.999986 0.998653
0.090000 0.999977 0.999980 0.998340
0.100000 0.999969 0.999972 0.997981
0.110000 0.999957 0.999962 0.997574
0.120000 0.999942 0.999948 0.997111
0.130000 0.999923 0.999931 0.996588
0.140000 0.999898 0.999908 0.995998
0.150000 0.999867 0.999880 0.995336
0.160000 0.999827 0.999843 0.994596
0.170000 0.999776 0.999797 0.993769
0.180000 0.999713 0.999739 0.992849
0.190000 0.999634 0.999666 0.991829
0.200000 0.999537 0.999575 0.990699
0.210000 0.999416 0.999463 0.989452
0.220000 0.999268 0.999326 0.988079
0.230000 0.999088 0.999157 0.986571
0.240000 0.998868 0.998951 0.984918
0.250000 0.998602 0.998701 0.983111
0.260000 0.998282 0.998400 0.981138
0.270000 0.997898 0.998037 0.978991
0.280000 0.997440 0.997604 0.976659
0.290000 0.996895 0.997087 0.974130
0.300000 0.996251 0.996473 0.971395
0.310000 0.995491 0.995749 0.968441
0.320000 0.994600 0.994896 0.965259
0.330000 0.993559 0.993898 0.961836
0.340000 0.992347 0.992733 0.958161
0.350000 0.990942 0.991379 0.954225
0.360000 0.989320 0.989813 0.950015
0.370000 0.987456 0.988008 0.945522
0.380000 0.985320 0.985935 0.940734
0.390000 0.982883 0.983566 0.935642
0.400000 0.980115 0.980868 0.930237
0.410000 0.976980 0.977807 0.924508
0.420000 0.973446 0.974349 0.918447
0.430000 0.969475 0.970456 0.912047
0.440000 0.965032 0.966091 0.905299
0.450000 0.960079 0.961216 0.898197
0.460000 0.954578 0.955791 0.890736
0.470000 0.948490 0.949778 0.882910
0.480000 0.941780 0.943139 0.874714
0.490000 0.934410 0.935834 0.866147
0.500000 0.926346 0.927829 0.857205
0.510000 0.917555 0.919089 0.847888
0.520000 0.908007 0.909582 0.838195
0.530000 0.897673 0.899278 0.828129
0.540000 0.886531 0.888154 0.817691
0.550000 0.874560 0.876187 0.806886
0.560000 0.861747 0.863363 0.795718
0.570000 0.848081 0.849669 0.784193
0.580000 0.833558 0.835100 0.772319
0.590000 0.818179 0.819658 0.760105
0.600000 0.801954 0.803351 0.747560
0.610000 0.784896 0.786192 0.734697
0.620000 0.767027 0.768202 0.721527
0.630000 0.748375 0.749411 0.708064
0.640000 0.728975 0.729854 0.694324
0.650000 0.708869 0.709573 0.680322
0.660000 0.688106 0.688618 0.666075
0.670000 0.666739 0.667045 0.651602
0.680000 0.644828 0.644915 0.636921
0.690000 0.622440 0.622296 0.622053
0.700000 0.599645 0.599260 0.607018
0.710000 0.576516 0.575885 0.591839
0.720000 0.553132 0.552250 0.576536
0.730000 0.529572 0.528438 0.561134
0.740000 0.505919 0.504533 0.545656
0.750000 0.482255 0.480622 0.530125
0.760000 0.458664 0.456789 0.514566
0.770000 0.435226 0.433119 0.499004
0.780000 0.412023 0.409696 0.483464
0.790000 0.389132 0.386598 0.467972
0.800000 0.366627 0.363903 0.452555
0.810000 0.344580 0.341683 0.437239
0.820000 0.323056 0.320005 0.422052
0.830000 0.302115 0.298932 0.407023
0.840000 0.281813 0.278519 0.392183
0.850000 0.262198 0.258815 0.377562
0.860000 0.243314 0.239863 0.363196
0.870000 0.225196 0.221700 0.349122
0.880000 0.207874 0.204354 0.335382
0.890000 0.191373 0.187846 0.322025
0.900000 0.175710 0.172193 0.309105
0.910000 0.160901 0.157401 0.296687
0.920000 0.146958 0.143474 0.284847
0.930000 0.133895 0.130406 0.273680
0.940000 0.121737 0.118188 0.263297
0.950000 0.110529 0.106806 0.253838
0.960000 0.100359 0.096238 0.245474
0.970000 0.091402 0.086462 0.238418
0.980000 0.083985 0.077450 0.232934
0.990000 0.078719 0.069172 0.229351
1.000000 0.076723 0.061594 0.228080
