0.000000 1.000000 1.000000 0.999994
0.010000 1.000000 1.000000 0.999986
0.020000 1.000000 1.000000 0.999968
0.030000 1.000000 1.000000 0.999947
0.040000 1.000000 1.000000 0.999922
0.050000 1.000000 1.000000 0.999893
0.060000 1.000000 1.000000 0.999858
0.070000 1.000000 1.000000 0.999818
0.080000 1.000000 1.000000 0.999772
0.090000 0.999999 1.000000 0.999718
0.100000 0.999999 0.999999 0.999656
0.110000 0.999999 0.999999 0.999586
0.120000 0.999999 0.999999 0.999505
0.130000 0.999998 0.999998 0.999413
0.140000 0.999998 0.999998 0.999309
0.150000 0.999997 0.999997 0.999192
0.160000 0.999996 0.999996 0.999059
0.170000 0.999994 0.999995 0.998910
0.180000 0.999993 0.999994 0.998743
0.190000 0.999990 0.999992 0.998555
0.200000 0.999988 0.999989 0.998346
0.210000 0.999984 0.999986 0.998113
0.220000 0.999980 0.999982 0.997854
0.230000 0.999974 0.999977 0.997567
0.240000 0.999968 0.999971 0.997249
0.250000 0.999959 0.999964 0.996897
0.260000 0.999949 0.999955 0.996509
0.270000 0.999936 0.999943 0.996082
0.280000 0.999920 0.999929 0.995613
0.290000 0.999901 0.999912 0.995098
0.300000 0.999878 0.999890 0.994533
0.310000 0.999849 0.999865 0.993916
0.320000 0.999815 0.999833 0.993242
0.330000 0.999774 0.999796 0.992507
0.340000 0.999724 0.999750 0.991707
0.350000 0.999664 0.999695 0.990838
0.360000 0.999593 0.999630 0.989894
0.370000 0.999508 0.999551 0.988872
0.380000 0.999407 0.999458 0.987766
0.390000 0.999287 0.999347 0.986570
0.400000 0.999146 0.999216 0.985281
0.410000 0.998980 0.999061 0.983891
0.420000 0.998785 0.998879 0.982396
0.430000 0.998557 0.998666 0.980789
0.440000 0.998291 0.998416 0.979066
0.450000 0.997982 0.998125 0.977218
0.460000 0.997623 0.997786 0.975241
0.470000 0.997208 0.997394 0.973129
0.480000 0.996729 0.996940 0.970874
0.490000 0.996178 0.996417 0.968470
0.500000 0.995547 0.995816 0.965910
0.510000 0.994825 0.995127 0.963189
0.520000 0.994001 0.994340 0.960300
0.530000 0.993065 0.993442 0.957235
0.540000 0.992002 0.992422 0.953989
0.550000 0.990800 0.991266 0.950555
0.560000 0.989445 0.989959 0.946926
0.570000 0.987920 0.988486 0.943097
0.580000 0.986210 0.986830 0.939061
0.590000 0.984296 0.984973 0.934812
0.600000 0.982160 0.982898 0.930344
0.610000 0.979783 0.980584 0.925652
0.620000 0.977146 0.978011 0.920730
0.630000 0.974226 0.975158 0.915574
0.640000 0.971003 0.972004 0.910179
0.650000 0.967455 0.968524 0.904541
0.660000 0.963558 0.964697 0.898655
0.670000 0.959291 0.960499 0.892519
0.680000 0.954629 0.955906 0.886129
0.690000 0.949551 0.950895 0.879483
0.700000 0.944033 0.945443 0.872580
0.710000 0.938054 0.939525 0.865419
0.720000 0.931591 0.933119 0.857998
0.730000 0.924624 0.926204 0.850320
0.740000 0.917132 0.918760 0.842385
0.750000 0.909098 0.910765 0.834197
0.760000 0.900504 0.902204 0.825758
0.770000 0.891335 0.893059 0.817074
0.780000 0.881579 0.883317 0.808151
0.790000 0.871224 0.872966 0.798999
0.800000 0.860262 0.861997 0.789626
0.810000 0.848688 0.850404 0.780046
0.820000 0.836499 0.838183 0.770273
0.830000 0.823695 0.825333 0.760327
0.840000 0.810282 0.811859 0.750228
0.850000 0.796267 0.797766 0.740003
0.860000 0.781661 0.783065 0.729684
0.870000 0.766484 0.767770 0.719308
0.880000 0.750757 0.751897 0.708919
0.890000 0.734511 0.735468 0.698572
0.900000 0.717786 0.718508 0.688329
0.910000 0.700638 0.701046 0.678267
0.920000 0.683143 0.683112 0.668478
0.930000 0.665409 0.664742 0.659071
0.940000 0.647601 0.645975 0.650178
0.950000 0.629963 0.626851 0.641956
0.960000 0.612881 0.607414 0.634595
0.970000 0.596961 0.587710 0.628321
0.980000 0.583174 0.567788 0.623406
0.990000 0.573080 0.547696 0.620179
1.000000 0.569197 0.527486 0.619032
