0.000000 1.000000 1.000000 0.999682
0.010000 0.999971 0.999973 0.999289
0.020000 0.999927 0.999932 0.998432
0.030000 0.999861 0.999871 0.997409
0.040000 0.999767 0.999784 0.996203
0.050000 0.999635 0.999661 0.994792
0.060000 0.999454 0.999492 0.993155
0.070000 0.999212 0.999264 0.991271
0.080000 0.998890 0.998960 0.989114
0.090000 0.998469 0.998562 0.986662
0.100000 0.997925 0.998045 0.983889
0.110000 0.997229 0.997382 0.980770
0.120000 0.996350 0.996541 0.977279
0.130000 0.995248 0.995485 0.973388
0.140000 0.993882 0.994170 0.969073
0.150000 0.992201 0.992548 0.964306
0.160000 0.990152 0.990565 0.959062
0.170000 0.987673 0.988160 0.953316
0.180000 0.984700 0.985266 0.947043
0.190000 0.981160 0.981811 0.940221
0.200000 0.976977 0.977718 0.932827
0.210000 0.972071 0.972905 0.924841
0.220000 0.966359 0.967287 0.916246
0.230000 0.959754 0.960775 0.907024
0.240000 0.952171 0.953282 0.897164
0.250000 0.943525 0.944720 0.886653
0.260000 0.933732 0.935001 0.875484
0.270000 0.922716 0.924046 0.863653
0.280000 0.910405 0.911780 0.851158
0.290000 0.896737 0.898138 0.838001
0.300000 0.881660 0.883064 0.824187
0.310000 0.865137 0.866517 0.809728
0.320000 0.847143 0.848472 0.794635
0.330000 0.827672 0.828919 0.778926
0.340000 0.806736 0.807868 0.762622
0.350000 0.784364 0.785349 0.745748
0.360000 0.760606 0.761411 0.728333
0.370000 0.735533 0.736125 0.710407
0.380000 0.709234 0.709583 0.692008
0.390000 0.681817 0.681896 0.673174
0.400000 0.653410 0.653196 0.653945
0.410000 0.624154 0.623627 0.634368
0.420000 0.594208 0.593354 0.614488
0.430000 0.563738 0.562549 0.594353
0.440000 0.532922 0.531395 0.574016
0.450000 0.501943 0.500081 0.553526
0.460000 0.470986 0.468799 0.532938
0.470000 0.440234 0.437738 0.512305
0.480000 0.409867 0.407085 0.491679
0.490000 0.380059 0.377016 0.471114
0.500000 0.350972 0.347700 0.450663
0.510000 0.322756 0.319290 0.430376
0.520000 0.295546 0.291924 0.410305
0.530000 0.269461 0.265722 0.390496
0.540000 0.244600 0.240784 0.370997
0.550000 0.221045 0.217194 0.351851
0.560000 0.198859 0.195010 0.333099
0.570000 0.178083 0.174274 0.314779
0.580000 0.158741 0.155007 0.296926
0.590000 0.140840 0.137212 0.279572
0.600000 0.124369 0.120874 0.262745
0.610000 0.109302 0.105963 0.246470
0.620000 0.095599 0.092436 0.230767
0.630000 0.083208 0.080236 0.215655
0.640000 0.072071 0.069299 0.201147
0.650000 0.062117 0.059553 0.187254
0.660000 0.053272 0.050918 0.173982
0.670000 0.045459 0.043314 0.161334
0.680000 0.038598 0.036656 0.149313
0.690000 0.032606 0.030863 0.137913
0.700000 0.027405 0.025850 0.127130
0.710000 0.022915 0.021539 0.116956
0.720000 0.019063 0.017853 0.107380
0.730000 0.015777 0.014720 0.098388
0.740000 0.012989 0.012073 0.089966
0.750000 0.010638 0.009850 0.082097
0.760000 0.008668 0.007993 0.074762
0.770000 0.007025 0.006452 0.067942
0.780000 0.005663 0.005180 0.061617
0.790000 0.004541 0.004137 0.055764
0.800000 0.003623 0.003286 0.050363
0.810000 0.002874 0.002596 0.045389
0.820000 0.002268 0.002039 0.040821
0.830000 0.001780 0.001594 0.036636
0.840000 0.001390 0.001239 0.032811
0.850000 0.001079 0.000957 0.029324
0.860000 0.000833 0.000736 0.026153
0.870000 0.000640 0.000563 0.023279
0.880000 0.000489 0.000428 0.020679
0.890000 0.000372 0.000324 0.018336
0.900000 0.000281 0.000243 0.016231
0.910000 0.000211 0.000182 0.014348
0.920000 0.000158 0.000135 0.012673
0.930000 0.000117 0.000100 0.011192
0.940000 0.000087 0.000074 0.009896
0.950000 0.000064 0.000054 0.008778
0.960000 0.000047 0.000039 0.007836
0.970000 0.000034 0.000028 0.007071
0.980000 0.000025 0.000020 0.006495
0.990000 0.000020 0.000015 0.006127
1.000000 0.000018 0.000010 0.005998
