0.000000 1.000000 1.000000 0.999909
0.010000 0.999998 0.999998 0.999797
0.020000 0.999994 0.999995 0.999552
0.030000 0.999989 0.999990 0.999259
0.040000 0.999981 0.999983 0.998913
0.050000 0.999970 0.999973 0.998505
0.060000 0.999955 0.999959 0.998031
0.070000 0.999934 0.999941 0.997481
0.080000 0.999907 0.999915 0.996848
0.090000 0.999870 0.999881 0.996122
0.100000 0.999821 0.999837 0.995296
0.110000 0.999758 0.999778 0.994357
0.120000 0.999676 0.999702 0.993297
0.130000 0.999571 0.999605 0.992105
0.140000 0.999438 0.999481 0.990767
0.150000 0.999269 0.999324 0.989273
0.160000 0.999059 0.999127 0.987610
0.170000 0.998796 0.998880 0.985764
0.180000 0.998472 0.998574 0.983723
0.190000 0.998073 0.998197 0.981471
0.200000 0.997586 0.997736 0.978996
0.210000 0.996994 0.997173 0.976281
0.220000 0.996279 0.996492 0.973313
0.230000 0.995421 0.995671 0.970076
0.240000 0.994395 0.994688 0.966555
0.250000 0.993177 0.993517 0.962735
0.260000 0.991736 0.992130 0.958601
0.270000 0.990043 0.990495 0.954138
0.280000 0.988062 0.988577 0.949332
0.290000 0.985757 0.986339 0.944168
0.300000 0.983087 0.983741 0.938632
0.310000 0.980009 0.980739 0.932712
0.320000 0.976480 0.977289 0.926395
0.330000 0.972451 0.973343 0.919669
0.340000 0.967875 0.968850 0.912523
0.350000 0.962701 0.963760 0.904948
0.360000 0.956879 0.958020 0.896935
0.370000 0.950357 0.951578 0.888477
0.380000 0.943086 0.944383 0.879568
0.390000 0.935017 0.936383 0.870202
0.400000 0.926103 0.927530 0.860378
0.410000 0.916299 0.917778 0.850094
0.420000 0.905566 0.907085 0.839349
0.430000 0.893869 0.895413 0.828147
0.440000 0.881178 0.882731 0.816490
0.450000 0.867470 0.869013 0.804385
0.460000 0.852728 0.854243 0.791839
0.470000 0.836946 0.838412 0.778861
0.480000 0.820122 0.821517 0.765463
0.490000 0.802269 0.803570 0.751657
0.500000 0.783405 0.784588 0.737460
0.510000 0.763559 0.764602 0.722888
0.520000 0.742772 0.743652 0.707959
0.530000 0.721093 0.721788 0.692694
0.540000 0.698581 0.699071 0.677115
0.550000 0.675306 0.675571 0.661245
0.560000 0.651345 0.651368 0.645110
0.570000 0.626782 0.626551 0.628735
0.580000 0.601712 0.601214 0.612149
0.590000 0.576233 0.575460 0.595379
0.600000 0.550448 0.549396 0.578455
0.610000 0.524465 0.523133 0.561408
0.620000 0.498393 0.496784 0.544267
0.630000 0.472344 0.470464 0.527065
0.640000 0.446428 0.444286 0.509832
0.650000 0.420752 0.418362 0.492600
0.660000 0.395422 0.392801 0.475401
0.670000 0.370540 0.367706 0.458266
0.680000 0.346199 0.343175 0.441225
0.690000 0.322488 0.319298 0.424309
0.700000 0.299489 0.296158 0.407547
0.710000 0.277273 0.273828 0.390968
0.720000 0.255903 0.252372 0.374600
0.730000 0.235434 0.231845 0.358469
0.740000 0.215910 0.212289 0.342600
0.750000 0.197365 0.193740 0.327017
0.760000 0.179823 0.176221 0.311744
0.770000 0.163300 0.159744 0.296801
0.780000 0.147802 0.144314 0.282208
0.790000 0.133325 0.129926 0.267982
0.800000 0.119858 0.116567 0.254141
0.810000 0.107383 0.104216 0.240700
0.820000 0.095876 0.092846 0.227673
0.830000 0.085305 0.082422 0.215072
0.840000 0.075635 0.072908 0.202910
0.850000 0.066825 0.064261 0.191197
0.860000 0.058833 0.056434 0.179945
0.870000 0.051612 0.049381 0.169164
0.880000 0.045116 0.043051 0.158866
0.890000 0.039296 0.037395 0.149066
0.900000 0.034104 0.032362 0.139780
0.910000 0.029491 0.027902 0.131028
0.920000 0.025412 0.023968 0.122839
0.930000 0.021821 0.020511 0.115246
0.940000 0.018679 0.017487 0.108299
0.950000 0.015951 0.014853 0.102057
0.960000 0.013611 0.012568 0.096605
0.970000 0.011651 0.010594 0.092050
0.980000 0.010094 0.008896 0.088537
0.990000 0.009020 0.007441 0.086254
1.000000 0.008619 0.006201 0.085447
