0.000000 1.000000 1.000000 0.999989
0.010000 1.000000 1.000000 0.999976
0.020000 1.000000 1.000000 0.999947
0.030000 1.000000 1.000000 0.999912
0.040000 1.000000 1.000000 0.999870
0.050000 1.000000 1.000000 0.999822
0.060000 0.999999 1.000000 0.999764
0.070000 0.999999 0.999999 0.999698
0.080000 0.999999 0.999999 0.999621
0.090000 0.999998 0.999999 0.999531
0.100000 0.999998 0.999998 0.999429
0.110000 0.999997 0.999997 0.999312
0.120000 0.999996 0.999996 0.999179
0.130000 0.999995 0.999995 0.999028
0.140000 0.999993 0.999994 0.998856
0.150000 0.999990 0.999992 0.998663
0.160000 0.999987 0.999989 0.998445
0.170000 0.999983 0.999985 0.998201
0.180000 0.999978 0.999981 0.997927
0.190000 0.999972 0.999976 0.997621
0.200000 0.999964 0.999969 0.997281
0.210000 0.999955 0.999960 0.996902
0.220000 0.999942 0.999949 0.996482
0.230000 0.999927 0.999935 0.996017
0.240000 0.999908 0.999918 0.995504
0.250000 0.999885 0.999897 0.994937
0.260000 0.999856 0.999871 0.994314
0.270000 0.999821 0.999839 0.993630
0.280000 0.999779 0.999800 0.992880
0.290000 0.999727 0.999752 0.992060
0.300000 0.999664 0.999695 0.991163
0.310000 0.999589 0.999625 0.990186
0.320000 0.999498 0.999541 0.989122
0.330000 0.999389 0.999441 0.987965
0.340000 0.999259 0.999320 0.986711
0.350000 0.999105 0.999177 0.985352
0.360000 0.998922 0.999006 0.983882
0.370000 0.998706 0.998804 0.982295
0.380000 0.998451 0.998565 0.980584
0.390000 0.998153 0.998284 0.978741
0.400000 0.997803 0.997954 0.976761
0.410000 0.997396 0.997569 0.974636
0.420000 0.996922 0.997120 0.972358
0.430000 0.996372 0.996599 0.969921
0.440000 0.995738 0.995994 0.967316
0.450000 0.995007 0.995297 0.964536
0.460000 0.994167 0.994494 0.961574
0.470000 0.993206 0.993574 0.958422
0.480000 0.992110 0.992520 0.955073
0.490000 0.990862 0.991319 0.951519
0.500000 0.989446 0.989954 0.947753
0.510000 0.987845 0.988407 0.943767
0.520000 0.986040 0.986658 0.939555
0.530000 0.984011 0.984688 0.935109
0.540000 0.981736 0.982476 0.930423
0.550000 0.979193 0.979999 0.925491
0.560000 0.976360 0.977233 0.920306
0.570000 0.973212 0.974155 0.914862
0.580000 0.969724 0.970738 0.909155
0.590000 0.965872 0.966957 0.903178
0.600000 0.961629 0.962786 0.896929
0.610000 0.956969 0.958198 0.890402
0.620000 0.951866 0.953165 0.883593
0.630000 0.946295 0.947661 0.876501
0.640000 0.940229 0.941659 0.869123
0.650000 0.933643 0.935134 0.861456
0.660000 0.926514 0.928060 0.853501
0.670000 0.918818 0.920414 0.845256
0.680000 0.910534 0.912172 0.836722
0.690000 0.901644 0.903315 0.827900
0.700000 0.892128 0.893824 0.818793
0.710000 0.881972 0.883683 0.809403
0.720000 0.871164 0.872878 0.799735
0.730000 0.859694 0.861399 0.789794
0.740000 0.847556 0.849240 0.779585
0.750000 0.834747 0.836395 0.769117
0.760000 0.821267 0.822867 0.758397
0.770000 0.807123 0.808658 0.747436
0.780000 0.792321 0.793778 0.736246
0.790000 0.776876 0.778239 0.724840
0.800000 0.760804 0.762057 0.713234
0.810000 0.744126 0.745255 0.701445
0.820000 0.726868 0.727859 0.689495
0.830000 0.709059 0.709897 0.677406
0.840000 0.690734 0.691405 0.665205
0.850000 0.671930 0.672420 0.652925
0.860000 0.652691 0.652984 0.640603
0.870000 0.633062 0.633144 0.628281
0.880000 0.613096 0.612948 0.616009
0.890000 0.592850 0.592447 0.603848
0.900000 0.572391 0.571695 0.591868
0.910000 0.551795 0.550749 0.580153
0.920000 0.531158 0.529667 0.568803
0.930000 0.510603 0.508506 0.557937
0.940000 0.490303 0.487327 0.547699
0.950000 0.470506 0.466188 0.538261
0.960000 0.451598 0.445150 0.529833
0.970000 0.434183 0.424270 0.522664
0.980000 0.419240 0.403605 0.517057
0.990000 0.408368 0.383210 0.513379
1.000000 0.404198 0.363139 0.512072
