0.000000 1.000000 1.000000 0.999965
0.010000 1.000000 1.000000 0.999922
0.020000 0.999999 0.999999 0.999828
0.030000 0.999998 0.999999 0.999716
0.040000 0.999997 0.999998 0.999582
0.050000 0.999996 0.999996 0.999425
0.060000 0.999994 0.999994 0.999242
0.070000 0.999991 0.999992 0.999029
0.080000 0.999987 0.999988 0.998782
0.090000 0.999982 0.999984 0.998499
0.100000 0.999975 0.999977 0.998175
0.110000 0.999965 0.999969 0.997806
0.120000 0.999953 0.999958 0.997387
0.130000 0.999938 0.999944 0.996913
0.140000 0.999917 0.999926 0.996379
0.150000 0.999892 0.999902 0.995779
0.160000 0.999859 0.999873 0.995106
0.170000 0.999818 0.999835 0.994356
0.180000 0.999766 0.999787 0.993521
0.190000 0.999701 0.999728 0.992593
0.200000 0.999621 0.999654 0.991566
0.210000 0.999522 0.999562 0.990431
0.220000 0.999400 0.999449 0.989180
0.230000 0.999251 0.999310 0.987805
0.240000 0.999069 0.999140 0.986297
0.250000 0.998849 0.998934 0.984647
0.260000 0.998583 0.998684 0.982845
0.270000 0.998264 0.998384 0.980882
0.280000 0.997882 0.998023 0.978748
0.290000 0.997428 0.997593 0.976431
0.300000 0.996889 0.997081 0.973923
0.310000 0.996252 0.996475 0.971213
0.320000 0.995503 0.995761 0.968289
0.330000 0.994625 0.994922 0.965141
0.340000 0.993602 0.993940 0.961759
0.350000 0.992413 0.992797 0.958131
0.360000 0.991036 0.991471 0.954248
0.370000 0.989449 0.989939 0.950098
0.380000 0.987627 0.988175 0.945672
0.390000 0.985542 0.986153 0.940959
0.400000 0.983166 0.983844 0.935949
0.410000 0.980469 0.981217 0.930633
0.420000 0.977419 0.978239 0.925003
0.430000 0.973982 0.974877 0.919049
0.440000 0.970124 0.971096 0.912764
0.450000 0.965810 0.966859 0.906140
0.460000 0.961002 0.962129 0.899171
0.470000 0.955665 0.956869 0.891852
0.480000 0.949763 0.951041 0.884176
0.490000 0.943258 0.944607 0.876140
0.500000 0.936115 0.937530 0.867741
0.510000 0.928301 0.929776 0.858976
0.520000 0.919782 0.921310 0.849844
0.530000 0.910529 0.912101 0.840346
0.540000 0.900515 0.902121 0.830481
0.550000 0.889716 0.891343 0.820252
0.560000 0.878111 0.879746 0.809663
0.570000 0.865684 0.867313 0.798717
0.580000 0.852425 0.854032 0.787421
0.590000 0.838328 0.839896 0.775780
0.600000 0.823393 0.824905 0.763805
0.610000 0.807625 0.809062 0.751503
0.620000 0.791036 0.792381 0.738885
0.630000 0.773646 0.774878 0.725963
0.640000 0.755478 0.756580 0.712750
0.650000 0.736564 0.737518 0.699261
0.660000 0.716942 0.717730 0.685509
0.670000 0.696656 0.697262 0.671511
0.680000 0.675757 0.676165 0.657285
0.690000 0.654301 0.654497 0.642849
0.700000 0.632349 0.632321 0.628222
0.710000 0.609967 0.609706 0.613423
0.720000 0.587225 0.586722 0.598474
0.730000 0.564197 0.563448 0.583396
0.740000 0.540960 0.539962 0.568211
0.750000 0.517592 0.516344 0.552943
0.760000 0.494173 0.492679 0.537614
0.770000 0.470784 0.469048 0.522248
0.780000 0.447505 0.445534 0.506871
0.790000 0.424414 0.422218 0.491508
0.800000 0.401587 0.399179 0.476185
0.810000 0.379100 0.376494 0.460929
0.820000 0.357022 0.354235 0.445768
0.830000 0.335420 0.332470 0.430732
0.840000 0.314356 0.311262 0.415851
0.850000 0.293886 0.290669 0.401159
0.860000 0.274062 0.270742 0.386691
0.870000 0.254929 0.251527 0.372488
0.880000 0.236526 0.233062 0.358594
0.890000 0.218888 0.215381 0.345060
0.900000 0.202044 0.198507 0.331944
0.910000 0.186019 0.182461 0.319314
0.920000 0.170839 0.167254 0.307252
0.930000 0.156530 0.152893 0.295857
0.940000 0.143133 0.139377 0.285248
0.950000 0.130712 0.126700 0.275571
0.960000 0.119382 0.114852 0.267004
0.970000 0.109356 0.103817 0.259771
0.980000 0.101023 0.093573 0.254145
0.990000 0.095091 0.084098 0.250467
1.000000 0.092840 0.075364 0.249163
