0.000000 1.000000 1.000000 0.998226
0.010000 0.999255 0.999290 0.996041
0.020000 0.998118 0.998200 0.991281
0.030000 0.996466 0.996609 0.985643
0.040000 0.994154 0.994372 0.979052
0.050000 0.991014 0.991321 0.971437
0.060000 0.986855 0.987265 0.962729
0.070000 0.981468 0.981989 0.952864
0.080000 0.974626 0.975266 0.941786
0.090000 0.966095 0.966853 0.929447
0.100000 0.955634 0.956504 0.915809
0.110000 0.943010 0.943977 0.900844
0.120000 0.928005 0.929044 0.884536
0.130000 0.910425 0.911502 0.866883
0.140000 0.890113 0.891185 0.847894
0.150000 0.866962 0.867975 0.827597
0.160000 0.840918 0.841813 0.806029
0.170000 0.811995 0.812707 0.783247
0.180000 0.780277 0.780741 0.759319
0.190000 0.745921 0.746072 0.734327
0.200000 0.709159 0.708938 0.708368
0.210000 0.670293 0.669649 0.681549
0.220000 0.629688 0.628581 0.653990
0.230000 0.587762 0.586169 0.625818
0.240000 0.544973 0.542885 0.597168
0.250000 0.501803 0.499232 0.568181
0.260000 0.458747 0.455720 0.539001
0.270000 0.416291 0.412851 0.509774
0.280000 0.374895 0.371103 0.480646
0.290000 0.334987 0.330912 0.451759
0.300000 0.296941 0.292663 0.423250
0.310000 0.261073 0.256674 0.395253
0.320000 0.227631 0.223196 0.367889
0.330000 0.196795 0.192405 0.341274
0.340000 0.168675 0.164403 0.315510
0.350000 0.143312 0.139224 0.290688
0.360000 0.120686 0.116835 0.266888
0.370000 0.100722 0.097150 0.244174
0.380000 0.083298 0.080035 0.222598
0.390000 0.068257 0.065320 0.202200
0.400000 0.055414 0.052808 0.183006
0.410000 0.044567 0.042287 0.165027
0.420000 0.035506 0.033537 0.148265
0.430000 0.028017 0.026342 0.132710
0.440000 0.021896 0.020489 0.118342
0.450000 0.016947 0.015782 0.105131
0.460000 0.012989 0.012036 0.093040
0.470000 0.009858 0.009089 0.082024
0.480000 0.007408 0.006795 0.072034
0.490000 0.005512 0.005030 0.063016
0.500000 0.004060 0.003686 0.054912
0.510000 0.002960 0.002674 0.047663
0.520000 0.002137 0.001920 0.041208
0.530000 0.001527 0.001365 0.035486
0.540000 0.001080 0.000961 0.030438
0.550000 0.000756 0.000669 0.026003
0.560000 0.000524 0.000461 0.022126
0.570000 0.000359 0.000315 0.018751
0.580000 0.000243 0.000213 0.015826
0.590000 0.000163 0.000142 0.013304
0.600000 0.000109 0.000094 0.011138
0.610000 0.000071 0.000062 0.009287
0.620000 0.000046 0.000040 0.007711
0.630000 0.000030 0.000026 0.006377
0.640000 0.000019 0.000016 0.005252
0.650000 0.000012 0.000010 0.004307
0.660000 0.000007 0.000006 0.003518
0.670000 0.000005 0.000004 0.002861
0.680000 0.000003 0.000002 0.002317
0.690000 0.000002 0.000001 0.001869
0.700000 0.000001 0.000001 0.001501
0.710000 0.000001 0.000001 0.001201
0.720000 0.000000 0.000000 0.000956
0.730000 0.000000 0.000000 0.000758
0.740000 0.000000 0.000000 0.000599
0.750000 0.000000 0.000000 0.000471
0.760000 0.000000 0.000000 0.000369
0.770000 0.000000 0.000000 0.000288
0.780000 0.000000 0.000000 0.000223
0.790000 0.000000 0.000000 0.000173
0.800000 0.000000 0.000000 0.000133
0.810000 0.000000 0.000000 0.000102
0.820000 0.000000 0.000000 0.000078
0.830000 0.000000 0.000000 0.000059
0.840000 0.000000 0.000000 0.000045
0.850000 0.000000 0.000000 0.000034
0.860000 0.000000 0.000000 0.000025
0.870000 0.000000 0.000000 0.000019
0.880000 0.000000 0.000000 0.000014
0.890000 0.000000 0.000000 0.000010
0.900000 0.000000 0.000000 0.000008
0.910000 0.000000 0.000000 0.000006
0.920000 0.000000 0.000000 0.000004
0.930000 0.000000 0.000000 0.000003
0.940000 0.000000 0.000000 0.000002
0.950000 0.000000 0.000000 0.000002
0.960000 0.000000 0.000000 0.000001
0.970000 0.000000 0.000000 0.000001
0.980000 0.000000 0.000000 0.000001
0.990000 0.000000 0.000000 0.000001
1.000000 0.000000 0.000000 0.000000
