0.000000 1.000000 1.000000 0.999949
0.010000 0.999999 0.999999 0.999886
0.020000 0.999998 0.999998 0.999749
0.030000 0.999997 0.999997 0.999584
0.040000 0.999994 0.999995 0.999390
0.050000 0.999991 0.999992 0.999161
0.060000 0.999986 0.999988 0.998893
0.070000 0.999980 0.999982 0.998583
0.080000 0.999971 0.999974 0.998224
0.090000 0.999960 0.999964 0.997813
0.100000 0.999944 0.999950 0.997343
0.110000 0.999924 0.999932 0.996808
0.120000 0.999899 0.999908 0.996202
0.130000 0.999865 0.999878 0.995518
0.140000 0.999822 0.999838 0.994748
0.150000 0.999767 0.999788 0.993885
0.160000 0.999698 0.999724 0.992921
0.170000 0.999612 0.999644 0.991846
0.180000 0.999503 0.999544 0.990653
0.190000 0.999369 0.999418 0.989331
0.200000 0.999203 0.999263 0.987870
0.210000 0.998999 0.999072 0.986261
0.220000 0.998749 0.998839 0.984493
0.230000 0.998446 0.998554 0.982555
0.240000 0.998080 0.998208 0.980436
0.250000 0.997639 0.997791 0.978123
0.260000 0.997111 0.997289 0.975606
0.270000 0.996481 0.996690 0.972873
0.280000 0.995734 0.995978 0.969911
0.290000 0.994851 0.995133 0.966708
0.300000 0.993813 0.994138 0.963253
0.310000 0.992598 0.992970 0.959532
0.320000 0.991181 0.991605 0.955534
0.330000 0.989537 0.990017 0.951247
0.340000 0.987637 0.988177 0.946659
0.350000 0.985450 0.986055 0.941758
0.360000 0.982944 0.983618 0.936535
0.370000 0.980084 0.980831 0.930977
0.380000 0.976835 0.977657 0.925074
0.390000 0.973157 0.974057 0.918818
0.400000 0.969012 0.969991 0.912200
0.410000 0.964359 0.965418 0.905211
0.420000 0.959157 0.960295 0.897844
0.430000 0.953365 0.954581 0.890092
0.440000 0.946940 0.948231 0.881951
0.450000 0.939844 0.941205 0.873417
0.460000 0.932035 0.933462 0.864485
0.470000 0.923478 0.924961 0.855154
0.480000 0.914136 0.915667 0.845424
0.490000 0.903977 0.905546 0.835294
0.500000 0.892974 0.894567 0.824767
0.510000 0.881102 0.882706 0.813846
0.520000 0.868342 0.869941 0.802536
0.530000 0.854680 0.856258 0.790842
0.540000 0.840110 0.841648 0.778773
0.550000 0.824629 0.826109 0.766336
0.560000 0.808245 0.809647 0.753543
0.570000 0.790970 0.792274 0.740406
0.580000 0.772826 0.774010 0.726937
0.590000 0.753840 0.754886 0.713151
0.600000 0.734050 0.734937 0.699065
0.610000 0.713498 0.714208 0.684695
0.620000 0.692236 0.692751 0.670059
0.630000 0.670322 0.670626 0.655178
0.640000 0.647822 0.647900 0.640071
0.650000 0.624805 0.624646 0.624761
0.660000 0.601349 0.600942 0.609270
0.670000 0.577534 0.576872 0.593622
0.680000 0.553445 0.552524 0.577839
0.690000 0.529169 0.527987 0.561948
0.700000 0.504796 0.503355 0.545973
0.710000 0.480417 0.478721 0.529939
0.720000 0.456122 0.454179 0.513873
0.730000 0.432001 0.429820 0.497801
0.740000 0.408141 0.405735 0.481748
0.750000 0.384626 0.382011 0.465741
0.760000 0.361538 0.358731 0.449806
0.770000 0.338952 0.335972 0.433968
0.780000 0.316938 0.313807 0.418255
0.790000 0.295561 0.292302 0.402690
0.800000 0.274880 0.271515 0.387301
0.810000 0.254945 0.251498 0.372112
0.820000 0.235800 0.232295 0.357149
0.830000 0.217480 0.213942 0.342437
0.840000 0.200016 0.196467 0.328004
0.850000 0.183428 0.179891 0.313875
0.860000 0.167729 0.164227 0.300081
0.870000 0.152928 0.149479 0.286652
0.880000 0.139024 0.135645 0.273623
0.890000 0.126011 0.122719 0.261030
0.900000 0.113879 0.110685 0.248920
0.910000 0.102612 0.099524 0.237343
0.920000 0.092193 0.089211 0.226362
0.930000 0.082605 0.079717 0.216053
0.940000 0.073837 0.071010 0.206510
0.950000 0.065889 0.063054 0.197849
0.960000 0.058790 0.055811 0.190216
0.970000 0.052624 0.049243 0.183794
0.980000 0.047577 0.043308 0.178812
0.990000 0.044021 0.037966 0.175562
1.000000 0.042678 0.033175 0.174410
