0.000000 1.000000 1.000000 0.999492
0.010000 0.999928 0.999933 0.998865
0.020000 0.999818 0.999830 0.997497
0.030000 0.999655 0.999678 0.995867
0.040000 0.999422 0.999459 0.993948
0.050000 0.999100 0.999154 0.991709
0.060000 0.998660 0.998738 0.989119
0.070000 0.998073 0.998180 0.986145
0.080000 0.997301 0.997443 0.982755
0.090000 0.996300 0.996484 0.978914
0.100000 0.995019 0.995253 0.974591
0.110000 0.993400 0.993692 0.969749
0.120000 0.991375 0.991734 0.964357
0.130000 0.988871 0.989304 0.958382
0.140000 0.985804 0.986320 0.951792
0.150000 0.982086 0.982691 0.944558
0.160000 0.977621 0.978320 0.936651
0.170000 0.972305 0.973102 0.928046
0.180000 0.966033 0.966929 0.918720
0.190000 0.958696 0.959690 0.908653
0.200000 0.950185 0.951271 0.897829
0.210000 0.940393 0.941563 0.886235
0.220000 0.929218 0.930459 0.873863
0.230000 0.916566 0.917861 0.860709
0.240000 0.902352 0.903680 0.846773
0.250000 0.886509 0.887843 0.832062
0.260000 0.868982 0.870293 0.816587
0.270000 0.849740 0.850994 0.800362
0.280000 0.828771 0.829933 0.783410
0.290000 0.806089 0.807122 0.765757
0.300000 0.781735 0.782599 0.747435
0.310000 0.755775 0.756432 0.728481
0.320000 0.728303 0.728716 0.708936
0.330000 0.699440 0.699574 0.688846
0.340000 0.669331 0.669157 0.668261
0.350000 0.638145 0.637638 0.647237
0.360000 0.606073 0.605214 0.625830
0.370000 0.573320 0.572097 0.604102
0.380000 0.540107 0.538515 0.582116
0.390000 0.506661 0.504704 0.559937
0.400000 0.473215 0.470904 0.537631
0.410000 0.440000 0.437355 0.515266
0.420000 0.407243 0.404290 0.492909
0.430000 0.375159 0.371931 0.470628
0.440000 0.343950 0.340485 0.448489
0.450000 0.313801 0.310142 0.426556
0.460000 0.284874 0.281066 0.404892
0.470000 0.257309 0.253400 0.383556
0.480000 0.231220 0.227258 0.362607
0.490000 0.206697 0.202727 0.342097
0.500000 0.183801 0.179869 0.322076
0.510000 0.162569 0.158717 0.302588
0.520000 0.143013 0.139279 0.283677
0.530000 0.125124 0.121539 0.265376
0.540000 0.108868 0.105460 0.247719
0.550000 0.094197 0.090988 0.230732
0.560000 0.081045 0.078051 0.214436
0.570000 0.069334 0.066566 0.198848
0.580000 0.058977 0.056440 0.183981
0.590000 0.049878 0.047573 0.169841
0.600000 0.041938 0.039863 0.156433
0.610000 0.035057 0.033203 0.143753
0.620000 0.029132 0.027491 0.131797
0.630000 0.024066 0.022624 0.120556
0.640000 0.019763 0.018507 0.110017
0.650000 0.016132 0.015047 0.100163
0.660000 0.013089 0.012159 0.090978
0.670000 0.010556 0.009765 0.082439
0.680000 0.008461 0.007795 0.074524
0.690000 0.006741 0.006183 0.067208
0.700000 0.005338 0.004875 0.060465
0.710000 0.004201 0.003819 0.054267
0.720000 0.003285 0.002973 0.048586
0.730000 0.002554 0.002301 0.043394
0.740000 0.001972 0.001769 0.038663
0.750000 0.001514 0.001351 0.034362
0.760000 0.001155 0.001026 0.030465
0.770000 0.000875 0.000774 0.026944
0.780000 0.000659 0.000580 0.023770
0.790000 0.000494 0.000432 0.020918
0.800000 0.000367 0.000320 0.018362
0.810000 0.000271 0.000235 0.016079
0.820000 0.000199 0.000172 0.014044
0.830000 0.000145 0.000125 0.012236
0.840000 0.000105 0.000090 0.010634
0.850000 0.000076 0.000065 0.009218
0.860000 0.000054 0.000046 0.007971
0.870000 0.000039 0.000033 0.006876
0.880000 0.000027 0.000023 0.005916
0.890000 0.000019 0.000016 0.005079
0.900000 0.000013 0.000011 0.004350
0.910000 0.000009 0.000008 0.003718
0.920000 0.000006 0.000005 0.003174
0.930000 0.000004 0.000004 0.002706
0.940000 0.000003 0.000002 0.002309
0.950000 0.000002 0.000002 0.001975
0.960000 0.000001 0.000001 0.001700
0.970000 0.000001 0.000001 0.001482
0.980000 0.000001 0.000000 0.001320
0.990000 0.000000 0.000000 0.001218
1.000000 0.000000 0.000000 0.001182
