0.000000 1.000000 1.000000 0.999972
0.010000 1.000000 1.000000 0.999938
0.020000 0.999999 1.000000 0.999863
0.030000 0.999999 0.999999 0.999772
0.040000 0.999998 0.999999 0.999666
0.050000 0.999997 0.999998 0.999540
0.060000 0.999996 0.999997 0.999393
0.070000 0.999994 0.999995 0.999222
0.080000 0.999992 0.999993 0.999024
0.090000 0.999988 0.999990 0.998797
0.100000 0.999984 0.999986 0.998536
0.110000 0.999978 0.999981 0.998239
0.120000 0.999970 0.999974 0.997902
0.130000 0.999960 0.999965 0.997520
0.140000 0.999948 0.999953 0.997089
0.150000 0.999931 0.999938 0.996605
0.160000 0.999910 0.999919 0.996062
0.170000 0.999884 0.999895 0.995454
0.180000 0.999850 0.999865 0.994777
0.190000 0.999809 0.999826 0.994025
0.200000 0.999756 0.999779 0.993190
0.210000 0.999692 0.999719 0.992267
0.220000 0.999612 0.999646 0.991248
0.230000 0.999515 0.999555 0.990126
0.240000 0.999395 0.999445 0.988894
0.250000 0.999250 0.999309 0.987544
0.260000 0.999074 0.999145 0.986066
0.270000 0.998862 0.998947 0.984454
0.280000 0.998607 0.998707 0.982698
0.290000 0.998302 0.998420 0.980788
0.300000 0.997939 0.998078 0.978717
0.310000 0.997508 0.997670 0.976474
0.320000 0.996998 0.997187 0.974049
0.330000 0.996399 0.996617 0.971434
0.340000 0.995696 0.995947 0.968618
0.350000 0.994875 0.995163 0.965591
0.360000 0.993920 0.994248 0.962343
0.370000 0.992813 0.993185 0.958864
0.380000 0.991534 0.991955 0.955144
0.390000 0.990064 0.990536 0.951174
0.400000 0.988378 0.988907 0.946944
0.410000 0.986452 0.987041 0.942444
0.420000 0.984262 0.984914 0.937666
0.430000 0.981778 0.982497 0.932599
0.440000 0.978972 0.979762 0.927236
0.450000 0.975813 0.976676 0.921569
0.460000 0.972271 0.973208 0.915590
0.470000 0.968311 0.969324 0.909291
0.480000 0.963901 0.964991 0.902667
0.490000 0.959007 0.960173 0.895711
0.500000 0.953594 0.954835 0.888419
0.510000 0.947629 0.948942 0.880786
0.520000 0.941078 0.942459 0.872808
0.530000 0.933907 0.935353 0.864483
0.540000 0.926086 0.927589 0.855809
0.550000 0.917586 0.919139 0.846785
0.560000 0.908377 0.909972 0.837410
0.570000 0.898436 0.900062 0.827688
0.580000 0.887741 0.889386 0.817619
0.590000 0.876273 0.877925 0.807206
0.600000 0.864019 0.865664 0.796455
0.610000 0.850969 0.852591 0.785370
0.620000 0.837118 0.838702 0.773958
0.630000 0.822466 0.823994 0.762228
0.640000 0.807019 0.808474 0.750187
0.650000 0.790788 0.792153 0.737846
0.660000 0.773790 0.775048 0.725215
0.670000 0.756050 0.757181 0.712308
0.680000 0.737595 0.738583 0.699136
0.690000 0.718462 0.719289 0.685715
0.700000 0.698690 0.699341 0.672060
0.710000 0.678327 0.678786 0.658187
0.720000 0.657423 0.657679 0.644113
0.730000 0.636037 0.636076 0.629856
0.740000 0.614228 0.614041 0.615436
0.750000 0.592062 0.591641 0.600873
0.760000 0.569607 0.568947 0.586187
0.770000 0.546934 0.546031 0.571400
0.780000 0.524116 0.522969 0.556536
0.790000 0.501228 0.499839 0.541619
0.800000 0.478345 0.476717 0.526672
0.810000 0.455541 0.453681 0.511724
0.820000 0.432890 0.430807 0.496801
0.830000 0.410466 0.408171 0.481934
0.840000 0.388339 0.385843 0.467155
0.850000 0.366576 0.363895 0.452498
0.860000 0.345241 0.342390 0.438002
0.870000 0.324395 0.321390 0.423711
0.880000 0.304095 0.300952 0.409672
0.890000 0.284393 0.281127 0.395941
0.900000 0.265340 0.261959 0.382583
0.910000 0.246983 0.243490 0.369674
0.920000 0.229372 0.225752 0.357303
0.930000 0.212565 0.208773 0.345579
0.940000 0.196636 0.192575 0.334632
0.950000 0.181695 0.177172 0.324622
0.960000 0.167920 0.162575 0.315741
0.970000 0.155615 0.148786 0.308229
0.980000 0.145310 0.135805 0.302379
0.990000 0.137936 0.123624 0.298552
1.000000 0.135131 0.112231 0.297194
