0.000000 1.000000 1.000000 0.999993
0.010000 1.000000 1.000000 0.999985
0.020000 1.000000 1.000000 0.999967
0.030000 1.000000 1.000000 0.999945
0.040000 1.000000 1.000000 0.999919
0.050000 1.000000 1.000000 0.999889
0.060000 1.000000 1.000000 0.999853
0.070000 1.000000 1.000000 0.999811
0.080000 1.000000 1.000000 0.999763
0.090000 0.999999 1.000000 0.999707
0.100000 0.999999 0.999999 0.999643
0.110000 0.999999 0.999999 0.999570
0.120000 0.999998 0.999999 0.999486
0.130000 0.999998 0.999998 0.999391
0.140000 0.999997 0.999998 0.999283
0.150000 0.999996 0.999997 0.999161
0.160000 0.999995 0.999996 0.999023
0.170000 0.999994 0.999995 0.998868
0.180000 0.999992 0.999993 0.998694
0.190000 0.999990 0.999991 0.998500
0.200000 0.999987 0.999988 0.998283
0.210000 0.999983 0.999985 0.998042
0.220000 0.999978 0.999981 0.997773
0.230000 0.999972 0.999976 0.997475
0.240000 0.999965 0.999969 0.997145
0.250000 0.999956 0.999961 0.996781
0.260000 0.999945 0.999951 0.996379
0.270000 0.999931 0.999938 0.995937
0.280000 0.999914 0.999923 0.995450
0.290000 0.999893 0.999904 0.994917
0.300000 0.999868 0.999882 0.994332
0.310000 0.999837 0.999854 0.993693
0.320000 0.999800 0.999820 0.992995
0.330000 0.999756 0.999779 0.992235
0.340000 0.999702 0.999730 0.991407
0.350000 0.999638 0.999671 0.990508
0.360000 0.999561 0.999601 0.989532
0.370000 0.999470 0.999517 0.988475
0.380000 0.999362 0.999416 0.987332
0.390000 0.999234 0.999297 0.986097
0.400000 0.999082 0.999157 0.984764
0.410000 0.998905 0.998991 0.983329
0.420000 0.998696 0.998796 0.981786
0.430000 0.998452 0.998567 0.980127
0.440000 0.998168 0.998300 0.978349
0.450000 0.997837 0.997989 0.976443
0.460000 0.997454 0.997627 0.974404
0.470000 0.997012 0.997208 0.972226
0.480000 0.996501 0.996724 0.969902
0.490000 0.995915 0.996167 0.967425
0.500000 0.995243 0.995526 0.964789
0.510000 0.994475 0.994793 0.961987
0.520000 0.993600 0.993955 0.959013
0.530000 0.992606 0.993002 0.955859
0.540000 0.991479 0.991918 0.952520
0.550000 0.990205 0.990692 0.948989
0.560000 0.988770 0.989306 0.945259
0.570000 0.987156 0.987746 0.941325
0.580000 0.985348 0.985994 0.937179
0.590000 0.983327 0.984031 0.932816
0.600000 0.981073 0.981839 0.928231
0.610000 0.978567 0.979398 0.923417
0.620000 0.975789 0.976686 0.918370
0.630000 0.972717 0.973681 0.913084
0.640000 0.969329 0.970362 0.907556
0.650000 0.965602 0.966705 0.901780
0.660000 0.961514 0.962687 0.895754
0.670000 0.957042 0.958283 0.889473
0.680000 0.952161 0.953471 0.882936
0.690000 0.946850 0.948226 0.876140
0.700000 0.941085 0.942524 0.869084
0.710000 0.934844 0.936343 0.861767
0.720000 0.928106 0.929660 0.854189
0.730000 0.920850 0.922454 0.846350
0.740000 0.913056 0.914704 0.838254
0.750000 0.904708 0.906392 0.829902
0.760000 0.895788 0.897500 0.821298
0.770000 0.886283 0.888014 0.812449
0.780000 0.876180 0.877920 0.803360
0.790000 0.865470 0.867209 0.794041
0.800000 0.854146 0.855871 0.784503
0.810000 0.842204 0.843903 0.774757
0.820000 0.829643 0.831303 0.764820
0.830000 0.816466 0.818072 0.754710
0.840000 0.802678 0.804215 0.744450
0.850000 0.788289 0.789742 0.734066
0.860000 0.773314 0.774663 0.723590
0.870000 0.757772 0.758995 0.713060
0.880000 0.741688 0.742758 0.702522
0.890000 0.725094 0.725975 0.692028
0.900000 0.708034 0.708673 0.681644
0.910000 0.690564 0.690883 0.671447
0.920000 0.672762 0.672638 0.661529
0.930000 0.654741 0.653977 0.652001
0.940000 0.636663 0.634939 0.642995
0.950000 0.618777 0.615568 0.634670
0.960000 0.601472 0.595908 0.627218
0.970000 0.585356 0.576008 0.620867
0.980000 0.571409 0.555917 0.615894
0.990000 0.561201 0.535686 0.612628
1.000000 0.557275 0.515367 0.611467
