0.000000 1.000000 1.000000 0.999967
0.010000 1.000000 1.000000 0.999927
0.020000 0.999999 0.999999 0.999839
0.030000 0.999999 0.999999 0.999733
0.040000 0.999998 0.999998 0.999608
0.050000 0.999996 0.999997 0.999461
0.060000 0.999995 0.999995 0.999289
0.070000 0.999992 0.999993 0.999089
0.080000 0.999988 0.999990 0.998858
0.090000 0.999984 0.999986 0.998592
0.100000 0.999978 0.999980 0.998288
0.110000 0.999970 0.999973 0.997941
0.120000 0.999959 0.999963 0.997547
0.130000 0.999945 0.999951 0.997102
0.140000 0.999928 0.999935 0.996600
0.150000 0.999905 0.999914 0.996036
0.160000 0.999876 0.999888 0.995404
0.170000 0.999840 0.999855 0.994698
0.180000 0.999794 0.999813 0.993912
0.190000 0.999737 0.999761 0.993038
0.200000 0.999666 0.999696 0.992071
0.210000 0.999579 0.999615 0.991001
0.220000 0.999471 0.999515 0.989822
0.230000 0.999339 0.999392 0.988526
0.240000 0.999178 0.999242 0.987103
0.250000 0.998982 0.999059 0.985546
0.260000 0.998746 0.998838 0.983844
0.270000 0.998463 0.998571 0.981989
0.280000 0.998123 0.998251 0.979971
0.290000 0.997717 0.997867 0.977780
0.300000 0.997236 0.997411 0.975406
0.310000 0.996666 0.996870 0.972839
0.320000 0.995996 0.996232 0.970068
0.330000 0.995209 0.995481 0.967084
0.340000 0.994290 0.994601 0.963875
0.350000 0.993221 0.993575 0.960431
0.360000 0.991981 0.992383 0.956742
0.370000 0.990549 0.991003 0.952797
0.380000 0.988902 0.989411 0.948586
0.390000 0.987015 0.987584 0.944099
0.400000 0.984861 0.985493 0.939326
0.410000 0.982411 0.983111 0.934258
0.420000 0.979636 0.980405 0.928886
0.430000 0.976502 0.977345 0.923200
0.440000 0.972979 0.973896 0.917194
0.450000 0.969030 0.970025 0.910859
0.460000 0.964622 0.965694 0.904188
0.470000 0.959719 0.960867 0.897175
0.480000 0.954284 0.955509 0.889815
0.490000 0.948283 0.949581 0.882103
0.500000 0.941679 0.943047 0.874035
0.510000 0.934438 0.935871 0.865607
0.520000 0.926527 0.928019 0.856819
0.530000 0.917916 0.919458 0.847669
0.540000 0.908574 0.910157 0.838157
0.550000 0.898475 0.900090 0.828285
0.560000 0.887598 0.889232 0.818054
0.570000 0.875923 0.877563 0.807468
0.580000 0.863434 0.865066 0.796531
0.590000 0.850123 0.851731 0.785250
0.600000 0.835985 0.837551 0.773632
0.610000 0.821020 0.822528 0.761683
0.620000 0.805235 0.806666 0.749415
0.630000 0.788642 0.789979 0.736837
0.640000 0.771260 0.772484 0.723961
0.650000 0.753116 0.754208 0.710800
0.660000 0.734239 0.735182 0.697367
0.670000 0.714669 0.715445 0.683678
0.680000 0.694449 0.695042 0.669750
0.690000 0.673629 0.674024 0.655598
0.700000 0.652265 0.652449 0.641241
0.710000 0.630417 0.630378 0.626698
0.720000 0.608151 0.607880 0.611988
0.730000 0.585535 0.585024 0.597133
0.740000 0.562643 0.561886 0.582153
0.750000 0.539548 0.538544 0.567070
0.760000 0.516330 0.515078 0.551908
0.770000 0.493065 0.491568 0.536690
0.780000 0.469834 0.468096 0.521441
0.790000 0.446713 0.444743 0.506184
0.800000 0.423781 0.421588 0.490947
0.810000 0.401112 0.398709 0.475756
0.820000 0.378779 0.376180 0.460639
0.830000 0.356851 0.354071 0.445626
0.840000 0.335393 0.332451 0.430748
0.850000 0.314466 0.311381 0.416040
0.860000 0.294126 0.290917 0.401538
0.870000 0.274423 0.271110 0.387283
0.880000 0.255402 0.252004 0.373320
0.890000 0.237104 0.233639 0.359703
0.900000 0.219564 0.216045 0.346490
0.910000 0.202814 0.199248 0.333754
0.920000 0.186887 0.183266 0.321579
0.930000 0.171820 0.168113 0.310065
0.940000 0.157660 0.153794 0.299336
0.950000 0.144486 0.140309 0.289542
0.960000 0.132432 0.127653 0.280867
0.970000 0.121734 0.115816 0.273537
0.980000 0.112823 0.104783 0.267834
0.990000 0.106469 0.094533 0.264106
1.000000 0.104056 0.085044 0.262784
