0.000000 1.000000 1.000000 0.994987
0.010000 0.995459 0.995584 0.988830
0.020000 0.988627 0.988898 0.975465
0.030000 0.978931 0.979358 0.959779
0.040000 0.965784 0.966358 0.941677
0.050000 0.948618 0.949309 0.921101
0.060000 0.926924 0.927677 0.898031
0.070000 0.900303 0.901036 0.872490
0.080000 0.868503 0.869113 0.844548
0.090000 0.831462 0.831831 0.814319
0.100000 0.789335 0.789336 0.781964
0.110000 0.742507 0.742019 0.747687
0.120000 0.691588 0.690506 0.711732
0.130000 0.637396 0.635645 0.674376
0.140000 0.580913 0.578456 0.635926
0.150000 0.523237 0.520082 0.596710
0.160000 0.465518 0.461717 0.557070
0.170000 0.408893 0.404541 0.517352
0.180000 0.354421 0.349646 0.477898
0.190000 0.303029 0.297985 0.439041
0.200000 0.255468 0.250319 0.401094
0.210000 0.212288 0.207194 0.364343
0.220000 0.173824 0.168932 0.329044
0.230000 0.140204 0.135636 0.295418
0.240000 0.111367 0.107216 0.263644
0.250000 0.087095 0.083420 0.233863
0.260000 0.067044 0.063872 0.206173
0.270000 0.050788 0.048118 0.180634
0.280000 0.037853 0.035661 0.157264
0.290000 0.027753 0.025995 0.136049
0.300000 0.020012 0.018636 0.116942
0.310000 0.014189 0.013137 0.099869
0.320000 0.009891 0.009106 0.084732
0.330000 0.006778 0.006205 0.071416
0.340000 0.004564 0.004157 0.059794
0.350000 0.003020 0.002737 0.049730
0.360000 0.001964 0.001772 0.041082
0.370000 0.001254 0.001127 0.033708
0.380000 0.000787 0.000705 0.027470
0.390000 0.000484 0.000433 0.022233
0.400000 0.000293 0.000261 0.017870
0.410000 0.000174 0.000155 0.014265
0.420000 0.000101 0.000090 0.011307
0.430000 0.000058 0.000052 0.008900
0.440000 0.000032 0.000029 0.006957
0.450000 0.000018 0.000016 0.005399
0.460000 0.000010 0.000009 0.004161
0.470000 0.000005 0.000005 0.003184
0.480000 0.000003 0.000002 0.002419
0.490000 0.000001 0.000001 0.001824
0.500000 0.000001 0.000001 0.001366
0.510000 0.000000 0.000000 0.001016
0.520000 0.000000 0.000000 0.000750
0.530000 0.000000 0.000000 0.000549
0.540000 0.000000 0.000000 0.000399
0.550000 0.000000 0.000000 0.000288
0.560000 0.000000 0.000000 0.000207
0.570000 0.000000 0.000000 0.000147
0.580000 0.000000 0.000000 0.000104
0.590000 0.000000 0.000000 0.000073
0.600000 0.000000 0.000000 0.000051
0.610000 0.000000 0.000000 0.000035
0.620000 0.000000 0.000000 0.000024
0.630000 0.000000 0.000000 0.000016
0.640000 0.000000 0.000000 0.000011
0.650000 0.000000 0.000000 0.000007
0.660000 0.000000 0.000000 0.000005
0.670000 0.000000 0.000000 0.000003
0.680000 0.000000 0.000000 0.000002
0.690000 0.000000 0.000000 0.000001
0.700000 0.000000 0.000000 0.000001
0.710000 0.000000 0.000000 0.000001
0.720000 0.000000 0.000000 0.000000
0.730000 0.000000 0.000000 0.000000
0.740000 0.000000 0.000000 0.000000
0.750000 0.000000 0.000000 0.000000
0.760000 0.000000 0.000000 0.000000
0.770000 0.000000 0.000000 0.000000
0.780000 0.000000 0.000000 0.000000
0.790000 0.000000 0.000000 0.000000
0.800000 0.000000 0.000000 0.000000
0.810000 0.000000 0.000000 0.000000
0.820000 0.000000 0.000000 0.000000
0.830000 0.000000 0.000000 0.000000
0.840000 0.000000 0.000000 0.000000
0.850000 -0.000000 0.000000 0.000000
0.860000 -0.000000 0.000000 0.000000
0.870000 -0.000000 0.000000 0.000000
0.880000 -0.000000 0.000000 0.000000
0.890000 -0.000000 0.000000 0.000000
0.900000 0.000000 0.000000 0.000000
0.910000 0.000000 0.000000 0.000000
0.920000 0.000000 0.000000 0.000000
0.930000 0.000000 0.000000 0.000000
0.940000 -0.000000 0.000000 0.000000
0.950000 -0.000000 0.000000 0.000000
0.960000 -0.000000 0.000000 0.000000
0.970000 -0.000000 0.000000 0.000000
0.980000 0.000000 0.000000 0.000000
0.990000 0.000000 0.000000 0.000000
1.000000 0.000000 0.000000 0.000000
