0.000000 1.000000 1.000000 0.999853
0.010000 0.999994 0.999994 0.999671
0.020000 0.999984 0.999986 0.999273
0.030000 0.999970 0.999973 0.998798
0.040000 0.999949 0.999954 0.998236
0.050000 0.999920 0.999927 0.997577
0.060000 0.999880 0.999890 0.996810
0.070000 0.999826 0.999840 0.995923
0.080000 0.999753 0.999773 0.994904
0.090000 0.999657 0.999684 0.993740
0.100000 0.999531 0.999566 0.992416
0.110000 0.999368 0.999414 0.990918
0.120000 0.999158 0.999218 0.989231
0.130000 0.998892 0.998968 0.987338
0.140000 0.998557 0.998651 0.985224
0.150000 0.998137 0.998254 0.982870
0.160000 0.997615 0.997759 0.980260
0.170000 0.996971 0.997146 0.977376
0.180000 0.996183 0.996394 0.974199
0.190000 0.995225 0.995476 0.970711
0.200000 0.994066 0.994364 0.966894
0.210000 0.992675 0.993025 0.962729
0.220000 0.991015 0.991422 0.958199
0.230000 0.989045 0.989516 0.953284
0.240000 0.986722 0.987262 0.947968
0.250000 0.983998 0.984612 0.942233
0.260000 0.980824 0.981516 0.936064
0.270000 0.977144 0.977919 0.929444
0.280000 0.972902 0.973763 0.922360
0.290000 0.968041 0.968989 0.914799
0.300000 0.962498 0.963533 0.906748
0.310000 0.956214 0.957335 0.898197
0.320000 0.949126 0.950329 0.889138
0.330000 0.941174 0.942455 0.879564
0.340000 0.932301 0.933650 0.869468
0.350000 0.922450 0.923858 0.858849
0.360000 0.911570 0.913026 0.847705
0.370000 0.899617 0.901104 0.836038
0.380000 0.886550 0.888051 0.823851
0.390000 0.872339 0.873835 0.811150
0.400000 0.856962 0.858431 0.797943
0.410000 0.840407 0.841825 0.784241
0.420000 0.822672 0.824015 0.770057
0.430000 0.803768 0.805011 0.755406
0.440000 0.783719 0.784834 0.740308
0.450000 0.762559 0.763521 0.724782
0.460000 0.740337 0.741120 0.708850
0.470000 0.717115 0.717694 0.692538
0.480000 0.692966 0.693319 0.675872
0.490000 0.667976 0.668081 0.658881
0.500000 0.642240 0.642081 0.641596
0.510000 0.615867 0.615428 0.624050
0.520000 0.588969 0.588240 0.606275
0.530000 0.561670 0.560644 0.588307
0.540000 0.534097 0.532771 0.570183
0.550000 0.506380 0.504757 0.551937
0.560000 0.478653 0.476739 0.533610
0.570000 0.451049 0.448854 0.515237
0.580000 0.423698 0.421237 0.496858
0.590000 0.396728 0.394020 0.478510
0.600000 0.370259 0.367326 0.460231
0.610000 0.344405 0.341273 0.442058
0.620000 0.319274 0.315969 0.424028
0.630000 0.294959 0.291512 0.406176
0.640000 0.271546 0.267988 0.388536
0.650000 0.249109 0.245471 0.371142
0.660000 0.227708 0.224021 0.354025
0.670000 0.207392 0.203688 0.337214
0.680000 0.188196 0.184506 0.320737
0.690000 0.170144 0.166496 0.304621
0.700000 0.153249 0.149669 0.288890
0.710000 0.137510 0.134023 0.273565
0.720000 0.122917 0.119544 0.258665
0.730000 0.109451 0.106210 0.244209
0.740000 0.097082 0.093989 0.230211
0.750000 0.085775 0.082842 0.216683
0.760000 0.075486 0.072724 0.203637
0.770000 0.066169 0.063583 0.191080
0.780000 0.057770 0.055364 0.179019
0.790000 0.050235 0.048010 0.167457
0.800000 0.043506 0.041462 0.156396
0.810000 0.037526 0.035658 0.145837
0.820000 0.032236 0.030539 0.135777
0.830000 0.027578 0.026045 0.126213
0.840000 0.023495 0.022119 0.117141
0.850000 0.019934 0.018706 0.108555
0.860000 0.016843 0.015752 0.100449
0.870000 0.014171 0.013209 0.092815
0.880000 0.011873 0.011028 0.085648
0.890000 0.009906 0.009168 0.078941
0.900000 0.008230 0.007589 0.072689
0.910000 0.006809 0.006255 0.066891
0.920000 0.005609 0.005133 0.061546
0.930000 0.004602 0.004194 0.056662
0.940000 0.003761 0.003412 0.052251
0.950000 0.003063 0.002764 0.048335
0.960000 0.002491 0.002229 0.044950
0.970000 0.002031 0.001790 0.042146
0.980000 0.001678 0.001431 0.039998
0.990000 0.001440 0.001139 0.038608
1.000000 0.001353 0.000902 0.038117
