0.000000 1.000000 1.000000 0.999954
0.010000 0.999999 1.000000 0.999898
0.020000 0.999999 0.999999 0.999775
0.030000 0.999997 0.999998 0.999628
0.040000 0.999995 0.999996 0.999453
0.050000 0.999993 0.999994 0.999248
0.060000 0.999989 0.999990 0.999008
0.070000 0.999984 0.999986 0.998730
0.080000 0.999977 0.999980 0.998408
0.090000 0.999968 0.999971 0.998039
0.100000 0.999956 0.999960 0.997617
0.110000 0.999940 0.999946 0.997137
0.120000 0.999919 0.999927 0.996592
0.130000 0.999892 0.999902 0.995977
0.140000 0.999857 0.999871 0.995285
0.150000 0.999813 0.999831 0.994508
0.160000 0.999758 0.999779 0.993639
0.170000 0.999688 0.999715 0.992671
0.180000 0.999600 0.999634 0.991594
0.190000 0.999491 0.999533 0.990401
0.200000 0.999357 0.999407 0.989082
0.210000 0.999191 0.999253 0.987627
0.220000 0.998988 0.999063 0.986027
0.230000 0.998741 0.998831 0.984272
0.240000 0.998441 0.998549 0.982351
0.250000 0.998080 0.998209 0.980253
0.260000 0.997647 0.997798 0.977967
0.270000 0.997128 0.997307 0.975483
0.280000 0.996512 0.996721 0.972787
0.290000 0.995782 0.996025 0.969870
0.300000 0.994922 0.995202 0.966719
0.310000 0.993911 0.994234 0.963322
0.320000 0.992730 0.993099 0.959667
0.330000 0.991356 0.991776 0.955744
0.340000 0.989763 0.990238 0.951540
0.350000 0.987925 0.988459 0.947044
0.360000 0.985812 0.986409 0.942246
0.370000 0.983393 0.984058 0.937133
0.380000 0.980635 0.981371 0.931697
0.390000 0.977504 0.978315 0.925927
0.400000 0.973964 0.974850 0.919814
0.410000 0.969975 0.970940 0.913349
0.420000 0.965501 0.966545 0.906524
0.430000 0.960500 0.961624 0.899332
0.440000 0.954934 0.956135 0.891768
0.450000 0.948762 0.950038 0.883824
0.460000 0.941945 0.943293 0.875498
0.470000 0.934445 0.935859 0.866786
0.480000 0.926224 0.927698 0.857684
0.490000 0.917249 0.918773 0.848193
0.500000 0.907486 0.909052 0.838313
0.510000 0.896909 0.898504 0.828045
0.520000 0.885491 0.887102 0.817391
0.530000 0.873213 0.874826 0.806355
0.540000 0.860059 0.861658 0.794944
0.550000 0.846021 0.847588 0.783163
0.560000 0.831093 0.832611 0.771020
0.570000 0.815281 0.816729 0.758526
0.580000 0.798592 0.799953 0.745691
0.590000 0.781045 0.782298 0.732527
0.600000 0.762663 0.763788 0.719048
0.610000 0.743478 0.744456 0.705269
0.620000 0.723528 0.724340 0.691204
0.630000 0.702860 0.703489 0.676873
0.640000 0.681527 0.681955 0.662292
0.650000 0.659587 0.659800 0.647482
0.660000 0.637107 0.637091 0.632462
0.670000 0.614157 0.613902 0.617255
0.680000 0.590812 0.590310 0.601882
0.690000 0.567154 0.566397 0.586365
0.700000 0.543264 0.542250 0.570730
0.710000 0.519228 0.517957 0.554999
0.720000 0.495133 0.493608 0.539197
0.730000 0.471067 0.469292 0.523349
0.740000 0.447116 0.445100 0.507481
0.750000 0.423367 0.421121 0.491618
0.760000 0.399902 0.397439 0.475784
0.770000 0.376802 0.374138 0.460008
0.780000 0.354144 0.351296 0.444313
0.790000 0.331999 0.328986 0.428726
0.800000 0.310433 0.307277 0.413274
0.810000 0.289507 0.286230 0.397981
0.820000 0.269274 0.265899 0.382876
0.830000 0.249783 0.246333 0.367985
0.840000 0.231073 0.227572 0.353337
0.850000 0.213177 0.209648 0.338960
0.860000 0.196122 0.192587 0.324887
0.870000 0.179927 0.176407 0.311150
0.880000 0.164603 0.161118 0.297788
0.890000 0.150158 0.146725 0.284843
0.900000 0.136591 0.133224 0.272364
0.910000 0.123898 0.120607 0.260408
0.920000 0.112074 0.108858 0.249043
0.930000 0.101113 0.097957 0.238353
0.940000 0.091016 0.087882 0.228439
0.950000 0.081800 0.078601 0.219428
0.960000 0.073515 0.070086 0.211474
0.970000 0.066278 0.062299 0.204775
0.980000 0.060324 0.055206 0.199574
0.990000 0.056117 0.048768 0.196179
1.000000 0.054526 0.042946 0.194976
