0.000000 1.000000 1.000000 0.999400
0.010000 0.999901 0.999908 0.998661
0.020000 0.999749 0.999766 0.997047
0.030000 0.999526 0.999556 0.995126
0.040000 0.999208 0.999256 0.992866
0.050000 0.998767 0.998838 0.990230
0.060000 0.998169 0.998269 0.987185
0.070000 0.997372 0.997507 0.983694
0.080000 0.996327 0.996506 0.979719
0.090000 0.994977 0.995208 0.975225
0.100000 0.993256 0.993548 0.970173
0.110000 0.991090 0.991452 0.964527
0.120000 0.988396 0.988835 0.958253
0.130000 0.985081 0.985605 0.951315
0.140000 0.981043 0.981661 0.943682
0.150000 0.976177 0.976893 0.935323
0.160000 0.970368 0.971184 0.926213
0.170000 0.963499 0.964416 0.916326
0.180000 0.955449 0.956465 0.905642
0.190000 0.946102 0.947208 0.894146
0.200000 0.935341 0.936526 0.881826
0.210000 0.923060 0.924308 0.868675
0.220000 0.909160 0.910451 0.854691
0.230000 0.893560 0.894867 0.839878
0.240000 0.876192 0.877487 0.824246
0.250000 0.857014 0.858261 0.807811
0.260000 0.836005 0.837168 0.790593
0.270000 0.813172 0.814210 0.772619
0.280000 0.788549 0.789422 0.753924
0.290000 0.762202 0.762870 0.734545
0.300000 0.734228 0.734649 0.714526
0.310000 0.704751 0.704890 0.693919
0.320000 0.673926 0.673751 0.672775
0.330000 0.641936 0.641418 0.651156
0.340000 0.608983 0.608102 0.629122
0.350000 0.575293 0.574036 0.606741
0.360000 0.541104 0.539466 0.584081
0.370000 0.506664 0.504649 0.561214
0.380000 0.472228 0.469849 0.538213
0.390000 0.438048 0.435325 0.515150
0.400000 0.404369 0.401332 0.492100
0.410000 0.371426 0.368110 0.469137
0.420000 0.339437 0.335883 0.446331
0.430000 0.308598 0.304854 0.423755
0.440000 0.279085 0.275199 0.401475
0.450000 0.251042 0.247065 0.379556
0.460000 0.224589 0.220572 0.358061
0.470000 0.199815 0.195807 0.337045
0.480000 0.176779 0.172827 0.316563
0.490000 0.155513 0.151660 0.296662
0.500000 0.136021 0.132304 0.277385
0.510000 0.118283 0.114735 0.258770
0.520000 0.102255 0.098904 0.240850
0.530000 0.087877 0.084741 0.223651
0.540000 0.075070 0.072165 0.207194
0.550000 0.063744 0.061077 0.191495
0.560000 0.053798 0.051373 0.176566
0.570000 0.045127 0.042942 0.162410
0.580000 0.037620 0.035670 0.149030
0.590000 0.031168 0.029442 0.136420
0.600000 0.025661 0.024147 0.124571
0.610000 0.020995 0.019678 0.113473
0.620000 0.017069 0.015934 0.103107
0.630000 0.013789 0.012819 0.093456
0.640000 0.011068 0.010246 0.084496
0.650000 0.008827 0.008136 0.076203
0.660000 0.006995 0.006419 0.068550
0.670000 0.005507 0.005031 0.061510
0.680000 0.004307 0.003917 0.055052
0.690000 0.003347 0.003030 0.049146
0.700000 0.002584 0.002328 0.043761
0.710000 0.001982 0.001777 0.038865
0.720000 0.001510 0.001347 0.034427
0.730000 0.001142 0.001015 0.030417
0.740000 0.000859 0.000759 0.026804
0.750000 0.000641 0.000564 0.023558
0.760000 0.000476 0.000417 0.020651
0.770000 0.000350 0.000305 0.018055
0.780000 0.000256 0.000222 0.015743
0.790000 0.000186 0.000161 0.013691
0.800000 0.000135 0.000116 0.011875
0.810000 0.000096 0.000082 0.010272
0.820000 0.000069 0.000058 0.008862
0.830000 0.000049 0.000041 0.007625
0.840000 0.000034 0.000029 0.006543
0.850000 0.000024 0.000020 0.005600
0.860000 0.000016 0.000014 0.004779
0.870000 0.000011 0.000009 0.004068
0.880000 0.000008 0.000006 0.003454
0.890000 0.000005 0.000004 0.002925
0.900000 0.000004 0.000003 0.002471
0.910000 0.000002 0.000002 0.002083
0.920000 0.000002 0.000001 0.001752
0.930000 0.000001 0.000001 0.001472
0.940000 0.000001 0.000001 0.001237
0.950000 0.000000 0.000000 0.001042
0.960000 0.000000 0.000000 0.000883
0.970000 0.000000 0.000000 0.000758
0.980000 0.000000 0.000000 0.000666
0.990000 0.000000 0.000000 0.000609
1.000000 0.000000 0.000000 0.000588
