0.000000 1.000000 1.000000 0.999807
0.010000 0.999989 0.999990 0.999568
0.020000 0.999973 0.999975 0.999046
0.030000 0.999948 0.999953 0.998424
0.040000 0.999913 0.999920 0.997688
0.050000 0.999863 0.999874 0.996826
0.060000 0.999794 0.999811 0.995823
0.070000 0.999702 0.999725 0.994666
0.080000 0.999578 0.999610 0.993338
0.090000 0.999415 0.999457 0.991822
0.100000 0.999202 0.999258 0.990102
0.110000 0.998928 0.999000 0.988159
0.120000 0.998578 0.998669 0.985975
0.130000 0.998135 0.998250 0.983531
0.140000 0.997579 0.997722 0.980805
0.150000 0.996887 0.997063 0.977780
0.160000 0.996033 0.996246 0.974433
0.170000 0.994986 0.995243 0.970744
0.180000 0.993712 0.994018 0.966692
0.190000 0.992172 0.992534 0.962257
0.200000 0.990324 0.990748 0.957418
0.210000 0.988122 0.988613 0.952155
0.220000 0.985514 0.986078 0.946449
0.230000 0.982444 0.983087 0.940280
0.240000 0.978855 0.979581 0.933632
0.250000 0.974683 0.975496 0.926487
0.260000 0.969864 0.970766 0.918831
0.270000 0.964331 0.965323 0.910649
0.280000 0.958015 0.959095 0.901929
0.290000 0.950846 0.952012 0.892661
0.300000 0.942759 0.944004 0.882836
0.310000 0.933686 0.935002 0.872449
0.320000 0.923565 0.924943 0.861496
0.330000 0.912338 0.913764 0.849975
0.340000 0.899955 0.901412 0.837887
0.350000 0.886371 0.887841 0.825237
0.360000 0.871553 0.873014 0.812031
0.370000 0.855475 0.856905 0.798278
0.380000 0.838127 0.839499 0.783991
0.390000 0.819508 0.820796 0.769185
0.400000 0.799634 0.800809 0.753878
0.410000 0.778532 0.779567 0.738091
0.420000 0.756246 0.757112 0.721846
0.430000 0.732836 0.733506 0.705170
0.440000 0.708374 0.708821 0.688092
0.450000 0.682947 0.683149 0.670643
0.460000 0.656657 0.656592 0.652855
0.470000 0.629615 0.629266 0.634764
0.480000 0.601947 0.601300 0.616407
0.490000 0.573784 0.572830 0.597823
0.500000 0.545267 0.544002 0.579050
0.510000 0.516541 0.514964 0.560131
0.520000 0.487753 0.485871 0.541107
0.530000 0.459052 0.456874 0.522020
0.540000 0.430585 0.428127 0.502913
0.550000 0.402495 0.399777 0.483829
0.560000 0.374920 0.371963 0.464809
0.570000 0.347988 0.344821 0.445896
0.580000 0.321818 0.318470 0.427131
0.590000 0.296519 0.293022 0.408554
0.600000 0.272186 0.268574 0.390202
0.610000 0.248901 0.245208 0.372114
0.620000 0.226733 0.222994 0.354323
0.630000 0.205735 0.201983 0.336865
0.640000 0.185945 0.182213 0.319769
0.650000 0.167390 0.163708 0.303064
0.660000 0.150080 0.146476 0.286778
0.670000 0.134012 0.130512 0.270933
0.680000 0.119174 0.115800 0.255552
0.690000 0.105540 0.102312 0.240653
0.700000 0.093075 0.090008 0.226251
0.710000 0.081738 0.078844 0.212361
0.720000 0.071477 0.068765 0.198993
0.730000 0.062237 0.059713 0.186155
0.740000 0.053959 0.051625 0.173852
0.750000 0.046580 0.044435 0.162088
0.760000 0.040035 0.038077 0.150862
0.770000 0.034259 0.032483 0.140174
0.780000 0.029187 0.027587 0.130019
0.790000 0.024757 0.023323 0.120391
0.800000 0.020905 0.019628 0.111283
0.810000 0.017574 0.016444 0.102686
0.820000 0.014708 0.013714 0.094588
0.830000 0.012253 0.011384 0.086977
0.840000 0.010162 0.009407 0.079841
0.850000 0.008390 0.007737 0.073166
0.860000 0.006895 0.006334 0.066936
0.870000 0.005640 0.005162 0.061137
0.880000 0.004593 0.004187 0.055756
0.890000 0.003723 0.003380 0.050777
0.900000 0.003004 0.002716 0.046189
0.910000 0.002412 0.002172 0.041979
0.920000 0.001928 0.001729 0.038140
0.930000 0.001534 0.001370 0.034667
0.940000 0.001216 0.001080 0.031559
0.950000 0.000959 0.000847 0.028824
0.960000 0.000755 0.000662 0.026476
0.970000 0.000596 0.000514 0.024544
0.980000 0.000476 0.000398 0.023070
0.990000 0.000398 0.000306 0.022120
1.000000 0.000369 0.000235 0.021785
