0.000000 1.000000 1.000000 0.997757
0.010000 0.998866 0.998914 0.994996
0.020000 0.997139 0.997251 0.988984
0.030000 0.994641 0.994832 0.981874
0.040000 0.991162 0.991450 0.973581
0.050000 0.986468 0.986866 0.964025
0.060000 0.980299 0.980818 0.953133
0.070000 0.972380 0.973023 0.940842
0.080000 0.962425 0.963189 0.927099
0.090000 0.950149 0.951023 0.911866
0.100000 0.935284 0.936243 0.895118
0.110000 0.917586 0.918595 0.876847
0.120000 0.896854 0.897868 0.857062
0.130000 0.872946 0.873905 0.835788
0.140000 0.845787 0.846625 0.813072
0.150000 0.815382 0.816028 0.788975
0.160000 0.781829 0.782206 0.763581
0.170000 0.745313 0.745350 0.736987
0.180000 0.706117 0.705746 0.709310
0.190000 0.664607 0.663773 0.680679
0.200000 0.621230 0.619891 0.651239
0.210000 0.576493 0.574628 0.621143
0.220000 0.530950 0.528558 0.590556
0.230000 0.485181 0.482281 0.559645
0.240000 0.439769 0.436402 0.528585
0.250000 0.395280 0.391505 0.497548
0.260000 0.352241 0.348134 0.466707
0.270000 0.311124 0.306771 0.436227
0.280000 0.272329 0.267824 0.406268
0.290000 0.236177 0.231617 0.376982
0.300000 0.202902 0.198380 0.348505
0.310000 0.172651 0.168252 0.320963
0.320000 0.145484 0.141284 0.294467
0.330000 0.121385 0.117445 0.269112
0.340000 0.100267 0.096634 0.244976
0.350000 0.081986 0.078692 0.222121
0.360000 0.066353 0.063414 0.200591
0.370000 0.053146 0.050565 0.180415
0.380000 0.042123 0.039893 0.161605
0.390000 0.033034 0.031136 0.144160
0.400000 0.025631 0.024041 0.128064
0.410000 0.019674 0.018361 0.113289
0.420000 0.014938 0.013870 0.099796
0.430000 0.011219 0.010363 0.087536
0.440000 0.008333 0.007658 0.076454
0.450000 0.006122 0.005596 0.066488
0.460000 0.004447 0.004044 0.057570
0.470000 0.003194 0.002889 0.049631
0.480000 0.002268 0.002042 0.042600
0.490000 0.001593 0.001426 0.036404
0.500000 0.001106 0.000985 0.030972
0.510000 0.000759 0.000673 0.026233
0.520000 0.000515 0.000454 0.022120
0.530000 0.000345 0.000303 0.018568
0.540000 0.000229 0.000200 0.015517
0.550000 0.000150 0.000131 0.012908
0.560000 0.000097 0.000084 0.010689
0.570000 0.000062 0.000054 0.008812
0.580000 0.000039 0.000034 0.007231
0.590000 0.000024 0.000021 0.005906
0.600000 0.000015 0.000013 0.004802
0.610000 0.000009 0.000008 0.003886
0.620000 0.000006 0.000005 0.003131
0.630000 0.000003 0.000003 0.002510
0.640000 0.000002 0.000002 0.002003
0.650000 0.000001 0.000001 0.001592
0.660000 0.000001 0.000001 0.001258
0.670000 0.000000 0.000000 0.000990
0.680000 0.000000 0.000000 0.000776
0.690000 0.000000 0.000000 0.000605
0.700000 0.000000 0.000000 0.000469
0.710000 0.000000 0.000000 0.000362
0.720000 0.000000 0.000000 0.000278
0.730000 0.000000 0.000000 0.000213
0.740000 0.000000 0.000000 0.000162
0.750000 0.000000 0.000000 0.000123
0.760000 0.000000 0.000000 0.000093
0.770000 0.000000 0.000000 0.000069
0.780000 0.000000 0.000000 0.000052
0.790000 0.000000 0.000000 0.000039
0.800000 0.000000 0.000000 0.000029
0.810000 0.000000 0.000000 0.000021
0.820000 0.000000 0.000000 0.000015
0.830000 0.000000 0.000000 0.000011
0.840000 0.000000 0.000000 0.000008
0.850000 0.000000 0.000000 0.000006
0.860000 0.000000 0.000000 0.000004
0.870000 0.000000 0.000000 0.000003
0.880000 0.000000 0.000000 0.000002
0.890000 0.000000 0.000000 0.000002
0.900000 0.000000 0.000000 0.000001
0.910000 0.000000 0.000000 0.000001
0.920000 0.000000 0.000000 0.000001
0.930000 0.000000 0.000000 0.000000
0.940000 0.000000 0.000000 0.000000
0.950000 0.000000 0.000000 0.000000
0.960000 0.000000 0.000000 0.000000
0.970000 0.000000 0.000000 0.000000
0.980000 0.000000 0.000000 0.000000
0.990000 0.000000 0.000000 0.000000
1.000000 0.000000 0.000000 0.000000
