0.000000 1.000000 1.000000 0.999430
0.010000 0.999910 0.999916 0.998726
0.020000 0.999772 0.999787 0.997191
0.030000 0.999569 0.999597 0.995363
0.040000 0.999280 0.999324 0.993211
0.050000 0.998878 0.998944 0.990703
0.060000 0.998333 0.998426 0.987803
0.070000 0.997606 0.997732 0.984476
0.080000 0.996652 0.996819 0.980688
0.090000 0.995418 0.995634 0.976401
0.100000 0.993844 0.994117 0.971581
0.110000 0.991859 0.992198 0.966191
0.120000 0.989386 0.989799 0.960196
0.130000 0.986338 0.986834 0.953563
0.140000 0.982620 0.983206 0.946260
0.150000 0.978131 0.978812 0.938257
0.160000 0.972761 0.973542 0.929526
0.170000 0.966398 0.967279 0.920043
0.180000 0.958926 0.959907 0.909786
0.190000 0.950230 0.951304 0.898739
0.200000 0.940195 0.941353 0.886887
0.210000 0.928713 0.929942 0.874222
0.220000 0.915684 0.916966 0.860741
0.230000 0.901021 0.902332 0.846444
0.240000 0.884652 0.885965 0.831338
0.250000 0.866523 0.867807 0.815435
0.260000 0.846603 0.847822 0.798754
0.270000 0.824884 0.826001 0.781318
0.280000 0.801387 0.802362 0.763155
0.290000 0.776159 0.776952 0.744302
0.300000 0.749280 0.749850 0.724798
0.310000 0.720855 0.721165 0.704689
0.320000 0.691020 0.691036 0.684025
0.330000 0.659938 0.659629 0.662861
0.340000 0.627794 0.627138 0.641256
0.350000 0.594799 0.593776 0.619273
0.360000 0.561174 0.559777 0.596976
0.370000 0.527160 0.525386 0.574436
0.380000 0.492999 0.490855 0.551720
0.390000 0.458939 0.456441 0.528901
0.400000 0.425223 0.422396 0.506050
0.410000 0.392089 0.388962 0.483239
0.420000 0.359757 0.356368 0.460540
0.430000 0.328435 0.324827 0.438021
0.440000 0.298306 0.294524 0.415750
0.450000 0.269530 0.265624 0.393793
0.460000 0.242242 0.238262 0.372212
0.470000 0.216546 0.212542 0.351064
0.480000 0.192522 0.188540 0.330406
0.490000 0.170218 0.166304 0.310286
0.500000 0.149657 0.145852 0.290750
0.510000 0.130836 0.127175 0.271838
0.520000 0.113728 0.110241 0.253586
0.530000 0.098287 0.094999 0.236024
0.540000 0.084447 0.081377 0.219176
0.550000 0.072130 0.069289 0.203062
0.560000 0.061244 0.058641 0.187696
0.570000 0.051690 0.049326 0.173086
0.580000 0.043364 0.041237 0.159238
0.590000 0.036159 0.034261 0.146149
0.600000 0.029967 0.028289 0.133816
0.610000 0.024683 0.023211 0.122229
0.620000 0.020206 0.018926 0.111376
0.630000 0.016437 0.015334 0.101239
0.640000 0.013288 0.012346 0.091799
0.650000 0.010675 0.009876 0.083035
0.660000 0.008522 0.007850 0.074922
0.670000 0.006760 0.006200 0.067434
0.680000 0.005328 0.004865 0.060543
0.690000 0.004173 0.003793 0.054219
0.700000 0.003247 0.002938 0.048434
0.710000 0.002510 0.002261 0.043157
0.720000 0.001928 0.001728 0.038357
0.730000 0.001471 0.001313 0.034004
0.740000 0.001116 0.000991 0.030068
0.750000 0.000840 0.000743 0.026519
0.760000 0.000629 0.000553 0.023329
0.770000 0.000467 0.000409 0.020470
0.780000 0.000345 0.000301 0.017914
0.790000 0.000253 0.000219 0.015637
0.800000 0.000184 0.000159 0.013614
0.810000 0.000134 0.000115 0.011821
0.820000 0.000096 0.000082 0.010238
0.830000 0.000069 0.000058 0.008843
0.840000 0.000049 0.000041 0.007619
0.850000 0.000034 0.000029 0.006546
0.860000 0.000024 0.000020 0.005610
0.870000 0.000017 0.000014 0.004795
0.880000 0.000011 0.000010 0.004088
0.890000 0.000008 0.000007 0.003477
0.900000 0.000005 0.000004 0.002950
0.910000 0.000004 0.000003 0.002497
0.920000 0.000002 0.000002 0.002110
0.930000 0.000002 0.000001 0.001781
0.940000 0.000001 0.000001 0.001504
0.950000 0.000001 0.000001 0.001273
0.960000 0.000000 0.000000 0.001084
0.970000 0.000000 0.000000 0.000935
0.980000 0.000000 0.000000 0.000826
0.990000 0.000000 0.000000 0.000756
1.000000 0.000000 0.000000 0.000732
