0.000000 1.000000 1.000000 0.999980
0.010000 1.000000 1.000000 0.999955
0.020000 1.000000 1.000000 0.999900
0.030000 1.000000 1.000000 0.999835
0.040000 0.999999 0.999999 0.999757
0.050000 0.999999 0.999999 0.999666
0.060000 0.999998 0.999998 0.999559
0.070000 0.999997 0.999997 0.999434
0.080000 0.999996 0.999996 0.999290
0.090000 0.999994 0.999995 0.999125
0.100000 0.999992 0.999993 0.998934
0.110000 0.999989 0.999990 0.998718
0.120000 0.999985 0.999987 0.998471
0.130000 0.999980 0.999982 0.998191
0.140000 0.999973 0.999976 0.997875
0.150000 0.999964 0.999968 0.997519
0.160000 0.999953 0.999958 0.997120
0.170000 0.999939 0.999946 0.996672
0.180000 0.999922 0.999930 0.996173
0.190000 0.999900 0.999910 0.995617
0.200000 0.999872 0.999885 0.994999
0.210000 0.999837 0.999853 0.994314
0.220000 0.999795 0.999814 0.993557
0.230000 0.999742 0.999766 0.992722
0.240000 0.999677 0.999706 0.991802
0.250000 0.999598 0.999633 0.990792
0.260000 0.999502 0.999544 0.989685
0.270000 0.999385 0.999436 0.988474
0.280000 0.999244 0.999305 0.987152
0.290000 0.999074 0.999146 0.985711
0.300000 0.998871 0.998956 0.984143
0.310000 0.998628 0.998729 0.982442
0.320000 0.998340 0.998457 0.980598
0.330000 0.997998 0.998135 0.978603
0.340000 0.997595 0.997754 0.976449
0.350000 0.997120 0.997305 0.974127
0.360000 0.996565 0.996777 0.971629
0.370000 0.995916 0.996160 0.968944
0.380000 0.995161 0.995440 0.966065
0.390000 0.994287 0.994603 0.962983
0.400000 0.993276 0.993634 0.959687
0.410000 0.992114 0.992517 0.956170
0.420000 0.990780 0.991232 0.952423
0.430000 0.989256 0.989761 0.948435
0.440000 0.987519 0.988081 0.944200
0.450000 0.985547 0.986169 0.939708
0.460000 0.983316 0.984002 0.934951
0.470000 0.980801 0.981553 0.929921
0.480000 0.977974 0.978795 0.924611
0.490000 0.974807 0.975700 0.919013
0.500000 0.971271 0.972238 0.913121
0.510000 0.967337 0.968378 0.906928
0.520000 0.962973 0.964089 0.900429
0.530000 0.958150 0.959340 0.893618
0.540000 0.952835 0.954098 0.886492
0.550000 0.946998 0.948332 0.879045
0.560000 0.940608 0.942009 0.871275
0.570000 0.933636 0.935099 0.863180
0.580000 0.926053 0.927573 0.854758
0.590000 0.917831 0.919401 0.846008
0.600000 0.908946 0.910558 0.836931
0.610000 0.899376 0.901019 0.827527
0.620000 0.889099 0.890763 0.817798
0.630000 0.878099 0.879773 0.807748
0.640000 0.866362 0.868033 0.797380
0.650000 0.853880 0.855533 0.786699
0.660000 0.840645 0.842266 0.775712
0.670000 0.826658 0.828231 0.764424
0.680000 0.811923 0.813431 0.752845
0.690000 0.796447 0.797875 0.740982
0.700000 0.780244 0.781575 0.728847
0.710000 0.763335 0.764551 0.716450
0.720000 0.745742 0.746828 0.703804
0.730000 0.727497 0.728435 0.690921
0.740000 0.708633 0.709408 0.677817
0.750000 0.689190 0.689789 0.664507
0.760000 0.669213 0.669622 0.651007
0.770000 0.648751 0.648957 0.637335
0.780000 0.627857 0.627851 0.623512
0.790000 0.606589 0.606362 0.609557
0.800000 0.585006 0.584551 0.595493
0.810000 0.563172 0.562484 0.581345
0.820000 0.541153 0.540228 0.567138
0.830000 0.519014 0.517853 0.552902
0.840000 0.496825 0.495429 0.538668
0.850000 0.474654 0.473026 0.524472
0.860000 0.452570 0.450715 0.510354
0.870000 0.430642 0.428565 0.496358
0.880000 0.408938 0.406644 0.482537
0.890000 0.387526 0.385018 0.468950
0.900000 0.366476 0.363749 0.455668
0.910000 0.345858 0.342898 0.442772
0.920000 0.325752 0.322519 0.430362
0.930000 0.306251 0.302665 0.418554
0.940000 0.287476 0.283383 0.407489
0.950000 0.269603 0.264715 0.397339
0.960000 0.252899 0.246697 0.388311
0.970000 0.237799 0.229361 0.380657
0.980000 0.225034 0.212733 0.374687
0.990000 0.215839 0.196835 0.370777
1.000000 0.212330 0.181681 0.369389
