0.000000 1.000000 1.000000 0.999984
0.010000 1.000000 1.000000 0.999965
0.020000 1.000000 1.000000 0.999922
0.030000 1.000000 1.000000 0.999871
0.040000 0.999999 1.000000 0.999810
0.050000 0.999999 0.999999 0.999738
0.060000 0.999999 0.999999 0.999654
0.070000 0.999998 0.999998 0.999556
0.080000 0.999997 0.999998 0.999443
0.090000 0.999996 0.999997 0.999313
0.100000 0.999995 0.999996 0.999164
0.110000 0.999993 0.999994 0.998993
0.120000 0.999991 0.999992 0.998799
0.130000 0.999988 0.999989 0.998578
0.140000 0.999984 0.999986 0.998329
0.150000 0.999978 0.999981 0.998048
0.160000 0.999972 0.999975 0.997732
0.170000 0.999963 0.999967 0.997378
0.180000 0.999952 0.999958 0.996982
0.190000 0.999939 0.999945 0.996541
0.200000 0.999922 0.999930 0.996050
0.210000 0.999901 0.999911 0.995506
0.220000 0.999874 0.999887 0.994903
0.230000 0.999841 0.999857 0.994237
0.240000 0.999801 0.999820 0.993503
0.250000 0.999752 0.999775 0.992695
0.260000 0.999691 0.999719 0.991808
0.270000 0.999618 0.999652 0.990837
0.280000 0.999529 0.999569 0.989774
0.290000 0.999421 0.999470 0.988614
0.300000 0.999292 0.999350 0.987351
0.310000 0.999136 0.999205 0.985976
0.320000 0.998951 0.999032 0.984484
0.330000 0.998731 0.998826 0.982866
0.340000 0.998469 0.998580 0.981117
0.350000 0.998160 0.998290 0.979226
0.360000 0.997797 0.997947 0.977188
0.370000 0.997370 0.997543 0.974994
0.380000 0.996872 0.997071 0.972636
0.390000 0.996291 0.996519 0.970105
0.400000 0.995616 0.995876 0.967393
0.410000 0.994836 0.995131 0.964492
0.420000 0.993935 0.994269 0.961394
0.430000 0.992900 0.993276 0.958090
0.440000 0.991714 0.992135 0.954571
0.450000 0.990360 0.990830 0.950830
0.460000 0.988818 0.989341 0.946858
0.470000 0.987068 0.987648 0.942647
0.480000 0.985089 0.985729 0.938189
0.490000 0.982858 0.983561 0.933478
0.500000 0.980351 0.981120 0.928504
0.510000 0.977543 0.978380 0.923262
0.520000 0.974407 0.975315 0.917745
0.530000 0.970916 0.971896 0.911947
0.540000 0.967042 0.968096 0.905861
0.550000 0.962757 0.963884 0.899483
0.560000 0.958032 0.959232 0.892808
0.570000 0.952837 0.954110 0.885831
0.580000 0.947145 0.948486 0.878549
0.590000 0.940925 0.942333 0.870959
0.600000 0.934151 0.935621 0.863060
0.610000 0.926796 0.928323 0.854848
0.620000 0.918834 0.920411 0.846325
0.630000 0.910241 0.911861 0.837489
0.640000 0.900997 0.902650 0.828343
0.650000 0.891082 0.892758 0.818887
0.660000 0.880478 0.882167 0.809124
0.670000 0.869174 0.870864 0.799059
0.680000 0.857159 0.858836 0.788695
0.690000 0.844428 0.846077 0.778038
0.700000 0.830977 0.832585 0.767095
0.710000 0.816809 0.818360 0.755874
0.720000 0.801930 0.803409 0.744382
0.730000 0.786353 0.787743 0.732631
0.740000 0.770093 0.771378 0.720630
0.750000 0.753170 0.754335 0.708392
0.760000 0.735610 0.736639 0.695931
0.770000 0.717444 0.718322 0.683261
0.780000 0.698707 0.699419 0.670399
0.790000 0.679438 0.679971 0.657362
0.800000 0.659681 0.660023 0.644171
0.810000 0.639483 0.639623 0.630847
0.820000 0.618897 0.618825 0.617415
0.830000 0.597977 0.597686 0.603902
0.840000 0.576781 0.576263 0.590338
0.850000 0.555368 0.554620 0.576758
0.860000 0.533803 0.532819 0.563202
0.870000 0.512149 0.510926 0.549714
0.880000 0.490473 0.489006 0.536347
0.890000 0.468846 0.467125 0.523161
0.900000 0.447340 0.445349 0.510230
0.910000 0.426036 0.423743 0.497636
0.920000 0.405025 0.402369 0.485482
0.930000 0.384420 0.381289 0.473887
0.940000 0.364370 0.360560 0.462998
0.950000 0.345089 0.340238 0.452987
0.960000 0.326903 0.320374 0.444068
0.970000 0.310335 0.301016 0.436495
0.980000 0.296239 0.282208 0.430582
0.990000 0.286042 0.263989 0.426706
1.000000 0.282142 0.246393 0.425330
