0.000000 1.000000 1.000000 0.999550
0.010000 0.999943 0.999947 0.998996
0.020000 0.999856 0.999866 0.997784
0.030000 0.999727 0.999746 0.996341
0.040000 0.999543 0.999573 0.994641
0.050000 0.999287 0.999333 0.992656
0.060000 0.998938 0.999003 0.990357
0.070000 0.998471 0.998560 0.987717
0.080000 0.997855 0.997974 0.984703
0.090000 0.997054 0.997209 0.981285
0.100000 0.996027 0.996225 0.977433
0.110000 0.994724 0.994972 0.973113
0.120000 0.993089 0.993396 0.968296
0.130000 0.991060 0.991433 0.962949
0.140000 0.988567 0.989014 0.957042
0.150000 0.985532 0.986060 0.950546
0.160000 0.981870 0.982486 0.943434
0.170000 0.977492 0.978201 0.935678
0.180000 0.972301 0.973108 0.927256
0.190000 0.966199 0.967103 0.918144
0.200000 0.959084 0.960084 0.908326
0.210000 0.950852 0.951945 0.897784
0.220000 0.941404 0.942581 0.886507
0.230000 0.930644 0.931893 0.874486
0.240000 0.918480 0.919785 0.861718
0.250000 0.904834 0.906176 0.848202
0.260000 0.889636 0.890991 0.833943
0.270000 0.872835 0.874175 0.818950
0.280000 0.854395 0.855689 0.803237
0.290000 0.834300 0.835514 0.786822
0.300000 0.812558 0.813656 0.769729
0.310000 0.789198 0.790144 0.751987
0.320000 0.764276 0.765032 0.733629
0.330000 0.737870 0.738401 0.714691
0.340000 0.710087 0.710359 0.695217
0.350000 0.681053 0.681035 0.675251
0.360000 0.650920 0.650587 0.654844
0.370000 0.619858 0.619188 0.634048
0.380000 0.588055 0.587034 0.612919
0.390000 0.555713 0.554333 0.591516
0.400000 0.523041 0.521302 0.569898
0.410000 0.490259 0.488167 0.548128
0.420000 0.457583 0.455154 0.526269
0.430000 0.425230 0.422484 0.504384
0.440000 0.393409 0.390374 0.482536
0.450000 0.362317 0.359027 0.460788
0.460000 0.332138 0.328631 0.439201
0.470000 0.303037 0.299355 0.417836
0.480000 0.275160 0.271348 0.396750
0.490000 0.248630 0.244733 0.375999
0.500000 0.223546 0.219610 0.355635
0.510000 0.199986 0.196054 0.335707
0.520000 0.178000 0.174115 0.316261
0.530000 0.157616 0.153817 0.297338
0.540000 0.138841 0.135162 0.278975
0.550000 0.121659 0.118131 0.261206
0.560000 0.106038 0.102685 0.244059
0.570000 0.091927 0.088770 0.227558
0.580000 0.079263 0.076317 0.211724
0.590000 0.067972 0.065246 0.196570
0.600000 0.057968 0.055468 0.182108
0.610000 0.049163 0.046889 0.168344
0.620000 0.041464 0.039411 0.155281
0.630000 0.034774 0.032937 0.142917
0.640000 0.028998 0.027368 0.131247
0.650000 0.024045 0.022609 0.120261
0.660000 0.019824 0.018570 0.109948
0.670000 0.016250 0.015163 0.100293
0.680000 0.013244 0.012308 0.091280
0.690000 0.010731 0.009932 0.082887
0.700000 0.008644 0.007968 0.075094
0.710000 0.006923 0.006354 0.067877
0.720000 0.005511 0.005037 0.061213
0.730000 0.004362 0.003969 0.055075
0.740000 0.003432 0.003108 0.049437
0.750000 0.002684 0.002420 0.044273
0.760000 0.002086 0.001873 0.039555
0.770000 0.001612 0.001440 0.035257
0.780000 0.001238 0.001101 0.031351
0.790000 0.000945 0.000837 0.027812
0.800000 0.000717 0.000632 0.024614
0.810000 0.000541 0.000474 0.021732
0.820000 0.000406 0.000354 0.019142
0.830000 0.000302 0.000262 0.016820
0.840000 0.000224 0.000193 0.014744
0.850000 0.000165 0.000142 0.012893
0.860000 0.000120 0.000103 0.011248
0.870000 0.000088 0.000075 0.009790
0.880000 0.000063 0.000054 0.008501
0.890000 0.000045 0.000038 0.007366
0.900000 0.000032 0.000027 0.006369
0.910000 0.000023 0.000019 0.005496
0.920000 0.000016 0.000013 0.004737
0.930000 0.000011 0.000009 0.004080
0.940000 0.000008 0.000007 0.003517
0.950000 0.000005 0.000004 0.003040
0.960000 0.000004 0.000003 0.002645
0.970000 0.000003 0.000002 0.002329
0.980000 0.000002 0.000001 0.002094
0.990000 0.000001 0.000001 0.001944
1.000000 0.000001 0.000001 0.001892
