0.000000 1.000000 1.000000 0.999955
0.010000 0.999999 1.000000 0.999900
0.020000 0.999999 0.999999 0.999778
0.030000 0.999997 0.999998 0.999633
0.040000 0.999996 0.999996 0.999461
0.050000 0.999993 0.999994 0.999258
0.060000 0.999989 0.999991 0.999022
0.070000 0.999984 0.999986 0.998747
0.080000 0.999978 0.999980 0.998430
0.090000 0.999969 0.999972 0.998066
0.100000 0.999957 0.999961 0.997650
0.110000 0.999941 0.999947 0.997176
0.120000 0.999921 0.999929 0.996638
0.130000 0.999895 0.999905 0.996031
0.140000 0.999861 0.999874 0.995348
0.150000 0.999819 0.999835 0.994581
0.160000 0.999764 0.999785 0.993723
0.170000 0.999696 0.999723 0.992767
0.180000 0.999611 0.999644 0.991705
0.190000 0.999505 0.999545 0.990527
0.200000 0.999374 0.999423 0.989224
0.210000 0.999212 0.999273 0.987788
0.220000 0.999014 0.999088 0.986208
0.230000 0.998774 0.998862 0.984474
0.240000 0.998482 0.998587 0.982576
0.250000 0.998129 0.998255 0.980504
0.260000 0.997706 0.997855 0.978246
0.270000 0.997201 0.997376 0.975790
0.280000 0.996599 0.996804 0.973127
0.290000 0.995886 0.996124 0.970243
0.300000 0.995046 0.995321 0.967128
0.310000 0.994058 0.994375 0.963769
0.320000 0.992904 0.993267 0.960156
0.330000 0.991561 0.991973 0.956276
0.340000 0.990003 0.990469 0.952118
0.350000 0.988204 0.988729 0.947671
0.360000 0.986136 0.986724 0.942923
0.370000 0.983767 0.984423 0.937864
0.380000 0.981066 0.981792 0.932483
0.390000 0.977998 0.978797 0.926771
0.400000 0.974527 0.975402 0.920719
0.410000 0.970615 0.971569 0.914317
0.420000 0.966225 0.967258 0.907557
0.430000 0.961317 0.962428 0.900433
0.440000 0.955850 0.957040 0.892938
0.450000 0.949787 0.951052 0.885067
0.460000 0.943086 0.944424 0.876814
0.470000 0.935710 0.937115 0.868176
0.480000 0.927622 0.929087 0.859152
0.490000 0.918787 0.920305 0.849739
0.500000 0.909173 0.910733 0.839937
0.510000 0.898750 0.900342 0.829749
0.520000 0.887493 0.889104 0.819175
0.530000 0.875382 0.876997 0.808221
0.540000 0.862400 0.864003 0.796890
0.550000 0.848537 0.850112 0.785190
0.560000 0.833788 0.835317 0.773129
0.570000 0.818155 0.819619 0.760715
0.580000 0.801647 0.803026 0.747959
0.590000 0.784279 0.785554 0.734873
0.600000 0.766074 0.767225 0.721470
0.610000 0.747062 0.748070 0.707764
0.620000 0.727280 0.728126 0.693772
0.630000 0.706773 0.707438 0.679511
0.640000 0.685592 0.686060 0.664997
0.650000 0.663794 0.664051 0.650251
0.660000 0.641445 0.641476 0.635293
0.670000 0.618613 0.618407 0.620143
0.680000 0.595374 0.594922 0.604823
0.690000 0.571805 0.571101 0.589357
0.700000 0.547989 0.547029 0.573767
0.710000 0.524011 0.522794 0.558077
0.720000 0.499957 0.498484 0.542312
0.730000 0.475913 0.474191 0.526496
0.740000 0.451968 0.450002 0.510655
0.750000 0.428206 0.426008 0.494814
0.760000 0.404711 0.402293 0.478998
0.770000 0.381563 0.378941 0.463234
0.780000 0.358840 0.356031 0.447546
0.790000 0.336615 0.333637 0.431961
0.800000 0.314953 0.311828 0.416506
0.810000 0.293917 0.290666 0.401206
0.820000 0.273562 0.270207 0.386088
0.830000 0.253935 0.250502 0.371179
0.840000 0.235080 0.231590 0.356509
0.850000 0.217031 0.213507 0.342107
0.860000 0.199814 0.196280 0.328003
0.870000 0.183451 0.179927 0.314233
0.880000 0.167956 0.164462 0.300835
0.890000 0.153335 0.149889 0.287850
0.900000 0.139591 0.136207 0.275329
0.910000 0.126722 0.123409 0.263330
0.920000 0.114723 0.111480 0.251921
0.930000 0.103589 0.100402 0.241187
0.940000 0.093324 0.090153 0.231231
0.950000 0.083947 0.080703 0.222178
0.960000 0.075510 0.072024 0.214188
0.970000 0.068135 0.064080 0.207456
0.980000 0.062065 0.056836 0.202230
0.990000 0.057774 0.050255 0.198818
1.000000 0.056150 0.044297 0.197609
