0.000000 1.000000 1.000000 0.999885
0.010000 0.999996 0.999997 0.999743
0.020000 0.999990 0.999991 0.999432
0.030000 0.999982 0.999984 0.999061
0.040000 0.999969 0.999972 0.998622
0.050000 0.999952 0.999956 0.998107
0.060000 0.999927 0.999934 0.997507
0.070000 0.999894 0.999903 0.996813
0.080000 0.999849 0.999862 0.996013
0.090000 0.999790 0.999808 0.995099
0.100000 0.999713 0.999736 0.994058
0.110000 0.999612 0.999643 0.992879
0.120000 0.999482 0.999522 0.991548
0.130000 0.999316 0.999367 0.990052
0.140000 0.999106 0.999170 0.988378
0.150000 0.998842 0.998922 0.986511
0.160000 0.998513 0.998612 0.984437
0.170000 0.998105 0.998226 0.982139
0.180000 0.997602 0.997749 0.979603
0.190000 0.996987 0.997164 0.976811
0.200000 0.996240 0.996451 0.973748
0.210000 0.995337 0.995588 0.970398
0.220000 0.994252 0.994547 0.966743
0.230000 0.992957 0.993302 0.962766
0.240000 0.991419 0.991818 0.958453
0.250000 0.989603 0.990063 0.953785
0.260000 0.987470 0.987995 0.948748
0.270000 0.984979 0.985575 0.943325
0.280000 0.982084 0.982756 0.937502
0.290000 0.978740 0.979490 0.931265
0.300000 0.974894 0.975727 0.924599
0.310000 0.970495 0.971412 0.917494
0.320000 0.965489 0.966492 0.909937
0.330000 0.959821 0.960909 0.901919
0.340000 0.953435 0.954606 0.893430
0.350000 0.946276 0.947526 0.884463
0.360000 0.938289 0.939612 0.875014
0.370000 0.929423 0.930812 0.865076
0.380000 0.919628 0.921072 0.854650
0.390000 0.908859 0.910347 0.843733
0.400000 0.897077 0.898592 0.832328
0.410000 0.884245 0.885773 0.820438
0.420000 0.870339 0.871861 0.808070
0.430000 0.855338 0.856833 0.795230
0.440000 0.839233 0.840679 0.781929
0.450000 0.822024 0.823397 0.768179
0.460000 0.803719 0.804997 0.753993
0.470000 0.784340 0.785497 0.739390
0.480000 0.763919 0.764930 0.724386
0.490000 0.742499 0.743340 0.709002
0.500000 0.720134 0.720783 0.693260
0.510000 0.696889 0.697324 0.677185
0.520000 0.672842 0.673042 0.660803
0.530000 0.648076 0.648025 0.644140
0.540000 0.622687 0.622370 0.627227
0.550000 0.596778 0.596183 0.610092
0.560000 0.570457 0.569577 0.592768
0.570000 0.543838 0.542670 0.575287
0.580000 0.517041 0.515583 0.557681
0.590000 0.490184 0.488442 0.539986
0.600000 0.463389 0.461371 0.522234
0.610000 0.436775 0.434493 0.504461
0.620000 0.410461 0.407929 0.486701
0.630000 0.384558 0.381796 0.468989
0.640000 0.359174 0.356204 0.451357
0.650000 0.334411 0.331257 0.433840
0.660000 0.310359 0.307048 0.416471
0.670000 0.287104 0.283664 0.399280
0.680000 0.264717 0.261178 0.382300
0.690000 0.243264 0.239654 0.365559
0.700000 0.222795 0.219145 0.349085
0.710000 0.203353 0.199691 0.332905
0.720000 0.184968 0.181321 0.317044
0.730000 0.167658 0.164054 0.301526
0.740000 0.151434 0.147897 0.286371
0.750000 0.136294 0.132847 0.271599
0.760000 0.122228 0.118890 0.257229
0.770000 0.109218 0.106007 0.243275
0.780000 0.097238 0.094168 0.229753
0.790000 0.086254 0.083337 0.216672
0.800000 0.076228 0.073473 0.204045
0.810000 0.067117 0.064531 0.191878
0.820000 0.058874 0.056460 0.180179
0.830000 0.051449 0.049208 0.168954
0.840000 0.044790 0.042722 0.158205
0.850000 0.038844 0.036947 0.147936
0.860000 0.033559 0.031827 0.138149
0.870000 0.028881 0.027309 0.128846
0.880000 0.024759 0.023340 0.120030
0.890000 0.021143 0.019869 0.111705
0.900000 0.017985 0.016847 0.103874
0.910000 0.015239 0.014228 0.096548
0.920000 0.012863 0.011967 0.089740
0.930000 0.010816 0.010025 0.083469
0.940000 0.009063 0.008365 0.077764
0.950000 0.007573 0.006951 0.072667
0.960000 0.006321 0.005753 0.068235
0.970000 0.005291 0.004742 0.064547
0.980000 0.004486 0.003892 0.061711
0.990000 0.003936 0.003182 0.059871
1.000000 0.003732 0.002591 0.059221
