0.000000 1.000000 1.000000 0.999668
0.010000 0.999969 0.999971 0.999258
0.020000 0.999920 0.999926 0.998363
0.030000 0.999848 0.999860 0.997295
0.040000 0.999746 0.999765 0.996036
0.050000 0.999603 0.999631 0.994564
0.060000 0.999407 0.999447 0.992856
0.070000 0.999143 0.999199 0.990891
0.080000 0.998794 0.998869 0.988642
0.090000 0.998338 0.998437 0.986086
0.100000 0.997748 0.997876 0.983197
0.110000 0.996995 0.997158 0.979948
0.120000 0.996044 0.996248 0.976313
0.130000 0.994854 0.995105 0.972264
0.140000 0.993380 0.993685 0.967775
0.150000 0.991568 0.991935 0.962819
0.160000 0.989362 0.989798 0.957371
0.170000 0.986698 0.987209 0.951403
0.180000 0.983506 0.984099 0.944893
0.190000 0.979711 0.980392 0.937817
0.200000 0.975233 0.976006 0.930152
0.210000 0.969991 0.970857 0.921880
0.220000 0.963896 0.964857 0.912983
0.230000 0.956862 0.957916 0.903445
0.240000 0.948800 0.949942 0.893254
0.250000 0.939625 0.940848 0.882399
0.260000 0.929254 0.930546 0.870875
0.270000 0.917610 0.918957 0.858677
0.280000 0.904625 0.906009 0.845807
0.290000 0.890239 0.891639 0.832267
0.300000 0.874406 0.875797 0.818065
0.310000 0.857094 0.858448 0.803213
0.320000 0.838286 0.839573 0.787726
0.330000 0.817983 0.819172 0.771624
0.340000 0.796207 0.797264 0.754930
0.350000 0.772997 0.773889 0.737671
0.360000 0.748415 0.749109 0.719878
0.370000 0.722542 0.723006 0.701585
0.380000 0.695479 0.695684 0.682831
0.390000 0.667347 0.667268 0.663656
0.400000 0.638283 0.637898 0.644104
0.410000 0.608442 0.607733 0.624223
0.420000 0.577990 0.576945 0.604060
0.430000 0.547102 0.545718 0.583667
0.440000 0.515965 0.514240 0.563096
0.450000 0.484764 0.482708 0.542400
0.460000 0.453690 0.451315 0.521633
0.470000 0.422927 0.420253 0.500851
0.480000 0.392657 0.389708 0.480107
0.490000 0.363049 0.359856 0.459456
0.500000 0.334262 0.330859 0.438950
0.510000 0.306440 0.302865 0.418641
0.520000 0.279712 0.276004 0.398579
0.530000 0.254188 0.250386 0.378813
0.540000 0.229957 0.226104 0.359387
0.550000 0.207090 0.203226 0.340345
0.560000 0.185640 0.181802 0.321726
0.570000 0.165636 0.161862 0.303569
0.580000 0.147092 0.143414 0.285905
0.590000 0.130003 0.126451 0.268766
0.600000 0.114347 0.110945 0.252178
0.610000 0.100089 0.096859 0.236164
0.620000 0.087180 0.084138 0.220742
0.630000 0.075561 0.072719 0.205929
0.640000 0.065165 0.062531 0.191736
0.650000 0.055919 0.053495 0.178170
0.660000 0.047742 0.045530 0.165238
0.670000 0.040554 0.038550 0.152939
0.680000 0.034272 0.032470 0.141273
0.690000 0.028815 0.027206 0.130234
0.700000 0.024102 0.022675 0.119815
0.710000 0.020054 0.018799 0.110005
0.720000 0.016600 0.015503 0.100791
0.730000 0.013668 0.012716 0.092159
0.740000 0.011195 0.010375 0.084092
0.750000 0.009121 0.008419 0.076572
0.760000 0.007391 0.006795 0.069579
0.770000 0.005958 0.005455 0.063092
0.780000 0.004777 0.004355 0.057090
0.790000 0.003809 0.003458 0.051549
0.800000 0.003021 0.002731 0.046448
0.810000 0.002383 0.002145 0.041762
0.820000 0.001870 0.001675 0.037470
0.830000 0.001459 0.001301 0.033547
0.840000 0.001132 0.001005 0.029970
0.850000 0.000874 0.000772 0.026719
0.860000 0.000671 0.000590 0.023770
0.870000 0.000512 0.000448 0.021103
0.880000 0.000388 0.000339 0.018697
0.890000 0.000293 0.000254 0.016535
0.900000 0.000220 0.000190 0.014597
0.910000 0.000164 0.000141 0.012869
0.920000 0.000122 0.000104 0.011334
0.930000 0.000090 0.000077 0.009981
0.940000 0.000066 0.000056 0.008800
0.950000 0.000048 0.000041 0.007782
0.960000 0.000035 0.000029 0.006927
0.970000 0.000026 0.000021 0.006234
0.980000 0.000019 0.000015 0.005712
0.990000 0.000015 0.000011 0.005379
1.000000 0.000013 0.000008 0.005262
