0.000000 1.000000 1.000000 0.999992
0.010000 1.000000 1.000000 0.999982
0.020000 1.000000 1.000000 0.999959
0.030000 1.000000 1.000000 0.999933
0.040000 1.000000 1.000000 0.999901
0.050000 1.000000 1.000000 0.999863
0.060000 1.000000 1.000000 0.999820
0.070000 1.000000 1.000000 0.999769
0.080000 0.999999 0.999999 0.999709
0.090000 0.999999 0.999999 0.999641
0.100000 0.999999 0.999999 0.999563
0.110000 0.999998 0.999999 0.999473
0.120000 0.999998 0.999998 0.999370
0.130000 0.999997 0.999997 0.999254
0.140000 0.999996 0.999996 0.999122
0.150000 0.999994 0.999995 0.998973
0.160000 0.999993 0.999994 0.998805
0.170000 0.999991 0.999992 0.998616
0.180000 0.999988 0.999989 0.998404
0.190000 0.999984 0.999986 0.998168
0.200000 0.999980 0.999982 0.997904
0.210000 0.999974 0.999977 0.997610
0.220000 0.999967 0.999971 0.997284
0.230000 0.999958 0.999963 0.996923
0.240000 0.999947 0.999953 0.996523
0.250000 0.999933 0.999940 0.996082
0.260000 0.999916 0.999925 0.995595
0.270000 0.999895 0.999906 0.995060
0.280000 0.999870 0.999883 0.994473
0.290000 0.999839 0.999855 0.993830
0.300000 0.999802 0.999821 0.993126
0.310000 0.999756 0.999780 0.992357
0.320000 0.999702 0.999730 0.991518
0.330000 0.999636 0.999669 0.990605
0.340000 0.999557 0.999596 0.989613
0.350000 0.999463 0.999509 0.988537
0.360000 0.999351 0.999405 0.987370
0.370000 0.999217 0.999282 0.986108
0.380000 0.999060 0.999135 0.984745
0.390000 0.998874 0.998962 0.983274
0.400000 0.998656 0.998758 0.981690
0.410000 0.998400 0.998518 0.979986
0.420000 0.998101 0.998237 0.978157
0.430000 0.997753 0.997908 0.976194
0.440000 0.997349 0.997526 0.974092
0.450000 0.996880 0.997083 0.971844
0.460000 0.996340 0.996569 0.969443
0.470000 0.995717 0.995977 0.966882
0.480000 0.995003 0.995295 0.964154
0.490000 0.994185 0.994514 0.961252
0.500000 0.993252 0.993620 0.958169
0.510000 0.992190 0.992600 0.954899
0.520000 0.990985 0.991441 0.951433
0.530000 0.989622 0.990127 0.947765
0.540000 0.988085 0.988642 0.943889
0.550000 0.986355 0.986968 0.939798
0.560000 0.984415 0.985086 0.935486
0.570000 0.982245 0.982977 0.930945
0.580000 0.979825 0.980620 0.926171
0.590000 0.977132 0.977993 0.921158
0.600000 0.974146 0.975075 0.915899
0.610000 0.970843 0.971841 0.910391
0.620000 0.967199 0.968267 0.904627
0.630000 0.963191 0.964330 0.898605
0.640000 0.958794 0.960003 0.892321
0.650000 0.953984 0.955263 0.885770
0.660000 0.948737 0.950083 0.878950
0.670000 0.943028 0.944440 0.871859
0.680000 0.936834 0.938307 0.864496
0.690000 0.930132 0.931663 0.856859
0.700000 0.922900 0.924483 0.848948
0.710000 0.915118 0.916746 0.840765
0.720000 0.906765 0.908432 0.832310
0.730000 0.897825 0.899522 0.823586
0.740000 0.888283 0.890000 0.814597
0.750000 0.878124 0.879852 0.805347
0.760000 0.867339 0.869067 0.795841
0.770000 0.855919 0.857635 0.786088
0.780000 0.843860 0.845552 0.776097
0.790000 0.831160 0.832814 0.765876
0.800000 0.817820 0.819423 0.755441
0.810000 0.803847 0.805385 0.744804
0.820000 0.789250 0.790707 0.733985
0.830000 0.774041 0.775402 0.723003
0.840000 0.758237 0.759487 0.711884
0.850000 0.741861 0.742983 0.700656
0.860000 0.724938 0.725914 0.689353
0.870000 0.707498 0.708308 0.678016
0.880000 0.689580 0.690199 0.666692
0.890000 0.671226 0.671621 0.655439
0.900000 0.652490 0.652614 0.644324
0.910000 0.633440 0.633220 0.633428
0.920000 0.614162 0.613486 0.622846
0.930000 0.594777 0.593460 0.612695
0.940000 0.575456 0.573191 0.603113
0.950000 0.556454 0.552732 0.594265
0.960000 0.538165 0.532137 0.586352
0.970000 0.521210 0.511460 0.579614
0.980000 0.506587 0.490758 0.574340
0.990000 0.495911 0.470085 0.570878
1.000000 0.491810 0.449497 0.569648
