0.000000 1.000000 1.000000 0.999808
0.010000 0.999989 0.999990 0.999571
0.020000 0.999973 0.999975 0.999053
0.030000 0.999949 0.999953 0.998435
0.040000 0.999914 0.999921 0.997705
0.050000 0.999865 0.999876 0.996849
0.060000 0.999797 0.999814 0.995854
0.070000 0.999706 0.999729 0.994705
0.080000 0.999584 0.999615 0.993387
0.090000 0.999423 0.999465 0.991882
0.100000 0.999214 0.999269 0.990175
0.110000 0.998944 0.999014 0.988246
0.120000 0.998599 0.998689 0.986077
0.130000 0.998162 0.998275 0.983650
0.140000 0.997613 0.997754 0.980944
0.150000 0.996931 0.997104 0.977939
0.160000 0.996088 0.996299 0.974615
0.170000 0.995055 0.995309 0.970950
0.180000 0.993797 0.994100 0.966926
0.190000 0.992277 0.992635 0.962520
0.200000 0.990453 0.990872 0.957712
0.210000 0.988278 0.988765 0.952483
0.220000 0.985701 0.986261 0.946812
0.230000 0.982669 0.983307 0.940682
0.240000 0.979122 0.979842 0.934075
0.250000 0.974998 0.975805 0.926973
0.260000 0.970233 0.971129 0.919361
0.270000 0.964760 0.965746 0.911226
0.280000 0.958511 0.959585 0.902555
0.290000 0.951417 0.952577 0.893338
0.300000 0.943411 0.944651 0.883567
0.310000 0.934427 0.935739 0.873234
0.320000 0.924401 0.925775 0.862337
0.330000 0.913277 0.914700 0.850873
0.340000 0.901002 0.902459 0.838843
0.350000 0.887533 0.889004 0.826253
0.360000 0.872834 0.874299 0.813106
0.370000 0.856881 0.858315 0.799414
0.380000 0.839660 0.841039 0.785187
0.390000 0.821170 0.822468 0.770441
0.400000 0.801425 0.802613 0.755193
0.410000 0.780453 0.781503 0.739464
0.420000 0.758295 0.759179 0.723277
0.430000 0.735009 0.735699 0.706657
0.440000 0.710666 0.711136 0.689633
0.450000 0.685351 0.685579 0.672235
0.460000 0.659165 0.659128 0.654497
0.470000 0.632219 0.631899 0.636453
0.480000 0.604634 0.604018 0.618140
0.490000 0.576543 0.575621 0.599596
0.500000 0.548085 0.546852 0.580861
0.510000 0.519403 0.517859 0.561975
0.520000 0.490645 0.488795 0.542980
0.530000 0.461958 0.459812 0.523918
0.540000 0.433491 0.431063 0.504833
0.550000 0.405386 0.402694 0.485765
0.560000 0.377779 0.374848 0.466758
0.570000 0.350802 0.347657 0.447853
0.580000 0.324573 0.321244 0.429091
0.590000 0.299202 0.295721 0.410512
0.600000 0.274785 0.271186 0.392154
0.610000 0.251407 0.247723 0.374055
0.620000 0.229136 0.225401 0.356250
0.630000 0.208027 0.204276 0.338772
0.640000 0.188121 0.184386 0.321653
0.650000 0.169444 0.165756 0.304921
0.660000 0.152009 0.148396 0.288604
0.670000 0.135815 0.132303 0.272725
0.680000 0.120850 0.117461 0.257306
0.690000 0.107090 0.103844 0.242365
0.700000 0.094501 0.091415 0.227920
0.710000 0.083043 0.080129 0.213984
0.720000 0.072666 0.069932 0.200567
0.730000 0.063315 0.060768 0.187679
0.740000 0.054930 0.052573 0.175324
0.750000 0.047451 0.045283 0.163506
0.760000 0.040812 0.038832 0.152226
0.770000 0.034949 0.033151 0.141482
0.780000 0.029797 0.028175 0.131271
0.790000 0.025292 0.023838 0.121587
0.800000 0.021374 0.020077 0.112423
0.810000 0.017982 0.016833 0.103770
0.820000 0.015060 0.014049 0.095617
0.830000 0.012557 0.011672 0.087951
0.840000 0.010422 0.009652 0.080762
0.850000 0.008611 0.007946 0.074034
0.860000 0.007083 0.006510 0.067753
0.870000 0.005799 0.005310 0.061905
0.880000 0.004726 0.004310 0.056475
0.890000 0.003834 0.003483 0.051450
0.900000 0.003096 0.002801 0.046818
0.910000 0.002489 0.002242 0.042567
0.920000 0.001991 0.001786 0.038689
0.930000 0.001586 0.001416 0.035179
0.940000 0.001258 0.001118 0.032037
0.950000 0.000993 0.000878 0.029271
0.960000 0.000783 0.000686 0.026897
0.970000 0.000618 0.000534 0.024943
0.980000 0.000495 0.000414 0.023452
0.990000 0.000413 0.000319 0.022490
1.000000 0.000383 0.000244 0.022152
