0.000000 1.000000 1.000000 0.999786
0.010000 0.999987 0.999988 0.999522
0.020000 0.999966 0.999969 0.998944
0.030000 0.999936 0.999942 0.998255
0.040000 0.999893 0.999902 0.997441
0.050000 0.999832 0.999846 0.996487
0.060000 0.999749 0.999768 0.995379
0.070000 0.999636 0.999663 0.994100
0.080000 0.999485 0.999522 0.992634
0.090000 0.999287 0.999336 0.990961
0.100000 0.999028 0.999094 0.989064
0.110000 0.998696 0.998780 0.986923
0.120000 0.998272 0.998379 0.984518
0.130000 0.997737 0.997871 0.981828
0.140000 0.997067 0.997233 0.978833
0.150000 0.996235 0.996438 0.975510
0.160000 0.995210 0.995456 0.971838
0.170000 0.993957 0.994251 0.967796
0.180000 0.992436 0.992786 0.963361
0.190000 0.990603 0.991014 0.958512
0.200000 0.988410 0.988889 0.953228
0.210000 0.985804 0.986356 0.947489
0.220000 0.982727 0.983359 0.941274
0.230000 0.979118 0.979833 0.934566
0.240000 0.974912 0.975715 0.927347
0.250000 0.970041 0.970934 0.919601
0.260000 0.964435 0.965418 0.911312
0.270000 0.958022 0.959095 0.902470
0.280000 0.950731 0.951890 0.893061
0.290000 0.942490 0.943729 0.883079
0.300000 0.933231 0.934542 0.872517
0.310000 0.922889 0.924261 0.861370
0.320000 0.911404 0.912822 0.849638
0.330000 0.898724 0.900171 0.837322
0.340000 0.884803 0.886260 0.824427
0.350000 0.869606 0.871052 0.810959
0.360000 0.853111 0.854520 0.796929
0.370000 0.835306 0.836652 0.782350
0.380000 0.816195 0.817450 0.767239
0.390000 0.795795 0.796930 0.751615
0.400000 0.774139 0.775125 0.735500
0.410000 0.751276 0.752084 0.718918
0.420000 0.727271 0.727872 0.701898
0.430000 0.702203 0.702572 0.684471
0.440000 0.676167 0.676280 0.666669
0.450000 0.649272 0.649108 0.648527
0.460000 0.621639 0.621182 0.630083
0.470000 0.593401 0.592637 0.611376
0.480000 0.564697 0.563620 0.592446
0.490000 0.535678 0.534284 0.573336
0.500000 0.506494 0.504785 0.554089
0.510000 0.477301 0.475285 0.534749
0.520000 0.448254 0.445944 0.515359
0.530000 0.419505 0.416917 0.495965
0.540000 0.391201 0.388358 0.476612
0.550000 0.363482 0.360409 0.457342
0.560000 0.336479 0.333205 0.438200
0.570000 0.310310 0.306868 0.419228
0.580000 0.285084 0.281507 0.400467
0.590000 0.260894 0.257217 0.381956
0.600000 0.237818 0.234077 0.363734
0.610000 0.215921 0.212151 0.345835
0.620000 0.195249 0.191485 0.328295
0.630000 0.175837 0.172110 0.311143
0.640000 0.157702 0.154043 0.294410
0.650000 0.140849 0.137286 0.278121
0.660000 0.125268 0.121825 0.262299
0.670000 0.110938 0.107636 0.246966
0.680000 0.097827 0.094683 0.232140
0.690000 0.085893 0.082922 0.217834
0.700000 0.075088 0.072299 0.204063
0.710000 0.065354 0.062755 0.190834
0.720000 0.056631 0.054226 0.178154
0.730000 0.048855 0.046643 0.166029
0.740000 0.041959 0.039938 0.154458
0.750000 0.035874 0.034041 0.143440
0.760000 0.030533 0.028880 0.132974
0.770000 0.025869 0.024388 0.123052
0.780000 0.021818 0.020500 0.113666
0.790000 0.018316 0.017150 0.104809
0.800000 0.015306 0.014281 0.096468
0.810000 0.012731 0.011836 0.088630
0.820000 0.010541 0.009763 0.081283
0.830000 0.008686 0.008015 0.074410
0.840000 0.007124 0.006548 0.067995
0.850000 0.005816 0.005325 0.062024
0.860000 0.004725 0.004309 0.056478
0.870000 0.003821 0.003470 0.051340
0.880000 0.003075 0.002781 0.046595
0.890000 0.002463 0.002219 0.042226
0.900000 0.001963 0.001761 0.038218
0.910000 0.001558 0.001391 0.034558
0.920000 0.001230 0.001093 0.031234
0.930000 0.000966 0.000855 0.028240
0.940000 0.000756 0.000666 0.025572
0.950000 0.000589 0.000516 0.023231
0.960000 0.000458 0.000398 0.021229
0.970000 0.000356 0.000305 0.019586
0.980000 0.000281 0.000233 0.018335
0.990000 0.000232 0.000177 0.017529
1.000000 0.000214 0.000134 0.017246
