0.000000 1.000000 1.000000 0.999978
0.010000 1.000000 1.000000 0.999950
0.020000 1.000000 1.000000 0.999890
0.030000 0.999999 0.999999 0.999819
0.040000 0.999999 0.999999 0.999734
0.050000 0.999998 0.999999 0.999633
0.060000 0.999998 0.999998 0.999516
0.070000 0.999996 0.999997 0.999379
0.080000 0.999995 0.999996 0.999222
0.090000 0.999993 0.999994 0.999040
0.100000 0.999990 0.999991 0.998832
0.110000 0.999986 0.999988 0.998594
0.120000 0.999981 0.999984 0.998324
0.130000 0.999975 0.999978 0.998017
0.140000 0.999967 0.999971 0.997672
0.150000 0.999957 0.999961 0.997282
0.160000 0.999944 0.999950 0.996846
0.170000 0.999927 0.999934 0.996357
0.180000 0.999905 0.999915 0.995811
0.190000 0.999879 0.999891 0.995204
0.200000 0.999846 0.999860 0.994529
0.210000 0.999804 0.999823 0.993782
0.220000 0.999753 0.999776 0.992957
0.230000 0.999690 0.999718 0.992047
0.240000 0.999612 0.999646 0.991045
0.250000 0.999518 0.999559 0.989946
0.260000 0.999403 0.999452 0.988742
0.270000 0.999264 0.999323 0.987425
0.280000 0.999096 0.999167 0.985989
0.290000 0.998895 0.998978 0.984425
0.300000 0.998654 0.998752 0.982724
0.310000 0.998367 0.998482 0.980880
0.320000 0.998026 0.998161 0.978882
0.330000 0.997623 0.997780 0.976723
0.340000 0.997148 0.997331 0.974394
0.350000 0.996591 0.996802 0.971885
0.360000 0.995939 0.996181 0.969187
0.370000 0.995180 0.995457 0.966291
0.380000 0.994299 0.994614 0.963187
0.390000 0.993280 0.993637 0.959868
0.400000 0.992105 0.992508 0.956322
0.410000 0.990756 0.991208 0.952541
0.420000 0.989212 0.989717 0.948516
0.430000 0.987451 0.988014 0.944238
0.440000 0.985450 0.986073 0.939698
0.450000 0.983184 0.983871 0.934888
0.460000 0.980625 0.981380 0.929799
0.470000 0.977748 0.978572 0.924425
0.480000 0.974522 0.975418 0.918757
0.490000 0.970917 0.971888 0.912788
0.500000 0.966904 0.967950 0.906513
0.510000 0.962450 0.963571 0.899924
0.520000 0.957524 0.958720 0.893018
0.530000 0.952094 0.953363 0.885790
0.540000 0.946128 0.947467 0.878235
0.550000 0.939594 0.941000 0.870350
0.560000 0.932462 0.933930 0.862134
0.570000 0.924704 0.926228 0.853584
0.580000 0.916291 0.917864 0.844700
0.590000 0.907199 0.908811 0.835483
0.600000 0.897404 0.899046 0.825933
0.610000 0.886886 0.888547 0.816053
0.620000 0.875629 0.877297 0.805845
0.630000 0.863619 0.865280 0.795315
0.640000 0.850848 0.852488 0.784467
0.650000 0.837311 0.838915 0.773308
0.660000 0.823009 0.824559 0.761845
0.670000 0.807946 0.809427 0.750086
0.680000 0.792132 0.793527 0.738040
0.690000 0.775584 0.776876 0.725719
0.700000 0.758323 0.759494 0.713134
0.710000 0.740374 0.741408 0.700297
0.720000 0.721771 0.722651 0.687222
0.730000 0.702550 0.703261 0.673923
0.740000 0.682754 0.683282 0.660417
0.750000 0.662430 0.662762 0.646720
0.760000 0.641630 0.641754 0.632851
0.770000 0.620411 0.620316 0.618828
0.780000 0.598831 0.598511 0.604672
0.790000 0.576955 0.576402 0.590405
0.800000 0.554847 0.554058 0.576049
0.810000 0.532575 0.531548 0.561631
0.820000 0.510210 0.508945 0.547177
0.830000 0.487821 0.486321 0.532716
0.840000 0.465478 0.463747 0.518281
0.850000 0.443251 0.441296 0.503906
0.860000 0.421211 0.419040 0.489632
0.870000 0.399424 0.397045 0.475503
0.880000 0.377957 0.375380 0.461571
0.890000 0.356876 0.354106 0.447895
0.900000 0.336245 0.333284 0.434542
0.910000 0.316131 0.312969 0.421595
0.920000 0.296605 0.293211 0.409149
0.930000 0.277752 0.274056 0.397321
0.940000 0.259680 0.255546 0.386247
0.950000 0.242545 0.237715 0.376098
0.960000 0.226592 0.220592 0.367077
0.970000 0.212218 0.204202 0.359434
0.980000 0.200098 0.188564 0.353475
0.990000 0.191383 0.173689 0.349573
1.000000 0.188059 0.159586 0.348188
