0.000000 1.000000 1.000000 0.998629
0.010000 0.999534 0.999558 0.996940
0.020000 0.998821 0.998878 0.993258
0.030000 0.997782 0.997883 0.988890
0.040000 0.996320 0.996477 0.983775
0.050000 0.994322 0.994546 0.977848
0.060000 0.991656 0.991961 0.971050
0.070000 0.988173 0.988571 0.963321
0.080000 0.983709 0.984209 0.954607
0.090000 0.978082 0.978692 0.944856
0.100000 0.971103 0.971827 0.934025
0.110000 0.962574 0.963410 0.922075
0.120000 0.952295 0.953237 0.908975
0.130000 0.940074 0.941106 0.894705
0.140000 0.925730 0.926830 0.879251
0.150000 0.909103 0.910241 0.862612
0.160000 0.890061 0.891199 0.844796
0.170000 0.868511 0.869603 0.825823
0.180000 0.844402 0.845396 0.805726
0.190000 0.817735 0.818576 0.784546
0.200000 0.788565 0.789194 0.762339
0.210000 0.757005 0.757365 0.739169
0.220000 0.723228 0.723264 0.715114
0.230000 0.687462 0.687126 0.690259
0.240000 0.649990 0.649242 0.664699
0.250000 0.611140 0.609950 0.638536
0.260000 0.571278 0.569631 0.611881
0.270000 0.530798 0.528691 0.584849
0.280000 0.490109 0.487555 0.557557
0.290000 0.449626 0.446652 0.530127
0.300000 0.409752 0.406399 0.502681
0.310000 0.370874 0.367194 0.475341
0.320000 0.333344 0.329399 0.448225
0.330000 0.297477 0.293336 0.421448
0.340000 0.263538 0.259274 0.395121
0.350000 0.231741 0.227427 0.369348
0.360000 0.202245 0.197952 0.344225
0.370000 0.175151 0.170947 0.319841
0.380000 0.150508 0.146452 0.296273
0.390000 0.128314 0.124457 0.273592
0.400000 0.108521 0.104904 0.251856
0.410000 0.091040 0.087695 0.231112
0.420000 0.075753 0.072699 0.211399
0.430000 0.062513 0.059761 0.192743
0.440000 0.051159 0.048711 0.175161
0.450000 0.041516 0.039365 0.158660
0.460000 0.033405 0.031539 0.143238
0.470000 0.026650 0.025050 0.128884
0.480000 0.021079 0.019723 0.115579
0.490000 0.016528 0.015393 0.103297
0.500000 0.012847 0.011908 0.092005
0.510000 0.009898 0.009131 0.081668
0.520000 0.007559 0.006939 0.072242
0.530000 0.005722 0.005226 0.063683
0.540000 0.004292 0.003901 0.055942
0.550000 0.003191 0.002886 0.048970
0.560000 0.002351 0.002115 0.042716
0.570000 0.001717 0.001537 0.037130
0.580000 0.001242 0.001106 0.032159
0.590000 0.000890 0.000789 0.027755
0.600000 0.000632 0.000558 0.023868
0.610000 0.000445 0.000391 0.020451
0.620000 0.000310 0.000271 0.017461
0.630000 0.000214 0.000186 0.014854
0.640000 0.000147 0.000127 0.012590
0.650000 0.000099 0.000086 0.010632
0.660000 0.000067 0.000057 0.008946
0.670000 0.000044 0.000038 0.007500
0.680000 0.000029 0.000025 0.006264
0.690000 0.000019 0.000016 0.005213
0.700000 0.000012 0.000010 0.004322
0.710000 0.000008 0.000007 0.003570
0.720000 0.000005 0.000004 0.002938
0.730000 0.000003 0.000003 0.002409
0.740000 0.000002 0.000002 0.001968
0.750000 0.000001 0.000001 0.001601
0.760000 0.000001 0.000001 0.001298
0.770000 0.000000 0.000000 0.001048
0.780000 0.000000 0.000000 0.000843
0.790000 0.000000 0.000000 0.000676
0.800000 0.000000 0.000000 0.000540
0.810000 0.000000 0.000000 0.000429
0.820000 0.000000 0.000000 0.000340
0.830000 0.000000 0.000000 0.000269
0.840000 0.000000 0.000000 0.000211
0.850000 0.000000 0.000000 0.000166
0.860000 0.000000 0.000000 0.000129
0.870000 0.000000 0.000000 0.000100
0.880000 0.000000 0.000000 0.000078
0.890000 0.000000 0.000000 0.000060
0.900000 0.000000 0.000000 0.000046
0.910000 0.000000 0.000000 0.000035
0.920000 0.000000 0.000000 0.000027
0.930000 0.000000 0.000000 0.000020
0.940000 0.000000 0.000000 0.000016
0.950000 0.000000 0.000000 0.000012
0.960000 0.000000 0.000000 0.000009
0.970000 0.000000 0.000000 0.000007
0.980000 0.000000 0.000000 0.000005
0.990000 0.000000 0.000000 0.000005
1.000000 0.000000 0.000000 0.000004
