0.000000 1.000000 1.000000 0.999993
0.010000 1.000000 1.000000 0.999985
0.020000 1.000000 1.000000 0.999966
0.030000 1.000000 1.000000 0.999944
0.040000 1.000000 1.000000 0.999917
0.050000 1.000000 1.000000 0.999886
0.060000 1.000000 1.000000 0.999850
0.070000 1.000000 1.000000 0.999807
0.080000 1.000000 1.000000 0.999758
0.090000 0.999999 0.999999 0.999701
0.100000 0.999999 0.999999 0.999635
0.110000 0.999999 0.999999 0.999560
0.120000 0.999998 0.999999 0.999474
0.130000 0.999998 0.999998 0.999377
0.140000 0.999997 0.999998 0.999267
0.150000 0.999996 0.999997 0.999142
0.160000 0.999995 0.999996 0.999001
0.170000 0.999994 0.999994 0.998843
0.180000 0.999992 0.999993 0.998666
0.190000 0.999989 0.999991 0.998467
0.200000 0.999986 0.999988 0.998245
0.210000 0.999982 0.999984 0.997999
0.220000 0.999977 0.999980 0.997724
0.230000 0.999971 0.999974 0.997420
0.240000 0.999963 0.999968 0.997083
0.250000 0.999954 0.999959 0.996711
0.260000 0.999942 0.999949 0.996301
0.270000 0.999928 0.999936 0.995849
0.280000 0.999910 0.999920 0.995352
0.290000 0.999888 0.999900 0.994808
0.300000 0.999862 0.999876 0.994211
0.310000 0.999830 0.999847 0.993559
0.320000 0.999791 0.999812 0.992847
0.330000 0.999745 0.999769 0.992072
0.340000 0.999689 0.999718 0.991227
0.350000 0.999622 0.999657 0.990310
0.360000 0.999542 0.999583 0.989315
0.370000 0.999447 0.999495 0.988238
0.380000 0.999334 0.999391 0.987072
0.390000 0.999201 0.999267 0.985813
0.400000 0.999043 0.999120 0.984455
0.410000 0.998858 0.998947 0.982993
0.420000 0.998641 0.998744 0.981420
0.430000 0.998388 0.998506 0.979731
0.440000 0.998092 0.998229 0.977919
0.450000 0.997749 0.997905 0.975979
0.460000 0.997351 0.997529 0.973903
0.470000 0.996891 0.997094 0.971686
0.480000 0.996362 0.996591 0.969320
0.490000 0.995753 0.996013 0.966800
0.500000 0.995057 0.995348 0.964118
0.510000 0.994261 0.994588 0.961268
0.520000 0.993354 0.993720 0.958243
0.530000 0.992325 0.992732 0.955037
0.540000 0.991158 0.991610 0.951643
0.550000 0.989841 0.990340 0.948054
0.560000 0.988357 0.988907 0.944264
0.570000 0.986690 0.987294 0.940267
0.580000 0.984822 0.985483 0.936056
0.590000 0.982735 0.983457 0.931626
0.600000 0.980410 0.981194 0.926970
0.610000 0.977827 0.978675 0.922084
0.620000 0.974964 0.975879 0.916962
0.630000 0.971800 0.972782 0.911600
0.640000 0.968312 0.969364 0.905992
0.650000 0.964478 0.965600 0.900136
0.660000 0.960274 0.961466 0.894026
0.670000 0.955678 0.956939 0.887660
0.680000 0.950666 0.951994 0.881036
0.690000 0.945215 0.946608 0.874152
0.700000 0.939301 0.940758 0.867005
0.710000 0.932904 0.934419 0.859596
0.720000 0.926001 0.927570 0.851925
0.730000 0.918573 0.920190 0.843992
0.740000 0.910600 0.912258 0.835800
0.750000 0.902064 0.903757 0.827352
0.760000 0.892951 0.894669 0.818652
0.770000 0.883246 0.884980 0.809706
0.780000 0.872938 0.874678 0.800520
0.790000 0.862018 0.863753 0.791103
0.800000 0.850480 0.852198 0.781467
0.810000 0.838322 0.840009 0.771625
0.820000 0.825542 0.827186 0.761592
0.830000 0.812144 0.813730 0.751387
0.840000 0.798137 0.799650 0.741032
0.850000 0.783530 0.784953 0.730555
0.860000 0.768339 0.769654 0.719988
0.870000 0.752585 0.753770 0.709369
0.880000 0.736294 0.737321 0.698743
0.890000 0.719500 0.720334 0.688165
0.900000 0.702247 0.702835 0.677699
0.910000 0.684592 0.684857 0.667423
0.920000 0.666615 0.666436 0.657431
0.930000 0.648429 0.647609 0.647832
0.940000 0.630199 0.628418 0.638761
0.950000 0.612174 0.608908 0.630377
0.960000 0.594743 0.589125 0.622872
0.970000 0.578519 0.569117 0.616478
0.980000 0.564483 0.548935 0.611470
0.990000 0.554212 0.528631 0.608181
1.000000 0.550263 0.508256 0.607012
