0.000000 1.000000 1.000000 0.995399
0.010000 0.996067 0.996181 0.989747
0.020000 0.990140 0.990391 0.977472
0.030000 0.981706 0.982107 0.963050
0.040000 0.970229 0.970778 0.946383
0.050000 0.955175 0.955852 0.927402
0.060000 0.936048 0.936812 0.906072
0.070000 0.912429 0.913215 0.882396
0.080000 0.884016 0.884737 0.856415
0.090000 0.850657 0.851208 0.828214
0.100000 0.812386 0.812651 0.797917
0.110000 0.769436 0.769297 0.765689
0.120000 0.722248 0.721597 0.731734
0.130000 0.671461 0.670208 0.696287
0.140000 0.617889 0.615975 0.659615
0.150000 0.562478 0.559881 0.622008
0.160000 0.506264 0.503001 0.583771
0.170000 0.450308 0.446441 0.545223
0.180000 0.395648 0.391273 0.506681
0.190000 0.343236 0.338480 0.468462
0.200000 0.293898 0.288907 0.430866
0.210000 0.248295 0.243223 0.394179
0.220000 0.206903 0.201899 0.358663
0.230000 0.170007 0.165207 0.324547
0.240000 0.137704 0.133220 0.292032
0.250000 0.109925 0.105843 0.261281
0.260000 0.086460 0.082835 0.232422
0.270000 0.066990 0.063847 0.205544
0.280000 0.051120 0.048459 0.180701
0.290000 0.038412 0.036211 0.157913
0.300000 0.028416 0.026637 0.137167
0.310000 0.020692 0.019286 0.118421
0.320000 0.014829 0.013743 0.101608
0.330000 0.010458 0.009637 0.086643
0.340000 0.007256 0.006649 0.073420
0.350000 0.004952 0.004514 0.061824
0.360000 0.003324 0.003015 0.051730
0.370000 0.002195 0.001981 0.043008
0.380000 0.001424 0.001280 0.035527
0.390000 0.000909 0.000814 0.029157
0.400000 0.000570 0.000509 0.023775
0.410000 0.000351 0.000313 0.019259
0.420000 0.000213 0.000189 0.015499
0.430000 0.000127 0.000113 0.012390
0.440000 0.000074 0.000066 0.009840
0.450000 0.000043 0.000038 0.007762
0.460000 0.000024 0.000021 0.006082
0.470000 0.000013 0.000012 0.004734
0.480000 0.000007 0.000007 0.003660
0.490000 0.000004 0.000003 0.002810
0.500000 0.000002 0.000002 0.002143
0.510000 0.000001 0.000001 0.001623
0.520000 0.000001 0.000000 0.001221
0.530000 0.000000 0.000000 0.000912
0.540000 0.000000 0.000000 0.000677
0.550000 0.000000 0.000000 0.000499
0.560000 0.000000 0.000000 0.000365
0.570000 0.000000 0.000000 0.000265
0.580000 0.000000 0.000000 0.000191
0.590000 0.000000 0.000000 0.000137
0.600000 0.000000 0.000000 0.000098
0.610000 0.000000 0.000000 0.000069
0.620000 0.000000 0.000000 0.000048
0.630000 0.000000 0.000000 0.000034
0.640000 0.000000 0.000000 0.000023
0.650000 0.000000 0.000000 0.000016
0.660000 0.000000 0.000000 0.000011
0.670000 0.000000 0.000000 0.000007
0.680000 0.000000 0.000000 0.000005
0.690000 0.000000 0.000000 0.000003
0.700000 0.000000 0.000000 0.000002
0.710000 0.000000 0.000000 0.000001
0.720000 0.000000 0.000000 0.000001
0.730000 0.000000 0.000000 0.000001
0.740000 0.000000 0.000000 0.000000
0.750000 0.000000 0.000000 0.000000
0.760000 0.000000 0.000000 0.000000
0.770000 0.000000 0.000000 0.000000
0.780000 0.000000 0.000000 0.000000
0.790000 0.000000 0.000000 0.000000
0.800000 0.000000 0.000000 0.000000
0.810000 0.000000 0.000000 0.000000
0.820000 0.000000 0.000000 0.000000
0.830000 0.000000 0.000000 0.000000
0.840000 0.000000 0.000000 0.000000
0.850000 0.000000 0.000000 0.000000
0.860000 0.000000 0.000000 0.000000
0.870000 0.000000 0.000000 0.000000
0.880000 0.000000 0.000000 0.000000
0.890000 -0.000000 0.000000 0.000000
0.900000 -0.000000 0.000000 0.000000
0.910000 -0.000000 0.000000 0.000000
0.920000 -0.000000 0.000000 0.000000
0.930000 -0.000000 0.000000 0.000000
0.940000 0.000000 0.000000 0.000000
0.950000 0.000000 0.000000 0.000000
0.960000 0.000000 0.000000 0.000000
0.970000 0.000000 0.000000 0.000000
0.980000 -0.000000 0.000000 0.000000
0.990000 -0.000000 0.000000 0.000000
1.000000 -0.000000 0.000000 0.000000
