0.000000 1.000000 1.000000 0.997266
0.010000 0.998391 0.998453 0.993902
0.020000 0.995948 0.996091 0.986581
0.030000 0.992426 0.992667 0.977937
0.040000 0.987548 0.987904 0.967876
0.050000 0.981007 0.981489 0.956312
0.060000 0.972477 0.973090 0.943174
0.070000 0.961622 0.962360 0.928404
0.080000 0.948110 0.948957 0.911959
0.090000 0.931632 0.932558 0.893817
0.100000 0.911918 0.912879 0.873974
0.110000 0.888758 0.889695 0.852450
0.120000 0.862015 0.862860 0.829284
0.130000 0.831647 0.832322 0.804541
0.140000 0.797718 0.798139 0.778307
0.150000 0.760402 0.760486 0.750689
0.160000 0.719989 0.719657 0.721817
0.170000 0.676876 0.676064 0.691837
0.180000 0.631561 0.630219 0.660914
0.190000 0.584625 0.582724 0.629227
0.200000 0.536705 0.534241 0.596965
0.210000 0.488475 0.485470 0.564326
0.220000 0.440615 0.437114 0.531511
0.230000 0.393784 0.389854 0.498724
0.240000 0.348592 0.344321 0.466163
0.250000 0.305583 0.301069 0.434024
0.260000 0.265208 0.260559 0.402491
0.270000 0.227823 0.223146 0.371737
0.280000 0.193674 0.189073 0.341919
0.290000 0.162903 0.158469 0.313180
0.300000 0.135547 0.131360 0.285642
0.310000 0.111554 0.107675 0.259407
0.320000 0.090793 0.087266 0.234559
0.330000 0.073067 0.069918 0.211160
0.340000 0.058136 0.055374 0.189252
0.350000 0.045725 0.043345 0.168856
0.360000 0.035548 0.033531 0.149976
0.370000 0.027312 0.025632 0.132600
0.380000 0.020737 0.019361 0.116697
0.390000 0.015558 0.014449 0.102224
0.400000 0.011532 0.010654 0.089128
0.410000 0.008445 0.007760 0.077344
0.420000 0.006109 0.005583 0.066800
0.430000 0.004364 0.003968 0.057419
0.440000 0.003080 0.002786 0.049118
0.450000 0.002146 0.001931 0.041814
0.460000 0.001477 0.001322 0.035424
0.470000 0.001004 0.000894 0.029864
0.480000 0.000673 0.000597 0.025054
0.490000 0.000446 0.000394 0.020915
0.500000 0.000292 0.000257 0.017373
0.510000 0.000188 0.000165 0.014360
0.520000 0.000120 0.000105 0.011810
0.530000 0.000075 0.000066 0.009664
0.540000 0.000047 0.000041 0.007868
0.550000 0.000029 0.000025 0.006374
0.560000 0.000017 0.000015 0.005137
0.570000 0.000010 0.000009 0.004120
0.580000 0.000006 0.000005 0.003287
0.590000 0.000004 0.000003 0.002609
0.600000 0.000002 0.000002 0.002060
0.610000 0.000001 0.000001 0.001618
0.620000 0.000001 0.000001 0.001265
0.630000 0.000000 0.000000 0.000984
0.640000 0.000000 0.000000 0.000761
0.650000 0.000000 0.000000 0.000585
0.660000 0.000000 0.000000 0.000448
0.670000 0.000000 0.000000 0.000341
0.680000 0.000000 0.000000 0.000258
0.690000 0.000000 0.000000 0.000195
0.700000 0.000000 0.000000 0.000146
0.710000 0.000000 0.000000 0.000109
0.720000 0.000000 0.000000 0.000081
0.730000 0.000000 0.000000 0.000060
0.740000 0.000000 0.000000 0.000044
0.750000 0.000000 0.000000 0.000032
0.760000 0.000000 0.000000 0.000023
0.770000 0.000000 0.000000 0.000017
0.780000 0.000000 0.000000 0.000012
0.790000 0.000000 0.000000 0.000009
0.800000 0.000000 0.000000 0.000006
0.810000 0.000000 0.000000 0.000004
0.820000 0.000000 0.000000 0.000003
0.830000 0.000000 0.000000 0.000002
0.840000 0.000000 0.000000 0.000001
0.850000 0.000000 0.000000 0.000001
0.860000 0.000000 0.000000 0.000001
0.870000 0.000000 0.000000 0.000000
0.880000 0.000000 0.000000 0.000000
0.890000 0.000000 0.000000 0.000000
0.900000 0.000000 0.000000 0.000000
0.910000 0.000000 0.000000 0.000000
0.920000 0.000000 0.000000 0.000000
0.930000 0.000000 0.000000 0.000000
0.940000 0.000000 0.000000 0.000000
0.950000 0.000000 0.000000 0.000000
0.960000 0.000000 0.000000 0.000000
0.970000 0.000000 0.000000 0.000000
0.980000 0.000000 0.000000 0.000000
0.990000 0.000000 0.000000 0.000000
1.000000 0.000000 0.000000 0.000000
