0.000000 1.000000 1.000000 0.978978
0.010000 0.957982 0.958086 0.953402
0.020000 0.898092 0.897839 0.898717
0.030000 0.820680 0.819505 0.836834
0.040000 0.728351 0.725752 0.769045
0.050000 0.625763 0.621470 0.696974
0.060000 0.518964 0.513046 0.622471
0.070000 0.414407 0.407283 0.547482
0.080000 0.317917 0.310250 0.473923
0.090000 0.233850 0.226372 0.403545
0.100000 0.164633 0.157972 0.337834
0.110000 0.110744 0.105303 0.277936
0.120000 0.071065 0.066981 0.224611
0.130000 0.043435 0.040620 0.178236
0.140000 0.025245 0.023468 0.138830
0.150000 0.013930 0.012909 0.106108
0.160000 0.007284 0.006757 0.079553
0.170000 0.003602 0.003364 0.058490
0.180000 0.001681 0.001593 0.042160
0.190000 0.000739 0.000717 0.029786
0.200000 0.000305 0.000306 0.020620
0.210000 0.000117 0.000124 0.013985
0.220000 0.000042 0.000048 0.009289
0.230000 0.000014 0.000018 0.006042
0.240000 0.000004 0.000006 0.003847
0.250000 0.000001 0.000002 0.002398
0.260000 0.000000 0.000001 0.001462
0.270000 0.000000 0.000000 0.000872
0.280000 0.000000 0.000000 0.000509
0.290000 0.000000 0.000000 0.000290
0.300000 0.000000 0.000000 0.000162
0.310000 -0.000000 0.000000 0.000088
0.320000 -0.000000 0.000000 0.000047
0.330000 -0.000000 0.000000 0.000025
0.340000 -0.000000 0.000000 0.000012
0.350000 0.000000 0.000000 0.000006
0.360000 0.000000 0.000000 0.000003
0.370000 0.000000 0.000000 0.000001
0.380000 -0.000000 0.000000 0.000001
0.390000 -0.000000 0.000000 0.000000
0.400000 -0.000000 0.000000 0.000000
0.410000 0.000000 0.000000 0.000000
0.420000 0.000000 0.000000 0.000000
0.430000 -0.000000 0.000000 0.000000
0.440000 -0.000000 0.000000 0.000000
0.450000 -0.000000 0.000000 0.000000
0.460000 0.000000 0.000000 0.000000
0.470000 0.000000 0.000000 0.000000
0.480000 -0.000000 0.000000 0.000000
0.490000 -0.000000 0.000000 0.000000
0.500000 0.000000 0.000000 0.000000
0.510000 0.000000 0.000000 0.000000
0.520000 -0.000000 0.000000 0.000000
0.530000 -0.000000 0.000000 0.000000
0.540000 0.000000 0.000000 0.000000
0.550000 0.000000 0.000000 0.000000
0.560000 -0.000000 0.000000 0.000000
0.570000 -0.000000 0.000000 0.000000
0.580000 0.000000 0.000000 0.000000
0.590000 0.000000 0.000000 0.000000
0.600000 -0.000000 0.000000 0.000000
0.610000 -0.000000 0.000000 0.000000
0.620000 0.000000 0.000000 0.000000
0.630000 -0.000000 0.000000 0.000000
0.640000 -0.000000 0.000000 0.000000
0.650000 0.000000 0.000000 0.000000
0.660000 0.000000 0.000000 0.000000
0.670000 -0.000000 0.000000 0.000000
0.680000 -0.000000 0.000000 0.000000
0.690000 0.000000 0.000000 0.000000
0.700000 0.000000 0.000000 0.000000
0.710000 -0.000000 0.000000 0.000000
0.720000 0.000000 0.000000 0.000000
0.730000 0.000000 0.000000 0.000000
0.740000 -0.000000 0.000000 0.000000
0.750000 -0.000000 0.000000 0.000000
0.760000 0.000000 0.000000 0.000000
0.770000 -0.000000 0.000000 0.000000
0.780000 -0.000000 0.000000 0.000000
0.790000 0.000000 0.000000 0.000000
0.800000 -0.000000 0.000000 0.000000
0.810000 -0.000000 0.000000 0.000000
0.820000 0.000000 0.000000 0.000000
0.830000 0.000000 0.000000 0.000000
0.840000 -0.000000 0.000000 0.000000
0.850000 0.000000 0.000000 0.000000
0.860000 0.000000 0.000000 0.000000
0.870000 -0.000000 0.000000 0.000000
0.880000 0.000000 0.000000 0.000000
0.890000 0.000000 0.000000 0.000000
0.900000 -0.000000 0.000000 0.000000
0.910000 0.000000 0.000000 0.000000
0.920000 0.000000 0.000000 0.000000
0.930000 -0.000000 0.000000 0.000000
0.940000 0.000000 0.000000 0.000000
0.950000 0.000000 0.000000 0.000000
0.960000 -0.000000 0.000000 0.000000
0.970000 0.000000 0.000000 0.000000
0.980000 0.000000 0.000000 0.000000
0.990000 -0.000000 0.000000 0.000000
1.000000 0.000000 0.000000 0.000000
