0.000000 1.000000 1.000000 0.999992
0.010000 1.000000 1.000000 0.999983
0.020000 1.000000 1.000000 0.999962
0.030000 1.000000 1.000000 0.999936
0.040000 1.000000 1.000000 0.999906
0.050000 1.000000 1.000000 0.999871
0.060000 1.000000 1.000000 0.999830
0.070000 1.000000 1.000000 0.999782
0.080000 0.999999 1.000000 0.999726
0.090000 0.999999 0.999999 0.999661
0.100000 0.999999 0.999999 0.999587
0.110000 0.999998 0.999999 0.999502
0.120000 0.999998 0.999998 0.999405
0.130000 0.999997 0.999998 0.999295
0.140000 0.999996 0.999997 0.999170
0.150000 0.999995 0.999996 0.999029
0.160000 0.999994 0.999994 0.998871
0.170000 0.999992 0.999993 0.998692
0.180000 0.999989 0.999990 0.998492
0.190000 0.999986 0.999988 0.998268
0.200000 0.999982 0.999984 0.998019
0.210000 0.999977 0.999980 0.997741
0.220000 0.999970 0.999974 0.997432
0.230000 0.999962 0.999967 0.997090
0.240000 0.999953 0.999958 0.996711
0.250000 0.999940 0.999947 0.996293
0.260000 0.999925 0.999933 0.995832
0.270000 0.999907 0.999917 0.995325
0.280000 0.999884 0.999896 0.994768
0.290000 0.999857 0.999871 0.994157
0.300000 0.999823 0.999841 0.993489
0.310000 0.999783 0.999804 0.992759
0.320000 0.999733 0.999759 0.991963
0.330000 0.999674 0.999705 0.991096
0.340000 0.999604 0.999640 0.990153
0.350000 0.999519 0.999562 0.989130
0.360000 0.999418 0.999468 0.988020
0.370000 0.999299 0.999357 0.986819
0.380000 0.999157 0.999226 0.985522
0.390000 0.998990 0.999070 0.984122
0.400000 0.998793 0.998886 0.982613
0.410000 0.998562 0.998669 0.980989
0.420000 0.998291 0.998416 0.979245
0.430000 0.997976 0.998119 0.977373
0.440000 0.997610 0.997773 0.975367
0.450000 0.997185 0.997371 0.973221
0.460000 0.996694 0.996906 0.970927
0.470000 0.996128 0.996368 0.968480
0.480000 0.995478 0.995749 0.965872
0.490000 0.994733 0.995038 0.963096
0.500000 0.993881 0.994224 0.960145
0.510000 0.992911 0.993294 0.957013
0.520000 0.991810 0.992235 0.953693
0.530000 0.990562 0.991034 0.950177
0.540000 0.989152 0.989674 0.946459
0.550000 0.987564 0.988138 0.942533
0.560000 0.985780 0.986411 0.938392
0.570000 0.983782 0.984471 0.934030
0.580000 0.981550 0.982301 0.929440
0.590000 0.979064 0.979879 0.924617
0.600000 0.976302 0.977184 0.919556
0.610000 0.973243 0.974193 0.914250
0.620000 0.969864 0.970883 0.908696
0.630000 0.966141 0.967230 0.902889
0.640000 0.962051 0.963210 0.896825
0.650000 0.957569 0.958799 0.890499
0.660000 0.952672 0.953971 0.883910
0.670000 0.947336 0.948701 0.877054
0.680000 0.941537 0.942966 0.869930
0.690000 0.935252 0.936741 0.862537
0.700000 0.928458 0.930004 0.854873
0.710000 0.921134 0.922730 0.846939
0.720000 0.913261 0.914901 0.838736
0.730000 0.904819 0.906496 0.830267
0.740000 0.895792 0.897497 0.821533
0.750000 0.886165 0.887888 0.812540
0.760000 0.875925 0.877658 0.803292
0.770000 0.865063 0.866793 0.793796
0.780000 0.853571 0.855287 0.784061
0.790000 0.841446 0.843135 0.774097
0.800000 0.828686 0.830335 0.763915
0.810000 0.815294 0.816889 0.753530
0.820000 0.801275 0.802802 0.742959
0.830000 0.786641 0.788085 0.732222
0.840000 0.771404 0.772749 0.721343
0.850000 0.755583 0.756812 0.710351
0.860000 0.739200 0.740295 0.699278
0.870000 0.722283 0.723223 0.688165
0.880000 0.704865 0.705624 0.677059
0.890000 0.686986 0.687530 0.666016
0.900000 0.668699 0.668979 0.655102
0.910000 0.650066 0.650008 0.644398
0.920000 0.631173 0.630660 0.633998
0.930000 0.612137 0.610982 0.624017
0.940000 0.593129 0.591019 0.614592
0.950000 0.574402 0.570822 0.605887
0.960000 0.556351 0.550444 0.598099
0.970000 0.539595 0.529936 0.591466
0.980000 0.525128 0.509354 0.586273
0.990000 0.514559 0.488751 0.582864
1.000000 0.510497 0.468183 0.581653
