0.000000 1.000000 1.000000 0.999993
0.010000 1.000000 1.000000 0.999984
0.020000 1.000000 1.000000 0.999965
0.030000 1.000000 1.000000 0.999941
0.040000 1.000000 1.000000 0.999914
0.050000 1.000000 1.000000 0.999881
0.060000 1.000000 1.000000 0.999843
0.070000 1.000000 1.000000 0.999798
0.080000 1.000000 1.000000 0.999747
0.090000 0.999999 0.999999 0.999687
0.100000 0.999999 0.999999 0.999619
0.110000 0.999999 0.999999 0.999540
0.120000 0.999998 0.999999 0.999451
0.130000 0.999998 0.999998 0.999349
0.140000 0.999997 0.999997 0.999233
0.150000 0.999996 0.999996 0.999103
0.160000 0.999995 0.999995 0.998956
0.170000 0.999993 0.999994 0.998791
0.180000 0.999991 0.999992 0.998606
0.190000 0.999988 0.999990 0.998399
0.200000 0.999985 0.999987 0.998167
0.210000 0.999980 0.999983 0.997910
0.220000 0.999975 0.999978 0.997624
0.230000 0.999968 0.999972 0.997306
0.240000 0.999960 0.999964 0.996955
0.250000 0.999949 0.999955 0.996567
0.260000 0.999937 0.999944 0.996139
0.270000 0.999921 0.999929 0.995668
0.280000 0.999901 0.999912 0.995151
0.290000 0.999878 0.999891 0.994583
0.300000 0.999849 0.999864 0.993962
0.310000 0.999814 0.999833 0.993283
0.320000 0.999772 0.999794 0.992542
0.330000 0.999722 0.999748 0.991734
0.340000 0.999661 0.999692 0.990856
0.350000 0.999588 0.999625 0.989902
0.360000 0.999501 0.999545 0.988867
0.370000 0.999398 0.999449 0.987747
0.380000 0.999275 0.999336 0.986536
0.390000 0.999130 0.999201 0.985228
0.400000 0.998960 0.999042 0.983817
0.410000 0.998759 0.998855 0.982299
0.420000 0.998525 0.998635 0.980667
0.430000 0.998250 0.998377 0.978914
0.440000 0.997931 0.998077 0.977035
0.450000 0.997560 0.997727 0.975023
0.460000 0.997131 0.997321 0.972871
0.470000 0.996636 0.996851 0.970574
0.480000 0.996066 0.996309 0.968124
0.490000 0.995411 0.995686 0.965514
0.500000 0.994662 0.994971 0.962739
0.510000 0.993808 0.994154 0.959790
0.520000 0.992835 0.993221 0.956662
0.530000 0.991732 0.992161 0.953348
0.540000 0.990483 0.990959 0.949841
0.550000 0.989074 0.989599 0.946134
0.560000 0.987488 0.988066 0.942221
0.570000 0.985708 0.986342 0.938096
0.580000 0.983716 0.984409 0.933752
0.590000 0.981494 0.982248 0.929184
0.600000 0.979019 0.979837 0.924386
0.610000 0.976273 0.977157 0.919353
0.620000 0.973233 0.974185 0.914079
0.630000 0.969878 0.970898 0.908560
0.640000 0.966183 0.967273 0.902792
0.650000 0.962126 0.963287 0.896770
0.660000 0.957684 0.958914 0.890491
0.670000 0.952832 0.954131 0.883953
0.680000 0.947548 0.948913 0.877152
0.690000 0.941808 0.943237 0.870088
0.700000 0.935590 0.937079 0.862758
0.710000 0.928870 0.930416 0.855163
0.720000 0.921630 0.923226 0.847304
0.730000 0.913848 0.915489 0.839181
0.740000 0.905507 0.907184 0.830796
0.750000 0.896589 0.898296 0.822155
0.760000 0.887080 0.888807 0.813259
0.770000 0.876968 0.878705 0.804117
0.780000 0.866243 0.867979 0.794736
0.790000 0.854897 0.856620 0.785124
0.800000 0.842927 0.844624 0.775292
0.810000 0.830330 0.831989 0.765256
0.820000 0.817109 0.818716 0.755030
0.830000 0.803270 0.804810 0.744634
0.840000 0.788821 0.790280 0.734091
0.850000 0.773778 0.775137 0.723428
0.860000 0.758157 0.759398 0.712679
0.870000 0.741981 0.743084 0.701881
0.880000 0.725280 0.726217 0.691082
0.890000 0.708090 0.708825 0.680335
0.900000 0.690456 0.690939 0.669707
0.910000 0.672440 0.672594 0.659276
0.920000 0.654122 0.653827 0.649135
0.930000 0.635618 0.634680 0.639397
0.940000 0.617094 0.615197 0.630197
0.950000 0.598802 0.595423 0.621696
0.960000 0.581133 0.575407 0.614088
0.970000 0.564703 0.555200 0.607606
0.980000 0.550498 0.534853 0.602531
0.990000 0.540111 0.514419 0.599198
1.000000 0.536117 0.493952 0.598014
