0.000000 1.000000 1.000000 0.999905
0.010000 0.999997 0.999998 0.999788
0.020000 0.999993 0.999994 0.999531
0.030000 0.999988 0.999989 0.999224
0.040000 0.999979 0.999981 0.998861
0.050000 0.999967 0.999970 0.998435
0.060000 0.999950 0.999955 0.997938
0.070000 0.999928 0.999935 0.997362
0.080000 0.999897 0.999907 0.996699
0.090000 0.999857 0.999870 0.995940
0.100000 0.999804 0.999820 0.995075
0.110000 0.999734 0.999756 0.994094
0.120000 0.999645 0.999673 0.992986
0.130000 0.999530 0.999567 0.991739
0.140000 0.999384 0.999431 0.990341
0.150000 0.999200 0.999259 0.988780
0.160000 0.998970 0.999043 0.987043
0.170000 0.998684 0.998774 0.985117
0.180000 0.998330 0.998440 0.982986
0.190000 0.997896 0.998029 0.980637
0.200000 0.997366 0.997526 0.978056
0.210000 0.996722 0.996914 0.975227
0.220000 0.995946 0.996173 0.972134
0.230000 0.995015 0.995282 0.968763
0.240000 0.993904 0.994216 0.965099
0.250000 0.992585 0.992947 0.961125
0.260000 0.991028 0.991446 0.956827
0.270000 0.989200 0.989678 0.952189
0.280000 0.987065 0.987608 0.947197
0.290000 0.984582 0.985195 0.941837
0.300000 0.981711 0.982398 0.936094
0.310000 0.978407 0.979172 0.929956
0.320000 0.974623 0.975469 0.923410
0.330000 0.970310 0.971240 0.916446
0.340000 0.965419 0.966432 0.909051
0.350000 0.959897 0.960994 0.901218
0.360000 0.953694 0.954873 0.892938
0.370000 0.946758 0.948015 0.884204
0.380000 0.939037 0.940368 0.875010
0.390000 0.930485 0.931880 0.865354
0.400000 0.921053 0.922505 0.855232
0.410000 0.910700 0.912198 0.844644
0.420000 0.899388 0.900917 0.833592
0.430000 0.887082 0.888628 0.822077
0.440000 0.873758 0.875303 0.810106
0.450000 0.859394 0.860920 0.797685
0.460000 0.843980 0.845465 0.784823
0.470000 0.827512 0.828935 0.771530
0.480000 0.809997 0.811334 0.757819
0.490000 0.791449 0.792678 0.743705
0.500000 0.771895 0.772993 0.729203
0.510000 0.751371 0.752314 0.714333
0.520000 0.729924 0.730689 0.699114
0.530000 0.707609 0.708175 0.683568
0.540000 0.684493 0.684840 0.667718
0.550000 0.660651 0.660762 0.651589
0.560000 0.636168 0.636027 0.635207
0.570000 0.611135 0.610730 0.618601
0.580000 0.585651 0.584972 0.601798
0.590000 0.559818 0.558860 0.584828
0.600000 0.533746 0.532505 0.567721
0.610000 0.507545 0.506024 0.550509
0.620000 0.481327 0.479531 0.533223
0.630000 0.455205 0.453142 0.515895
0.640000 0.429290 0.426973 0.498557
0.650000 0.403691 0.401135 0.481242
0.660000 0.378510 0.375734 0.463981
0.670000 0.353848 0.350873 0.446805
0.680000 0.329795 0.326645 0.429745
0.690000 0.306437 0.303138 0.412832
0.700000 0.283850 0.280428 0.396096
0.710000 0.262101 0.258585 0.379564
0.720000 0.241248 0.237665 0.363263
0.730000 0.221339 0.217717 0.347221
0.740000 0.202411 0.198778 0.331462
0.750000 0.184492 0.180874 0.316008
0.760000 0.167600 0.164022 0.300882
0.770000 0.151743 0.148229 0.286105
0.780000 0.136920 0.133492 0.271694
0.790000 0.123123 0.119799 0.257666
0.800000 0.110335 0.107132 0.244038
0.810000 0.098532 0.095463 0.230824
0.820000 0.087683 0.084761 0.218035
0.830000 0.077754 0.074988 0.205683
0.840000 0.068705 0.066101 0.193779
0.850000 0.060492 0.058054 0.182332
0.860000 0.053069 0.050800 0.171352
0.870000 0.046390 0.044289 0.160847
0.880000 0.040404 0.038468 0.150828
0.890000 0.035062 0.033288 0.141306
0.900000 0.030315 0.028698 0.132297
0.910000 0.026115 0.024648 0.123817
0.920000 0.022416 0.021089 0.115893
0.930000 0.019173 0.017976 0.108555
0.940000 0.016347 0.015264 0.101847
0.950000 0.013903 0.012911 0.095827
0.960000 0.011814 0.010879 0.090573
0.970000 0.010071 0.009132 0.086187
0.980000 0.008690 0.007636 0.082806
0.990000 0.007740 0.006360 0.080609
1.000000 0.007385 0.005277 0.079832
