0.000000 1.000000 1.000000 0.991265
0.010000 0.988796 0.988996 0.980559
0.020000 0.972159 0.972543 0.957406
0.030000 0.949079 0.949583 0.930472
0.040000 0.918738 0.919248 0.899776
0.050000 0.880624 0.880980 0.865438
0.060000 0.834632 0.834640 0.827675
0.070000 0.781131 0.780590 0.786801
0.080000 0.720988 0.719717 0.743221
0.090000 0.655535 0.653400 0.697416
0.100000 0.586486 0.583426 0.649934
0.110000 0.515801 0.511842 0.601364
0.120000 0.445534 0.440787 0.552322
0.130000 0.377659 0.372313 0.503428
0.140000 0.313921 0.308218 0.455283
0.150000 0.255713 0.249916 0.408450
0.160000 0.204003 0.198368 0.363440
0.170000 0.159306 0.154053 0.320693
0.180000 0.121708 0.117004 0.280568
0.190000 0.090928 0.086873 0.243343
0.200000 0.066401 0.063035 0.209204
0.210000 0.047377 0.044684 0.178253
0.220000 0.033016 0.030938 0.150511
0.230000 0.022462 0.020916 0.125925
0.240000 0.014915 0.013805 0.104383
0.250000 0.009662 0.008893 0.085718
0.260000 0.006104 0.005591 0.069727
0.270000 0.003759 0.003430 0.056179
0.280000 0.002256 0.002053 0.044830
0.290000 0.001319 0.001199 0.035427
0.300000 0.000751 0.000683 0.027724
0.310000 0.000416 0.000379 0.021483
0.320000 0.000224 0.000205 0.016482
0.330000 0.000118 0.000108 0.012519
0.340000 0.000060 0.000056 0.009414
0.350000 0.000030 0.000028 0.007008
0.360000 0.000014 0.000014 0.005164
0.370000 0.000007 0.000007 0.003766
0.380000 0.000003 0.000003 0.002719
0.390000 0.000001 0.000001 0.001943
0.400000 0.000001 0.000001 0.001373
0.410000 0.000000 0.000000 0.000961
0.420000 0.000000 0.000000 0.000665
0.430000 0.000000 0.000000 0.000456
0.440000 0.000000 0.000000 0.000309
0.450000 0.000000 0.000000 0.000207
0.460000 0.000000 0.000000 0.000138
0.470000 0.000000 0.000000 0.000090
0.480000 0.000000 0.000000 0.000059
0.490000 0.000000 0.000000 0.000038
0.500000 0.000000 0.000000 0.000024
0.510000 0.000000 0.000000 0.000015
0.520000 0.000000 0.000000 0.000009
0.530000 0.000000 0.000000 0.000006
0.540000 0.000000 0.000000 0.000003
0.550000 0.000000 0.000000 0.000002
0.560000 0.000000 0.000000 0.000001
0.570000 0.000000 0.000000 0.000001
0.580000 0.000000 0.000000 0.000000
0.590000 0.000000 0.000000 0.000000
0.600000 -0.000000 0.000000 0.000000
0.610000 -0.000000 0.000000 0.000000
0.620000 -0.000000 0.000000 0.000000
0.630000 -0.000000 0.000000 0.000000
0.640000 -0.000000 0.000000 0.000000
0.650000 0.000000 0.000000 0.000000
0.660000 0.000000 0.000000 0.000000
0.670000 0.000000 0.000000 0.000000
0.680000 0.000000 0.000000 0.000000
0.690000 -0.000000 0.000000 0.000000
0.700000 -0.000000 0.000000 0.000000
0.710000 -0.000000 0.000000 0.000000
0.720000 0.000000 0.000000 0.000000
0.730000 0.000000 0.000000 0.000000
0.740000 0.000000 0.000000 0.000000
0.750000 -0.000000 0.000000 0.000000
0.760000 -0.000000 0.000000 0.000000
0.770000 -0.000000 0.000000 0.000000
0.780000 0.000000 0.000000 0.000000
0.790000 0.000000 0.000000 0.000000
0.800000 0.000000 0.000000 0.000000
0.810000 -0.000000 0.000000 0.000000
0.820000 -0.000000 0.000000 0.000000
0.830000 0.000000 0.000000 0.000000
0.840000 0.000000 0.000000 0.000000
0.850000 0.000000 0.000000 0.000000
0.860000 -0.000000 0.000000 0.000000
0.870000 -0.000000 0.000000 0.000000
0.880000 0.000000 0.000000 0.000000
0.890000 0.000000 0.000000 0.000000
0.900000 0.000000 0.000000 0.000000
0.910000 -0.000000 0.000000 0.000000
0.920000 -0.000000 0.000000 0.000000
0.930000 0.000000 0.000000 0.000000
0.940000 0.000000 0.000000 0.000000
0.950000 -0.000000 0.000000 0.000000
0.960000 -0.000000 0.000000 0.000000
0.970000 0.000000 0.000000 0.000000
0.980000 0.000000 0.000000 0.000000
0.990000 0.000000 0.000000 0.000000
1.000000 -0.000000 0.000000 0.000000
