0.000000 1.000000 1.000000 0.999837
0.010000 0.999992 0.999993 0.999636
0.020000 0.999981 0.999982 0.999196
0.030000 0.999963 0.999966 0.998672
0.040000 0.999938 0.999943 0.998051
0.050000 0.999903 0.999911 0.997324
0.060000 0.999854 0.999866 0.996478
0.070000 0.999788 0.999805 0.995500
0.080000 0.999699 0.999723 0.994376
0.090000 0.999582 0.999614 0.993093
0.100000 0.999429 0.999471 0.991636
0.110000 0.999232 0.999286 0.989987
0.120000 0.998979 0.999048 0.988132
0.130000 0.998657 0.998745 0.986052
0.140000 0.998253 0.998363 0.983730
0.150000 0.997748 0.997884 0.981148
0.160000 0.997121 0.997288 0.978288
0.170000 0.996351 0.996553 0.975129
0.180000 0.995409 0.995652 0.971654
0.190000 0.994267 0.994555 0.967843
0.200000 0.992889 0.993229 0.963676
0.210000 0.991239 0.991637 0.959135
0.220000 0.989276 0.989737 0.954201
0.230000 0.986952 0.987483 0.948855
0.240000 0.984221 0.984826 0.943079
0.250000 0.981029 0.981713 0.936858
0.260000 0.977319 0.978087 0.930174
0.270000 0.973034 0.973888 0.923013
0.280000 0.968112 0.969053 0.915360
0.290000 0.962489 0.963519 0.907204
0.300000 0.956103 0.957219 0.898534
0.310000 0.948889 0.950088 0.889340
0.320000 0.940785 0.942061 0.879615
0.330000 0.931729 0.933074 0.869355
0.340000 0.921665 0.923069 0.858555
0.350000 0.910540 0.911989 0.847216
0.360000 0.898306 0.899785 0.835339
0.370000 0.884925 0.886415 0.822927
0.380000 0.870364 0.871845 0.809987
0.390000 0.854602 0.856052 0.796528
0.400000 0.837629 0.839024 0.782561
0.410000 0.819445 0.820758 0.768102
0.420000 0.800063 0.801269 0.753165
0.430000 0.779510 0.780581 0.737772
0.440000 0.757826 0.758735 0.721942
0.450000 0.735065 0.735785 0.705701
0.460000 0.711292 0.711800 0.689075
0.470000 0.686588 0.686860 0.672091
0.480000 0.661045 0.661061 0.654782
0.490000 0.634766 0.634508 0.637179
0.500000 0.607865 0.607320 0.619316
0.510000 0.580464 0.579621 0.601229
0.520000 0.552691 0.551545 0.582955
0.530000 0.524681 0.523232 0.564531
0.540000 0.496571 0.494821 0.545996
0.550000 0.468499 0.466458 0.527390
0.560000 0.440604 0.438283 0.508751
0.570000 0.413019 0.410436 0.490121
0.580000 0.385875 0.383051 0.471537
0.590000 0.359296 0.356254 0.453040
0.600000 0.333397 0.330165 0.434668
0.610000 0.308283 0.304890 0.416458
0.620000 0.284049 0.280526 0.398446
0.630000 0.260778 0.257157 0.380669
0.640000 0.238539 0.234855 0.363159
0.650000 0.217391 0.213674 0.345948
0.660000 0.197377 0.193660 0.329067
0.670000 0.178528 0.174841 0.312543
0.680000 0.160862 0.157233 0.296403
0.690000 0.144385 0.140839 0.280671
0.700000 0.129090 0.125652 0.265367
0.710000 0.114962 0.111652 0.250510
0.720000 0.101975 0.098809 0.236118
0.730000 0.090093 0.087086 0.222205
0.740000 0.079275 0.076438 0.208782
0.750000 0.069473 0.066814 0.195858
0.760000 0.060635 0.058158 0.183442
0.770000 0.052703 0.050411 0.171536
0.780000 0.045620 0.043511 0.160145
0.790000 0.039324 0.037397 0.149267
0.800000 0.033756 0.032004 0.138902
0.810000 0.028854 0.027272 0.129047
0.820000 0.024560 0.023139 0.119695
0.830000 0.020816 0.019548 0.110840
0.840000 0.017568 0.016442 0.102475
0.850000 0.014763 0.013769 0.094591
0.860000 0.012352 0.011480 0.087177
0.870000 0.010291 0.009530 0.080225
0.880000 0.008536 0.007876 0.073723
0.890000 0.007050 0.006481 0.067664
0.900000 0.005797 0.005309 0.062038
0.910000 0.004746 0.004329 0.056840
0.920000 0.003869 0.003515 0.052067
0.930000 0.003140 0.002841 0.047720
0.940000 0.002538 0.002286 0.043806
0.950000 0.002045 0.001831 0.040343
0.960000 0.001644 0.001460 0.037356
0.970000 0.001325 0.001159 0.034888
0.980000 0.001082 0.000916 0.032999
0.990000 0.000920 0.000720 0.031779
1.000000 0.000860 0.000564 0.031348
