0.000000 1.000000 1.000000 0.999826
0.010000 0.999991 0.999992 0.999612
0.020000 0.999978 0.999980 0.999144
0.030000 0.999958 0.999962 0.998585
0.040000 0.999930 0.999936 0.997925
0.050000 0.999889 0.999899 0.997150
0.060000 0.999834 0.999848 0.996250
0.070000 0.999759 0.999779 0.995209
0.080000 0.999659 0.999685 0.994014
0.090000 0.999527 0.999562 0.992650
0.100000 0.999354 0.999401 0.991101
0.110000 0.999131 0.999192 0.989349
0.120000 0.998846 0.998923 0.987379
0.130000 0.998484 0.998581 0.985172
0.140000 0.998029 0.998151 0.982709
0.150000 0.997462 0.997611 0.979971
0.160000 0.996759 0.996942 0.976940
0.170000 0.995896 0.996117 0.973595
0.180000 0.994843 0.995108 0.969918
0.190000 0.993567 0.993881 0.965887
0.200000 0.992032 0.992401 0.961483
0.210000 0.990195 0.990626 0.956688
0.220000 0.988014 0.988511 0.951481
0.230000 0.985438 0.986008 0.945845
0.240000 0.982415 0.983063 0.939761
0.250000 0.978889 0.979619 0.933212
0.260000 0.974801 0.975617 0.926184
0.270000 0.970088 0.970992 0.918660
0.280000 0.964687 0.965680 0.910628
0.290000 0.958532 0.959613 0.902076
0.300000 0.951558 0.952723 0.892994
0.310000 0.943699 0.944944 0.883373
0.320000 0.934893 0.936210 0.873209
0.330000 0.925079 0.926459 0.862496
0.340000 0.914201 0.915631 0.851234
0.350000 0.902210 0.903675 0.839422
0.360000 0.889062 0.890543 0.827065
0.370000 0.874722 0.876200 0.814168
0.380000 0.859165 0.860618 0.800739
0.390000 0.842377 0.843781 0.786790
0.400000 0.824356 0.825684 0.772335
0.410000 0.805111 0.806337 0.757389
0.420000 0.784667 0.785763 0.741972
0.430000 0.763060 0.763999 0.726106
0.440000 0.740343 0.741098 0.709814
0.450000 0.716581 0.717126 0.693124
0.460000 0.691853 0.692164 0.676064
0.470000 0.666251 0.666307 0.658665
0.480000 0.639879 0.639662 0.640960
0.490000 0.612851 0.612346 0.622984
0.500000 0.585291 0.584488 0.604772
0.510000 0.557331 0.556222 0.586363
0.520000 0.529107 0.527691 0.567795
0.530000 0.500759 0.499039 0.549107
0.540000 0.472430 0.470414 0.530341
0.550000 0.444261 0.441961 0.511536
0.560000 0.416391 0.413824 0.492734
0.570000 0.388954 0.386141 0.473974
0.580000 0.362077 0.359043 0.455298
0.590000 0.335881 0.332651 0.436744
0.600000 0.310473 0.307079 0.418352
0.610000 0.285953 0.282426 0.400158
0.620000 0.262406 0.258779 0.382200
0.630000 0.239906 0.236212 0.364511
0.640000 0.218511 0.214784 0.347125
0.650000 0.198268 0.194539 0.330072
0.660000 0.179209 0.175510 0.313382
0.670000 0.161353 0.157712 0.297082
0.680000 0.144706 0.141150 0.281195
0.690000 0.129262 0.125815 0.265743
0.700000 0.115006 0.111687 0.250747
0.710000 0.101909 0.098737 0.236224
0.720000 0.089936 0.086926 0.222187
0.730000 0.079046 0.076207 0.208650
0.740000 0.069187 0.066529 0.195621
0.750000 0.060307 0.057833 0.183108
0.760000 0.052346 0.050059 0.171115
0.770000 0.045246 0.043144 0.159645
0.780000 0.038943 0.037024 0.148697
0.790000 0.033376 0.031634 0.138271
0.800000 0.028482 0.026911 0.128361
0.810000 0.024201 0.022792 0.118963
0.820000 0.020475 0.019219 0.110069
0.830000 0.017247 0.016135 0.101671
0.840000 0.014465 0.013485 0.093758
0.850000 0.012079 0.011221 0.086319
0.860000 0.010042 0.009295 0.079344
0.870000 0.008312 0.007665 0.072821
0.880000 0.006849 0.006292 0.066737
0.890000 0.005619 0.005142 0.061081
0.900000 0.004589 0.004183 0.055844
0.910000 0.003731 0.003387 0.051018
0.920000 0.003020 0.002731 0.046596
0.930000 0.002434 0.002191 0.042579
0.940000 0.001953 0.001750 0.038971
0.950000 0.001562 0.001392 0.035784
0.960000 0.001246 0.001102 0.033040
0.970000 0.000997 0.000868 0.030775
0.980000 0.000808 0.000681 0.029045
0.990000 0.000682 0.000531 0.027927
1.000000 0.000636 0.000413 0.027533
