0.000000 1.000000 1.000000 0.998234
0.010000 0.999261 0.999296 0.996060
0.020000 0.998134 0.998216 0.991323
0.030000 0.996497 0.996639 0.985712
0.040000 0.994205 0.994422 0.979153
0.050000 0.991091 0.991397 0.971574
0.060000 0.986966 0.987374 0.962906
0.070000 0.981623 0.982142 0.953086
0.080000 0.974835 0.975473 0.942059
0.090000 0.966369 0.967125 0.929774
0.100000 0.955987 0.956855 0.916195
0.110000 0.943454 0.944420 0.901293
0.120000 0.928553 0.929591 0.885051
0.130000 0.911089 0.912167 0.867468
0.140000 0.890906 0.891979 0.848552
0.150000 0.867892 0.868910 0.828328
0.160000 0.841994 0.842896 0.806837
0.170000 0.813222 0.813945 0.784131
0.180000 0.781656 0.782133 0.760278
0.190000 0.747450 0.747618 0.735361
0.200000 0.710833 0.710631 0.709474
0.210000 0.672101 0.671479 0.682725
0.220000 0.631616 0.630534 0.655231
0.230000 0.589792 0.588225 0.627120
0.240000 0.547083 0.545023 0.598525
0.250000 0.503972 0.501427 0.569587
0.260000 0.460948 0.457946 0.540450
0.270000 0.418498 0.415082 0.511258
0.280000 0.377083 0.373311 0.482156
0.290000 0.337130 0.333071 0.453288
0.300000 0.299015 0.294749 0.424790
0.310000 0.263057 0.258666 0.396794
0.320000 0.229508 0.225075 0.369424
0.330000 0.198551 0.194157 0.342795
0.340000 0.170298 0.166018 0.317008
0.350000 0.144795 0.140695 0.292157
0.360000 0.122026 0.118161 0.268320
0.370000 0.101919 0.098330 0.245563
0.380000 0.084356 0.081074 0.223940
0.390000 0.069181 0.066223 0.203489
0.400000 0.056212 0.053584 0.184236
0.410000 0.045249 0.042947 0.166197
0.420000 0.036081 0.034093 0.149372
0.430000 0.028498 0.026803 0.133753
0.440000 0.022294 0.020869 0.119318
0.450000 0.017272 0.016090 0.106041
0.460000 0.013251 0.012284 0.093884
0.470000 0.010068 0.009286 0.082803
0.480000 0.007573 0.006950 0.072750
0.490000 0.005641 0.005150 0.063670
0.500000 0.004160 0.003778 0.055508
0.510000 0.003037 0.002744 0.048202
0.520000 0.002194 0.001973 0.041694
0.530000 0.001570 0.001404 0.035922
0.540000 0.001112 0.000989 0.030827
0.550000 0.000779 0.000690 0.026349
0.560000 0.000540 0.000476 0.022432
0.570000 0.000371 0.000325 0.019020
0.580000 0.000252 0.000220 0.016062
0.590000 0.000169 0.000147 0.013510
0.600000 0.000113 0.000098 0.011316
0.610000 0.000074 0.000064 0.009441
0.620000 0.000048 0.000042 0.007844
0.630000 0.000031 0.000027 0.006490
0.640000 0.000020 0.000017 0.005348
0.650000 0.000012 0.000011 0.004389
0.660000 0.000008 0.000007 0.003587
0.670000 0.000005 0.000004 0.002919
0.680000 0.000003 0.000002 0.002366
0.690000 0.000002 0.000002 0.001910
0.700000 0.000001 0.000001 0.001535
0.710000 0.000001 0.000001 0.001228
0.720000 0.000000 0.000000 0.000979
0.730000 0.000000 0.000000 0.000777
0.740000 0.000000 0.000000 0.000614
0.750000 0.000000 0.000000 0.000483
0.760000 0.000000 0.000000 0.000379
0.770000 0.000000 0.000000 0.000295
0.780000 0.000000 0.000000 0.000230
0.790000 0.000000 0.000000 0.000178
0.800000 0.000000 0.000000 0.000137
0.810000 0.000000 0.000000 0.000105
0.820000 0.000000 0.000000 0.000080
0.830000 0.000000 0.000000 0.000061
0.840000 0.000000 0.000000 0.000046
0.850000 0.000000 0.000000 0.000035
0.860000 0.000000 0.000000 0.000026
0.870000 0.000000 0.000000 0.000020
0.880000 0.000000 0.000000 0.000015
0.890000 0.000000 0.000000 0.000011
0.900000 0.000000 0.000000 0.000008
0.910000 0.000000 0.000000 0.000006
0.920000 0.000000 0.000000 0.000004
0.930000 0.000000 0.000000 0.000003
0.940000 0.000000 0.000000 0.000002
0.950000 0.000000 0.000000 0.000002
0.960000 0.000000 0.000000 0.000001
0.970000 0.000000 0.000000 0.000001
0.980000 0.000000 0.000000 0.000001
0.990000 0.000000 0.000000 0.000001
1.000000 0.000000 0.000000 0.000000
