0.000000 1.000000 1.000000 0.997323
0.010000 0.998450 0.998510 0.994030
0.020000 0.996096 0.996234 0.986862
0.030000 0.992700 0.992936 0.978397
0.040000 0.987994 0.988343 0.968542
0.050000 0.981680 0.982153 0.957212
0.060000 0.973438 0.974041 0.944335
0.070000 0.962938 0.963667 0.929851
0.080000 0.949855 0.950695 0.913718
0.090000 0.933880 0.934803 0.895910
0.100000 0.914741 0.915706 0.876422
0.110000 0.892221 0.893173 0.855267
0.120000 0.866176 0.867048 0.832484
0.130000 0.836549 0.837264 0.808131
0.140000 0.803383 0.803861 0.782289
0.150000 0.766833 0.766990 0.755061
0.160000 0.727164 0.726922 0.726570
0.170000 0.684749 0.684040 0.696957
0.180000 0.640061 0.638833 0.666382
0.190000 0.593655 0.591876 0.635017
0.200000 0.546151 0.543812 0.603048
0.210000 0.498206 0.495323 0.570665
0.220000 0.450489 0.447102 0.538068
0.230000 0.403655 0.399826 0.505456
0.240000 0.358317 0.354128 0.473026
0.250000 0.315025 0.310572 0.440970
0.260000 0.274245 0.269632 0.409474
0.270000 0.236349 0.231683 0.378709
0.280000 0.201605 0.196988 0.348834
0.290000 0.170176 0.165704 0.319993
0.300000 0.142125 0.137878 0.292310
0.310000 0.117421 0.113465 0.265893
0.320000 0.095952 0.092336 0.240827
0.330000 0.077543 0.074296 0.217180
0.340000 0.061964 0.059101 0.194996
0.350000 0.048956 0.046474 0.174304
0.360000 0.038237 0.036121 0.155112
0.370000 0.029520 0.027747 0.137412
0.380000 0.022525 0.021064 0.121178
0.390000 0.016986 0.015801 0.106372
0.400000 0.012657 0.011713 0.092945
0.410000 0.009319 0.008578 0.080835
0.420000 0.006779 0.006206 0.069974
0.430000 0.004871 0.004436 0.060287
0.440000 0.003458 0.003133 0.051695
0.450000 0.002424 0.002185 0.044116
0.460000 0.001679 0.001506 0.037468
0.470000 0.001148 0.001025 0.031669
0.480000 0.000775 0.000689 0.026638
0.490000 0.000517 0.000457 0.022297
0.500000 0.000340 0.000300 0.018572
0.510000 0.000221 0.000194 0.015394
0.520000 0.000142 0.000124 0.012697
0.530000 0.000090 0.000078 0.010420
0.540000 0.000056 0.000049 0.008510
0.550000 0.000035 0.000030 0.006915
0.560000 0.000021 0.000018 0.005590
0.570000 0.000013 0.000011 0.004497
0.580000 0.000008 0.000007 0.003600
0.590000 0.000004 0.000004 0.002867
0.600000 0.000003 0.000002 0.002271
0.610000 0.000001 0.000001 0.001790
0.620000 0.000001 0.000001 0.001404
0.630000 0.000000 0.000000 0.001096
0.640000 0.000000 0.000000 0.000851
0.650000 0.000000 0.000000 0.000657
0.660000 0.000000 0.000000 0.000505
0.670000 0.000000 0.000000 0.000386
0.680000 0.000000 0.000000 0.000293
0.690000 0.000000 0.000000 0.000222
0.700000 0.000000 0.000000 0.000167
0.710000 0.000000 0.000000 0.000125
0.720000 0.000000 0.000000 0.000093
0.730000 0.000000 0.000000 0.000069
0.740000 0.000000 0.000000 0.000051
0.750000 0.000000 0.000000 0.000037
0.760000 0.000000 0.000000 0.000027
0.770000 0.000000 0.000000 0.000020
0.780000 0.000000 0.000000 0.000014
0.790000 0.000000 0.000000 0.000010
0.800000 0.000000 0.000000 0.000007
0.810000 0.000000 0.000000 0.000005
0.820000 0.000000 0.000000 0.000004
0.830000 0.000000 0.000000 0.000003
0.840000 0.000000 0.000000 0.000002
0.850000 0.000000 0.000000 0.000001
0.860000 0.000000 0.000000 0.000001
0.870000 0.000000 0.000000 0.000001
0.880000 0.000000 0.000000 0.000000
0.890000 0.000000 0.000000 0.000000
0.900000 0.000000 0.000000 0.000000
0.910000 0.000000 0.000000 0.000000
0.920000 0.000000 0.000000 0.000000
0.930000 0.000000 0.000000 0.000000
0.940000 0.000000 0.000000 0.000000
0.950000 0.000000 0.000000 0.000000
0.960000 0.000000 0.000000 0.000000
0.970000 0.000000 0.000000 0.000000
0.980000 0.000000 0.000000 0.000000
0.990000 0.000000 0.000000 0.000000
1.000000 0.000000 0.000000 0.000000
