0.000000 1.000000 1.000000 0.999950
0.010000 0.999999 0.999999 0.999889
0.020000 0.999998 0.999998 0.999754
0.030000 0.999997 0.999997 0.999593
0.040000 0.999994 0.999995 0.999402
0.050000 0.999991 0.999992 0.999178
0.060000 0.999987 0.999988 0.998916
0.070000 0.999981 0.999983 0.998612
0.080000 0.999972 0.999975 0.998261
0.090000 0.999961 0.999965 0.997858
0.100000 0.999947 0.999952 0.997397
0.110000 0.999928 0.999935 0.996873
0.120000 0.999903 0.999912 0.996279
0.130000 0.999870 0.999883 0.995608
0.140000 0.999829 0.999845 0.994853
0.150000 0.999777 0.999797 0.994007
0.160000 0.999710 0.999736 0.993062
0.170000 0.999627 0.999659 0.992008
0.180000 0.999523 0.999562 0.990837
0.190000 0.999394 0.999442 0.989540
0.200000 0.999234 0.999293 0.988108
0.210000 0.999038 0.999109 0.986529
0.220000 0.998798 0.998884 0.984794
0.230000 0.998506 0.998610 0.982891
0.240000 0.998154 0.998277 0.980810
0.250000 0.997729 0.997876 0.978540
0.260000 0.997220 0.997393 0.976068
0.270000 0.996613 0.996816 0.973383
0.280000 0.995892 0.996129 0.970473
0.290000 0.995040 0.995314 0.967326
0.300000 0.994038 0.994354 0.963929
0.310000 0.992864 0.993226 0.960272
0.320000 0.991494 0.991907 0.956340
0.330000 0.989904 0.990372 0.952124
0.340000 0.988066 0.988593 0.947610
0.350000 0.985949 0.986540 0.942788
0.360000 0.983521 0.984180 0.937647
0.370000 0.980750 0.981480 0.932175
0.380000 0.977598 0.978403 0.926362
0.390000 0.974029 0.974911 0.920200
0.400000 0.970004 0.970965 0.913679
0.410000 0.965482 0.966523 0.906791
0.420000 0.960424 0.961545 0.899528
0.430000 0.954788 0.955987 0.891885
0.440000 0.948532 0.949807 0.883854
0.450000 0.941617 0.942964 0.875433
0.460000 0.934003 0.935416 0.866617
0.470000 0.925652 0.927124 0.857405
0.480000 0.916529 0.918051 0.847795
0.490000 0.906600 0.908162 0.837787
0.500000 0.895838 0.897428 0.827383
0.510000 0.884216 0.885820 0.816586
0.520000 0.871714 0.873319 0.805401
0.530000 0.858319 0.859906 0.793832
0.540000 0.844019 0.845572 0.781887
0.550000 0.828814 0.830314 0.769574
0.560000 0.812707 0.814134 0.756904
0.570000 0.795709 0.797043 0.743887
0.580000 0.777839 0.779060 0.730538
0.590000 0.759123 0.760211 0.716868
0.600000 0.739595 0.740530 0.702895
0.610000 0.719296 0.720060 0.688635
0.620000 0.698276 0.698850 0.674105
0.630000 0.676590 0.676958 0.659325
0.640000 0.654300 0.654447 0.644316
0.650000 0.631476 0.631390 0.629097
0.660000 0.608192 0.607861 0.613692
0.670000 0.584527 0.583944 0.598124
0.680000 0.560564 0.559723 0.582415
0.690000 0.536389 0.535289 0.566591
0.700000 0.512092 0.510731 0.550676
0.710000 0.487760 0.486144 0.534695
0.720000 0.463486 0.461620 0.518675
0.730000 0.439357 0.437251 0.502640
0.740000 0.415462 0.413127 0.486617
0.750000 0.391885 0.389336 0.470632
0.760000 0.368708 0.365962 0.454711
0.770000 0.346008 0.343083 0.438880
0.780000 0.323856 0.320774 0.423164
0.790000 0.302318 0.299100 0.407591
0.800000 0.281455 0.278124 0.392184
0.810000 0.261320 0.257899 0.376970
0.820000 0.241957 0.238471 0.361974
0.830000 0.223405 0.219878 0.347224
0.840000 0.205696 0.202151 0.332744
0.850000 0.188853 0.185313 0.318564
0.860000 0.172893 0.169378 0.304712
0.870000 0.157823 0.154356 0.291221
0.880000 0.143648 0.140245 0.278123
0.890000 0.130363 0.127040 0.265460
0.900000 0.117960 0.114729 0.253275
0.910000 0.106425 0.103295 0.241623
0.920000 0.095743 0.092714 0.230565
0.930000 0.085900 0.082958 0.220181
0.940000 0.076885 0.073998 0.210565
0.950000 0.068702 0.065799 0.201835
0.960000 0.061386 0.058323 0.194139
0.970000 0.055023 0.051533 0.187661
0.980000 0.049810 0.045388 0.182637
0.990000 0.046135 0.039847 0.179358
1.000000 0.044747 0.034871 0.178197
