0.000000 1.000000 1.000000 0.999988
0.010000 1.000000 1.000000 0.999973
0.020000 1.000000 1.000000 0.999940
0.030000 1.000000 1.000000 0.999901
0.040000 1.000000 1.000000 0.999855
0.050000 1.000000 1.000000 0.999800
0.060000 0.999999 0.999999 0.999736
0.070000 0.999999 0.999999 0.999661
0.080000 0.999999 0.999999 0.999575
0.090000 0.999998 0.999998 0.999475
0.100000 0.999997 0.999998 0.999361
0.110000 0.999996 0.999997 0.999230
0.120000 0.999995 0.999995 0.999081
0.130000 0.999993 0.999994 0.998912
0.140000 0.999991 0.999992 0.998721
0.150000 0.999988 0.999989 0.998505
0.160000 0.999984 0.999986 0.998262
0.170000 0.999979 0.999982 0.997989
0.180000 0.999973 0.999976 0.997684
0.190000 0.999965 0.999969 0.997343
0.200000 0.999955 0.999960 0.996963
0.210000 0.999943 0.999949 0.996542
0.220000 0.999927 0.999935 0.996074
0.230000 0.999908 0.999918 0.995557
0.240000 0.999885 0.999896 0.994986
0.250000 0.999855 0.999870 0.994357
0.260000 0.999820 0.999837 0.993666
0.270000 0.999776 0.999797 0.992907
0.280000 0.999723 0.999749 0.992075
0.290000 0.999659 0.999690 0.991166
0.300000 0.999581 0.999618 0.990173
0.310000 0.999487 0.999531 0.989092
0.320000 0.999375 0.999427 0.987915
0.330000 0.999241 0.999303 0.986638
0.340000 0.999081 0.999154 0.985253
0.350000 0.998891 0.998977 0.983754
0.360000 0.998667 0.998766 0.982134
0.370000 0.998402 0.998518 0.980386
0.380000 0.998091 0.998225 0.978504
0.390000 0.997726 0.997881 0.976479
0.400000 0.997301 0.997479 0.974304
0.410000 0.996806 0.997010 0.971973
0.420000 0.996231 0.996464 0.969476
0.430000 0.995567 0.995831 0.966807
0.440000 0.994802 0.995100 0.963957
0.450000 0.993922 0.994259 0.960920
0.460000 0.992915 0.993292 0.957686
0.470000 0.991764 0.992187 0.954249
0.480000 0.990454 0.990925 0.950601
0.490000 0.988968 0.989490 0.946733
0.500000 0.987286 0.987864 0.942640
0.510000 0.985390 0.986025 0.938313
0.520000 0.983257 0.983954 0.933745
0.530000 0.980866 0.981627 0.928930
0.540000 0.978193 0.979021 0.923860
0.550000 0.975215 0.976111 0.918531
0.560000 0.971905 0.972873 0.912936
0.570000 0.968240 0.969279 0.907069
0.580000 0.964191 0.965303 0.900925
0.590000 0.959733 0.960917 0.894501
0.600000 0.954838 0.956093 0.887792
0.610000 0.949480 0.950804 0.880794
0.620000 0.943632 0.945023 0.873505
0.630000 0.937267 0.938721 0.865922
0.640000 0.930361 0.931874 0.858045
0.650000 0.922889 0.924454 0.849871
0.660000 0.914828 0.916440 0.841402
0.670000 0.906157 0.907807 0.832637
0.680000 0.896857 0.898537 0.823578
0.690000 0.886912 0.888611 0.814229
0.700000 0.876306 0.878014 0.804591
0.710000 0.865030 0.866734 0.794669
0.720000 0.853074 0.854762 0.784469
0.730000 0.840434 0.842092 0.773996
0.740000 0.827110 0.828725 0.763259
0.750000 0.813105 0.814661 0.752266
0.760000 0.798426 0.799907 0.741027
0.770000 0.783083 0.784476 0.729553
0.780000 0.767094 0.768383 0.717858
0.790000 0.750478 0.751647 0.705956
0.800000 0.733260 0.734294 0.693865
0.810000 0.715468 0.716354 0.681602
0.820000 0.697136 0.697859 0.669190
0.830000 0.678301 0.678848 0.656653
0.840000 0.659004 0.659363 0.644021
0.850000 0.639292 0.639449 0.631325
0.860000 0.619211 0.619156 0.618603
0.870000 0.598817 0.598537 0.605899
0.880000 0.578166 0.577645 0.593265
0.890000 0.557321 0.556538 0.580761
0.900000 0.536352 0.535276 0.568458
0.910000 0.515338 0.513919 0.556440
0.920000 0.494376 0.492527 0.544810
0.930000 0.473588 0.471162 0.533686
0.940000 0.453142 0.449885 0.523215
0.950000 0.433282 0.428757 0.513570
0.960000 0.414379 0.407836 0.504961
0.970000 0.397021 0.387179 0.497643
0.980000 0.382163 0.366841 0.491922
0.990000 0.371369 0.346875 0.488169
1.000000 0.367232 0.327330 0.486837
