0.000000 1.000000 1.000000 0.999890
0.010000 0.999997 0.999997 0.999754
0.020000 0.999991 0.999992 0.999456
0.030000 0.999983 0.999985 0.999101
0.040000 0.999972 0.999975 0.998681
0.050000 0.999956 0.999960 0.998187
0.060000 0.999933 0.999939 0.997612
0.070000 0.999903 0.999912 0.996947
0.080000 0.999862 0.999874 0.996181
0.090000 0.999808 0.999824 0.995305
0.100000 0.999736 0.999758 0.994307
0.110000 0.999644 0.999672 0.993175
0.120000 0.999524 0.999561 0.991899
0.130000 0.999372 0.999419 0.990463
0.140000 0.999179 0.999238 0.988857
0.150000 0.998935 0.999010 0.987064
0.160000 0.998632 0.998724 0.985072
0.170000 0.998255 0.998368 0.982864
0.180000 0.997791 0.997928 0.980426
0.190000 0.997222 0.997388 0.977742
0.200000 0.996531 0.996730 0.974795
0.210000 0.995694 0.995930 0.971571
0.220000 0.994689 0.994967 0.968051
0.230000 0.993486 0.993812 0.964221
0.240000 0.992057 0.992435 0.960064
0.250000 0.990367 0.990804 0.955563
0.260000 0.988381 0.988880 0.950703
0.270000 0.986057 0.986625 0.945469
0.280000 0.983354 0.983995 0.939845
0.290000 0.980226 0.980944 0.933817
0.300000 0.976625 0.977424 0.927372
0.310000 0.972500 0.973382 0.920498
0.320000 0.967798 0.968765 0.913181
0.330000 0.962467 0.963519 0.905413
0.340000 0.956450 0.957586 0.897184
0.350000 0.949695 0.950911 0.888486
0.360000 0.942146 0.943439 0.879312
0.370000 0.933752 0.935114 0.869658
0.380000 0.924462 0.925884 0.859522
0.390000 0.914230 0.915702 0.848900
0.400000 0.903014 0.904522 0.837796
0.410000 0.890778 0.892306 0.826210
0.420000 0.877491 0.879022 0.814147
0.430000 0.863130 0.864646 0.801615
0.440000 0.847680 0.849159 0.788621
0.450000 0.831138 0.832557 0.775177
0.460000 0.813506 0.814843 0.761296
0.470000 0.794799 0.796029 0.746992
0.480000 0.775043 0.776142 0.732282
0.490000 0.754275 0.755218 0.717186
0.500000 0.732541 0.733306 0.701724
0.510000 0.709901 0.710464 0.685920
0.520000 0.686423 0.686764 0.669797
0.530000 0.662186 0.662287 0.653381
0.540000 0.637279 0.637123 0.636702
0.550000 0.611797 0.611372 0.619786
0.560000 0.585845 0.585140 0.602665
0.570000 0.559532 0.558542 0.585371
0.580000 0.532973 0.531695 0.567934
0.590000 0.506284 0.504720 0.550388
0.600000 0.479584 0.477740 0.532767
0.610000 0.452992 0.450878 0.515104
0.620000 0.426625 0.424253 0.497434
0.630000 0.400597 0.397985 0.479789
0.640000 0.375017 0.372184 0.462204
0.650000 0.349989 0.346957 0.444712
0.660000 0.325608 0.322403 0.427345
0.670000 0.301963 0.298611 0.410135
0.680000 0.279132 0.275661 0.393114
0.690000 0.257184 0.253624 0.376311
0.700000 0.236177 0.232558 0.359754
0.710000 0.216160 0.212510 0.343472
0.720000 0.197170 0.193516 0.327488
0.730000 0.179232 0.175603 0.311828
0.740000 0.162363 0.158784 0.296513
0.750000 0.146568 0.143062 0.281565
0.760000 0.131843 0.128433 0.267002
0.770000 0.118176 0.114880 0.252841
0.780000 0.105547 0.102381 0.239097
0.790000 0.093927 0.090904 0.225783
0.800000 0.083282 0.080414 0.212911
0.810000 0.073573 0.070868 0.200490
0.820000 0.064757 0.062220 0.188529
0.830000 0.056785 0.054421 0.177033
0.840000 0.049609 0.047417 0.166010
0.850000 0.043177 0.041156 0.155462
0.860000 0.037437 0.035585 0.145394
0.870000 0.032338 0.030648 0.135809
0.880000 0.027826 0.026294 0.126713
0.890000 0.023852 0.022470 0.118109
0.900000 0.020368 0.019127 0.110006
0.910000 0.017326 0.016217 0.102414
0.920000 0.014682 0.013696 0.095349
0.930000 0.012395 0.011520 0.088833
0.940000 0.010429 0.009652 0.082899
0.950000 0.008751 0.008054 0.077591
0.960000 0.007334 0.006694 0.072972
0.970000 0.006166 0.005541 0.069125
0.980000 0.005249 0.004568 0.066165
0.990000 0.004623 0.003751 0.064245
1.000000 0.004390 0.003068 0.063566
