0.000000 1.000000 1.000000 0.999927
0.010000 0.999999 0.999999 0.999837
0.020000 0.999996 0.999997 0.999639
0.030000 0.999993 0.999994 0.999403
0.040000 0.999988 0.999989 0.999123
0.050000 0.999981 0.999983 0.998795
0.060000 0.999971 0.999974 0.998412
0.070000 0.999958 0.999962 0.997968
0.080000 0.999940 0.999946 0.997456
0.090000 0.999916 0.999924 0.996869
0.100000 0.999884 0.999895 0.996199
0.110000 0.999843 0.999857 0.995438
0.120000 0.999789 0.999808 0.994577
0.130000 0.999721 0.999744 0.993607
0.140000 0.999633 0.999663 0.992518
0.150000 0.999522 0.999560 0.991300
0.160000 0.999382 0.999430 0.989942
0.170000 0.999208 0.999267 0.988433
0.180000 0.998992 0.999065 0.986760
0.190000 0.998725 0.998814 0.984913
0.200000 0.998397 0.998505 0.982877
0.210000 0.997997 0.998127 0.980641
0.220000 0.997512 0.997668 0.978191
0.230000 0.996927 0.997112 0.975514
0.240000 0.996225 0.996442 0.972596
0.250000 0.995386 0.995640 0.969423
0.260000 0.994389 0.994685 0.965981
0.270000 0.993210 0.993553 0.962257
0.280000 0.991823 0.992218 0.958236
0.290000 0.990199 0.990650 0.953904
0.300000 0.988307 0.988819 0.949249
0.310000 0.986113 0.986690 0.944258
0.320000 0.983580 0.984227 0.938916
0.330000 0.980669 0.981390 0.933213
0.340000 0.977340 0.978138 0.927136
0.350000 0.973549 0.974427 0.920674
0.360000 0.969252 0.970212 0.913818
0.370000 0.964403 0.965446 0.906558
0.380000 0.958956 0.960080 0.898886
0.390000 0.952863 0.954067 0.890795
0.400000 0.946078 0.947358 0.882278
0.410000 0.938555 0.939906 0.873331
0.420000 0.930249 0.931665 0.863951
0.430000 0.921119 0.922591 0.854135
0.440000 0.911126 0.912643 0.843884
0.450000 0.900235 0.901785 0.833197
0.460000 0.888415 0.889984 0.822078
0.470000 0.875641 0.877213 0.810531
0.480000 0.861895 0.863452 0.798562
0.490000 0.847165 0.848688 0.786179
0.500000 0.831445 0.832915 0.773391
0.510000 0.814740 0.816134 0.760208
0.520000 0.797061 0.798359 0.746645
0.530000 0.778429 0.779608 0.732714
0.540000 0.758874 0.759911 0.718433
0.550000 0.738434 0.739309 0.703819
0.560000 0.717157 0.717850 0.688890
0.570000 0.695100 0.695590 0.673669
0.580000 0.672328 0.672598 0.658175
0.590000 0.648912 0.648947 0.642434
0.600000 0.624934 0.624720 0.626469
0.610000 0.600480 0.600006 0.610305
0.620000 0.575640 0.574899 0.593970
0.630000 0.550512 0.549499 0.577490
0.640000 0.525194 0.523909 0.560893
0.650000 0.499788 0.498234 0.544208
0.660000 0.474398 0.472578 0.527463
0.670000 0.449124 0.447049 0.510687
0.680000 0.424067 0.421748 0.493910
0.690000 0.399325 0.396779 0.477161
0.700000 0.374993 0.372236 0.460469
0.710000 0.351159 0.348211 0.443862
0.720000 0.327907 0.324791 0.427368
0.730000 0.305313 0.302052 0.411016
0.740000 0.283445 0.280066 0.394831
0.750000 0.262366 0.258893 0.378841
0.760000 0.242127 0.238587 0.363070
0.770000 0.222773 0.219192 0.347542
0.780000 0.204338 0.200742 0.332281
0.790000 0.186849 0.183263 0.317309
0.800000 0.170322 0.166770 0.302647
0.810000 0.154768 0.151272 0.288316
0.820000 0.140187 0.136767 0.274334
0.830000 0.126572 0.123247 0.260721
0.840000 0.113909 0.110695 0.247495
0.850000 0.102179 0.099090 0.234674
0.860000 0.091356 0.088404 0.222275
0.870000 0.081410 0.078603 0.210319
0.880000 0.072305 0.069651 0.198825
0.890000 0.064004 0.061508 0.187818
0.900000 0.056467 0.054129 0.177325
0.910000 0.049650 0.047471 0.167378
0.920000 0.043513 0.041486 0.158018
0.930000 0.038014 0.036130 0.149296
0.940000 0.033115 0.031354 0.141275
0.950000 0.028787 0.027113 0.134040
0.960000 0.025012 0.023363 0.127696
0.970000 0.021804 0.020060 0.122381
0.980000 0.019223 0.017163 0.118272
0.990000 0.017428 0.014631 0.115597
1.000000 0.016754 0.012428 0.114650
