0.000000 1.000000 1.000000 0.999983
0.010000 1.000000 1.000000 0.999962
0.020000 1.000000 1.000000 0.999917
0.030000 1.000000 1.000000 0.999863
0.040000 0.999999 1.000000 0.999798
0.050000 0.999999 0.999999 0.999722
0.060000 0.999999 0.999999 0.999633
0.070000 0.999998 0.999998 0.999529
0.080000 0.999997 0.999998 0.999410
0.090000 0.999996 0.999996 0.999271
0.100000 0.999994 0.999995 0.999113
0.110000 0.999992 0.999993 0.998932
0.120000 0.999990 0.999991 0.998726
0.130000 0.999986 0.999988 0.998493
0.140000 0.999982 0.999984 0.998228
0.150000 0.999976 0.999978 0.997931
0.160000 0.999968 0.999972 0.997597
0.170000 0.999958 0.999963 0.997222
0.180000 0.999946 0.999952 0.996803
0.190000 0.999931 0.999938 0.996336
0.200000 0.999912 0.999921 0.995818
0.210000 0.999888 0.999899 0.995242
0.220000 0.999858 0.999872 0.994605
0.230000 0.999822 0.999839 0.993901
0.240000 0.999776 0.999797 0.993126
0.250000 0.999721 0.999747 0.992273
0.260000 0.999653 0.999684 0.991337
0.270000 0.999571 0.999608 0.990312
0.280000 0.999471 0.999516 0.989191
0.290000 0.999351 0.999405 0.987968
0.300000 0.999206 0.999270 0.986637
0.310000 0.999033 0.999109 0.985189
0.320000 0.998827 0.998916 0.983618
0.330000 0.998582 0.998686 0.981916
0.340000 0.998291 0.998412 0.980075
0.350000 0.997948 0.998089 0.978088
0.360000 0.997545 0.997708 0.975946
0.370000 0.997072 0.997260 0.973641
0.380000 0.996520 0.996736 0.971165
0.390000 0.995878 0.996125 0.968509
0.400000 0.995134 0.995415 0.965666
0.410000 0.994273 0.994592 0.962625
0.420000 0.993281 0.993641 0.959379
0.430000 0.992143 0.992548 0.955920
0.440000 0.990841 0.991294 0.952238
0.450000 0.989356 0.989860 0.948325
0.460000 0.987667 0.988227 0.944174
0.470000 0.985754 0.986373 0.939776
0.480000 0.983594 0.984275 0.935123
0.490000 0.981162 0.981909 0.930207
0.500000 0.978433 0.979248 0.925023
0.510000 0.975381 0.976266 0.919562
0.520000 0.971978 0.972936 0.913818
0.530000 0.968197 0.969228 0.907786
0.540000 0.964008 0.965112 0.901459
0.550000 0.959382 0.960560 0.894832
0.560000 0.954289 0.955540 0.887902
0.570000 0.948700 0.950022 0.880665
0.580000 0.942587 0.943976 0.873116
0.590000 0.935919 0.937372 0.865255
0.600000 0.928671 0.930182 0.857079
0.610000 0.920816 0.922378 0.848586
0.620000 0.912328 0.913935 0.839778
0.630000 0.903186 0.904829 0.830655
0.640000 0.893370 0.895039 0.821219
0.650000 0.882862 0.884546 0.811471
0.660000 0.871648 0.873335 0.801416
0.670000 0.859717 0.861393 0.791057
0.680000 0.847063 0.848715 0.780401
0.690000 0.833681 0.835294 0.769453
0.700000 0.819574 0.821132 0.758222
0.710000 0.804747 0.806235 0.746714
0.720000 0.789210 0.790612 0.734941
0.730000 0.772980 0.774280 0.722911
0.740000 0.756076 0.757257 0.710638
0.750000 0.738524 0.739570 0.698135
0.760000 0.720353 0.721250 0.685415
0.770000 0.701599 0.702332 0.672493
0.780000 0.682301 0.682855 0.659388
0.790000 0.662503 0.662867 0.646118
0.800000 0.642253 0.642415 0.632703
0.810000 0.621603 0.621553 0.619165
0.820000 0.600607 0.600338 0.605531
0.830000 0.579325 0.578829 0.591826
0.840000 0.557816 0.557090 0.578083
0.850000 0.536144 0.535184 0.564336
0.860000 0.514374 0.513177 0.550625
0.870000 0.492572 0.491137 0.536995
0.880000 0.470806 0.469131 0.523498
0.890000 0.449146 0.447224 0.510195
0.900000 0.427665 0.425483 0.497157
0.910000 0.406442 0.403973 0.484470
0.920000 0.385566 0.382754 0.472233
0.930000 0.365147 0.361887 0.460567
0.940000 0.345327 0.341427 0.449616
0.950000 0.326312 0.321428 0.439554
0.960000 0.308416 0.301938 0.430592
0.970000 0.292141 0.283002 0.422986
0.980000 0.278315 0.264659 0.417048
0.990000 0.268323 0.246945 0.413157
1.000000 0.264503 0.229890 0.411775
