0.000000 1.000000 1.000000 0.998795
0.010000 0.999633 0.999653 0.997311
0.020000 0.999071 0.999118 0.994075
0.030000 0.998250 0.998334 0.990234
0.040000 0.997092 0.997224 0.985730
0.050000 0.995506 0.995696 0.980507
0.060000 0.993382 0.993642 0.974507
0.070000 0.990598 0.990940 0.967676
0.080000 0.987014 0.987448 0.959958
0.090000 0.982475 0.983012 0.951306
0.100000 0.976816 0.977461 0.941674
0.110000 0.969861 0.970618 0.931020
0.120000 0.961429 0.962296 0.919312
0.130000 0.951338 0.952307 0.906520
0.140000 0.939410 0.940468 0.892627
0.150000 0.925480 0.926606 0.877619
0.160000 0.909401 0.910566 0.861495
0.170000 0.891050 0.892219 0.844263
0.180000 0.870338 0.871469 0.825940
0.190000 0.847214 0.848258 0.806553
0.200000 0.821672 0.822578 0.786141
0.210000 0.793753 0.794467 0.764751
0.220000 0.763553 0.764018 0.742442
0.230000 0.731216 0.731382 0.719281
0.240000 0.696940 0.696759 0.695346
0.250000 0.660973 0.660404 0.670720
0.260000 0.623604 0.622616 0.645497
0.270000 0.585158 0.583732 0.619775
0.280000 0.545991 0.544119 0.593658
0.290000 0.506474 0.504162 0.567253
0.300000 0.466988 0.464257 0.540671
0.310000 0.427910 0.424792 0.514024
0.320000 0.389605 0.386143 0.487424
0.330000 0.352414 0.348661 0.460980
0.340000 0.316643 0.312663 0.434802
0.350000 0.282564 0.278422 0.408992
0.360000 0.250401 0.246165 0.383649
0.370000 0.220329 0.216069 0.358867
0.380000 0.192475 0.188256 0.334732
0.390000 0.166916 0.162799 0.311320
0.400000 0.143680 0.139719 0.288702
0.410000 0.122752 0.118993 0.266939
0.420000 0.104077 0.100556 0.246080
0.430000 0.087567 0.084311 0.226170
0.440000 0.073105 0.070131 0.207238
0.450000 0.060554 0.057872 0.189310
0.460000 0.049763 0.047371 0.172398
0.470000 0.040569 0.038462 0.156507
0.480000 0.032808 0.030974 0.141635
0.490000 0.026318 0.024739 0.127771
0.500000 0.020939 0.019596 0.114896
0.510000 0.016524 0.015393 0.102988
0.520000 0.012932 0.011991 0.092015
0.530000 0.010036 0.009263 0.081945
0.540000 0.007725 0.007095 0.072739
0.550000 0.005895 0.005388 0.064355
0.560000 0.004461 0.004058 0.056749
0.570000 0.003347 0.003029 0.049877
0.580000 0.002490 0.002243 0.043690
0.590000 0.001837 0.001646 0.038143
0.600000 0.001343 0.001197 0.033188
0.610000 0.000974 0.000864 0.028779
0.620000 0.000700 0.000618 0.024872
0.630000 0.000498 0.000438 0.021421
0.640000 0.000352 0.000308 0.018387
0.650000 0.000246 0.000214 0.015728
0.660000 0.000171 0.000148 0.013407
0.670000 0.000117 0.000101 0.011390
0.680000 0.000080 0.000069 0.009642
0.690000 0.000054 0.000046 0.008134
0.700000 0.000036 0.000031 0.006839
0.710000 0.000024 0.000020 0.005729
0.720000 0.000016 0.000013 0.004783
0.730000 0.000010 0.000009 0.003979
0.740000 0.000007 0.000006 0.003298
0.750000 0.000004 0.000004 0.002724
0.760000 0.000003 0.000002 0.002243
0.770000 0.000002 0.000001 0.001839
0.780000 0.000001 0.000001 0.001503
0.790000 0.000001 0.000001 0.001224
0.800000 0.000000 0.000000 0.000993
0.810000 0.000000 0.000000 0.000803
0.820000 0.000000 0.000000 0.000647
0.830000 0.000000 0.000000 0.000520
0.840000 0.000000 0.000000 0.000416
0.850000 0.000000 0.000000 0.000331
0.860000 0.000000 0.000000 0.000263
0.870000 0.000000 0.000000 0.000208
0.880000 0.000000 0.000000 0.000164
0.890000 0.000000 0.000000 0.000129
0.900000 0.000000 0.000000 0.000101
0.910000 0.000000 0.000000 0.000079
0.920000 0.000000 0.000000 0.000061
0.930000 0.000000 0.000000 0.000047
0.940000 0.000000 0.000000 0.000037
0.950000 0.000000 0.000000 0.000028
0.960000 0.000000 0.000000 0.000022
0.970000 0.000000 0.000000 0.000017
0.980000 0.000000 0.000000 0.000014
0.990000 0.000000 0.000000 0.000012
1.000000 0.000000 0.000000 0.000011
