0.000000 1.000000 1.000000 0.999928
0.010000 0.999999 0.999999 0.999839
0.020000 0.999996 0.999997 0.999645
0.030000 0.999993 0.999994 0.999413
0.040000 0.999988 0.999989 0.999139
0.050000 0.999981 0.999983 0.998816
0.060000 0.999972 0.999975 0.998439
0.070000 0.999959 0.999963 0.998003
0.080000 0.999942 0.999947 0.997500
0.090000 0.999919 0.999926 0.996923
0.100000 0.999888 0.999899 0.996264
0.110000 0.999848 0.999862 0.995516
0.120000 0.999797 0.999814 0.994670
0.130000 0.999730 0.999753 0.993716
0.140000 0.999646 0.999675 0.992646
0.150000 0.999538 0.999575 0.991448
0.160000 0.999403 0.999450 0.990112
0.170000 0.999235 0.999292 0.988627
0.180000 0.999026 0.999096 0.986982
0.190000 0.998767 0.998854 0.985164
0.200000 0.998450 0.998555 0.983161
0.210000 0.998063 0.998190 0.980960
0.220000 0.997593 0.997745 0.978548
0.230000 0.997026 0.997206 0.975912
0.240000 0.996345 0.996557 0.973038
0.250000 0.995532 0.995780 0.969913
0.260000 0.994564 0.994854 0.966523
0.270000 0.993420 0.993756 0.962853
0.280000 0.992074 0.992460 0.958891
0.290000 0.990496 0.990937 0.954622
0.300000 0.988657 0.989159 0.950033
0.310000 0.986524 0.987089 0.945110
0.320000 0.984059 0.984694 0.939842
0.330000 0.981226 0.981934 0.934216
0.340000 0.977984 0.978768 0.928220
0.350000 0.974290 0.975154 0.921843
0.360000 0.970101 0.971046 0.915075
0.370000 0.965371 0.966398 0.907906
0.380000 0.960053 0.961163 0.900329
0.390000 0.954102 0.955292 0.892335
0.400000 0.947471 0.948738 0.883919
0.410000 0.940114 0.941453 0.875075
0.420000 0.931986 0.933391 0.865801
0.430000 0.923046 0.924508 0.856093
0.440000 0.913254 0.914764 0.845951
0.450000 0.902574 0.904120 0.835376
0.460000 0.890975 0.892543 0.824370
0.470000 0.878432 0.880006 0.812936
0.480000 0.864923 0.866486 0.801081
0.490000 0.850436 0.851970 0.788812
0.500000 0.834964 0.836449 0.776137
0.510000 0.818510 0.819924 0.763067
0.520000 0.801082 0.802405 0.749615
0.530000 0.782700 0.783909 0.735794
0.540000 0.763391 0.764465 0.721620
0.550000 0.743191 0.744108 0.707110
0.560000 0.722146 0.722885 0.692284
0.570000 0.700310 0.700852 0.677160
0.580000 0.677746 0.678072 0.661761
0.590000 0.654524 0.654619 0.646109
0.600000 0.630722 0.630571 0.630228
0.610000 0.606424 0.606017 0.614144
0.620000 0.581721 0.581048 0.597882
0.630000 0.556706 0.555763 0.581470
0.640000 0.531477 0.530263 0.564935
0.650000 0.506136 0.504652 0.548304
0.660000 0.480784 0.479034 0.531607
0.670000 0.455523 0.453515 0.514872
0.680000 0.430453 0.428199 0.498129
0.690000 0.405672 0.403186 0.481406
0.700000 0.381275 0.378574 0.464732
0.710000 0.357352 0.354455 0.448136
0.720000 0.333987 0.330916 0.431645
0.730000 0.311257 0.308036 0.415288
0.740000 0.289234 0.285887 0.399092
0.750000 0.267981 0.264533 0.383082
0.760000 0.247551 0.244029 0.367283
0.770000 0.227991 0.224421 0.351722
0.780000 0.209338 0.205746 0.336420
0.790000 0.191620 0.188032 0.321400
0.800000 0.174858 0.171296 0.306684
0.810000 0.159062 0.155550 0.292292
0.820000 0.144235 0.140794 0.278245
0.830000 0.130373 0.127021 0.264561
0.840000 0.117465 0.114219 0.251259
0.850000 0.105492 0.102367 0.238357
0.860000 0.094430 0.091438 0.225875
0.870000 0.084250 0.081401 0.213832
0.880000 0.074920 0.072221 0.202249
0.890000 0.066401 0.063858 0.191152
0.900000 0.058655 0.056270 0.180567
0.910000 0.051641 0.049413 0.170529
0.920000 0.045317 0.043241 0.161079
0.930000 0.039643 0.037709 0.152270
0.940000 0.034581 0.032769 0.144167
0.950000 0.030102 0.028377 0.136854
0.960000 0.026192 0.024486 0.130441
0.970000 0.022864 0.021054 0.125066
0.980000 0.020185 0.018039 0.120910
0.990000 0.018320 0.015401 0.118204
1.000000 0.017619 0.013101 0.117247
