0.000000 1.000000 1.000000 0.999911
0.010000 0.999998 0.999998 0.999801
0.020000 0.999994 0.999995 0.999560
0.030000 0.999989 0.999990 0.999272
0.040000 0.999982 0.999984 0.998932
0.050000 0.999971 0.999974 0.998532
0.060000 0.999957 0.999961 0.998065
0.070000 0.999937 0.999943 0.997525
0.080000 0.999910 0.999918 0.996903
0.090000 0.999874 0.999886 0.996190
0.100000 0.999827 0.999842 0.995378
0.110000 0.999766 0.999786 0.994455
0.120000 0.999687 0.999713 0.993413
0.130000 0.999586 0.999619 0.992241
0.140000 0.999457 0.999499 0.990926
0.150000 0.999294 0.999347 0.989457
0.160000 0.999091 0.999157 0.987821
0.170000 0.998837 0.998918 0.986006
0.180000 0.998523 0.998623 0.983997
0.190000 0.998137 0.998258 0.981782
0.200000 0.997666 0.997811 0.979346
0.210000 0.997092 0.997267 0.976674
0.220000 0.996400 0.996607 0.973752
0.230000 0.995568 0.995812 0.970565
0.240000 0.994573 0.994860 0.967098
0.250000 0.993391 0.993724 0.963336
0.260000 0.991994 0.992379 0.959263
0.270000 0.990350 0.990791 0.954866
0.280000 0.988426 0.988929 0.950129
0.290000 0.986185 0.986755 0.945039
0.300000 0.983589 0.984230 0.939581
0.310000 0.980595 0.981311 0.933743
0.320000 0.977159 0.977954 0.927512
0.330000 0.973235 0.974112 0.920875
0.340000 0.968775 0.969735 0.913823
0.350000 0.963729 0.964773 0.906345
0.360000 0.958048 0.959174 0.898433
0.370000 0.951680 0.952887 0.890079
0.380000 0.944576 0.945859 0.881277
0.390000 0.936687 0.938041 0.872022
0.400000 0.927965 0.929382 0.862311
0.410000 0.918367 0.919837 0.852141
0.420000 0.907851 0.909364 0.841514
0.430000 0.896382 0.897923 0.830430
0.440000 0.883930 0.885483 0.818893
0.450000 0.870468 0.872017 0.806908
0.460000 0.855981 0.857506 0.794482
0.470000 0.840458 0.841938 0.781624
0.480000 0.823898 0.825313 0.768346
0.490000 0.806310 0.807635 0.754659
0.500000 0.787709 0.788923 0.740579
0.510000 0.768125 0.769204 0.726121
0.520000 0.747593 0.748515 0.711304
0.530000 0.726161 0.726903 0.696147
0.540000 0.703885 0.704427 0.680673
0.550000 0.680832 0.681154 0.664904
0.560000 0.657077 0.657162 0.648865
0.570000 0.632703 0.632536 0.632581
0.580000 0.607800 0.607370 0.616080
0.590000 0.582466 0.581764 0.599389
0.600000 0.556801 0.555822 0.582538
0.610000 0.530913 0.529654 0.565556
0.620000 0.504910 0.503373 0.548474
0.630000 0.478901 0.477092 0.531323
0.640000 0.452997 0.450924 0.514134
0.650000 0.427305 0.424981 0.496937
0.660000 0.401931 0.399372 0.479766
0.670000 0.376977 0.374200 0.462649
0.680000 0.352538 0.349565 0.445619
0.690000 0.328704 0.325559 0.428706
0.700000 0.305558 0.302265 0.411938
0.710000 0.283173 0.279759 0.395345
0.720000 0.261615 0.258108 0.378955
0.730000 0.240941 0.237367 0.362793
0.740000 0.221196 0.217583 0.346887
0.750000 0.202417 0.198793 0.331259
0.760000 0.184632 0.181022 0.315933
0.770000 0.167857 0.164287 0.300930
0.780000 0.152102 0.148595 0.286270
0.790000 0.137366 0.133942 0.271972
0.800000 0.123640 0.120318 0.258053
0.810000 0.110907 0.107704 0.244528
0.820000 0.099146 0.096076 0.231412
0.830000 0.088326 0.085401 0.218719
0.840000 0.078415 0.075642 0.206460
0.850000 0.069372 0.066760 0.194648
0.860000 0.061157 0.058709 0.183293
0.870000 0.053724 0.051442 0.172408
0.880000 0.047026 0.044911 0.162005
0.890000 0.041017 0.039066 0.152100
0.900000 0.035648 0.033857 0.142709
0.910000 0.030871 0.029235 0.133854
0.920000 0.026640 0.025150 0.125564
0.930000 0.022910 0.021555 0.117875
0.940000 0.019641 0.018405 0.110836
0.950000 0.016798 0.015657 0.104510
0.960000 0.014356 0.013269 0.098982
0.970000 0.012308 0.011202 0.094363
0.980000 0.010679 0.009422 0.090799
0.990000 0.009555 0.007894 0.088483
1.000000 0.009135 0.006589 0.087664
