0.000000 1.000000 1.000000 0.999678
0.010000 0.999970 0.999973 0.999281
0.020000 0.999925 0.999931 0.998413
0.030000 0.999858 0.999868 0.997379
0.040000 0.999761 0.999779 0.996158
0.050000 0.999626 0.999653 0.994731
0.060000 0.999442 0.999480 0.993075
0.070000 0.999194 0.999247 0.991169
0.080000 0.998865 0.998936 0.988988
0.090000 0.998434 0.998528 0.986508
0.100000 0.997878 0.998000 0.983704
0.110000 0.997167 0.997323 0.980550
0.120000 0.996269 0.996463 0.977019
0.130000 0.995144 0.995384 0.973086
0.140000 0.993749 0.994042 0.968724
0.150000 0.992033 0.992386 0.963907
0.160000 0.989942 0.990362 0.958608
0.170000 0.987414 0.987908 0.952802
0.180000 0.984383 0.984956 0.946466
0.190000 0.980775 0.981434 0.939575
0.200000 0.976514 0.977263 0.932108
0.210000 0.971518 0.972361 0.924046
0.220000 0.965704 0.966641 0.915369
0.230000 0.958985 0.960015 0.906062
0.240000 0.951274 0.952393 0.896112
0.250000 0.942486 0.943688 0.885509
0.260000 0.932538 0.933814 0.874244
0.270000 0.921354 0.922689 0.862314
0.280000 0.908862 0.910240 0.849717
0.290000 0.895000 0.896401 0.836456
0.300000 0.879720 0.881121 0.822538
0.310000 0.862984 0.864358 0.807972
0.320000 0.844770 0.846089 0.792772
0.330000 0.825075 0.826306 0.776957
0.340000 0.803911 0.805023 0.760547
0.350000 0.781311 0.782271 0.743568
0.360000 0.757329 0.758104 0.726050
0.370000 0.732037 0.732595 0.708024
0.380000 0.705528 0.705839 0.689528
0.390000 0.677915 0.677952 0.670601
0.400000 0.649326 0.649066 0.651284
0.410000 0.619908 0.619332 0.631623
0.420000 0.589820 0.588915 0.611665
0.430000 0.559232 0.557990 0.591459
0.440000 0.528324 0.526743 0.571057
0.450000 0.497279 0.495364 0.550510
0.460000 0.466284 0.464046 0.529872
0.470000 0.435524 0.432979 0.509197
0.480000 0.405177 0.402349 0.488537
0.490000 0.375418 0.372333 0.467947
0.500000 0.346407 0.343098 0.447479
0.510000 0.318292 0.314795 0.427185
0.520000 0.291209 0.287561 0.407114
0.530000 0.265271 0.261513 0.387315
0.540000 0.240577 0.236750 0.367834
0.550000 0.217206 0.213349 0.348714
0.560000 0.195217 0.191369 0.329997
0.570000 0.174648 0.170847 0.311719
0.580000 0.155522 0.151802 0.293916
0.590000 0.137841 0.134232 0.276619
0.600000 0.121591 0.118120 0.259856
0.610000 0.106744 0.103434 0.243650
0.620000 0.093257 0.090127 0.228022
0.630000 0.081078 0.078141 0.212990
0.640000 0.070144 0.067409 0.198566
0.650000 0.060384 0.057858 0.184761
0.660000 0.051724 0.049408 0.171581
0.670000 0.044084 0.041976 0.159028
0.680000 0.037382 0.035479 0.147102
0.690000 0.031539 0.029832 0.135800
0.700000 0.026473 0.024954 0.125116
0.710000 0.022107 0.020764 0.115040
0.720000 0.018366 0.017187 0.105562
0.730000 0.015179 0.014152 0.096669
0.740000 0.012479 0.011590 0.088343
0.750000 0.010206 0.009442 0.080569
0.760000 0.008304 0.007651 0.073328
0.770000 0.006720 0.006167 0.066599
0.780000 0.005409 0.004944 0.060362
0.790000 0.004331 0.003942 0.054595
0.800000 0.003450 0.003126 0.049276
0.810000 0.002733 0.002465 0.044381
0.820000 0.002153 0.001934 0.039889
0.830000 0.001687 0.001509 0.035776
0.840000 0.001315 0.001171 0.032019
0.850000 0.001019 0.000903 0.028597
0.860000 0.000786 0.000693 0.025488
0.870000 0.000603 0.000529 0.022670
0.880000 0.000460 0.000402 0.020125
0.890000 0.000349 0.000303 0.017832
0.900000 0.000263 0.000228 0.015773
0.910000 0.000197 0.000170 0.013933
0.920000 0.000147 0.000126 0.012297
0.930000 0.000109 0.000093 0.010852
0.940000 0.000080 0.000068 0.009587
0.950000 0.000059 0.000050 0.008498
0.960000 0.000043 0.000036 0.007579
0.970000 0.000032 0.000026 0.006835
0.980000 0.000023 0.000019 0.006274
0.990000 0.000018 0.000013 0.005916
1.000000 0.000016 0.000010 0.005790
