0.000000 1.000000 1.000000 0.999867
0.010000 0.999995 0.999995 0.999703
0.020000 0.999987 0.999988 0.999344
0.030000 0.999975 0.999978 0.998915
0.040000 0.999959 0.999963 0.998407
0.050000 0.999935 0.999941 0.997812
0.060000 0.999902 0.999911 0.997119
0.070000 0.999858 0.999870 0.996318
0.080000 0.999799 0.999815 0.995396
0.090000 0.999720 0.999743 0.994343
0.100000 0.999617 0.999647 0.993144
0.110000 0.999483 0.999522 0.991787
0.120000 0.999311 0.999361 0.990257
0.130000 0.999092 0.999156 0.988540
0.140000 0.998815 0.998896 0.986620
0.150000 0.998469 0.998569 0.984481
0.160000 0.998037 0.998160 0.982107
0.170000 0.997503 0.997654 0.979481
0.180000 0.996848 0.997030 0.976586
0.190000 0.996050 0.996268 0.973405
0.200000 0.995082 0.995341 0.969919
0.210000 0.993917 0.994223 0.966111
0.220000 0.992523 0.992881 0.961964
0.230000 0.990864 0.991280 0.957460
0.240000 0.988903 0.989381 0.952581
0.250000 0.986596 0.987143 0.947312
0.260000 0.983898 0.984519 0.941636
0.270000 0.980761 0.981460 0.935537
0.280000 0.977133 0.977913 0.929001
0.290000 0.972960 0.973825 0.922014
0.300000 0.968185 0.969136 0.914563
0.310000 0.962751 0.963788 0.906637
0.320000 0.956598 0.957721 0.898226
0.330000 0.949669 0.950873 0.889321
0.340000 0.941904 0.943186 0.879915
0.350000 0.933248 0.934600 0.870004
0.360000 0.923648 0.925059 0.859585
0.370000 0.913053 0.914512 0.848656
0.380000 0.901419 0.902912 0.837217
0.390000 0.888707 0.890218 0.825273
0.400000 0.874887 0.876397 0.812828
0.410000 0.859935 0.861423 0.799890
0.420000 0.843839 0.845282 0.786469
0.430000 0.826594 0.827969 0.772577
0.440000 0.808208 0.809491 0.758228
0.450000 0.788701 0.789865 0.743440
0.460000 0.768104 0.769124 0.728230
0.470000 0.746459 0.747310 0.712621
0.480000 0.723824 0.724481 0.696636
0.490000 0.700264 0.700705 0.680299
0.500000 0.675859 0.676063 0.663638
0.510000 0.650697 0.650646 0.646682
0.520000 0.624879 0.624557 0.629461
0.530000 0.598512 0.597908 0.612008
0.540000 0.571711 0.570816 0.594355
0.550000 0.544596 0.543406 0.576536
0.560000 0.517293 0.515808 0.558587
0.570000 0.489927 0.488153 0.540544
0.580000 0.462628 0.460572 0.522442
0.590000 0.435522 0.433197 0.504319
0.600000 0.408732 0.406155 0.486210
0.610000 0.382379 0.379568 0.468153
0.620000 0.356573 0.353554 0.450182
0.630000 0.331422 0.328219 0.432334
0.640000 0.307023 0.303664 0.414642
0.650000 0.283461 0.279975 0.397141
0.660000 0.260812 0.257232 0.379862
0.670000 0.239143 0.235497 0.362837
0.680000 0.218506 0.214826 0.346095
0.690000 0.198941 0.195257 0.329664
0.700000 0.180479 0.176819 0.313570
0.710000 0.163137 0.159529 0.297836
0.720000 0.146922 0.143390 0.282486
0.730000 0.131830 0.128397 0.267539
0.740000 0.117848 0.114533 0.253013
0.750000 0.104953 0.101774 0.238924
0.760000 0.093116 0.090086 0.225285
0.770000 0.082298 0.079430 0.212109
0.780000 0.072458 0.069759 0.199405
0.790000 0.063547 0.061023 0.187179
0.800000 0.055516 0.053169 0.175438
0.810000 0.048310 0.046141 0.164185
0.820000 0.041873 0.039880 0.153422
0.830000 0.036151 0.034330 0.143149
0.840000 0.031086 0.029432 0.133365
0.850000 0.026624 0.025130 0.124068
0.860000 0.022710 0.021369 0.115255
0.870000 0.019294 0.018096 0.106923
0.880000 0.016325 0.015261 0.099068
0.890000 0.013757 0.012816 0.091688
0.900000 0.011546 0.010719 0.084784
0.910000 0.009650 0.008927 0.078355
0.920000 0.008033 0.007404 0.072409
0.930000 0.006660 0.006114 0.066957
0.940000 0.005502 0.005028 0.062017
0.950000 0.004531 0.004118 0.057620
0.960000 0.003725 0.003358 0.053808
0.970000 0.003072 0.002726 0.050645
0.980000 0.002566 0.002204 0.048218
0.990000 0.002224 0.001775 0.046645
1.000000 0.002097 0.001423 0.046090
