0.000000 1.000000 1.000000 0.999961
0.010000 1.000000 1.000000 0.999914
0.020000 0.999999 0.999999 0.999809
0.030000 0.999998 0.999998 0.999684
0.040000 0.999997 0.999997 0.999536
0.050000 0.999995 0.999995 0.999362
0.060000 0.999992 0.999993 0.999158
0.070000 0.999989 0.999990 0.998921
0.080000 0.999984 0.999985 0.998648
0.090000 0.999977 0.999980 0.998334
0.100000 0.999968 0.999972 0.997975
0.110000 0.999957 0.999961 0.997565
0.120000 0.999942 0.999948 0.997101
0.130000 0.999923 0.999930 0.996576
0.140000 0.999898 0.999908 0.995985
0.150000 0.999866 0.999879 0.995321
0.160000 0.999826 0.999842 0.994578
0.170000 0.999775 0.999795 0.993749
0.180000 0.999711 0.999737 0.992826
0.190000 0.999632 0.999664 0.991802
0.200000 0.999534 0.999572 0.990669
0.210000 0.999412 0.999460 0.989418
0.220000 0.999263 0.999321 0.988041
0.230000 0.999082 0.999151 0.986528
0.240000 0.998860 0.998944 0.984870
0.250000 0.998593 0.998693 0.983057
0.260000 0.998271 0.998389 0.981079
0.270000 0.997885 0.998025 0.978925
0.280000 0.997424 0.997588 0.976586
0.290000 0.996876 0.997068 0.974050
0.300000 0.996227 0.996451 0.971306
0.310000 0.995464 0.995722 0.968344
0.320000 0.994567 0.994865 0.965153
0.330000 0.993520 0.993860 0.961720
0.340000 0.992301 0.992689 0.958036
0.350000 0.990889 0.991327 0.954088
0.360000 0.989258 0.989752 0.949868
0.370000 0.987383 0.987937 0.945362
0.380000 0.985236 0.985854 0.940562
0.390000 0.982787 0.983472 0.935457
0.400000 0.980004 0.980760 0.930038
0.410000 0.976854 0.977684 0.924295
0.420000 0.973303 0.974208 0.918219
0.430000 0.969313 0.970296 0.911804
0.440000 0.964849 0.965911 0.905040
0.450000 0.959873 0.961013 0.897922
0.460000 0.954347 0.955564 0.890444
0.470000 0.948234 0.949524 0.882600
0.480000 0.941495 0.942856 0.874387
0.490000 0.934095 0.935521 0.865801
0.500000 0.925999 0.927484 0.856840
0.510000 0.917174 0.918709 0.847504
0.520000 0.907589 0.909165 0.837793
0.530000 0.897218 0.898824 0.827708
0.540000 0.886037 0.887660 0.817250
0.550000 0.874026 0.875653 0.806425
0.560000 0.861171 0.862786 0.795238
0.570000 0.847463 0.849048 0.783693
0.580000 0.832896 0.834436 0.771800
0.590000 0.817474 0.818950 0.759566
0.600000 0.801205 0.802598 0.747003
0.610000 0.784104 0.785395 0.734121
0.620000 0.766192 0.767362 0.720933
0.630000 0.747498 0.748528 0.707452
0.640000 0.728058 0.728929 0.693694
0.650000 0.707913 0.708608 0.679675
0.660000 0.687113 0.687615 0.665412
0.670000 0.665711 0.666006 0.650923
0.680000 0.643768 0.643844 0.636228
0.690000 0.621351 0.621195 0.621346
0.700000 0.598529 0.598133 0.606298
0.710000 0.575378 0.574734 0.591106
0.720000 0.551975 0.551080 0.575793
0.730000 0.528400 0.527253 0.560380
0.740000 0.504736 0.503337 0.544893
0.750000 0.481066 0.479419 0.529354
0.760000 0.457471 0.455584 0.513788
0.770000 0.434035 0.431917 0.498220
0.780000 0.410838 0.408499 0.482676
0.790000 0.387957 0.385412 0.467181
0.800000 0.365466 0.362732 0.451761
0.810000 0.343437 0.340531 0.436444
0.820000 0.321934 0.318876 0.421258
0.830000 0.301019 0.297829 0.406230
0.840000 0.280745 0.277445 0.391391
0.850000 0.261161 0.257774 0.376774
0.860000 0.242311 0.238857 0.362412
0.870000 0.224229 0.220731 0.348344
0.880000 0.206945 0.203424 0.334610
0.890000 0.190484 0.186958 0.321260
0.900000 0.174862 0.171346 0.308347
0.910000 0.160095 0.156598 0.295937
0.920000 0.146194 0.142714 0.284106
0.930000 0.133174 0.129690 0.272947
0.940000 0.121057 0.117516 0.262573
0.950000 0.109889 0.106177 0.253122
0.960000 0.099759 0.095652 0.244765
0.970000 0.090837 0.085917 0.237715
0.980000 0.083451 0.076946 0.232236
0.990000 0.078207 0.068706 0.228656
1.000000 0.076219 0.061166 0.227387
