0.000000 1.000000 1.000000 0.999561
0.010000 0.999946 0.999950 0.999020
0.020000 0.999862 0.999872 0.997837
0.030000 0.999740 0.999758 0.996429
0.040000 0.999564 0.999593 0.994769
0.050000 0.999320 0.999363 0.992830
0.060000 0.998986 0.999048 0.990586
0.070000 0.998540 0.998625 0.988007
0.080000 0.997951 0.998065 0.985063
0.090000 0.997185 0.997335 0.981724
0.100000 0.996202 0.996393 0.977958
0.110000 0.994954 0.995194 0.973736
0.120000 0.993388 0.993685 0.969025
0.130000 0.991443 0.991805 0.963795
0.140000 0.989051 0.989485 0.958016
0.150000 0.986136 0.986650 0.951658
0.160000 0.982618 0.983218 0.944694
0.170000 0.978407 0.979099 0.937098
0.180000 0.973410 0.974198 0.928845
0.190000 0.967530 0.968416 0.919914
0.200000 0.960667 0.961650 0.910285
0.210000 0.952719 0.953795 0.899943
0.220000 0.943587 0.944748 0.888874
0.230000 0.933173 0.934410 0.877069
0.240000 0.921389 0.922686 0.864524
0.250000 0.908151 0.909490 0.851237
0.260000 0.893390 0.894748 0.837211
0.270000 0.877050 0.878400 0.822456
0.280000 0.859091 0.860403 0.806983
0.290000 0.839493 0.840735 0.790809
0.300000 0.818257 0.819393 0.773957
0.310000 0.795406 0.796401 0.756453
0.320000 0.770990 0.771805 0.738329
0.330000 0.745079 0.745679 0.719621
0.340000 0.717770 0.718122 0.700369
0.350000 0.689184 0.689256 0.680618
0.360000 0.659465 0.659229 0.660414
0.370000 0.628774 0.628209 0.639810
0.380000 0.597294 0.596382 0.618860
0.390000 0.565219 0.563952 0.597621
0.400000 0.532755 0.531130 0.576152
0.410000 0.500116 0.498137 0.554513
0.420000 0.467518 0.465197 0.532767
0.430000 0.435175 0.432532 0.510977
0.440000 0.403296 0.400356 0.489203
0.450000 0.372080 0.368875 0.467510
0.460000 0.341714 0.338280 0.445958
0.470000 0.312366 0.308744 0.424606
0.480000 0.284187 0.280421 0.403513
0.490000 0.257307 0.253440 0.382735
0.500000 0.231832 0.227910 0.362323
0.510000 0.207844 0.203912 0.342328
0.520000 0.185403 0.181504 0.322796
0.530000 0.164545 0.160718 0.303768
0.540000 0.145283 0.141563 0.285284
0.550000 0.127609 0.124029 0.267378
0.560000 0.111497 0.108083 0.250079
0.570000 0.096903 0.093677 0.233414
0.580000 0.083769 0.080747 0.217402
0.590000 0.072025 0.069219 0.202060
0.600000 0.061590 0.059007 0.187401
0.610000 0.052379 0.050021 0.173433
0.620000 0.044300 0.042164 0.160159
0.630000 0.037259 0.035341 0.147580
0.640000 0.031162 0.029453 0.135690
0.650000 0.025916 0.024406 0.124484
0.660000 0.021431 0.020107 0.113951
0.670000 0.017622 0.016469 0.104076
0.680000 0.014407 0.013412 0.094844
0.690000 0.011711 0.010858 0.086236
0.700000 0.009465 0.008739 0.078232
0.710000 0.007605 0.006993 0.070810
0.720000 0.006075 0.005562 0.063945
0.730000 0.004824 0.004398 0.057614
0.740000 0.003809 0.003457 0.051789
0.750000 0.002989 0.002701 0.046446
0.760000 0.002332 0.002098 0.041558
0.770000 0.001809 0.001619 0.037097
0.780000 0.001394 0.001243 0.033037
0.790000 0.001069 0.000948 0.029353
0.800000 0.000814 0.000719 0.026018
0.810000 0.000616 0.000542 0.023008
0.820000 0.000464 0.000406 0.020298
0.830000 0.000347 0.000302 0.017864
0.840000 0.000258 0.000224 0.015685
0.850000 0.000191 0.000164 0.013739
0.860000 0.000140 0.000120 0.012007
0.870000 0.000102 0.000087 0.010468
0.880000 0.000074 0.000063 0.009106
0.890000 0.000053 0.000045 0.007903
0.900000 0.000038 0.000032 0.006846
0.910000 0.000027 0.000023 0.005919
0.920000 0.000019 0.000016 0.005111
0.930000 0.000014 0.000011 0.004411
0.940000 0.000009 0.000008 0.003809
0.950000 0.000007 0.000005 0.003299
0.960000 0.000005 0.000004 0.002876
0.970000 0.000003 0.000003 0.002537
0.980000 0.000002 0.000002 0.002285
0.990000 0.000002 0.000001 0.002124
1.000000 0.000001 0.000001 0.002068
