0.000000 1.000000 1.000000 0.999774
0.010000 0.999985 0.999987 0.999496
0.020000 0.999963 0.999966 0.998887
0.030000 0.999929 0.999935 0.998160
0.040000 0.999881 0.999891 0.997302
0.050000 0.999814 0.999828 0.996297
0.060000 0.999721 0.999742 0.995129
0.070000 0.999596 0.999625 0.993782
0.080000 0.999429 0.999469 0.992237
0.090000 0.999209 0.999263 0.990477
0.100000 0.998924 0.998994 0.988480
0.110000 0.998556 0.998647 0.986228
0.120000 0.998088 0.998204 0.983699
0.130000 0.997498 0.997643 0.980872
0.140000 0.996760 0.996939 0.977726
0.150000 0.995844 0.996063 0.974237
0.160000 0.994718 0.994982 0.970384
0.170000 0.993342 0.993659 0.966145
0.180000 0.991675 0.992050 0.961497
0.190000 0.989670 0.990109 0.956418
0.200000 0.987273 0.987784 0.950887
0.210000 0.984430 0.985018 0.944884
0.220000 0.981080 0.981749 0.938389
0.230000 0.977157 0.977912 0.931384
0.240000 0.972593 0.973438 0.923850
0.250000 0.967318 0.968253 0.915773
0.260000 0.961259 0.962285 0.907138
0.270000 0.954342 0.955457 0.897934
0.280000 0.946495 0.947693 0.888150
0.290000 0.937645 0.938919 0.877778
0.300000 0.927724 0.929065 0.866815
0.310000 0.916669 0.918063 0.855257
0.320000 0.904422 0.905853 0.843104
0.330000 0.890933 0.892383 0.830360
0.340000 0.876163 0.877610 0.817031
0.350000 0.860082 0.861502 0.803126
0.360000 0.842674 0.844041 0.788657
0.370000 0.823936 0.825222 0.773640
0.380000 0.803880 0.805056 0.758093
0.390000 0.782534 0.783570 0.742038
0.400000 0.759942 0.760809 0.725499
0.410000 0.736163 0.736832 0.708504
0.420000 0.711274 0.711718 0.691083
0.430000 0.685367 0.685561 0.673269
0.440000 0.658548 0.658469 0.655097
0.450000 0.630937 0.630567 0.636605
0.460000 0.602665 0.601990 0.617831
0.470000 0.573874 0.572885 0.598818
0.480000 0.544714 0.543405 0.579608
0.490000 0.515339 0.513712 0.560244
0.500000 0.485908 0.483969 0.540772
0.510000 0.456580 0.454339 0.521237
0.520000 0.427510 0.424984 0.501684
0.530000 0.398851 0.396062 0.482159
0.540000 0.370749 0.367721 0.462707
0.550000 0.343340 0.340102 0.443374
0.560000 0.316749 0.313333 0.424201
0.570000 0.291089 0.287529 0.405233
0.580000 0.266459 0.262790 0.386509
0.590000 0.242943 0.239202 0.368069
0.600000 0.220611 0.216833 0.349950
0.610000 0.199514 0.195735 0.332187
0.620000 0.179689 0.175943 0.314813
0.630000 0.161160 0.157476 0.297857
0.640000 0.143931 0.140339 0.281348
0.650000 0.127997 0.124522 0.265309
0.660000 0.113338 0.110002 0.249763
0.670000 0.099922 0.096744 0.234728
0.680000 0.087709 0.084704 0.220220
0.690000 0.076650 0.073828 0.206252
0.700000 0.066688 0.064057 0.192835
0.710000 0.057761 0.055325 0.179974
0.720000 0.049804 0.047564 0.167676
0.730000 0.042749 0.040703 0.155940
0.740000 0.036526 0.034669 0.144768
0.750000 0.031066 0.029392 0.134155
0.760000 0.026301 0.024801 0.124096
0.770000 0.022163 0.020829 0.114583
0.780000 0.018590 0.017410 0.105606
0.790000 0.015519 0.014483 0.097155
0.800000 0.012895 0.011990 0.089216
0.810000 0.010665 0.009879 0.081775
0.820000 0.008778 0.008101 0.074817
0.830000 0.007191 0.006610 0.068325
0.840000 0.005862 0.005368 0.062282
0.850000 0.004756 0.004338 0.056670
0.860000 0.003841 0.003488 0.051472
0.870000 0.003086 0.002792 0.046669
0.880000 0.002468 0.002223 0.042245
0.890000 0.001964 0.001762 0.038181
0.900000 0.001555 0.001389 0.034463
0.910000 0.001226 0.001090 0.031076
0.920000 0.000961 0.000851 0.028009
0.930000 0.000750 0.000661 0.025251
0.940000 0.000583 0.000511 0.022799
0.950000 0.000451 0.000393 0.020652
0.960000 0.000348 0.000301 0.018819
0.970000 0.000269 0.000229 0.017316
0.980000 0.000210 0.000174 0.016174
0.990000 0.000172 0.000131 0.015439
1.000000 0.000158 0.000098 0.015180
