0.000000 1.000000 1.000000 0.999978
0.010000 1.000000 1.000000 0.999950
0.020000 1.000000 1.000000 0.999890
0.030000 0.999999 0.999999 0.999817
0.040000 0.999999 0.999999 0.999732
0.050000 0.999998 0.999999 0.999631
0.060000 0.999998 0.999998 0.999513
0.070000 0.999996 0.999997 0.999375
0.080000 0.999995 0.999995 0.999216
0.090000 0.999993 0.999994 0.999033
0.100000 0.999990 0.999991 0.998824
0.110000 0.999986 0.999988 0.998585
0.120000 0.999981 0.999983 0.998313
0.130000 0.999975 0.999978 0.998004
0.140000 0.999967 0.999970 0.997656
0.150000 0.999956 0.999961 0.997265
0.160000 0.999943 0.999949 0.996825
0.170000 0.999926 0.999933 0.996333
0.180000 0.999904 0.999914 0.995784
0.190000 0.999877 0.999889 0.995173
0.200000 0.999843 0.999859 0.994494
0.210000 0.999801 0.999820 0.993742
0.220000 0.999750 0.999773 0.992912
0.230000 0.999686 0.999714 0.991996
0.240000 0.999607 0.999642 0.990989
0.250000 0.999512 0.999553 0.989883
0.260000 0.999395 0.999445 0.988671
0.270000 0.999254 0.999314 0.987347
0.280000 0.999085 0.999156 0.985902
0.290000 0.998881 0.998965 0.984328
0.300000 0.998637 0.998736 0.982618
0.310000 0.998346 0.998463 0.980763
0.320000 0.998001 0.998138 0.978754
0.330000 0.997593 0.997753 0.976583
0.340000 0.997113 0.997298 0.974240
0.350000 0.996550 0.996762 0.971717
0.360000 0.995891 0.996135 0.969004
0.370000 0.995123 0.995402 0.966093
0.380000 0.994232 0.994550 0.962973
0.390000 0.993202 0.993562 0.959635
0.400000 0.992014 0.992420 0.956071
0.410000 0.990651 0.991107 0.952271
0.420000 0.989091 0.989600 0.948225
0.430000 0.987312 0.987878 0.943925
0.440000 0.985290 0.985918 0.939363
0.450000 0.983001 0.983693 0.934529
0.460000 0.980418 0.981178 0.929417
0.470000 0.977513 0.978343 0.924017
0.480000 0.974257 0.975159 0.918322
0.490000 0.970619 0.971595 0.912326
0.500000 0.966570 0.967621 0.906023
0.510000 0.962077 0.963203 0.899406
0.520000 0.957108 0.958309 0.892470
0.530000 0.951632 0.952906 0.885210
0.540000 0.945617 0.946961 0.877624
0.550000 0.939031 0.940442 0.869707
0.560000 0.931844 0.933316 0.861458
0.570000 0.924027 0.925555 0.852876
0.580000 0.915552 0.917128 0.843958
0.590000 0.906395 0.908010 0.834707
0.600000 0.896533 0.898177 0.825123
0.610000 0.885945 0.887607 0.815208
0.620000 0.874616 0.876283 0.804966
0.630000 0.862532 0.864192 0.794401
0.640000 0.849686 0.851322 0.783519
0.650000 0.836072 0.837671 0.772325
0.660000 0.821692 0.823236 0.760828
0.670000 0.806551 0.808025 0.749035
0.680000 0.790660 0.792046 0.736956
0.690000 0.774035 0.775316 0.724602
0.700000 0.756698 0.757857 0.711985
0.710000 0.738676 0.739696 0.699117
0.720000 0.720002 0.720866 0.686011
0.730000 0.700712 0.701406 0.672683
0.740000 0.680851 0.681361 0.659149
0.750000 0.660467 0.660779 0.645425
0.760000 0.639611 0.639713 0.631530
0.770000 0.618340 0.618224 0.617483
0.780000 0.596715 0.596372 0.603304
0.790000 0.574799 0.574223 0.589015
0.800000 0.552658 0.551845 0.574640
0.810000 0.530360 0.529308 0.560203
0.820000 0.507975 0.506685 0.545733
0.830000 0.485572 0.484048 0.531257
0.840000 0.463224 0.461469 0.516808
0.850000 0.440999 0.439021 0.502422
0.860000 0.418966 0.416773 0.488139
0.870000 0.397195 0.394796 0.474002
0.880000 0.375751 0.373154 0.460063
0.890000 0.354698 0.351911 0.446382
0.900000 0.334103 0.331126 0.433025
0.910000 0.314030 0.310854 0.420076
0.920000 0.294551 0.291146 0.407629
0.930000 0.275748 0.272046 0.395800
0.940000 0.257730 0.253595 0.384728
0.950000 0.240653 0.235828 0.374580
0.960000 0.224756 0.218773 0.365560
0.970000 0.210438 0.202454 0.357919
0.980000 0.198366 0.186889 0.351961
0.990000 0.189687 0.172090 0.348061
1.000000 0.186378 0.158064 0.346676
