0.000000 1.000000 1.000000 0.999989
0.010000 1.000000 1.000000 0.999976
0.020000 1.000000 1.000000 0.999947
0.030000 1.000000 1.000000 0.999913
0.040000 1.000000 1.000000 0.999872
0.050000 1.000000 1.000000 0.999823
0.060000 0.999999 1.000000 0.999767
0.070000 0.999999 0.999999 0.999701
0.080000 0.999999 0.999999 0.999624
0.090000 0.999998 0.999999 0.999536
0.100000 0.999998 0.999998 0.999435
0.110000 0.999997 0.999997 0.999319
0.120000 0.999996 0.999997 0.999187
0.130000 0.999995 0.999995 0.999037
0.140000 0.999993 0.999994 0.998867
0.150000 0.999991 0.999992 0.998675
0.160000 0.999988 0.999989 0.998460
0.170000 0.999984 0.999986 0.998218
0.180000 0.999979 0.999981 0.997946
0.190000 0.999973 0.999976 0.997644
0.200000 0.999965 0.999969 0.997306
0.210000 0.999955 0.999961 0.996931
0.220000 0.999943 0.999950 0.996515
0.230000 0.999928 0.999936 0.996054
0.240000 0.999910 0.999919 0.995545
0.250000 0.999887 0.999899 0.994984
0.260000 0.999859 0.999873 0.994367
0.270000 0.999825 0.999842 0.993689
0.280000 0.999783 0.999804 0.992945
0.290000 0.999732 0.999757 0.992132
0.300000 0.999670 0.999701 0.991243
0.310000 0.999596 0.999632 0.990274
0.320000 0.999507 0.999550 0.989219
0.330000 0.999400 0.999451 0.988073
0.340000 0.999273 0.999333 0.986829
0.350000 0.999121 0.999192 0.985481
0.360000 0.998942 0.999024 0.984023
0.370000 0.998729 0.998825 0.982449
0.380000 0.998479 0.998591 0.980752
0.390000 0.998185 0.998315 0.978925
0.400000 0.997842 0.997991 0.976961
0.410000 0.997441 0.997612 0.974852
0.420000 0.996975 0.997171 0.972592
0.430000 0.996434 0.996658 0.970174
0.440000 0.995810 0.996063 0.967589
0.450000 0.995090 0.995377 0.964830
0.460000 0.994264 0.994587 0.961891
0.470000 0.993318 0.993681 0.958762
0.480000 0.992238 0.992644 0.955438
0.490000 0.991009 0.991461 0.951909
0.500000 0.989614 0.990116 0.948170
0.510000 0.988037 0.988592 0.944212
0.520000 0.986257 0.986869 0.940029
0.530000 0.984256 0.984927 0.935614
0.540000 0.982013 0.982746 0.930960
0.550000 0.979505 0.980303 0.926060
0.560000 0.976709 0.977575 0.920909
0.570000 0.973602 0.974537 0.915501
0.580000 0.970160 0.971165 0.909829
0.590000 0.966356 0.967433 0.903890
0.600000 0.962165 0.963314 0.897679
0.610000 0.957561 0.958781 0.891191
0.620000 0.952519 0.953809 0.884423
0.630000 0.947011 0.948369 0.877372
0.640000 0.941013 0.942436 0.870035
0.650000 0.934500 0.935984 0.862411
0.660000 0.927446 0.928986 0.854498
0.670000 0.919830 0.921421 0.846297
0.680000 0.911630 0.913263 0.837807
0.690000 0.902826 0.904494 0.829030
0.700000 0.893400 0.895095 0.819968
0.710000 0.883337 0.885048 0.810623
0.720000 0.872625 0.874340 0.801000
0.730000 0.861252 0.862960 0.791104
0.740000 0.849214 0.850902 0.780940
0.750000 0.836505 0.838160 0.770517
0.760000 0.823128 0.824735 0.759841
0.770000 0.809085 0.810631 0.748925
0.780000 0.794385 0.795854 0.737778
0.790000 0.779040 0.780417 0.726415
0.800000 0.763067 0.764337 0.714851
0.810000 0.746486 0.747635 0.703103
0.820000 0.729322 0.730334 0.691192
0.830000 0.711604 0.712465 0.679142
0.840000 0.693366 0.694061 0.666980
0.850000 0.674644 0.675160 0.654737
0.860000 0.655481 0.655803 0.642449
0.870000 0.635923 0.636035 0.630161
0.880000 0.616022 0.615904 0.617922
0.890000 0.595834 0.595462 0.605792
0.900000 0.575425 0.574761 0.593841
0.910000 0.554872 0.553858 0.582153
0.920000 0.534270 0.532809 0.570827
0.930000 0.513744 0.511674 0.559985
0.940000 0.493463 0.490512 0.549768
0.950000 0.473680 0.469381 0.540350
0.960000 0.454779 0.448342 0.531938
0.970000 0.437367 0.427451 0.524783
0.980000 0.422423 0.406767 0.519187
0.990000 0.411548 0.386345 0.515516
1.000000 0.407377 0.366237 0.514211
