0.000000 1.000000 1.000000 0.999960
0.010000 1.000000 1.000000 0.999911
0.020000 0.999999 0.999999 0.999803
0.030000 0.999998 0.999998 0.999674
0.040000 0.999997 0.999997 0.999522
0.050000 0.999994 0.999995 0.999342
0.060000 0.999992 0.999993 0.999132
0.070000 0.999988 0.999989 0.998888
0.080000 0.999983 0.999985 0.998606
0.090000 0.999976 0.999978 0.998282
0.100000 0.999966 0.999970 0.997912
0.110000 0.999954 0.999959 0.997490
0.120000 0.999938 0.999944 0.997012
0.130000 0.999918 0.999926 0.996471
0.140000 0.999891 0.999902 0.995862
0.150000 0.999857 0.999871 0.995179
0.160000 0.999815 0.999832 0.994413
0.170000 0.999761 0.999782 0.993560
0.180000 0.999693 0.999720 0.992610
0.190000 0.999609 0.999642 0.991556
0.200000 0.999505 0.999545 0.990391
0.210000 0.999376 0.999426 0.989104
0.220000 0.999218 0.999279 0.987687
0.230000 0.999026 0.999099 0.986132
0.240000 0.998791 0.998879 0.984427
0.250000 0.998508 0.998613 0.982564
0.260000 0.998168 0.998292 0.980532
0.270000 0.997760 0.997906 0.978320
0.280000 0.997273 0.997445 0.975917
0.290000 0.996695 0.996896 0.973314
0.300000 0.996011 0.996244 0.970498
0.310000 0.995206 0.995475 0.967459
0.320000 0.994262 0.994572 0.964185
0.330000 0.993159 0.993514 0.960665
0.340000 0.991878 0.992280 0.956888
0.350000 0.990393 0.990849 0.952843
0.360000 0.988681 0.989193 0.948519
0.370000 0.986714 0.987287 0.943905
0.380000 0.984463 0.985102 0.938991
0.390000 0.981897 0.982605 0.933767
0.400000 0.978984 0.979764 0.928223
0.410000 0.975691 0.976545 0.922351
0.420000 0.971980 0.972911 0.916141
0.430000 0.967816 0.968826 0.909585
0.440000 0.963161 0.964249 0.902677
0.450000 0.957978 0.959143 0.895410
0.460000 0.952227 0.953469 0.887778
0.470000 0.945871 0.947186 0.879776
0.480000 0.938872 0.940256 0.871402
0.490000 0.931194 0.932641 0.862651
0.500000 0.922803 0.924306 0.853523
0.510000 0.913667 0.915217 0.844017
0.520000 0.903756 0.905342 0.834133
0.530000 0.893043 0.894655 0.823873
0.540000 0.881507 0.883131 0.813240
0.550000 0.869130 0.870751 0.802239
0.560000 0.855898 0.857501 0.790874
0.570000 0.841805 0.843372 0.779154
0.580000 0.826849 0.828362 0.767085
0.590000 0.811034 0.812476 0.754678
0.600000 0.794372 0.795722 0.741943
0.610000 0.776880 0.778120 0.728892
0.620000 0.758583 0.759694 0.715539
0.630000 0.739514 0.740476 0.701897
0.640000 0.719709 0.720505 0.687982
0.650000 0.699215 0.699827 0.673812
0.660000 0.678084 0.678497 0.659404
0.670000 0.656373 0.656572 0.644776
0.680000 0.634146 0.634118 0.629948
0.690000 0.611471 0.611207 0.614942
0.700000 0.588421 0.587912 0.599777
0.710000 0.565074 0.564315 0.584477
0.720000 0.541508 0.540496 0.569065
0.730000 0.517807 0.516541 0.553563
0.740000 0.494053 0.492537 0.537995
0.750000 0.470330 0.468568 0.522386
0.760000 0.446721 0.444722 0.506760
0.770000 0.423310 0.421083 0.491143
0.780000 0.400175 0.397734 0.475560
0.790000 0.377393 0.374754 0.460037
0.800000 0.355039 0.352217 0.444600
0.810000 0.333180 0.330195 0.429277
0.820000 0.311881 0.308753 0.414094
0.830000 0.291199 0.287950 0.399080
0.840000 0.271188 0.267839 0.384265
0.850000 0.251893 0.248468 0.369681
0.860000 0.233354 0.229874 0.355362
0.870000 0.215604 0.212090 0.341344
0.880000 0.198669 0.195143 0.327669
0.890000 0.182569 0.179050 0.314383
0.900000 0.167320 0.163822 0.301541
0.910000 0.152932 0.149464 0.289205
0.920000 0.139414 0.135974 0.277452
0.930000 0.126776 0.123346 0.266371
0.940000 0.115037 0.111566 0.256074
0.950000 0.104236 0.100615 0.246697
0.960000 0.094454 0.090473 0.238409
0.970000 0.085852 0.081112 0.231419
0.980000 0.078739 0.072503 0.225987
0.990000 0.073693 0.064613 0.222439
1.000000 0.071781 0.057408 0.221181
