0.000000 1.000000 1.000000 0.998071
0.010000 0.999134 0.999173 0.995696
0.020000 0.997813 0.997905 0.990522
0.030000 0.995897 0.996056 0.984398
0.040000 0.993220 0.993461 0.977244
0.050000 0.989592 0.989930 0.968986
0.060000 0.984799 0.985247 0.959552
0.070000 0.978610 0.979175 0.948880
0.080000 0.970777 0.971463 0.936913
0.090000 0.961047 0.961851 0.923606
0.100000 0.949167 0.950076 0.908924
0.110000 0.934895 0.935889 0.892845
0.120000 0.918015 0.919061 0.875361
0.130000 0.898343 0.899400 0.856477
0.140000 0.875745 0.876761 0.836215
0.150000 0.850144 0.851059 0.814613
0.160000 0.821531 0.822278 0.791723
0.170000 0.789971 0.790482 0.767615
0.180000 0.755611 0.755818 0.742371
0.190000 0.718677 0.718515 0.716092
0.200000 0.679470 0.678885 0.688889
0.210000 0.638366 0.637314 0.660885
0.220000 0.595798 0.594251 0.632215
0.230000 0.552244 0.550191 0.603020
0.240000 0.508216 0.505665 0.573451
0.250000 0.464235 0.461213 0.543660
0.260000 0.420820 0.417371 0.513801
0.270000 0.378464 0.374649 0.484029
0.280000 0.337623 0.333515 0.454497
0.290000 0.298698 0.294379 0.425351
0.300000 0.262027 0.257585 0.396731
0.310000 0.227876 0.223399 0.368769
0.320000 0.196437 0.192008 0.341585
0.330000 0.167823 0.163521 0.315290
0.340000 0.142078 0.137969 0.289980
0.350000 0.119177 0.115317 0.265737
0.360000 0.099036 0.095468 0.242631
0.370000 0.081523 0.078276 0.220714
0.380000 0.066468 0.063557 0.200027
0.390000 0.053671 0.051101 0.180596
0.400000 0.042917 0.040679 0.162432
0.410000 0.033981 0.032061 0.145534
0.420000 0.026639 0.025015 0.129889
0.430000 0.020675 0.019321 0.115474
0.440000 0.015885 0.014772 0.102256
0.450000 0.012081 0.011178 0.090193
0.460000 0.009095 0.008372 0.079236
0.470000 0.006776 0.006206 0.069331
0.480000 0.004996 0.004552 0.060421
0.490000 0.003646 0.003305 0.052442
0.500000 0.002633 0.002374 0.045331
0.510000 0.001881 0.001688 0.039024
0.520000 0.001330 0.001187 0.033457
0.530000 0.000930 0.000826 0.028565
0.540000 0.000644 0.000569 0.024287
0.550000 0.000440 0.000388 0.020564
0.560000 0.000298 0.000261 0.017338
0.570000 0.000200 0.000174 0.014558
0.580000 0.000132 0.000115 0.012171
0.590000 0.000087 0.000075 0.010133
0.600000 0.000056 0.000048 0.008400
0.610000 0.000036 0.000031 0.006934
0.620000 0.000023 0.000020 0.005699
0.630000 0.000014 0.000012 0.004664
0.640000 0.000009 0.000008 0.003801
0.650000 0.000005 0.000005 0.003084
0.660000 0.000003 0.000003 0.002491
0.670000 0.000002 0.000002 0.002004
0.680000 0.000001 0.000001 0.001605
0.690000 0.000001 0.000001 0.001280
0.700000 0.000000 0.000000 0.001016
0.710000 0.000000 0.000000 0.000803
0.720000 0.000000 0.000000 0.000632
0.730000 0.000000 0.000000 0.000495
0.740000 0.000000 0.000000 0.000386
0.750000 0.000000 0.000000 0.000300
0.760000 0.000000 0.000000 0.000232
0.770000 0.000000 0.000000 0.000178
0.780000 0.000000 0.000000 0.000137
0.790000 0.000000 0.000000 0.000104
0.800000 0.000000 0.000000 0.000079
0.810000 0.000000 0.000000 0.000060
0.820000 0.000000 0.000000 0.000045
0.830000 0.000000 0.000000 0.000034
0.840000 0.000000 0.000000 0.000025
0.850000 0.000000 0.000000 0.000019
0.860000 0.000000 0.000000 0.000014
0.870000 0.000000 0.000000 0.000010
0.880000 0.000000 0.000000 0.000007
0.890000 0.000000 0.000000 0.000005
0.900000 0.000000 0.000000 0.000004
0.910000 0.000000 0.000000 0.000003
0.920000 0.000000 0.000000 0.000002
0.930000 0.000000 0.000000 0.000001
0.940000 0.000000 0.000000 0.000001
0.950000 0.000000 0.000000 0.000001
0.960000 0.000000 0.000000 0.000001
0.970000 0.000000 0.000000 0.000000
0.980000 0.000000 0.000000 0.000000
0.990000 0.000000 0.000000 0.000000
1.000000 0.000000 0.000000 0.000000
