0.000000 1.000000 1.000000 0.999869
0.010000 0.999995 0.999996 0.999708
0.020000 0.999988 0.999989 0.999355
0.030000 0.999976 0.999979 0.998934
0.040000 0.999960 0.999964 0.998436
0.050000 0.999937 0.999943 0.997852
0.060000 0.999906 0.999914 0.997171
0.070000 0.999863 0.999875 0.996384
0.080000 0.999806 0.999822 0.995479
0.090000 0.999730 0.999752 0.994444
0.100000 0.999630 0.999659 0.993266
0.110000 0.999501 0.999539 0.991933
0.120000 0.999335 0.999384 0.990429
0.130000 0.999124 0.999186 0.988742
0.140000 0.998856 0.998935 0.986854
0.150000 0.998521 0.998618 0.984752
0.160000 0.998104 0.998224 0.982418
0.170000 0.997588 0.997734 0.979835
0.180000 0.996954 0.997131 0.976988
0.190000 0.996181 0.996394 0.973858
0.200000 0.995244 0.995497 0.970428
0.210000 0.994116 0.994414 0.966680
0.220000 0.992765 0.993114 0.962598
0.230000 0.991156 0.991562 0.958164
0.240000 0.989253 0.989721 0.953360
0.250000 0.987014 0.987549 0.948170
0.260000 0.984394 0.985002 0.942578
0.270000 0.981346 0.982031 0.936568
0.280000 0.977818 0.978584 0.930125
0.290000 0.973758 0.974608 0.923236
0.300000 0.969110 0.970045 0.915888
0.310000 0.963816 0.964838 0.908069
0.320000 0.957818 0.958926 0.899769
0.330000 0.951059 0.952249 0.890979
0.340000 0.943479 0.944748 0.881693
0.350000 0.935024 0.936363 0.871904
0.360000 0.925638 0.927040 0.861610
0.370000 0.915273 0.916725 0.850809
0.380000 0.903882 0.905372 0.839500
0.390000 0.891426 0.892937 0.827688
0.400000 0.877873 0.879387 0.815377
0.410000 0.863198 0.864694 0.802573
0.420000 0.847385 0.848842 0.789286
0.430000 0.830429 0.831824 0.775527
0.440000 0.812336 0.813644 0.761311
0.450000 0.793121 0.794316 0.746653
0.460000 0.772813 0.773871 0.731573
0.470000 0.751453 0.752347 0.716090
0.480000 0.729092 0.729799 0.700226
0.490000 0.705794 0.706291 0.684008
0.500000 0.681637 0.681901 0.667460
0.510000 0.656705 0.656719 0.650612
0.520000 0.631095 0.630842 0.633494
0.530000 0.604913 0.604381 0.616136
0.540000 0.578269 0.577449 0.598571
0.550000 0.551285 0.550171 0.580834
0.560000 0.524081 0.522673 0.562958
0.570000 0.496784 0.495085 0.544979
0.580000 0.469521 0.467539 0.526934
0.590000 0.442419 0.440165 0.508857
0.600000 0.415600 0.413089 0.490786
0.610000 0.389185 0.386437 0.472757
0.620000 0.363287 0.360324 0.454805
0.630000 0.338014 0.334860 0.436965
0.640000 0.313463 0.310147 0.419273
0.650000 0.289724 0.286274 0.401761
0.660000 0.266876 0.263321 0.384462
0.670000 0.244985 0.241357 0.367408
0.680000 0.224108 0.220437 0.350627
0.690000 0.204288 0.200605 0.334148
0.700000 0.185559 0.181893 0.317998
0.710000 0.167941 0.164318 0.302200
0.720000 0.151444 0.147890 0.286777
0.730000 0.136067 0.132605 0.271750
0.740000 0.121799 0.118450 0.257137
0.750000 0.108620 0.105402 0.242955
0.760000 0.096503 0.093430 0.229218
0.770000 0.085413 0.082498 0.215937
0.780000 0.075310 0.072561 0.203124
0.790000 0.066146 0.063570 0.190786
0.800000 0.057873 0.055473 0.178928
0.810000 0.050437 0.048215 0.167556
0.820000 0.043785 0.041739 0.156671
0.830000 0.037861 0.035988 0.146275
0.840000 0.032608 0.030904 0.136366
0.850000 0.027973 0.026430 0.126945
0.860000 0.023901 0.022512 0.118007
0.870000 0.020339 0.019096 0.109551
0.880000 0.017239 0.016132 0.101575
0.890000 0.014552 0.013572 0.094076
0.900000 0.012234 0.011371 0.087054
0.910000 0.010244 0.009487 0.080513
0.920000 0.008542 0.007883 0.074459
0.930000 0.007096 0.006522 0.068905
0.940000 0.005872 0.005374 0.063870
0.950000 0.004845 0.004409 0.059385
0.960000 0.003991 0.003602 0.055497
0.970000 0.003298 0.002930 0.052269
0.980000 0.002760 0.002374 0.049791
0.990000 0.002396 0.001915 0.048185
1.000000 0.002261 0.001538 0.047619
