0.000000 1.000000 1.000000 0.999982
0.010000 1.000000 1.000000 0.999960
0.020000 1.000000 1.000000 0.999912
0.030000 1.000000 1.000000 0.999855
0.040000 0.999999 0.999999 0.999787
0.050000 0.999999 0.999999 0.999706
0.060000 0.999998 0.999999 0.999612
0.070000 0.999998 0.999998 0.999502
0.080000 0.999997 0.999997 0.999376
0.090000 0.999995 0.999996 0.999230
0.100000 0.999994 0.999994 0.999062
0.110000 0.999991 0.999992 0.998871
0.120000 0.999988 0.999990 0.998654
0.130000 0.999984 0.999986 0.998407
0.140000 0.999979 0.999982 0.998128
0.150000 0.999973 0.999976 0.997814
0.160000 0.999964 0.999968 0.997461
0.170000 0.999953 0.999959 0.997066
0.180000 0.999940 0.999946 0.996624
0.190000 0.999923 0.999931 0.996132
0.200000 0.999901 0.999911 0.995585
0.210000 0.999875 0.999887 0.994978
0.220000 0.999841 0.999857 0.994307
0.230000 0.999800 0.999819 0.993565
0.240000 0.999750 0.999773 0.992749
0.250000 0.999688 0.999716 0.991851
0.260000 0.999613 0.999647 0.990866
0.270000 0.999521 0.999562 0.989788
0.280000 0.999411 0.999460 0.988610
0.290000 0.999277 0.999336 0.987324
0.300000 0.999117 0.999186 0.985925
0.310000 0.998925 0.999007 0.984404
0.320000 0.998696 0.998793 0.982755
0.330000 0.998425 0.998538 0.980969
0.340000 0.998104 0.998236 0.979038
0.350000 0.997725 0.997878 0.976955
0.360000 0.997281 0.997458 0.974710
0.370000 0.996760 0.996964 0.972296
0.380000 0.996153 0.996387 0.969704
0.390000 0.995448 0.995714 0.966925
0.400000 0.994630 0.994933 0.963951
0.410000 0.993687 0.994029 0.960772
0.420000 0.992601 0.992988 0.957381
0.430000 0.991357 0.991790 0.953768
0.440000 0.989935 0.990419 0.949926
0.450000 0.988315 0.988854 0.945845
0.460000 0.986477 0.987073 0.941518
0.470000 0.984397 0.985054 0.936936
0.480000 0.982051 0.982773 0.932091
0.490000 0.979414 0.980204 0.926977
0.500000 0.976460 0.977319 0.921586
0.510000 0.973161 0.974092 0.915911
0.520000 0.969488 0.970493 0.909946
0.530000 0.965413 0.966492 0.903685
0.540000 0.960906 0.962059 0.897123
0.550000 0.955937 0.957163 0.890256
0.560000 0.950476 0.951773 0.883078
0.570000 0.944493 0.945859 0.875588
0.580000 0.937959 0.939390 0.867781
0.590000 0.930846 0.932338 0.859657
0.600000 0.923127 0.924672 0.851213
0.610000 0.914776 0.916368 0.842450
0.620000 0.905770 0.907401 0.833369
0.630000 0.896088 0.897747 0.823969
0.640000 0.885711 0.887388 0.814254
0.650000 0.874624 0.876307 0.804227
0.660000 0.862815 0.864491 0.793892
0.670000 0.850276 0.851931 0.783254
0.680000 0.837003 0.838622 0.772320
0.690000 0.822995 0.824564 0.761095
0.700000 0.808259 0.809760 0.749590
0.710000 0.792803 0.794221 0.737812
0.720000 0.776642 0.777961 0.725772
0.730000 0.759795 0.760998 0.713482
0.740000 0.742287 0.743358 0.700953
0.750000 0.724148 0.725071 0.688201
0.760000 0.705412 0.706172 0.675239
0.770000 0.686117 0.686701 0.662085
0.780000 0.666308 0.666703 0.648755
0.790000 0.646033 0.646227 0.635270
0.800000 0.625344 0.625326 0.621649
0.810000 0.604295 0.604059 0.607918
0.820000 0.582946 0.582484 0.594099
0.830000 0.561358 0.560665 0.580223
0.840000 0.539594 0.538667 0.566320
0.850000 0.517720 0.516557 0.552425
0.860000 0.495801 0.494403 0.538577
0.870000 0.473905 0.472273 0.524823
0.880000 0.452102 0.450234 0.511214
0.890000 0.430460 0.428353 0.497812
0.900000 0.409053 0.406697 0.484686
0.910000 0.387957 0.385328 0.471922
0.920000 0.367259 0.364307 0.459618
0.930000 0.347064 0.343692 0.447896
0.940000 0.327510 0.323536 0.436897
0.950000 0.308792 0.303890 0.426796
0.960000 0.291211 0.284799 0.417803
0.970000 0.275252 0.266304 0.410174
0.980000 0.261713 0.248441 0.404218
0.990000 0.251938 0.231241 0.400317
1.000000 0.248203 0.214729 0.398932
