0.000000 1.000000 1.000000 0.999985
0.010000 1.000000 1.000000 0.999967
0.020000 1.000000 1.000000 0.999927
0.030000 1.000000 1.000000 0.999879
0.040000 1.000000 1.000000 0.999822
0.050000 0.999999 0.999999 0.999755
0.060000 0.999999 0.999999 0.999677
0.070000 0.999998 0.999999 0.999586
0.080000 0.999998 0.999998 0.999480
0.090000 0.999997 0.999997 0.999359
0.100000 0.999996 0.999996 0.999219
0.110000 0.999994 0.999995 0.999059
0.120000 0.999992 0.999993 0.998878
0.130000 0.999989 0.999991 0.998671
0.140000 0.999986 0.999988 0.998438
0.150000 0.999981 0.999984 0.998175
0.160000 0.999975 0.999978 0.997880
0.170000 0.999968 0.999972 0.997549
0.180000 0.999959 0.999963 0.997178
0.190000 0.999947 0.999953 0.996765
0.200000 0.999932 0.999939 0.996305
0.210000 0.999914 0.999923 0.995795
0.220000 0.999890 0.999902 0.995230
0.230000 0.999862 0.999876 0.994605
0.240000 0.999827 0.999844 0.993916
0.250000 0.999783 0.999804 0.993158
0.260000 0.999731 0.999756 0.992325
0.270000 0.999666 0.999696 0.991413
0.280000 0.999588 0.999624 0.990414
0.290000 0.999493 0.999537 0.989323
0.300000 0.999380 0.999431 0.988134
0.310000 0.999243 0.999304 0.986841
0.320000 0.999080 0.999152 0.985436
0.330000 0.998885 0.998970 0.983912
0.340000 0.998654 0.998754 0.982263
0.350000 0.998381 0.998498 0.980480
0.360000 0.998059 0.998194 0.978557
0.370000 0.997681 0.997837 0.976485
0.380000 0.997238 0.997418 0.974257
0.390000 0.996721 0.996928 0.971864
0.400000 0.996121 0.996357 0.969300
0.410000 0.995424 0.995693 0.966554
0.420000 0.994620 0.994925 0.963620
0.430000 0.993694 0.994038 0.960489
0.440000 0.992631 0.993018 0.957152
0.450000 0.991416 0.991849 0.953602
0.460000 0.990030 0.990513 0.949830
0.470000 0.988455 0.988991 0.945828
0.480000 0.986670 0.987263 0.941589
0.490000 0.984654 0.985308 0.937106
0.500000 0.982385 0.983102 0.932369
0.510000 0.979839 0.980622 0.927373
0.520000 0.976990 0.977842 0.922111
0.530000 0.973813 0.974736 0.916576
0.540000 0.970281 0.971276 0.910763
0.550000 0.966367 0.967435 0.904665
0.560000 0.962042 0.963183 0.898277
0.570000 0.957277 0.958491 0.891595
0.580000 0.952045 0.953330 0.884616
0.590000 0.946318 0.947671 0.877335
0.600000 0.940066 0.941485 0.869749
0.610000 0.933263 0.934744 0.861858
0.620000 0.925884 0.927420 0.853659
0.630000 0.917902 0.919488 0.845152
0.640000 0.909296 0.910923 0.836337
0.650000 0.900044 0.901704 0.827216
0.660000 0.890128 0.891810 0.817789
0.670000 0.879531 0.881225 0.808061
0.680000 0.868241 0.869934 0.798035
0.690000 0.856249 0.857928 0.787715
0.700000 0.843548 0.845201 0.777107
0.710000 0.830138 0.831748 0.766218
0.720000 0.816019 0.817573 0.755055
0.730000 0.801200 0.802681 0.743628
0.740000 0.785691 0.787083 0.731947
0.750000 0.769508 0.770796 0.720022
0.760000 0.752672 0.753840 0.707867
0.770000 0.735208 0.736240 0.695495
0.780000 0.717146 0.718028 0.682922
0.790000 0.698520 0.699237 0.670164
0.800000 0.679369 0.679909 0.657242
0.810000 0.659737 0.660086 0.644175
0.820000 0.639669 0.639818 0.630989
0.830000 0.619218 0.619156 0.617709
0.840000 0.598436 0.598155 0.604366
0.850000 0.577380 0.576873 0.590993
0.860000 0.556111 0.555372 0.577630
0.870000 0.534690 0.533712 0.564322
0.880000 0.513184 0.511959 0.551121
0.890000 0.491659 0.490176 0.538088
0.900000 0.470191 0.468429 0.525294
0.910000 0.448859 0.446781 0.512825
0.920000 0.427758 0.425296 0.500782
0.930000 0.407003 0.404036 0.489286
0.940000 0.386750 0.383061 0.478482
0.950000 0.367223 0.362429 0.468545
0.960000 0.348760 0.342193 0.459687
0.970000 0.331904 0.322405 0.452164
0.980000 0.317540 0.303112 0.446287
0.990000 0.307137 0.284358 0.442435
1.000000 0.303156 0.266180 0.441067
