0.000000 1.000000 1.000000 0.999990
0.010000 1.000000 1.000000 0.999977
0.020000 1.000000 1.000000 0.999950
0.030000 1.000000 1.000000 0.999917
0.040000 1.000000 1.000000 0.999878
0.050000 1.000000 1.000000 0.999832
0.060000 1.000000 1.000000 0.999778
0.070000 0.999999 0.999999 0.999715
0.080000 0.999999 0.999999 0.999642
0.090000 0.999999 0.999999 0.999558
0.100000 0.999998 0.999998 0.999461
0.110000 0.999997 0.999998 0.999351
0.120000 0.999996 0.999997 0.999225
0.130000 0.999995 0.999996 0.999082
0.140000 0.999994 0.999994 0.998920
0.150000 0.999991 0.999993 0.998737
0.160000 0.999989 0.999990 0.998531
0.170000 0.999985 0.999987 0.998300
0.180000 0.999981 0.999983 0.998042
0.190000 0.999975 0.999978 0.997752
0.200000 0.999968 0.999972 0.997430
0.210000 0.999960 0.999964 0.997072
0.220000 0.999949 0.999955 0.996674
0.230000 0.999935 0.999942 0.996234
0.240000 0.999918 0.999927 0.995748
0.250000 0.999898 0.999908 0.995212
0.260000 0.999872 0.999885 0.994621
0.270000 0.999841 0.999857 0.993973
0.280000 0.999803 0.999822 0.993261
0.290000 0.999756 0.999780 0.992483
0.300000 0.999700 0.999728 0.991632
0.310000 0.999633 0.999666 0.990704
0.320000 0.999551 0.999591 0.989694
0.330000 0.999454 0.999501 0.988595
0.340000 0.999337 0.999393 0.987403
0.350000 0.999199 0.999264 0.986111
0.360000 0.999034 0.999111 0.984713
0.370000 0.998839 0.998929 0.983202
0.380000 0.998610 0.998714 0.981573
0.390000 0.998340 0.998461 0.979819
0.400000 0.998025 0.998163 0.977932
0.410000 0.997656 0.997816 0.975906
0.420000 0.997227 0.997410 0.973733
0.430000 0.996729 0.996938 0.971407
0.440000 0.996153 0.996390 0.968921
0.450000 0.995489 0.995758 0.966265
0.460000 0.994725 0.995028 0.963435
0.470000 0.993850 0.994191 0.960421
0.480000 0.992850 0.993232 0.957216
0.490000 0.991710 0.992137 0.953814
0.500000 0.990416 0.990890 0.950207
0.510000 0.988950 0.989475 0.946387
0.520000 0.987294 0.987874 0.942348
0.530000 0.985431 0.986068 0.938083
0.540000 0.983339 0.984036 0.933584
0.550000 0.980997 0.981758 0.928846
0.560000 0.978384 0.979211 0.923862
0.570000 0.975476 0.976371 0.918626
0.580000 0.972250 0.973215 0.913133
0.590000 0.968681 0.969716 0.907377
0.600000 0.964743 0.965850 0.901354
0.610000 0.960412 0.961590 0.895059
0.620000 0.955661 0.956910 0.888489
0.630000 0.950466 0.951784 0.881640
0.640000 0.944799 0.946184 0.874510
0.650000 0.938637 0.940085 0.867095
0.660000 0.931954 0.933461 0.859396
0.670000 0.924728 0.926289 0.851411
0.680000 0.916936 0.918544 0.843140
0.690000 0.908557 0.910206 0.834584
0.700000 0.899573 0.901254 0.825744
0.710000 0.889967 0.891671 0.816623
0.720000 0.879724 0.881440 0.807224
0.730000 0.868834 0.870551 0.797553
0.740000 0.857287 0.858993 0.787613
0.750000 0.845077 0.846759 0.777413
0.760000 0.832203 0.833848 0.766959
0.770000 0.818667 0.820259 0.756262
0.780000 0.804473 0.805999 0.745333
0.790000 0.789631 0.791076 0.734184
0.800000 0.774154 0.775503 0.722830
0.810000 0.758060 0.759298 0.711289
0.820000 0.741370 0.742483 0.699580
0.830000 0.724111 0.725082 0.687727
0.840000 0.706312 0.707128 0.675755
0.850000 0.688008 0.688654 0.663697
0.860000 0.669238 0.669698 0.651588
0.870000 0.650045 0.650302 0.639471
0.880000 0.630478 0.630512 0.627396
0.890000 0.610592 0.610375 0.615422
0.900000 0.590451 0.589944 0.603618
0.910000 0.570129 0.569271 0.592070
0.920000 0.549721 0.548412 0.580875
0.930000 0.529351 0.527424 0.570152
0.940000 0.509191 0.506365 0.560046
0.950000 0.489493 0.485294 0.550726
0.960000 0.470647 0.464268 0.542399
0.970000 0.453263 0.443347 0.535315
0.980000 0.438330 0.422587 0.529774
0.990000 0.427455 0.402045 0.526138
1.000000 0.423283 0.381775 0.524846
