0.000000 1.000000 1.000000 0.999985
0.010000 1.000000 1.000000 0.999966
0.020000 1.000000 1.000000 0.999926
0.030000 1.000000 1.000000 0.999877
0.040000 1.000000 1.000000 0.999819
0.050000 0.999999 0.999999 0.999751
0.060000 0.999999 0.999999 0.999672
0.070000 0.999998 0.999999 0.999579
0.080000 0.999998 0.999998 0.999472
0.090000 0.999997 0.999997 0.999348
0.100000 0.999996 0.999996 0.999206
0.110000 0.999994 0.999995 0.999044
0.120000 0.999992 0.999993 0.998859
0.130000 0.999989 0.999990 0.998650
0.140000 0.999985 0.999987 0.998413
0.150000 0.999981 0.999983 0.998146
0.160000 0.999975 0.999978 0.997846
0.170000 0.999967 0.999971 0.997509
0.180000 0.999957 0.999962 0.997133
0.190000 0.999945 0.999951 0.996713
0.200000 0.999930 0.999937 0.996246
0.210000 0.999911 0.999920 0.995728
0.220000 0.999887 0.999898 0.995154
0.230000 0.999857 0.999872 0.994520
0.240000 0.999821 0.999838 0.993820
0.250000 0.999776 0.999798 0.993051
0.260000 0.999722 0.999747 0.992205
0.270000 0.999655 0.999686 0.991279
0.280000 0.999575 0.999612 0.990265
0.290000 0.999477 0.999522 0.989159
0.300000 0.999360 0.999413 0.987952
0.310000 0.999219 0.999282 0.986640
0.320000 0.999051 0.999125 0.985215
0.330000 0.998850 0.998938 0.983669
0.340000 0.998612 0.998715 0.981996
0.350000 0.998331 0.998450 0.980189
0.360000 0.998000 0.998138 0.978239
0.370000 0.997610 0.997771 0.976138
0.380000 0.997155 0.997339 0.973880
0.390000 0.996624 0.996835 0.971455
0.400000 0.996006 0.996248 0.968856
0.410000 0.995290 0.995565 0.966074
0.420000 0.994464 0.994776 0.963102
0.430000 0.993513 0.993865 0.959930
0.440000 0.992422 0.992817 0.956551
0.450000 0.991175 0.991617 0.952956
0.460000 0.989753 0.990246 0.949137
0.470000 0.988138 0.988685 0.945087
0.480000 0.986309 0.986913 0.940797
0.490000 0.984244 0.984909 0.936260
0.500000 0.981920 0.982649 0.931468
0.510000 0.979313 0.980109 0.926414
0.520000 0.976399 0.977264 0.921092
0.530000 0.973149 0.974085 0.915496
0.540000 0.969538 0.970547 0.909618
0.550000 0.965538 0.966620 0.903454
0.560000 0.961120 0.962275 0.896999
0.570000 0.956256 0.957484 0.890248
0.580000 0.950918 0.952216 0.883197
0.590000 0.945076 0.946443 0.875843
0.600000 0.938703 0.940134 0.868184
0.610000 0.931772 0.933264 0.860217
0.620000 0.924256 0.925803 0.851942
0.630000 0.916132 0.917727 0.843357
0.640000 0.907377 0.909011 0.834464
0.650000 0.897970 0.899634 0.825264
0.660000 0.887892 0.889577 0.815758
0.670000 0.877130 0.878823 0.805950
0.680000 0.865669 0.867360 0.795843
0.690000 0.853503 0.855177 0.785443
0.700000 0.840625 0.842268 0.774756
0.710000 0.827036 0.828633 0.763788
0.720000 0.812737 0.814274 0.752547
0.730000 0.797738 0.799199 0.741043
0.740000 0.782050 0.783419 0.729286
0.750000 0.765691 0.766951 0.717286
0.760000 0.748682 0.749818 0.705058
0.770000 0.731050 0.732046 0.692614
0.780000 0.712825 0.713668 0.679972
0.790000 0.694044 0.694718 0.667147
0.800000 0.674746 0.675239 0.654160
0.810000 0.654975 0.655276 0.641032
0.820000 0.634781 0.634878 0.627786
0.830000 0.614213 0.614098 0.614449
0.840000 0.593328 0.592992 0.601052
0.850000 0.572183 0.571619 0.587629
0.860000 0.550838 0.550040 0.574219
0.870000 0.529356 0.528319 0.560867
0.880000 0.507803 0.506520 0.547625
0.890000 0.486248 0.484708 0.534554
0.900000 0.464764 0.462947 0.521726
0.910000 0.443432 0.441302 0.509226
0.920000 0.422346 0.419837 0.497155
0.930000 0.401620 0.398613 0.485634
0.940000 0.381409 0.377690 0.474809
0.950000 0.361934 0.357125 0.464853
0.960000 0.343532 0.336971 0.455979
0.970000 0.326739 0.317280 0.448443
0.980000 0.312434 0.298097 0.442557
0.990000 0.302077 0.279464 0.438699
1.000000 0.298114 0.261420 0.437329
