0.000000 1.000000 1.000000 0.999901
0.010000 0.999997 0.999998 0.999778
0.020000 0.999993 0.999994 0.999510
0.030000 0.999986 0.999988 0.999190
0.040000 0.999977 0.999979 0.998811
0.050000 0.999964 0.999968 0.998366
0.060000 0.999946 0.999951 0.997848
0.070000 0.999921 0.999929 0.997247
0.080000 0.999888 0.999898 0.996556
0.090000 0.999844 0.999858 0.995764
0.100000 0.999786 0.999804 0.994862
0.110000 0.999710 0.999734 0.993840
0.120000 0.999613 0.999644 0.992684
0.130000 0.999488 0.999528 0.991385
0.140000 0.999330 0.999380 0.989930
0.150000 0.999130 0.999193 0.988304
0.160000 0.998881 0.998959 0.986496
0.170000 0.998571 0.998667 0.984491
0.180000 0.998188 0.998305 0.982275
0.190000 0.997718 0.997860 0.979833
0.200000 0.997145 0.997315 0.977150
0.210000 0.996450 0.996653 0.974210
0.220000 0.995612 0.995853 0.970998
0.230000 0.994609 0.994892 0.967499
0.240000 0.993412 0.993743 0.963697
0.250000 0.991994 0.992377 0.959575
0.260000 0.990322 0.990762 0.955120
0.270000 0.988360 0.988863 0.950314
0.280000 0.986072 0.986642 0.945145
0.290000 0.983415 0.984057 0.939597
0.300000 0.980346 0.981064 0.933657
0.310000 0.976818 0.977617 0.927311
0.320000 0.972784 0.973665 0.920548
0.330000 0.968193 0.969158 0.913356
0.340000 0.962994 0.964043 0.905726
0.350000 0.957133 0.958266 0.897647
0.360000 0.950560 0.951773 0.889114
0.370000 0.943220 0.944510 0.880118
0.380000 0.935065 0.936425 0.870656
0.390000 0.926045 0.927467 0.860724
0.400000 0.916116 0.917588 0.850322
0.410000 0.905236 0.906747 0.839448
0.420000 0.893368 0.894903 0.828106
0.430000 0.880482 0.882026 0.816299
0.440000 0.866556 0.868088 0.804034
0.450000 0.851571 0.853074 0.791317
0.460000 0.835523 0.836973 0.778160
0.470000 0.818411 0.819786 0.764574
0.480000 0.800247 0.801524 0.750572
0.490000 0.781053 0.782208 0.736171
0.500000 0.760860 0.761870 0.721389
0.510000 0.739711 0.740553 0.706244
0.520000 0.717659 0.718310 0.690758
0.530000 0.694767 0.695206 0.674954
0.540000 0.671107 0.671315 0.658857
0.550000 0.646760 0.646721 0.642493
0.560000 0.621817 0.621518 0.625889
0.570000 0.596376 0.595804 0.609073
0.580000 0.570538 0.569687 0.592076
0.590000 0.544412 0.543279 0.574928
0.600000 0.518111 0.516694 0.557661
0.610000 0.491747 0.490051 0.540306
0.620000 0.465435 0.463467 0.522895
0.630000 0.439289 0.437060 0.505462
0.640000 0.413420 0.410944 0.488038
0.650000 0.387934 0.385231 0.470657
0.660000 0.362936 0.360024 0.453350
0.670000 0.338520 0.335424 0.436149
0.680000 0.314776 0.311520 0.419085
0.690000 0.291785 0.288396 0.402188
0.700000 0.269617 0.266124 0.385488
0.710000 0.248336 0.244766 0.369013
0.720000 0.227993 0.224374 0.352789
0.730000 0.208630 0.204991 0.336843
0.740000 0.190278 0.186646 0.321198
0.750000 0.172959 0.169360 0.305876
0.760000 0.156684 0.153142 0.290900
0.770000 0.141456 0.137993 0.276288
0.780000 0.127268 0.123905 0.262058
0.790000 0.114105 0.110859 0.248225
0.800000 0.101946 0.098832 0.234805
0.810000 0.090761 0.087791 0.221811
0.820000 0.080516 0.077701 0.209252
0.830000 0.071172 0.068519 0.197141
0.840000 0.062686 0.060199 0.185484
0.850000 0.055011 0.052694 0.174291
0.860000 0.048101 0.045953 0.163569
0.870000 0.041904 0.039924 0.153326
0.880000 0.036371 0.034556 0.143571
0.890000 0.031453 0.029796 0.134312
0.900000 0.027098 0.025595 0.125563
0.910000 0.023260 0.021902 0.117339
0.920000 0.019893 0.018670 0.109663
0.930000 0.016952 0.015854 0.102563
0.940000 0.014399 0.013411 0.096079
0.950000 0.012199 0.011300 0.090266
0.960000 0.010325 0.009485 0.085196
0.970000 0.008767 0.007930 0.080967
0.980000 0.007536 0.006604 0.077709
0.990000 0.006691 0.005478 0.075593
1.000000 0.006375 0.004527 0.074844
