0.000000 1.000000 1.000000 0.997993
0.010000 0.999070 0.999111 0.995521
0.020000 0.997652 0.997748 0.990139
0.030000 0.995596 0.995763 0.983768
0.040000 0.992727 0.992980 0.976330
0.050000 0.988842 0.989195 0.967747
0.060000 0.983717 0.984183 0.957948
0.070000 0.977109 0.977694 0.946869
0.080000 0.968760 0.969467 0.934456
0.090000 0.958408 0.959232 0.920664
0.100000 0.945795 0.946720 0.905460
0.110000 0.930677 0.931680 0.888826
0.120000 0.912841 0.913885 0.870757
0.130000 0.892110 0.893149 0.851264
0.140000 0.868362 0.869342 0.830375
0.150000 0.841540 0.842396 0.808131
0.160000 0.811658 0.812321 0.784595
0.170000 0.778812 0.779212 0.759842
0.180000 0.743179 0.743247 0.733963
0.190000 0.705021 0.704695 0.707065
0.200000 0.664676 0.663904 0.679269
0.210000 0.622555 0.621297 0.650706
0.220000 0.579122 0.577356 0.621517
0.230000 0.534885 0.532609 0.591852
0.240000 0.490378 0.487607 0.561866
0.250000 0.446138 0.442906 0.531718
0.260000 0.402689 0.399051 0.501567
0.270000 0.360525 0.356548 0.471572
0.280000 0.320092 0.315856 0.441888
0.290000 0.281776 0.277367 0.412662
0.300000 0.245891 0.241400 0.384035
0.310000 0.212675 0.208190 0.356138
0.320000 0.182288 0.177892 0.329090
0.330000 0.154811 0.150579 0.302997
0.340000 0.130254 0.126249 0.277951
0.350000 0.108559 0.104831 0.254032
0.360000 0.089614 0.086199 0.231301
0.370000 0.073261 0.070182 0.209807
0.380000 0.059307 0.056573 0.189583
0.390000 0.047538 0.045146 0.170647
0.400000 0.037725 0.035663 0.153004
0.410000 0.029637 0.027885 0.136647
0.420000 0.023048 0.021580 0.121555
0.430000 0.017740 0.016529 0.107699
0.440000 0.013514 0.012529 0.095039
0.450000 0.010189 0.009397 0.083528
0.460000 0.007601 0.006975 0.073113
0.470000 0.005611 0.005122 0.063734
0.480000 0.004099 0.003722 0.055330
0.490000 0.002962 0.002676 0.047835
0.500000 0.002118 0.001903 0.041183
0.510000 0.001498 0.001339 0.035308
0.520000 0.001048 0.000932 0.030144
0.530000 0.000725 0.000642 0.025627
0.540000 0.000496 0.000437 0.021694
0.550000 0.000336 0.000295 0.018286
0.560000 0.000225 0.000197 0.015348
0.570000 0.000149 0.000130 0.012827
0.580000 0.000097 0.000085 0.010674
0.590000 0.000063 0.000055 0.008843
0.600000 0.000040 0.000035 0.007295
0.610000 0.000026 0.000022 0.005992
0.620000 0.000016 0.000014 0.004900
0.630000 0.000010 0.000008 0.003990
0.640000 0.000006 0.000005 0.003234
0.650000 0.000004 0.000003 0.002610
0.660000 0.000002 0.000002 0.002097
0.670000 0.000001 0.000001 0.001678
0.680000 0.000001 0.000001 0.001336
0.690000 0.000000 0.000000 0.001059
0.700000 0.000000 0.000000 0.000836
0.710000 0.000000 0.000000 0.000657
0.720000 0.000000 0.000000 0.000514
0.730000 0.000000 0.000000 0.000400
0.740000 0.000000 0.000000 0.000310
0.750000 0.000000 0.000000 0.000239
0.760000 0.000000 0.000000 0.000184
0.770000 0.000000 0.000000 0.000141
0.780000 0.000000 0.000000 0.000107
0.790000 0.000000 0.000000 0.000081
0.800000 0.000000 0.000000 0.000061
0.810000 0.000000 0.000000 0.000046
0.820000 0.000000 0.000000 0.000034
0.830000 0.000000 0.000000 0.000026
0.840000 0.000000 0.000000 0.000019
0.850000 0.000000 0.000000 0.000014
0.860000 0.000000 0.000000 0.000010
0.870000 0.000000 0.000000 0.000007
0.880000 0.000000 0.000000 0.000005
0.890000 0.000000 0.000000 0.000004
0.900000 0.000000 0.000000 0.000003
0.910000 0.000000 0.000000 0.000002
0.920000 0.000000 0.000000 0.000001
0.930000 0.000000 0.000000 0.000001
0.940000 0.000000 0.000000 0.000001
0.950000 0.000000 0.000000 0.000001
0.960000 0.000000 0.000000 0.000000
0.970000 0.000000 0.000000 0.000000
0.980000 0.000000 0.000000 0.000000
0.990000 0.000000 0.000000 0.000000
1.000000 0.000000 0.000000 0.000000
