0.000000 1.000000 1.000000 0.999941
0.010000 0.999999 0.999999 0.999869
0.020000 0.999998 0.999998 0.999711
0.030000 0.999995 0.999996 0.999521
0.040000 0.999992 0.999993 0.999297
0.050000 0.999988 0.999989 0.999033
0.060000 0.999982 0.999984 0.998725
0.070000 0.999973 0.999976 0.998368
0.080000 0.999961 0.999965 0.997955
0.090000 0.999946 0.999952 0.997483
0.100000 0.999926 0.999933 0.996942
0.110000 0.999899 0.999909 0.996328
0.120000 0.999865 0.999877 0.995633
0.130000 0.999820 0.999836 0.994848
0.140000 0.999763 0.999784 0.993966
0.150000 0.999691 0.999717 0.992978
0.160000 0.999600 0.999633 0.991875
0.170000 0.999486 0.999527 0.990647
0.180000 0.999343 0.999394 0.989284
0.190000 0.999167 0.999230 0.987776
0.200000 0.998950 0.999026 0.986112
0.210000 0.998684 0.998776 0.984280
0.220000 0.998360 0.998471 0.982270
0.230000 0.997967 0.998100 0.980069
0.240000 0.997493 0.997651 0.977665
0.250000 0.996924 0.997110 0.975045
0.260000 0.996245 0.996464 0.972198
0.270000 0.995437 0.995693 0.969109
0.280000 0.994483 0.994778 0.965767
0.290000 0.993358 0.993699 0.962159
0.300000 0.992041 0.992431 0.958272
0.310000 0.990504 0.990948 0.954092
0.320000 0.988718 0.989222 0.949608
0.330000 0.986654 0.987221 0.944808
0.340000 0.984278 0.984912 0.939679
0.350000 0.981554 0.982260 0.934210
0.360000 0.978446 0.979227 0.928391
0.370000 0.974914 0.975772 0.922210
0.380000 0.970917 0.971855 0.915658
0.390000 0.966414 0.967433 0.908727
0.400000 0.961361 0.962461 0.901409
0.410000 0.955716 0.956894 0.893695
0.420000 0.949434 0.950690 0.885581
0.430000 0.942472 0.943801 0.877061
0.440000 0.934790 0.936186 0.868132
0.450000 0.926346 0.927803 0.858791
0.460000 0.917104 0.918612 0.849036
0.470000 0.907028 0.908577 0.838869
0.480000 0.896088 0.897664 0.828290
0.490000 0.884256 0.885847 0.817302
0.500000 0.871512 0.873102 0.805911
0.510000 0.857840 0.859411 0.794121
0.520000 0.843231 0.844765 0.781941
0.530000 0.827682 0.829160 0.769380
0.540000 0.811198 0.812600 0.756448
0.550000 0.793792 0.795097 0.743157
0.560000 0.775485 0.776671 0.729521
0.570000 0.756304 0.757351 0.715555
0.580000 0.736288 0.737176 0.701276
0.590000 0.715481 0.716190 0.686701
0.600000 0.693936 0.694447 0.671850
0.610000 0.671714 0.672011 0.656744
0.620000 0.648882 0.648950 0.641402
0.630000 0.625514 0.625341 0.625849
0.640000 0.601690 0.601265 0.610108
0.650000 0.577496 0.576811 0.594203
0.660000 0.553019 0.552071 0.578159
0.670000 0.528351 0.527138 0.562003
0.680000 0.503587 0.502111 0.545760
0.690000 0.478822 0.477087 0.529457
0.700000 0.454150 0.452164 0.513121
0.710000 0.429666 0.427439 0.496780
0.720000 0.405459 0.403006 0.480460
0.730000 0.381620 0.378956 0.464188
0.740000 0.358230 0.355374 0.447992
0.750000 0.335371 0.332343 0.431897
0.760000 0.313113 0.309936 0.415931
0.770000 0.291525 0.288221 0.400118
0.780000 0.270665 0.267259 0.384485
0.790000 0.250584 0.247102 0.369056
0.800000 0.231329 0.227795 0.353855
0.810000 0.212933 0.209372 0.338906
0.820000 0.195426 0.191861 0.324233
0.830000 0.178828 0.175283 0.309859
0.840000 0.163150 0.159647 0.295808
0.850000 0.148399 0.144957 0.282104
0.860000 0.134570 0.131209 0.268772
0.870000 0.121657 0.118393 0.255838
0.880000 0.109644 0.106490 0.243332
0.890000 0.098511 0.095480 0.231287
0.900000 0.088233 0.085333 0.219740
0.910000 0.078784 0.076019 0.208736
0.920000 0.070132 0.067502 0.198329
0.930000 0.062250 0.059743 0.188586
0.940000 0.055111 0.052702 0.179589
0.950000 0.048702 0.046338 0.171441
0.960000 0.043028 0.040607 0.164274
0.970000 0.038139 0.035467 0.158253
0.980000 0.034163 0.030873 0.153588
0.990000 0.031374 0.026784 0.150547
1.000000 0.030324 0.023158 0.149470
