0.000000 1.000000 1.000000 0.998990
0.010000 0.999735 0.999751 0.997745
0.020000 0.999329 0.999366 0.995030
0.030000 0.998736 0.998801 0.991806
0.040000 0.997896 0.997999 0.988020
0.050000 0.996742 0.996892 0.983624
0.060000 0.995190 0.995397 0.978565
0.070000 0.993146 0.993421 0.972793
0.080000 0.990501 0.990855 0.966258
0.090000 0.987132 0.987575 0.958914
0.100000 0.982904 0.983445 0.950714
0.110000 0.977672 0.978318 0.941618
0.120000 0.971280 0.972035 0.931588
0.130000 0.963569 0.964431 0.920592
0.140000 0.954375 0.955340 0.908604
0.150000 0.943537 0.944595 0.895604
0.160000 0.930905 0.932038 0.881577
0.170000 0.916337 0.917523 0.866519
0.180000 0.899714 0.900922 0.850433
0.190000 0.880940 0.882136 0.833328
0.200000 0.859950 0.861092 0.815226
0.210000 0.836716 0.837757 0.796154
0.220000 0.811248 0.812139 0.776149
0.230000 0.783600 0.784291 0.755259
0.240000 0.753870 0.754311 0.733537
0.250000 0.722204 0.722347 0.711047
0.260000 0.688790 0.688592 0.687859
0.270000 0.653856 0.653281 0.664050
0.280000 0.617669 0.616690 0.639703
0.290000 0.580524 0.579124 0.614908
0.300000 0.542742 0.540915 0.589758
0.310000 0.504657 0.502409 0.564349
0.320000 0.466610 0.463959 0.538780
0.330000 0.428940 0.425916 0.513151
0.340000 0.391974 0.388615 0.487562
0.350000 0.356018 0.352374 0.462112
0.360000 0.321353 0.317480 0.436897
0.370000 0.288226 0.284183 0.412011
0.380000 0.256845 0.252696 0.387544
0.390000 0.227377 0.223186 0.363579
0.400000 0.199947 0.195775 0.340195
0.410000 0.174635 0.170540 0.317464
0.420000 0.151480 0.147514 0.295450
0.430000 0.130481 0.126689 0.274210
0.440000 0.111602 0.108021 0.253793
0.450000 0.094776 0.091435 0.234240
0.460000 0.079908 0.076827 0.215584
0.470000 0.066883 0.064076 0.197849
0.480000 0.055572 0.053042 0.181053
0.490000 0.045832 0.043577 0.165202
0.500000 0.037518 0.035531 0.150300
0.510000 0.030482 0.028749 0.136341
0.520000 0.024579 0.023083 0.123313
0.530000 0.019668 0.018391 0.111197
0.540000 0.015617 0.014539 0.099971
0.550000 0.012306 0.011404 0.089608
0.560000 0.009622 0.008875 0.080075
0.570000 0.007464 0.006853 0.071339
0.580000 0.005745 0.005250 0.063361
0.590000 0.004387 0.003990 0.056102
0.600000 0.003324 0.003008 0.049520
0.610000 0.002498 0.002250 0.043575
0.620000 0.001863 0.001669 0.038224
0.630000 0.001378 0.001228 0.033425
0.640000 0.001011 0.000897 0.029137
0.650000 0.000736 0.000649 0.025318
0.660000 0.000531 0.000467 0.021930
0.670000 0.000380 0.000332 0.018935
0.680000 0.000270 0.000235 0.016297
0.690000 0.000190 0.000165 0.013981
0.700000 0.000133 0.000114 0.011956
0.710000 0.000092 0.000079 0.010191
0.720000 0.000063 0.000054 0.008659
0.730000 0.000043 0.000037 0.007333
0.740000 0.000029 0.000025 0.006190
0.750000 0.000019 0.000016 0.005208
0.760000 0.000013 0.000011 0.004368
0.770000 0.000009 0.000007 0.003651
0.780000 0.000006 0.000005 0.003041
0.790000 0.000004 0.000003 0.002526
0.800000 0.000002 0.000002 0.002090
0.810000 0.000001 0.000001 0.001724
0.820000 0.000001 0.000001 0.001418
0.830000 0.000001 0.000000 0.001162
0.840000 0.000000 0.000000 0.000949
0.850000 0.000000 0.000000 0.000772
0.860000 0.000000 0.000000 0.000626
0.870000 0.000000 0.000000 0.000507
0.880000 0.000000 0.000000 0.000408
0.890000 0.000000 0.000000 0.000328
0.900000 0.000000 0.000000 0.000263
0.910000 0.000000 0.000000 0.000210
0.920000 0.000000 0.000000 0.000167
0.930000 0.000000 0.000000 0.000132
0.940000 0.000000 0.000000 0.000105
0.950000 0.000000 0.000000 0.000083
0.960000 0.000000 0.000000 0.000066
0.970000 0.000000 0.000000 0.000054
0.980000 0.000000 0.000000 0.000045
0.990000 0.000000 0.000000 0.000039
1.000000 0.000000 0.000000 0.000037
