0.000000 1.000000 1.000000 0.999862
0.010000 0.999995 0.999995 0.999693
0.020000 0.999986 0.999988 0.999322
0.030000 0.999974 0.999976 0.998878
0.040000 0.999956 0.999960 0.998354
0.050000 0.999931 0.999937 0.997739
0.060000 0.999896 0.999905 0.997023
0.070000 0.999848 0.999861 0.996196
0.080000 0.999785 0.999803 0.995244
0.090000 0.999701 0.999725 0.994156
0.100000 0.999591 0.999623 0.992919
0.110000 0.999448 0.999490 0.991518
0.120000 0.999265 0.999318 0.989939
0.130000 0.999032 0.999100 0.988168
0.140000 0.998738 0.998822 0.986187
0.150000 0.998369 0.998474 0.983982
0.160000 0.997910 0.998040 0.981534
0.170000 0.997343 0.997501 0.978828
0.180000 0.996648 0.996839 0.975845
0.190000 0.995801 0.996030 0.972568
0.200000 0.994776 0.995047 0.968979
0.210000 0.993543 0.993862 0.965060
0.220000 0.992068 0.992441 0.960793
0.230000 0.990315 0.990747 0.956161
0.240000 0.988243 0.988741 0.951146
0.250000 0.985810 0.986378 0.945732
0.260000 0.982967 0.983610 0.939901
0.270000 0.979664 0.980387 0.933640
0.280000 0.975848 0.976654 0.926932
0.290000 0.971464 0.972355 0.919765
0.300000 0.966454 0.967432 0.912126
0.310000 0.960758 0.961823 0.904003
0.320000 0.954318 0.955467 0.895388
0.330000 0.947073 0.948303 0.886273
0.340000 0.938965 0.940270 0.876650
0.350000 0.929939 0.931310 0.866516
0.360000 0.919941 0.921368 0.855867
0.370000 0.908923 0.910393 0.844705
0.380000 0.896841 0.898340 0.833029
0.390000 0.883660 0.885170 0.820845
0.400000 0.869351 0.870851 0.808158
0.410000 0.853894 0.855364 0.794977
0.420000 0.837280 0.838696 0.781313
0.430000 0.819508 0.820846 0.767179
0.440000 0.800593 0.801827 0.752591
0.450000 0.780557 0.781662 0.737566
0.460000 0.759438 0.760387 0.722124
0.470000 0.737284 0.738053 0.706289
0.480000 0.714156 0.714721 0.690083
0.490000 0.690128 0.690467 0.673535
0.500000 0.665285 0.665376 0.656671
0.510000 0.639720 0.639548 0.639523
0.520000 0.613538 0.613088 0.622120
0.530000 0.586852 0.586114 0.604497
0.540000 0.559781 0.558749 0.586688
0.550000 0.532448 0.531120 0.568727
0.560000 0.504983 0.503360 0.550651
0.570000 0.477514 0.475603 0.532495
0.580000 0.450170 0.447981 0.514298
0.590000 0.423078 0.420626 0.496095
0.600000 0.396362 0.393666 0.477924
0.610000 0.370140 0.367220 0.459821
0.620000 0.344522 0.341405 0.441823
0.630000 0.319612 0.316324 0.423965
0.640000 0.295503 0.292073 0.406281
0.650000 0.272278 0.268736 0.388805
0.660000 0.250008 0.246385 0.371569
0.670000 0.228753 0.225081 0.354604
0.680000 0.208561 0.204870 0.337938
0.690000 0.189468 0.185787 0.321599
0.700000 0.171497 0.167855 0.305613
0.710000 0.154660 0.151083 0.290002
0.720000 0.138960 0.135472 0.274788
0.730000 0.124386 0.121009 0.259991
0.740000 0.110921 0.107672 0.245626
0.750000 0.098537 0.095433 0.231711
0.760000 0.087200 0.084253 0.218256
0.770000 0.076870 0.074090 0.205272
0.780000 0.067500 0.064893 0.192768
0.790000 0.059040 0.056611 0.180751
0.800000 0.051438 0.049187 0.169223
0.810000 0.044636 0.042564 0.158189
0.820000 0.038580 0.036683 0.147648
0.830000 0.033212 0.031485 0.137599
0.840000 0.028476 0.026913 0.128041
0.850000 0.024316 0.022910 0.118971
0.860000 0.020680 0.019421 0.110383
0.870000 0.017515 0.016395 0.102274
0.880000 0.014774 0.013783 0.094639
0.890000 0.012411 0.011539 0.087475
0.900000 0.010383 0.009619 0.080780
0.910000 0.008650 0.007985 0.074555
0.920000 0.007177 0.006600 0.068803
0.930000 0.005931 0.005433 0.063534
0.940000 0.004883 0.004452 0.058765
0.950000 0.004007 0.003633 0.054524
0.960000 0.003283 0.002953 0.050850
0.970000 0.002698 0.002389 0.047804
0.980000 0.002246 0.001925 0.045467
0.990000 0.001940 0.001544 0.043954
1.000000 0.001827 0.001233 0.043420
