0.000000 1.000000 1.000000 0.979910
0.010000 0.960618 0.960749 0.955453
0.020000 0.904311 0.904158 0.903116
0.030000 0.831135 0.830175 0.843764
0.040000 0.743204 0.740944 0.778549
0.050000 0.644573 0.640710 0.708941
0.060000 0.540707 0.535238 0.636636
0.070000 0.437644 0.430893 0.563447
0.080000 0.341048 0.333594 0.491182
0.090000 0.255398 0.247929 0.421532
0.100000 0.183476 0.176625 0.355963
0.110000 0.126243 0.120463 0.295648
0.120000 0.083073 0.078575 0.241414
0.130000 0.052203 0.048973 0.193735
0.140000 0.031281 0.029145 0.152743
0.150000 0.017848 0.016551 0.118272
0.160000 0.009681 0.008964 0.089917
0.170000 0.004983 0.004629 0.067100
0.180000 0.002430 0.002277 0.049137
0.190000 0.001120 0.001067 0.035301
0.200000 0.000487 0.000476 0.024875
0.210000 0.000199 0.000203 0.017189
0.220000 0.000076 0.000082 0.011644
0.230000 0.000027 0.000032 0.007732
0.240000 0.000009 0.000012 0.005031
0.250000 0.000003 0.000004 0.003208
0.260000 0.000001 0.000001 0.002003
0.270000 0.000000 0.000000 0.001225
0.280000 0.000000 0.000000 0.000734
0.290000 0.000000 0.000000 0.000430
0.300000 0.000000 0.000000 0.000247
0.310000 0.000000 0.000000 0.000139
0.320000 0.000000 0.000000 0.000076
0.330000 -0.000000 0.000000 0.000041
0.340000 -0.000000 0.000000 0.000022
0.350000 -0.000000 0.000000 0.000011
0.360000 0.000000 0.000000 0.000006
0.370000 0.000000 0.000000 0.000003
0.380000 0.000000 0.000000 0.000001
0.390000 -0.000000 0.000000 0.000001
0.400000 -0.000000 0.000000 0.000000
0.410000 -0.000000 0.000000 0.000000
0.420000 0.000000 0.000000 0.000000
0.430000 0.000000 0.000000 0.000000
0.440000 0.000000 0.000000 0.000000
0.450000 -0.000000 0.000000 0.000000
0.460000 -0.000000 0.000000 0.000000
0.470000 0.000000 0.000000 0.000000
0.480000 0.000000 0.000000 0.000000
0.490000 -0.000000 0.000000 0.000000
0.500000 -0.000000 0.000000 0.000000
0.510000 0.000000 0.000000 0.000000
0.520000 0.000000 0.000000 0.000000
0.530000 -0.000000 0.000000 0.000000
0.540000 -0.000000 0.000000 0.000000
0.550000 -0.000000 0.000000 0.000000
0.560000 0.000000 0.000000 0.000000
0.570000 0.000000 0.000000 0.000000
0.580000 -0.000000 0.000000 0.000000
0.590000 0.000000 0.000000 0.000000
0.600000 0.000000 0.000000 0.000000
0.610000 -0.000000 0.000000 0.000000
0.620000 -0.000000 0.000000 0.000000
0.630000 0.000000 0.000000 0.000000
0.640000 0.000000 0.000000 0.000000
0.650000 -0.000000 0.000000 0.000000
0.660000 -0.000000 0.000000 0.000000
0.670000 0.000000 0.000000 0.000000
0.680000 0.000000 0.000000 0.000000
0.690000 -0.000000 0.000000 0.000000
0.700000 0.000000 0.000000 0.000000
0.710000 0.000000 0.000000 0.000000
0.720000 -0.000000 0.000000 0.000000
0.730000 -0.000000 0.000000 0.000000
0.740000 0.000000 0.000000 0.000000
0.750000 0.000000 0.000000 0.000000
0.760000 -0.000000 0.000000 0.000000
0.770000 0.000000 0.000000 0.000000
0.780000 0.000000 0.000000 0.000000
0.790000 -0.000000 0.000000 0.000000
0.800000 -0.000000 0.000000 0.000000
0.810000 0.000000 0.000000 0.000000
0.820000 -0.000000 0.000000 0.000000
0.830000 -0.000000 0.000000 0.000000
0.840000 0.000000 0.000000 0.000000
0.850000 -0.000000 0.000000 0.000000
0.860000 -0.000000 0.000000 0.000000
0.870000 0.000000 0.000000 0.000000
0.880000 -0.000000 0.000000 0.000000
0.890000 -0.000000 0.000000 0.000000
0.900000 0.000000 0.000000 0.000000
0.910000 0.000000 0.000000 0.000000
0.920000 -0.000000 0.000000 0.000000
0.930000 0.000000 0.000000 0.000000
0.940000 0.000000 0.000000 0.000000
0.950000 -0.000000 0.000000 0.000000
0.960000 0.000000 0.000000 0.000000
0.970000 0.000000 0.000000 0.000000
0.980000 -0.000000 0.000000 0.000000
0.990000 0.000000 0.000000 0.000000
1.000000 0.000000 0.000000 0.000000
