0.000000 1.000000 1.000000 0.997835
0.010000 0.998935 0.998981 0.995171
0.020000 0.997314 0.997421 0.989368
0.030000 0.994967 0.995150 0.982504
0.040000 0.991696 0.991972 0.974495
0.050000 0.987277 0.987660 0.965262
0.060000 0.981462 0.981964 0.954733
0.070000 0.973987 0.974612 0.942843
0.080000 0.964575 0.965322 0.929541
0.090000 0.952947 0.953806 0.914784
0.100000 0.938838 0.939789 0.898545
0.110000 0.922004 0.923014 0.880813
0.120000 0.902237 0.903265 0.861592
0.130000 0.879383 0.880373 0.840902
0.140000 0.853350 0.854240 0.818783
0.150000 0.824120 0.824841 0.795291
0.160000 0.791763 0.792240 0.770500
0.170000 0.756433 0.756595 0.744503
0.180000 0.718377 0.718156 0.717405
0.190000 0.677928 0.677264 0.689331
0.200000 0.635495 0.634344 0.660415
0.210000 0.591555 0.589890 0.630805
0.220000 0.546635 0.544446 0.600656
0.230000 0.501293 0.498592 0.570133
0.240000 0.456098 0.452918 0.539402
0.250000 0.411609 0.408001 0.508631
0.260000 0.368356 0.364389 0.477990
0.270000 0.326820 0.322575 0.447643
0.280000 0.287421 0.282987 0.417746
0.290000 0.250502 0.245974 0.388452
0.300000 0.216327 0.211797 0.359899
0.310000 0.185072 0.180629 0.332215
0.320000 0.156833 0.152554 0.305514
0.330000 0.131623 0.127575 0.279894
0.340000 0.109388 0.105624 0.255439
0.350000 0.090011 0.086569 0.232217
0.360000 0.073326 0.070228 0.210278
0.370000 0.059129 0.056386 0.189658
0.380000 0.047194 0.044802 0.170376
0.390000 0.037280 0.035225 0.152437
0.400000 0.029142 0.027404 0.135831
0.410000 0.022541 0.021093 0.120538
0.420000 0.017251 0.016061 0.106525
0.430000 0.013061 0.012099 0.093749
0.440000 0.009783 0.009016 0.082160
0.450000 0.007249 0.006645 0.071699
0.460000 0.005312 0.004845 0.062305
0.470000 0.003850 0.003493 0.053910
0.480000 0.002760 0.002491 0.046447
0.490000 0.001956 0.001757 0.039844
0.500000 0.001371 0.001225 0.034031
0.510000 0.000950 0.000845 0.028940
0.520000 0.000651 0.000576 0.024503
0.530000 0.000441 0.000389 0.020655
0.540000 0.000296 0.000259 0.017334
0.550000 0.000196 0.000171 0.014483
0.560000 0.000128 0.000111 0.012047
0.570000 0.000083 0.000072 0.009976
0.580000 0.000053 0.000046 0.008224
0.590000 0.000033 0.000029 0.006749
0.600000 0.000021 0.000018 0.005514
0.610000 0.000013 0.000011 0.004484
0.620000 0.000008 0.000007 0.003630
0.630000 0.000005 0.000004 0.002925
0.640000 0.000003 0.000002 0.002347
0.650000 0.000002 0.000001 0.001874
0.660000 0.000001 0.000001 0.001490
0.670000 0.000001 0.000000 0.001179
0.680000 0.000000 0.000000 0.000928
0.690000 0.000000 0.000000 0.000728
0.700000 0.000000 0.000000 0.000568
0.710000 0.000000 0.000000 0.000441
0.720000 0.000000 0.000000 0.000341
0.730000 0.000000 0.000000 0.000262
0.740000 0.000000 0.000000 0.000201
0.750000 0.000000 0.000000 0.000153
0.760000 0.000000 0.000000 0.000116
0.770000 0.000000 0.000000 0.000088
0.780000 0.000000 0.000000 0.000066
0.790000 0.000000 0.000000 0.000049
0.800000 0.000000 0.000000 0.000037
0.810000 0.000000 0.000000 0.000027
0.820000 0.000000 0.000000 0.000020
0.830000 0.000000 0.000000 0.000015
0.840000 0.000000 0.000000 0.000011
0.850000 0.000000 0.000000 0.000008
0.860000 0.000000 0.000000 0.000006
0.870000 0.000000 0.000000 0.000004
0.880000 0.000000 0.000000 0.000003
0.890000 0.000000 0.000000 0.000002
0.900000 0.000000 0.000000 0.000001
0.910000 0.000000 0.000000 0.000001
0.920000 0.000000 0.000000 0.000001
0.930000 0.000000 0.000000 0.000001
0.940000 0.000000 0.000000 0.000000
0.950000 0.000000 0.000000 0.000000
0.960000 0.000000 0.000000 0.000000
0.970000 0.000000 0.000000 0.000000
0.980000 0.000000 0.000000 0.000000
0.990000 0.000000 0.000000 0.000000
1.000000 0.000000 0.000000 0.000000
