0.000000 1.000000 1.000000 0.999904
0.010000 0.999997 0.999998 0.999785
0.020000 0.999993 0.999994 0.999526
0.030000 0.999987 0.999989 0.999216
0.040000 0.999979 0.999981 0.998849
0.050000 0.999966 0.999970 0.998418
0.060000 0.999949 0.999954 0.997915
0.070000 0.999926 0.999933 0.997334
0.080000 0.999895 0.999905 0.996664
0.090000 0.999854 0.999867 0.995897
0.100000 0.999799 0.999817 0.995023
0.110000 0.999728 0.999751 0.994032
0.120000 0.999637 0.999666 0.992912
0.130000 0.999520 0.999557 0.991652
0.140000 0.999371 0.999419 0.990240
0.150000 0.999183 0.999243 0.988663
0.160000 0.998949 0.999023 0.986909
0.170000 0.998656 0.998748 0.984963
0.180000 0.998296 0.998407 0.982811
0.190000 0.997853 0.997988 0.980440
0.200000 0.997312 0.997475 0.977833
0.210000 0.996656 0.996851 0.974976
0.220000 0.995865 0.996095 0.971855
0.230000 0.994916 0.995187 0.968452
0.240000 0.993784 0.994101 0.964753
0.250000 0.992441 0.992809 0.960743
0.260000 0.990857 0.991279 0.956406
0.270000 0.988996 0.989480 0.951727
0.280000 0.986823 0.987373 0.946691
0.290000 0.984298 0.984918 0.941285
0.300000 0.981379 0.982074 0.935493
0.310000 0.978020 0.978793 0.929304
0.320000 0.974175 0.975030 0.922705
0.330000 0.969794 0.970732 0.915684
0.340000 0.964827 0.965850 0.908231
0.350000 0.959223 0.960329 0.900337
0.360000 0.952928 0.954116 0.891994
0.370000 0.945893 0.947159 0.883195
0.380000 0.938066 0.939404 0.873935
0.390000 0.929398 0.930801 0.864211
0.400000 0.919844 0.921302 0.854019
0.410000 0.909361 0.910862 0.843360
0.420000 0.897912 0.899443 0.832236
0.430000 0.885463 0.887009 0.820649
0.440000 0.871990 0.873532 0.808605
0.450000 0.857472 0.858992 0.796110
0.460000 0.841901 0.843377 0.783174
0.470000 0.825273 0.826684 0.769808
0.480000 0.807596 0.808919 0.756025
0.490000 0.788887 0.790099 0.741839
0.500000 0.769173 0.770250 0.727267
0.510000 0.748493 0.749411 0.712328
0.520000 0.726894 0.727631 0.697042
0.530000 0.704434 0.704969 0.681431
0.540000 0.681180 0.681494 0.665519
0.550000 0.657211 0.657285 0.649331
0.560000 0.632611 0.632431 0.632894
0.570000 0.607473 0.607027 0.616234
0.580000 0.581898 0.581176 0.599382
0.590000 0.555989 0.554987 0.582367
0.600000 0.529856 0.528572 0.565219
0.610000 0.503611 0.502046 0.547971
0.620000 0.477366 0.475526 0.530653
0.630000 0.451234 0.449129 0.513298
0.640000 0.425326 0.422969 0.495938
0.650000 0.399751 0.397158 0.478605
0.660000 0.374612 0.371802 0.461331
0.670000 0.350007 0.347002 0.444147
0.680000 0.326028 0.322851 0.427085
0.690000 0.302758 0.299436 0.410176
0.700000 0.280273 0.276832 0.393447
0.710000 0.258638 0.255106 0.376928
0.720000 0.237909 0.234316 0.360645
0.730000 0.218134 0.214506 0.344626
0.740000 0.199347 0.195713 0.328894
0.750000 0.181576 0.177962 0.313472
0.760000 0.164837 0.161267 0.298382
0.770000 0.149136 0.145634 0.283645
0.780000 0.134472 0.131058 0.269278
0.790000 0.120833 0.117527 0.255298
0.800000 0.108202 0.105020 0.241721
0.810000 0.096553 0.093508 0.228561
0.820000 0.085856 0.082960 0.215829
0.830000 0.076074 0.073335 0.203536
0.840000 0.067166 0.064591 0.191693
0.850000 0.059089 0.056681 0.180309
0.860000 0.051796 0.049557 0.169392
0.870000 0.045238 0.043167 0.158952
0.880000 0.039367 0.037462 0.148999
0.890000 0.034133 0.032389 0.139542
0.900000 0.029486 0.027898 0.130597
0.910000 0.025378 0.023938 0.122182
0.920000 0.021764 0.020463 0.114318
0.930000 0.018598 0.017426 0.107040
0.940000 0.015842 0.014783 0.100388
0.950000 0.013460 0.012493 0.094420
0.960000 0.011427 0.010516 0.089211
0.970000 0.009731 0.008819 0.084865
0.980000 0.008389 0.007367 0.081514
0.990000 0.007466 0.006130 0.079337
1.000000 0.007121 0.005080 0.078568
