0.000000 1.000000 1.000000 0.995987
0.010000 0.996879 0.996977 0.991054
0.020000 0.992164 0.992383 0.980336
0.030000 0.985429 0.985785 0.967724
0.040000 0.976214 0.976715 0.953117
0.050000 0.964047 0.964687 0.936436
0.060000 0.948467 0.949220 0.917629
0.070000 0.929052 0.929875 0.896673
0.080000 0.905453 0.906284 0.873576
0.090000 0.877427 0.878183 0.848382
0.100000 0.844864 0.845448 0.821169
0.110000 0.807808 0.808114 0.792049
0.120000 0.766478 0.766400 0.761171
0.130000 0.721267 0.720705 0.728711
0.140000 0.672737 0.671610 0.694879
0.150000 0.621597 0.619848 0.659908
0.160000 0.568674 0.566278 0.624050
0.170000 0.514874 0.511843 0.587574
0.180000 0.461137 0.457516 0.550758
0.190000 0.408385 0.404255 0.513883
0.200000 0.357485 0.352954 0.477229
0.210000 0.309202 0.304397 0.441067
0.220000 0.264170 0.259229 0.405653
0.230000 0.222870 0.217932 0.371225
0.240000 0.185623 0.180817 0.338000
0.250000 0.152585 0.148024 0.306166
0.260000 0.123763 0.119538 0.275882
0.270000 0.099032 0.095208 0.247279
0.280000 0.078160 0.074776 0.220454
0.290000 0.060831 0.057902 0.195473
0.300000 0.046679 0.044199 0.172372
0.310000 0.035311 0.033254 0.151160
0.320000 0.026328 0.024658 0.131816
0.330000 0.019346 0.018018 0.114299
0.340000 0.014007 0.012972 0.098545
0.350000 0.009991 0.009202 0.084475
0.360000 0.007020 0.006430 0.071996
0.370000 0.004859 0.004427 0.061002
0.380000 0.003312 0.003002 0.051384
0.390000 0.002223 0.002005 0.043027
0.400000 0.001469 0.001319 0.035816
0.410000 0.000955 0.000854 0.029635
0.420000 0.000612 0.000545 0.024373
0.430000 0.000385 0.000342 0.019925
0.440000 0.000239 0.000212 0.016190
0.450000 0.000146 0.000129 0.013075
0.460000 0.000088 0.000077 0.010494
0.470000 0.000052 0.000046 0.008371
0.480000 0.000030 0.000027 0.006637
0.490000 0.000017 0.000015 0.005229
0.500000 0.000010 0.000009 0.004094
0.510000 0.000005 0.000005 0.003185
0.520000 0.000003 0.000003 0.002463
0.530000 0.000002 0.000001 0.001892
0.540000 0.000001 0.000001 0.001445
0.550000 0.000000 0.000000 0.001096
0.560000 0.000000 0.000000 0.000826
0.570000 0.000000 0.000000 0.000619
0.580000 0.000000 0.000000 0.000461
0.590000 0.000000 0.000000 0.000341
0.600000 0.000000 0.000000 0.000250
0.610000 0.000000 0.000000 0.000183
0.620000 0.000000 0.000000 0.000132
0.630000 0.000000 0.000000 0.000095
0.640000 0.000000 0.000000 0.000068
0.650000 0.000000 0.000000 0.000049
0.660000 0.000000 0.000000 0.000034
0.670000 0.000000 0.000000 0.000024
0.680000 0.000000 0.000000 0.000017
0.690000 0.000000 0.000000 0.000012
0.700000 0.000000 0.000000 0.000008
0.710000 0.000000 0.000000 0.000005
0.720000 0.000000 0.000000 0.000004
0.730000 0.000000 0.000000 0.000003
0.740000 0.000000 0.000000 0.000002
0.750000 0.000000 0.000000 0.000001
0.760000 0.000000 0.000000 0.000001
0.770000 0.000000 0.000000 0.000000
0.780000 0.000000 0.000000 0.000000
0.790000 0.000000 0.000000 0.000000
0.800000 0.000000 0.000000 0.000000
0.810000 0.000000 0.000000 0.000000
0.820000 0.000000 0.000000 0.000000
0.830000 0.000000 0.000000 0.000000
0.840000 0.000000 0.000000 0.000000
0.850000 0.000000 0.000000 0.000000
0.860000 0.000000 0.000000 0.000000
0.870000 0.000000 0.000000 0.000000
0.880000 0.000000 0.000000 0.000000
0.890000 0.000000 0.000000 0.000000
0.900000 0.000000 0.000000 0.000000
0.910000 0.000000 0.000000 0.000000
0.920000 0.000000 0.000000 0.000000
0.930000 0.000000 0.000000 0.000000
0.940000 0.000000 0.000000 0.000000
0.950000 0.000000 0.000000 0.000000
0.960000 -0.000000 0.000000 0.000000
0.970000 -0.000000 0.000000 0.000000
0.980000 -0.000000 0.000000 0.000000
0.990000 -0.000000 0.000000 0.000000
1.000000 -0.000000 0.000000 0.000000
