0.000000 1.000000 1.000000 0.999948
0.010000 0.999999 0.999999 0.999884
0.020000 0.999998 0.999998 0.999744
0.030000 0.999996 0.999997 0.999577
0.040000 0.999994 0.999995 0.999379
0.050000 0.999991 0.999992 0.999146
0.060000 0.999986 0.999987 0.998874
0.070000 0.999979 0.999981 0.998558
0.080000 0.999970 0.999973 0.998194
0.090000 0.999958 0.999963 0.997775
0.100000 0.999942 0.999948 0.997297
0.110000 0.999922 0.999929 0.996753
0.120000 0.999895 0.999905 0.996137
0.130000 0.999860 0.999873 0.995441
0.140000 0.999816 0.999832 0.994659
0.150000 0.999759 0.999780 0.993781
0.160000 0.999688 0.999715 0.992801
0.170000 0.999598 0.999631 0.991709
0.180000 0.999486 0.999528 0.990496
0.190000 0.999347 0.999398 0.989153
0.200000 0.999175 0.999238 0.987669
0.210000 0.998965 0.999041 0.986034
0.220000 0.998707 0.998799 0.984238
0.230000 0.998395 0.998505 0.982270
0.240000 0.998016 0.998148 0.980117
0.250000 0.997562 0.997717 0.977770
0.260000 0.997017 0.997200 0.975215
0.270000 0.996368 0.996582 0.972440
0.280000 0.995598 0.995847 0.969434
0.290000 0.994689 0.994977 0.966185
0.300000 0.993620 0.993952 0.962679
0.310000 0.992369 0.992749 0.958905
0.320000 0.990912 0.991345 0.954851
0.330000 0.989221 0.989711 0.950504
0.340000 0.987268 0.987819 0.945853
0.350000 0.985021 0.985638 0.940886
0.360000 0.982448 0.983135 0.935593
0.370000 0.979513 0.980273 0.929962
0.380000 0.976180 0.977016 0.923984
0.390000 0.972410 0.973323 0.917649
0.400000 0.968162 0.969156 0.910948
0.410000 0.963397 0.964470 0.903874
0.420000 0.958073 0.959225 0.896419
0.430000 0.952147 0.953377 0.888577
0.440000 0.945579 0.946884 0.880343
0.450000 0.938328 0.939702 0.871713
0.460000 0.930355 0.931792 0.862684
0.470000 0.921622 0.923115 0.853254
0.480000 0.912095 0.913634 0.843422
0.490000 0.901742 0.903315 0.833190
0.500000 0.890535 0.892131 0.822560
0.510000 0.878452 0.880055 0.811535
0.520000 0.865474 0.867068 0.800120
0.530000 0.851588 0.853158 0.788322
0.540000 0.836790 0.838316 0.776148
0.550000 0.821079 0.822542 0.763608
0.560000 0.804463 0.805843 0.750713
0.570000 0.786957 0.788233 0.737475
0.580000 0.768584 0.769737 0.723907
0.590000 0.749374 0.750383 0.710024
0.600000 0.729365 0.730211 0.695843
0.610000 0.708604 0.709267 0.681382
0.620000 0.687143 0.687607 0.666658
0.630000 0.665042 0.665291 0.651693
0.640000 0.642369 0.642389 0.636506
0.650000 0.619195 0.618974 0.621121
0.660000 0.595599 0.595129 0.605559
0.670000 0.571664 0.570936 0.589845
0.680000 0.547474 0.546487 0.574002
0.690000 0.523120 0.521871 0.558056
0.700000 0.498691 0.497183 0.542033
0.710000 0.474278 0.472516 0.525957
0.720000 0.449972 0.447965 0.509854
0.730000 0.425864 0.423621 0.493752
0.740000 0.402040 0.399575 0.477676
0.750000 0.378583 0.375914 0.461652
0.760000 0.355575 0.352718 0.445707
0.770000 0.333090 0.330066 0.429866
0.780000 0.311198 0.308028 0.414156
0.790000 0.289961 0.286668 0.398601
0.800000 0.269436 0.266044 0.383228
0.810000 0.249673 0.246206 0.368062
0.820000 0.230714 0.227195 0.353127
0.830000 0.212592 0.209047 0.338451
0.840000 0.195335 0.191786 0.324057
0.850000 0.178962 0.175432 0.309974
0.860000 0.163485 0.159994 0.296231
0.870000 0.148909 0.145477 0.282856
0.880000 0.135232 0.131876 0.269884
0.890000 0.122447 0.119183 0.257353
0.900000 0.110542 0.107380 0.245305
0.910000 0.099498 0.096446 0.233793
0.920000 0.089298 0.086355 0.222877
0.930000 0.079922 0.077078 0.212633
0.940000 0.071358 0.068580 0.203153
0.950000 0.063603 0.060825 0.194551
0.960000 0.056685 0.053775 0.186971
0.970000 0.050681 0.047390 0.180595
0.980000 0.045770 0.041628 0.175649
0.990000 0.042312 0.036448 0.172424
1.000000 0.041007 0.031809 0.171281
