0.000000 1.000000 1.000000 0.997207
0.010000 0.998330 0.998394 0.993771
0.020000 0.995794 0.995941 0.986293
0.030000 0.992141 0.992388 0.977465
0.040000 0.987084 0.987448 0.967192
0.050000 0.980308 0.980800 0.955389
0.060000 0.971479 0.972102 0.941985
0.070000 0.960255 0.961002 0.926921
0.080000 0.946300 0.947154 0.910157
0.090000 0.929304 0.930232 0.891674
0.100000 0.909000 0.909954 0.871470
0.110000 0.885181 0.886103 0.849568
0.120000 0.857725 0.858542 0.826014
0.130000 0.826603 0.827235 0.800875
0.140000 0.791899 0.792261 0.774242
0.150000 0.753809 0.753817 0.746230
0.160000 0.712648 0.712224 0.716973
0.170000 0.668839 0.667921 0.686624
0.180000 0.622907 0.621447 0.655353
0.190000 0.575453 0.573428 0.623345
0.200000 0.527136 0.524546 0.590793
0.210000 0.478645 0.475518 0.557901
0.220000 0.430670 0.427056 0.524873
0.230000 0.383871 0.379844 0.491917
0.240000 0.338858 0.334508 0.459233
0.250000 0.296163 0.291594 0.427019
0.260000 0.256224 0.251545 0.395459
0.270000 0.219377 0.214696 0.364726
0.280000 0.185848 0.181267 0.334977
0.290000 0.155752 0.151363 0.306351
0.300000 0.129107 0.124983 0.278968
0.310000 0.105834 0.102036 0.252928
0.320000 0.085784 0.082349 0.228309
0.330000 0.068742 0.065692 0.205169
0.340000 0.054452 0.051793 0.183544
0.350000 0.042631 0.040353 0.163453
0.360000 0.032985 0.031066 0.144894
0.370000 0.025219 0.023631 0.127848
0.380000 0.019051 0.017758 0.112281
0.390000 0.014218 0.013183 0.098146
0.400000 0.010482 0.009667 0.085384
0.410000 0.007633 0.007002 0.073928
0.420000 0.005490 0.005009 0.063701
0.430000 0.003900 0.003539 0.054625
0.440000 0.002735 0.002470 0.046614
0.450000 0.001894 0.001702 0.039583
0.460000 0.001295 0.001158 0.033448
0.470000 0.000874 0.000778 0.028124
0.480000 0.000583 0.000516 0.023531
0.490000 0.000383 0.000338 0.019589
0.500000 0.000249 0.000219 0.016226
0.510000 0.000159 0.000140 0.013373
0.520000 0.000101 0.000088 0.010966
0.530000 0.000063 0.000055 0.008947
0.540000 0.000039 0.000034 0.007262
0.550000 0.000023 0.000020 0.005865
0.560000 0.000014 0.000012 0.004712
0.570000 0.000008 0.000007 0.003766
0.580000 0.000005 0.000004 0.002995
0.590000 0.000003 0.000002 0.002369
0.600000 0.000002 0.000001 0.001864
0.610000 0.000001 0.000001 0.001460
0.620000 0.000000 0.000000 0.001137
0.630000 0.000000 0.000000 0.000881
0.640000 0.000000 0.000000 0.000679
0.650000 0.000000 0.000000 0.000520
0.660000 0.000000 0.000000 0.000397
0.670000 0.000000 0.000000 0.000301
0.680000 0.000000 0.000000 0.000227
0.690000 0.000000 0.000000 0.000170
0.700000 0.000000 0.000000 0.000127
0.710000 0.000000 0.000000 0.000094
0.720000 0.000000 0.000000 0.000070
0.730000 0.000000 0.000000 0.000051
0.740000 0.000000 0.000000 0.000037
0.750000 0.000000 0.000000 0.000027
0.760000 0.000000 0.000000 0.000020
0.770000 0.000000 0.000000 0.000014
0.780000 0.000000 0.000000 0.000010
0.790000 0.000000 0.000000 0.000007
0.800000 0.000000 0.000000 0.000005
0.810000 0.000000 0.000000 0.000004
0.820000 0.000000 0.000000 0.000003
0.830000 0.000000 0.000000 0.000002
0.840000 0.000000 0.000000 0.000001
0.850000 0.000000 0.000000 0.000001
0.860000 0.000000 0.000000 0.000001
0.870000 0.000000 0.000000 0.000000
0.880000 0.000000 0.000000 0.000000
0.890000 0.000000 0.000000 0.000000
0.900000 0.000000 0.000000 0.000000
0.910000 0.000000 0.000000 0.000000
0.920000 0.000000 0.000000 0.000000
0.930000 0.000000 0.000000 0.000000
0.940000 0.000000 0.000000 0.000000
0.950000 0.000000 0.000000 0.000000
0.960000 0.000000 0.000000 0.000000
0.970000 0.000000 0.000000 0.000000
0.980000 0.000000 0.000000 0.000000
0.990000 0.000000 0.000000 0.000000
1.000000 0.000000 0.000000 0.000000
