0.000000 1.000000 1.000000 0.998828
0.010000 0.999651 0.999670 0.997384
0.020000 0.999116 0.999162 0.994235
0.030000 0.998336 0.998417 0.990497
0.040000 0.997234 0.997361 0.986113
0.050000 0.995724 0.995907 0.981028
0.060000 0.993701 0.993952 0.975185
0.070000 0.991047 0.991378 0.968530
0.080000 0.987626 0.988048 0.961009
0.090000 0.983292 0.983813 0.952574
0.100000 0.977881 0.978510 0.943179
0.110000 0.971224 0.971964 0.932783
0.120000 0.963143 0.963993 0.921351
0.130000 0.953459 0.954413 0.908855
0.140000 0.941997 0.943043 0.895274
0.150000 0.928591 0.929709 0.880594
0.160000 0.913091 0.914256 0.864813
0.170000 0.895372 0.896549 0.847933
0.180000 0.875337 0.876487 0.829972
0.190000 0.852928 0.854004 0.810952
0.200000 0.828125 0.829078 0.790910
0.210000 0.800960 0.801735 0.769889
0.220000 0.771510 0.772054 0.747945
0.230000 0.739907 0.740167 0.725141
0.240000 0.706331 0.706258 0.701551
0.250000 0.671012 0.670564 0.677256
0.260000 0.634223 0.633367 0.652345
0.270000 0.596275 0.594989 0.626913
0.280000 0.557510 0.555782 0.601060
0.290000 0.518289 0.516121 0.574891
0.300000 0.478986 0.476393 0.548515
0.310000 0.439972 0.436983 0.522040
0.320000 0.401611 0.398265 0.495577
0.330000 0.364246 0.360594 0.469234
0.340000 0.328191 0.324291 0.443120
0.350000 0.293725 0.289641 0.417336
0.360000 0.261083 0.256883 0.391983
0.370000 0.230455 0.226207 0.367153
0.380000 0.201982 0.197752 0.342933
0.390000 0.175756 0.171606 0.319402
0.400000 0.151822 0.147808 0.296633
0.410000 0.130180 0.126350 0.274687
0.420000 0.110789 0.107183 0.253618
0.430000 0.093575 0.090222 0.233471
0.440000 0.078432 0.075354 0.214281
0.450000 0.065234 0.062441 0.196074
0.460000 0.053834 0.051331 0.178868
0.470000 0.044078 0.041861 0.162670
0.480000 0.035805 0.033864 0.147481
0.490000 0.028852 0.027173 0.133293
0.500000 0.023063 0.021626 0.120092
0.510000 0.018287 0.017070 0.107855
0.520000 0.014382 0.013364 0.096557
0.530000 0.011218 0.010375 0.086166
0.540000 0.008678 0.007988 0.076645
0.550000 0.006658 0.006099 0.067956
0.560000 0.005065 0.004617 0.060055
0.570000 0.003822 0.003466 0.052899
0.580000 0.002859 0.002580 0.046443
0.590000 0.002121 0.001905 0.040640
0.600000 0.001560 0.001394 0.035444
0.610000 0.001137 0.001011 0.030809
0.620000 0.000822 0.000728 0.026691
0.630000 0.000589 0.000519 0.023045
0.640000 0.000419 0.000367 0.019831
0.650000 0.000295 0.000257 0.017007
0.660000 0.000206 0.000179 0.014535
0.670000 0.000143 0.000123 0.012381
0.680000 0.000098 0.000084 0.010509
0.690000 0.000066 0.000057 0.008890
0.700000 0.000045 0.000038 0.007495
0.710000 0.000030 0.000025 0.006297
0.720000 0.000020 0.000017 0.005272
0.730000 0.000013 0.000011 0.004398
0.740000 0.000008 0.000007 0.003657
0.750000 0.000005 0.000005 0.003030
0.760000 0.000003 0.000003 0.002502
0.770000 0.000002 0.000002 0.002058
0.780000 0.000001 0.000001 0.001687
0.790000 0.000001 0.000001 0.001379
0.800000 0.000001 0.000000 0.001122
0.810000 0.000000 0.000000 0.000910
0.820000 0.000000 0.000000 0.000736
0.830000 0.000000 0.000000 0.000593
0.840000 0.000000 0.000000 0.000476
0.850000 0.000000 0.000000 0.000380
0.860000 0.000000 0.000000 0.000303
0.870000 0.000000 0.000000 0.000241
0.880000 0.000000 0.000000 0.000190
0.890000 0.000000 0.000000 0.000150
0.900000 0.000000 0.000000 0.000118
0.910000 0.000000 0.000000 0.000092
0.920000 0.000000 0.000000 0.000072
0.930000 0.000000 0.000000 0.000056
0.940000 0.000000 0.000000 0.000044
0.950000 0.000000 0.000000 0.000034
0.960000 0.000000 0.000000 0.000026
0.970000 0.000000 0.000000 0.000021
0.980000 0.000000 0.000000 0.000017
0.990000 0.000000 0.000000 0.000015
1.000000 0.000000 0.000000 0.000014
