0.000000 1.000000 1.000000 0.999585
0.010000 0.999951 0.999955 0.999073
0.020000 0.999877 0.999886 0.997956
0.030000 0.999766 0.999783 0.996624
0.040000 0.999609 0.999636 0.995054
0.050000 0.999389 0.999429 0.993220
0.060000 0.999090 0.999147 0.991097
0.070000 0.998688 0.998767 0.988655
0.080000 0.998158 0.998263 0.985867
0.090000 0.997468 0.997605 0.982703
0.100000 0.996580 0.996757 0.979134
0.110000 0.995453 0.995675 0.975128
0.120000 0.994036 0.994311 0.970657
0.130000 0.992273 0.992610 0.965690
0.140000 0.990101 0.990506 0.960197
0.150000 0.987450 0.987932 0.954150
0.160000 0.984244 0.984809 0.947520
0.170000 0.980400 0.981054 0.940283
0.180000 0.975829 0.976576 0.932413
0.190000 0.970438 0.971282 0.923888
0.200000 0.964132 0.965072 0.914688
0.210000 0.956811 0.957846 0.904796
0.220000 0.948378 0.949503 0.894198
0.230000 0.938738 0.939944 0.882884
0.240000 0.927799 0.929073 0.870845
0.250000 0.915476 0.916802 0.858080
0.260000 0.901695 0.903054 0.844588
0.270000 0.886394 0.887761 0.830376
0.280000 0.869525 0.870872 0.815452
0.290000 0.851057 0.852353 0.799832
0.300000 0.830978 0.832191 0.783533
0.310000 0.809298 0.810394 0.766580
0.320000 0.786051 0.786992 0.748999
0.330000 0.761290 0.762041 0.730824
0.340000 0.735096 0.735622 0.712090
0.350000 0.707571 0.707840 0.692839
0.360000 0.678841 0.678822 0.673114
0.370000 0.649050 0.648720 0.652963
0.380000 0.618365 0.617703 0.632438
0.390000 0.586967 0.585958 0.611592
0.400000 0.555048 0.553686 0.590481
0.410000 0.522812 0.521096 0.569163
0.420000 0.490468 0.488404 0.547697
0.430000 0.458225 0.455828 0.526145
0.440000 0.426292 0.423582 0.504566
0.450000 0.394868 0.391872 0.483021
0.460000 0.364145 0.360895 0.461571
0.470000 0.334300 0.330833 0.440275
0.480000 0.305493 0.301849 0.419190
0.490000 0.277866 0.274088 0.398373
0.500000 0.251539 0.247672 0.377876
0.510000 0.226611 0.222699 0.357750
0.520000 0.203157 0.199243 0.338043
0.530000 0.181231 0.177356 0.318798
0.540000 0.160863 0.157065 0.300057
0.550000 0.142061 0.138375 0.281856
0.560000 0.124816 0.121272 0.264227
0.570000 0.109098 0.105721 0.247199
0.580000 0.094862 0.091673 0.230795
0.590000 0.082050 0.079065 0.215035
0.600000 0.070592 0.067822 0.199936
0.610000 0.060410 0.057860 0.185507
0.620000 0.051418 0.049090 0.171757
0.630000 0.043527 0.041419 0.158688
0.640000 0.036646 0.034752 0.146300
0.650000 0.030684 0.028995 0.134589
0.660000 0.025550 0.024056 0.123548
0.670000 0.021156 0.019846 0.113165
0.680000 0.017421 0.016279 0.103428
0.690000 0.014264 0.013277 0.094321
0.700000 0.011613 0.010767 0.085826
0.710000 0.009402 0.008681 0.077922
0.720000 0.007568 0.006959 0.070587
0.730000 0.006057 0.005546 0.063800
0.740000 0.004820 0.004394 0.057536
0.750000 0.003814 0.003461 0.051769
0.760000 0.003000 0.002711 0.046474
0.770000 0.002346 0.002110 0.041626
0.780000 0.001824 0.001633 0.037198
0.790000 0.001410 0.001257 0.033164
0.800000 0.001083 0.000961 0.029500
0.810000 0.000827 0.000731 0.026180
0.820000 0.000628 0.000552 0.023180
0.830000 0.000474 0.000415 0.020477
0.840000 0.000356 0.000310 0.018046
0.850000 0.000265 0.000230 0.015867
0.860000 0.000197 0.000170 0.013920
0.870000 0.000145 0.000125 0.012183
0.880000 0.000106 0.000091 0.010640
0.890000 0.000077 0.000066 0.009272
0.900000 0.000056 0.000047 0.008064
0.910000 0.000040 0.000034 0.007001
0.920000 0.000029 0.000024 0.006071
0.930000 0.000020 0.000017 0.005262
0.940000 0.000014 0.000012 0.004565
0.950000 0.000010 0.000008 0.003972
0.960000 0.000007 0.000006 0.003478
0.970000 0.000005 0.000004 0.003081
0.980000 0.000003 0.000003 0.002785
0.990000 0.000003 0.000002 0.002597
1.000000 0.000002 0.000001 0.002531
