0.000000 1.000000 1.000000 0.999768
0.010000 0.999985 0.999986 0.999482
0.020000 0.999961 0.999964 0.998857
0.030000 0.999925 0.999932 0.998111
0.040000 0.999875 0.999885 0.997229
0.050000 0.999804 0.999819 0.996198
0.060000 0.999706 0.999728 0.994999
0.070000 0.999574 0.999605 0.993616
0.080000 0.999398 0.999441 0.992031
0.090000 0.999167 0.999224 0.990224
0.100000 0.998867 0.998941 0.988176
0.110000 0.998481 0.998576 0.985866
0.120000 0.997989 0.998109 0.983273
0.130000 0.997369 0.997520 0.980375
0.140000 0.996594 0.996780 0.977149
0.150000 0.995634 0.995861 0.973575
0.160000 0.994453 0.994727 0.969628
0.170000 0.993012 0.993339 0.965286
0.180000 0.991267 0.991654 0.960527
0.190000 0.989169 0.989623 0.955330
0.200000 0.986664 0.987191 0.949671
0.210000 0.983695 0.984300 0.943532
0.220000 0.980199 0.980887 0.936892
0.230000 0.976110 0.976885 0.929733
0.240000 0.971357 0.972222 0.922037
0.250000 0.965868 0.966825 0.913789
0.260000 0.959570 0.960618 0.904976
0.270000 0.952389 0.953523 0.895586
0.280000 0.944249 0.945466 0.885609
0.290000 0.935081 0.936372 0.875038
0.300000 0.924815 0.926169 0.863870
0.310000 0.913389 0.914791 0.852101
0.320000 0.900746 0.902181 0.839734
0.330000 0.886839 0.888287 0.826772
0.340000 0.871631 0.873069 0.813222
0.350000 0.855096 0.856499 0.799095
0.360000 0.837221 0.838562 0.784403
0.370000 0.818007 0.819259 0.769165
0.380000 0.797472 0.798604 0.753398
0.390000 0.775649 0.776631 0.737126
0.400000 0.752587 0.753390 0.720375
0.410000 0.728352 0.728946 0.703173
0.420000 0.703026 0.703386 0.685552
0.430000 0.676707 0.676808 0.667546
0.440000 0.649507 0.649328 0.649191
0.450000 0.621551 0.621075 0.630526
0.460000 0.592977 0.592190 0.611592
0.470000 0.563931 0.562826 0.592430
0.480000 0.534565 0.533139 0.573084
0.490000 0.505038 0.503294 0.553599
0.500000 0.475511 0.473457 0.534020
0.510000 0.446144 0.443792 0.514394
0.520000 0.417093 0.414462 0.494767
0.530000 0.388510 0.385624 0.475184
0.540000 0.360540 0.357424 0.455692
0.550000 0.333316 0.330001 0.436334
0.560000 0.306961 0.303480 0.417156
0.570000 0.281583 0.277972 0.398198
0.580000 0.257278 0.253572 0.379503
0.590000 0.234124 0.230359 0.361108
0.600000 0.212185 0.208398 0.343050
0.610000 0.191508 0.187733 0.325365
0.620000 0.172123 0.168393 0.308084
0.630000 0.154048 0.150393 0.291236
0.640000 0.137282 0.133731 0.274847
0.650000 0.121814 0.118391 0.258943
0.660000 0.107620 0.104344 0.243543
0.670000 0.094662 0.091552 0.228665
0.680000 0.082897 0.079965 0.214325
0.690000 0.072270 0.069527 0.200533
0.700000 0.062724 0.060174 0.187299
0.710000 0.054192 0.051839 0.174629
0.720000 0.046608 0.044451 0.162527
0.730000 0.039902 0.037939 0.150992
0.740000 0.034004 0.032228 0.140023
0.750000 0.028844 0.027248 0.129616
0.760000 0.024352 0.022928 0.119764
0.770000 0.020465 0.019202 0.110458
0.780000 0.017117 0.016004 0.101687
0.790000 0.014249 0.013274 0.093441
0.800000 0.011805 0.010957 0.085704
0.810000 0.009734 0.009001 0.078461
0.820000 0.007988 0.007358 0.071697
0.830000 0.006524 0.005986 0.065395
0.840000 0.005302 0.004846 0.059536
0.850000 0.004289 0.003903 0.054102
0.860000 0.003452 0.003129 0.049075
0.870000 0.002765 0.002496 0.044438
0.880000 0.002204 0.001981 0.040171
0.890000 0.001748 0.001564 0.036257
0.900000 0.001380 0.001229 0.032681
0.910000 0.001084 0.000961 0.029427
0.920000 0.000847 0.000748 0.026484
0.930000 0.000659 0.000579 0.023842
0.940000 0.000510 0.000446 0.021494
0.950000 0.000393 0.000342 0.019442
0.960000 0.000302 0.000261 0.017690
0.970000 0.000232 0.000198 0.016256
0.980000 0.000181 0.000149 0.015166
0.990000 0.000148 0.000112 0.014465
1.000000 0.000136 0.000084 0.014218
