0.000000 1.000000 1.000000 0.999977
0.010000 1.000000 1.000000 0.999949
0.020000 1.000000 1.000000 0.999886
0.030000 0.999999 0.999999 0.999812
0.040000 0.999999 0.999999 0.999724
0.050000 0.999998 0.999998 0.999620
0.060000 0.999997 0.999998 0.999498
0.070000 0.999996 0.999997 0.999356
0.080000 0.999994 0.999995 0.999193
0.090000 0.999992 0.999993 0.999004
0.100000 0.999989 0.999990 0.998788
0.110000 0.999985 0.999987 0.998542
0.120000 0.999980 0.999982 0.998262
0.130000 0.999973 0.999976 0.997945
0.140000 0.999965 0.999968 0.997586
0.150000 0.999953 0.999958 0.997183
0.160000 0.999939 0.999946 0.996731
0.170000 0.999921 0.999929 0.996224
0.180000 0.999898 0.999908 0.995659
0.190000 0.999870 0.999882 0.995031
0.200000 0.999834 0.999850 0.994333
0.210000 0.999789 0.999809 0.993560
0.220000 0.999734 0.999758 0.992706
0.230000 0.999666 0.999696 0.991764
0.240000 0.999583 0.999619 0.990729
0.250000 0.999482 0.999526 0.989592
0.260000 0.999359 0.999411 0.988348
0.270000 0.999210 0.999273 0.986987
0.280000 0.999031 0.999105 0.985503
0.290000 0.998815 0.998903 0.983888
0.300000 0.998558 0.998662 0.982132
0.310000 0.998251 0.998373 0.980228
0.320000 0.997887 0.998030 0.978167
0.330000 0.997457 0.997623 0.975940
0.340000 0.996951 0.997144 0.973538
0.350000 0.996358 0.996579 0.970951
0.360000 0.995664 0.995919 0.968171
0.370000 0.994857 0.995148 0.965187
0.380000 0.993921 0.994251 0.961991
0.390000 0.992839 0.993213 0.958574
0.400000 0.991593 0.992014 0.954925
0.410000 0.990163 0.990635 0.951035
0.420000 0.988528 0.989056 0.946896
0.430000 0.986666 0.987252 0.942498
0.440000 0.984551 0.985199 0.937834
0.450000 0.982158 0.982872 0.932893
0.460000 0.979459 0.980242 0.927669
0.470000 0.976427 0.977280 0.922153
0.480000 0.973031 0.973958 0.916339
0.490000 0.969241 0.970242 0.910219
0.500000 0.965025 0.966102 0.903788
0.510000 0.960351 0.961504 0.897039
0.520000 0.955188 0.956415 0.889967
0.530000 0.949502 0.950801 0.882569
0.540000 0.943263 0.944631 0.874841
0.550000 0.936437 0.937871 0.866779
0.560000 0.928997 0.930489 0.858382
0.570000 0.920912 0.922457 0.849649
0.580000 0.912155 0.913746 0.840580
0.590000 0.902704 0.904329 0.831175
0.600000 0.892534 0.894185 0.821435
0.610000 0.881629 0.883292 0.811365
0.620000 0.869971 0.871635 0.800966
0.630000 0.857552 0.859202 0.790245
0.640000 0.844362 0.845983 0.779206
0.650000 0.830401 0.831977 0.767858
0.660000 0.815670 0.817186 0.756206
0.670000 0.800178 0.801615 0.744261
0.680000 0.783938 0.785279 0.732033
0.690000 0.766967 0.768196 0.719532
0.700000 0.749291 0.750391 0.706771
0.710000 0.730939 0.731892 0.693762
0.720000 0.711946 0.712737 0.680521
0.730000 0.692352 0.692966 0.667062
0.740000 0.672203 0.672626 0.653401
0.750000 0.651550 0.651769 0.639557
0.760000 0.630446 0.630451 0.625547
0.770000 0.608951 0.608733 0.611391
0.780000 0.587127 0.586679 0.597110
0.790000 0.565040 0.564355 0.582727
0.800000 0.542756 0.541833 0.568264
0.810000 0.520345 0.519183 0.553747
0.820000 0.497879 0.496479 0.539204
0.830000 0.475427 0.473794 0.524663
0.840000 0.453061 0.451200 0.510158
0.850000 0.430851 0.428770 0.495722
0.860000 0.408866 0.406575 0.481397
0.870000 0.387173 0.384682 0.467226
0.880000 0.365838 0.363157 0.453261
0.890000 0.344925 0.342061 0.439559
0.900000 0.324497 0.321452 0.426189
0.910000 0.304617 0.301385 0.413232
0.920000 0.285354 0.281906 0.400783
0.930000 0.266788 0.263059 0.388956
0.940000 0.249022 0.244883 0.377888
0.950000 0.232206 0.227409 0.367748
0.960000 0.216573 0.210664 0.358738
0.970000 0.202507 0.194669 0.351106
0.980000 0.190658 0.179438 0.345156
0.990000 0.182145 0.164983 0.341261
1.000000 0.178899 0.151306 0.339879
