0.000000 1.000000 1.000000 0.999979
0.010000 1.000000 1.000000 0.999954
0.020000 1.000000 1.000000 0.999897
0.030000 0.999999 1.000000 0.999830
0.040000 0.999999 0.999999 0.999751
0.050000 0.999999 0.999999 0.999657
0.060000 0.999998 0.999998 0.999547
0.070000 0.999997 0.999997 0.999419
0.080000 0.999996 0.999996 0.999271
0.090000 0.999994 0.999994 0.999101
0.100000 0.999991 0.999992 0.998906
0.110000 0.999988 0.999990 0.998683
0.120000 0.999984 0.999986 0.998430
0.130000 0.999978 0.999981 0.998143
0.140000 0.999971 0.999975 0.997819
0.150000 0.999962 0.999966 0.997454
0.160000 0.999951 0.999956 0.997044
0.170000 0.999936 0.999943 0.996585
0.180000 0.999917 0.999926 0.996073
0.190000 0.999894 0.999905 0.995503
0.200000 0.999865 0.999878 0.994869
0.210000 0.999829 0.999845 0.994167
0.220000 0.999784 0.999804 0.993391
0.230000 0.999728 0.999753 0.992535
0.240000 0.999660 0.999690 0.991593
0.250000 0.999577 0.999613 0.990558
0.260000 0.999475 0.999520 0.989424
0.270000 0.999353 0.999406 0.988184
0.280000 0.999204 0.999268 0.986830
0.290000 0.999026 0.999101 0.985355
0.300000 0.998813 0.998902 0.983751
0.310000 0.998558 0.998663 0.982009
0.320000 0.998255 0.998378 0.980123
0.330000 0.997897 0.998040 0.978082
0.340000 0.997475 0.997640 0.975880
0.350000 0.996978 0.997170 0.973506
0.360000 0.996396 0.996617 0.970952
0.370000 0.995718 0.995970 0.968208
0.380000 0.994929 0.995217 0.965267
0.390000 0.994015 0.994342 0.962118
0.400000 0.992960 0.993330 0.958753
0.410000 0.991747 0.992164 0.955162
0.420000 0.990356 0.990823 0.951337
0.430000 0.988767 0.989288 0.947269
0.440000 0.986959 0.987537 0.942948
0.450000 0.984907 0.985547 0.938367
0.460000 0.982586 0.983291 0.933518
0.470000 0.979972 0.980744 0.928391
0.480000 0.977035 0.977878 0.922981
0.490000 0.973749 0.974664 0.917279
0.500000 0.970082 0.971071 0.911280
0.510000 0.966005 0.967069 0.904976
0.520000 0.961487 0.962625 0.898363
0.530000 0.956496 0.957709 0.891434
0.540000 0.951001 0.952286 0.884187
0.550000 0.944971 0.946326 0.876617
0.560000 0.938376 0.939797 0.868722
0.570000 0.931186 0.932667 0.860499
0.580000 0.923372 0.924908 0.851946
0.590000 0.914908 0.916492 0.843064
0.600000 0.905770 0.907392 0.833853
0.610000 0.895934 0.897585 0.824315
0.620000 0.885383 0.887051 0.814450
0.630000 0.874100 0.875773 0.804264
0.640000 0.862073 0.863737 0.793760
0.650000 0.849293 0.850934 0.782943
0.660000 0.835757 0.837360 0.771820
0.670000 0.821465 0.823015 0.760398
0.680000 0.806423 0.807902 0.748686
0.690000 0.790642 0.792034 0.736692
0.700000 0.774137 0.775425 0.724428
0.710000 0.756929 0.758097 0.711905
0.720000 0.739046 0.740076 0.699136
0.730000 0.720518 0.721395 0.686133
0.740000 0.701384 0.702092 0.672913
0.750000 0.681683 0.682209 0.659491
0.760000 0.661465 0.661795 0.645884
0.770000 0.640779 0.640902 0.632110
0.780000 0.619680 0.619586 0.618189
0.790000 0.598228 0.597910 0.604143
0.800000 0.576485 0.575935 0.589994
0.810000 0.554514 0.553730 0.575765
0.820000 0.532383 0.531362 0.561485
0.830000 0.510160 0.508903 0.547181
0.840000 0.487914 0.486422 0.532887
0.850000 0.465713 0.463991 0.518636
0.860000 0.443627 0.441680 0.504470
0.870000 0.421725 0.419560 0.490433
0.880000 0.400075 0.397697 0.476576
0.890000 0.378743 0.376157 0.462960
0.900000 0.357798 0.355002 0.449654
0.910000 0.337311 0.334289 0.436740
0.920000 0.317358 0.314075 0.424316
0.930000 0.298029 0.294408 0.412498
0.940000 0.279444 0.275335 0.401428
0.950000 0.261770 0.256894 0.391275
0.960000 0.245271 0.239122 0.382246
0.970000 0.230370 0.222047 0.374593
0.980000 0.217782 0.205695 0.368623
0.990000 0.208719 0.190082 0.364715
1.000000 0.205261 0.175223 0.363327
