0.000000 1.000000 1.000000 0.999955
0.010000 0.999999 1.000000 0.999899
0.020000 0.999999 0.999999 0.999777
0.030000 0.999997 0.999998 0.999630
0.040000 0.999995 0.999996 0.999457
0.050000 0.999993 0.999994 0.999253
0.060000 0.999989 0.999990 0.999015
0.070000 0.999984 0.999986 0.998738
0.080000 0.999977 0.999980 0.998419
0.090000 0.999968 0.999972 0.998053
0.100000 0.999956 0.999961 0.997633
0.110000 0.999941 0.999947 0.997156
0.120000 0.999920 0.999928 0.996615
0.130000 0.999893 0.999904 0.996004
0.140000 0.999859 0.999873 0.995316
0.150000 0.999816 0.999833 0.994544
0.160000 0.999761 0.999782 0.993681
0.170000 0.999692 0.999719 0.992719
0.180000 0.999606 0.999639 0.991650
0.190000 0.999498 0.999539 0.990464
0.200000 0.999365 0.999415 0.989153
0.210000 0.999202 0.999263 0.987708
0.220000 0.999001 0.999075 0.986118
0.230000 0.998757 0.998847 0.984373
0.240000 0.998462 0.998568 0.982464
0.250000 0.998105 0.998232 0.980379
0.260000 0.997677 0.997827 0.978107
0.270000 0.997165 0.997341 0.975637
0.280000 0.996556 0.996762 0.972957
0.290000 0.995834 0.996075 0.970057
0.300000 0.994984 0.995262 0.966924
0.310000 0.993985 0.994305 0.963546
0.320000 0.992818 0.993183 0.959912
0.330000 0.991459 0.991875 0.956011
0.340000 0.989884 0.990354 0.951830
0.350000 0.988065 0.988595 0.947358
0.360000 0.985975 0.986568 0.942585
0.370000 0.983581 0.984241 0.937500
0.380000 0.980852 0.981583 0.932091
0.390000 0.977753 0.978557 0.926350
0.400000 0.974247 0.975128 0.920267
0.410000 0.970297 0.971256 0.913834
0.420000 0.965865 0.966903 0.907042
0.430000 0.960910 0.962028 0.899884
0.440000 0.955394 0.956590 0.892355
0.450000 0.949277 0.950548 0.884447
0.460000 0.942518 0.943861 0.876158
0.470000 0.935080 0.936490 0.867483
0.480000 0.926926 0.928395 0.858420
0.490000 0.918021 0.919542 0.848968
0.500000 0.908333 0.909896 0.839127
0.510000 0.897833 0.899426 0.828899
0.520000 0.886496 0.888107 0.818285
0.530000 0.874301 0.875915 0.807290
0.540000 0.861234 0.862835 0.795919
0.550000 0.847283 0.848854 0.784179
0.560000 0.832445 0.833968 0.772077
0.570000 0.816722 0.818179 0.759623
0.580000 0.800124 0.801494 0.746827
0.590000 0.782666 0.783931 0.733702
0.600000 0.764373 0.765511 0.720261
0.610000 0.745274 0.746267 0.706519
0.620000 0.725409 0.726238 0.692490
0.630000 0.704821 0.705468 0.678194
0.640000 0.683563 0.684012 0.663647
0.650000 0.661695 0.661930 0.648868
0.660000 0.639280 0.639287 0.633879
0.670000 0.616389 0.616158 0.618701
0.680000 0.593096 0.592619 0.603354
0.690000 0.569482 0.568752 0.587863
0.700000 0.545629 0.544642 0.572250
0.710000 0.521621 0.520378 0.556540
0.720000 0.497546 0.496048 0.540756
0.730000 0.473491 0.471743 0.524924
0.740000 0.449543 0.447552 0.509069
0.750000 0.425787 0.423564 0.493217
0.760000 0.402306 0.399866 0.477392
0.770000 0.379182 0.376539 0.461622
0.780000 0.356491 0.353662 0.445930
0.790000 0.334305 0.331310 0.430344
0.800000 0.312691 0.309550 0.414890
0.810000 0.291710 0.288445 0.399594
0.820000 0.271415 0.268051 0.384482
0.830000 0.251856 0.248414 0.369582
0.840000 0.233073 0.229577 0.354923
0.850000 0.215100 0.211574 0.340533
0.860000 0.197964 0.194429 0.326445
0.870000 0.181685 0.178163 0.312691
0.880000 0.166275 0.162786 0.299311
0.890000 0.151742 0.148303 0.286346
0.900000 0.138087 0.134711 0.273846
0.910000 0.125306 0.122003 0.261868
0.920000 0.113394 0.110164 0.250481
0.930000 0.102347 0.099175 0.239769
0.940000 0.092166 0.089013 0.229834
0.950000 0.082869 0.079648 0.220802
0.960000 0.074509 0.071050 0.212830
0.970000 0.067202 0.063186 0.206114
0.980000 0.061191 0.056017 0.200900
0.990000 0.056941 0.049508 0.197497
1.000000 0.055334 0.043618 0.196291
