0.000000 1.000000 1.000000 0.997802
0.010000 0.998906 0.998953 0.995097
0.020000 0.997241 0.997349 0.989205
0.030000 0.994830 0.995017 0.982237
0.040000 0.991471 0.991752 0.974108
0.050000 0.986937 0.987326 0.964738
0.060000 0.980973 0.981482 0.954055
0.070000 0.973311 0.973943 0.941995
0.080000 0.963669 0.964424 0.928506
0.090000 0.951769 0.952634 0.913547
0.100000 0.937340 0.938295 0.897093
0.110000 0.920141 0.921151 0.879132
0.120000 0.899966 0.900987 0.859671
0.130000 0.876665 0.877642 0.838733
0.140000 0.850153 0.851022 0.816360
0.150000 0.820425 0.821114 0.792610
0.160000 0.787557 0.787993 0.767562
0.170000 0.751721 0.751831 0.741310
0.180000 0.713177 0.712893 0.713965
0.190000 0.672272 0.671536 0.685653
0.200000 0.629432 0.628201 0.656512
0.210000 0.585146 0.583396 0.626694
0.220000 0.539953 0.537677 0.596356
0.230000 0.494421 0.491634 0.565666
0.240000 0.449124 0.445863 0.534792
0.250000 0.404625 0.400945 0.503906
0.260000 0.361454 0.357425 0.473176
0.270000 0.320088 0.315795 0.442769
0.280000 0.280938 0.276472 0.412843
0.290000 0.244339 0.239795 0.383549
0.300000 0.210541 0.206013 0.355025
0.310000 0.179710 0.175284 0.327399
0.320000 0.151925 0.147678 0.300782
0.330000 0.127188 0.123185 0.275272
0.340000 0.105430 0.101720 0.250951
0.350000 0.086522 0.083142 0.227882
0.360000 0.070288 0.067257 0.206116
0.370000 0.056517 0.053843 0.185683
0.380000 0.044976 0.042653 0.166601
0.390000 0.035419 0.033432 0.148871
0.400000 0.027600 0.025925 0.132482
0.410000 0.021279 0.019889 0.117410
0.420000 0.016230 0.015094 0.103618
0.430000 0.012247 0.011331 0.091062
0.440000 0.009140 0.008413 0.079690
0.450000 0.006748 0.006178 0.069441
0.460000 0.004927 0.004487 0.060251
0.470000 0.003557 0.003223 0.052053
0.480000 0.002540 0.002290 0.044775
0.490000 0.001793 0.001608 0.038347
0.500000 0.001252 0.001117 0.032699
0.510000 0.000864 0.000767 0.027760
0.520000 0.000589 0.000521 0.023462
0.530000 0.000398 0.000350 0.019743
0.540000 0.000265 0.000232 0.016539
0.550000 0.000175 0.000152 0.013793
0.560000 0.000114 0.000099 0.011451
0.570000 0.000073 0.000063 0.009464
0.580000 0.000047 0.000040 0.007787
0.590000 0.000029 0.000025 0.006378
0.600000 0.000018 0.000016 0.005200
0.610000 0.000011 0.000010 0.004220
0.620000 0.000007 0.000006 0.003409
0.630000 0.000004 0.000003 0.002742
0.640000 0.000002 0.000002 0.002194
0.650000 0.000001 0.000001 0.001748
0.660000 0.000001 0.000001 0.001387
0.670000 0.000000 0.000000 0.001095
0.680000 0.000000 0.000000 0.000860
0.690000 0.000000 0.000000 0.000673
0.700000 0.000000 0.000000 0.000524
0.710000 0.000000 0.000000 0.000406
0.720000 0.000000 0.000000 0.000313
0.730000 0.000000 0.000000 0.000240
0.740000 0.000000 0.000000 0.000183
0.750000 0.000000 0.000000 0.000139
0.760000 0.000000 0.000000 0.000105
0.770000 0.000000 0.000000 0.000079
0.780000 0.000000 0.000000 0.000060
0.790000 0.000000 0.000000 0.000044
0.800000 0.000000 0.000000 0.000033
0.810000 0.000000 0.000000 0.000024
0.820000 0.000000 0.000000 0.000018
0.830000 0.000000 0.000000 0.000013
0.840000 0.000000 0.000000 0.000010
0.850000 0.000000 0.000000 0.000007
0.860000 0.000000 0.000000 0.000005
0.870000 0.000000 0.000000 0.000004
0.880000 0.000000 0.000000 0.000003
0.890000 0.000000 0.000000 0.000002
0.900000 0.000000 0.000000 0.000001
0.910000 0.000000 0.000000 0.000001
0.920000 0.000000 0.000000 0.000001
0.930000 0.000000 0.000000 0.000000
0.940000 0.000000 0.000000 0.000000
0.950000 0.000000 0.000000 0.000000
0.960000 0.000000 0.000000 0.000000
0.970000 0.000000 0.000000 0.000000
0.980000 0.000000 0.000000 0.000000
0.990000 0.000000 0.000000 0.000000
1.000000 0.000000 0.000000 0.000000
