0.000000 1.000000 1.000000 0.997745
0.010000 0.998855 0.998904 0.994970
0.020000 0.997113 0.997225 0.988928
0.030000 0.994592 0.994785 0.981782
0.040000 0.991083 0.991372 0.973448
0.050000 0.986348 0.986748 0.963844
0.060000 0.980127 0.980648 0.952899
0.070000 0.972142 0.972788 0.940549
0.080000 0.962106 0.962874 0.926742
0.090000 0.949736 0.950611 0.911440
0.100000 0.934759 0.935719 0.894618
0.110000 0.916934 0.917943 0.876268
0.120000 0.896061 0.897072 0.856401
0.130000 0.871999 0.872954 0.835043
0.140000 0.844676 0.845506 0.812239
0.150000 0.814101 0.814735 0.788055
0.160000 0.780374 0.780737 0.762574
0.170000 0.743689 0.743706 0.735894
0.180000 0.704329 0.703936 0.708134
0.190000 0.662669 0.661809 0.679423
0.200000 0.619158 0.617792 0.649908
0.210000 0.574310 0.572417 0.619743
0.220000 0.528683 0.526261 0.589093
0.230000 0.482858 0.479929 0.558128
0.240000 0.437421 0.434027 0.527022
0.250000 0.392939 0.389140 0.495949
0.260000 0.349937 0.345810 0.465080
0.270000 0.308886 0.304518 0.434583
0.280000 0.270183 0.265670 0.404618
0.290000 0.234147 0.229584 0.375335
0.300000 0.201006 0.196486 0.346871
0.310000 0.170903 0.166511 0.319352
0.320000 0.143893 0.139705 0.292888
0.330000 0.119955 0.116031 0.267573
0.340000 0.098998 0.095384 0.243485
0.350000 0.080874 0.077601 0.220684
0.360000 0.065390 0.062474 0.199214
0.370000 0.052322 0.049766 0.179103
0.380000 0.041428 0.039221 0.160363
0.390000 0.032455 0.030580 0.142990
0.400000 0.025155 0.023585 0.126968
0.410000 0.019287 0.017992 0.112268
0.420000 0.014627 0.013576 0.098850
0.430000 0.010972 0.010131 0.086664
0.440000 0.008140 0.007477 0.075655
0.450000 0.005972 0.005457 0.065759
0.460000 0.004333 0.003938 0.056910
0.470000 0.003108 0.002810 0.049036
0.480000 0.002204 0.001983 0.042066
0.490000 0.001546 0.001384 0.035928
0.500000 0.001071 0.000954 0.030549
0.510000 0.000734 0.000651 0.025860
0.520000 0.000497 0.000439 0.021793
0.530000 0.000333 0.000292 0.018282
0.540000 0.000220 0.000193 0.015268
0.550000 0.000144 0.000126 0.012693
0.560000 0.000093 0.000081 0.010505
0.570000 0.000059 0.000051 0.008654
0.580000 0.000037 0.000032 0.007096
0.590000 0.000023 0.000020 0.005792
0.600000 0.000014 0.000012 0.004706
0.610000 0.000009 0.000008 0.003806
0.620000 0.000005 0.000005 0.003064
0.630000 0.000003 0.000003 0.002455
0.640000 0.000002 0.000002 0.001958
0.650000 0.000001 0.000001 0.001554
0.660000 0.000001 0.000001 0.001228
0.670000 0.000000 0.000000 0.000965
0.680000 0.000000 0.000000 0.000756
0.690000 0.000000 0.000000 0.000589
0.700000 0.000000 0.000000 0.000456
0.710000 0.000000 0.000000 0.000352
0.720000 0.000000 0.000000 0.000270
0.730000 0.000000 0.000000 0.000207
0.740000 0.000000 0.000000 0.000157
0.750000 0.000000 0.000000 0.000119
0.760000 0.000000 0.000000 0.000090
0.770000 0.000000 0.000000 0.000067
0.780000 0.000000 0.000000 0.000050
0.790000 0.000000 0.000000 0.000037
0.800000 0.000000 0.000000 0.000027
0.810000 0.000000 0.000000 0.000020
0.820000 0.000000 0.000000 0.000015
0.830000 0.000000 0.000000 0.000011
0.840000 0.000000 0.000000 0.000008
0.850000 0.000000 0.000000 0.000006
0.860000 0.000000 0.000000 0.000004
0.870000 0.000000 0.000000 0.000003
0.880000 0.000000 0.000000 0.000002
0.890000 0.000000 0.000000 0.000001
0.900000 0.000000 0.000000 0.000001
0.910000 0.000000 0.000000 0.000001
0.920000 0.000000 0.000000 0.000000
0.930000 0.000000 0.000000 0.000000
0.940000 0.000000 0.000000 0.000000
0.950000 0.000000 0.000000 0.000000
0.960000 0.000000 0.000000 0.000000
0.970000 0.000000 0.000000 0.000000
0.980000 0.000000 0.000000 0.000000
0.990000 0.000000 0.000000 0.000000
1.000000 0.000000 0.000000 0.000000
