0.000000 1.000000 1.000000 0.961717
0.010000 0.904586 0.903615 0.915644
0.020000 0.776527 0.773115 0.818813
0.030000 0.627512 0.620911 0.713720
0.040000 0.474063 0.464791 0.605336
0.050000 0.332792 0.322450 0.498778
0.060000 0.215902 0.206393 0.398705
0.070000 0.128770 0.121460 0.308801
0.080000 0.070230 0.065535 0.231468
0.090000 0.034820 0.032349 0.167738
0.100000 0.015587 0.014584 0.117402
0.110000 0.006246 0.005996 0.079293
0.120000 0.002216 0.002246 0.051633
0.130000 0.000685 0.000766 0.032388
0.140000 0.000180 0.000237 0.019555
0.150000 0.000039 0.000067 0.011356
0.160000 0.000006 0.000017 0.006337
0.170000 0.000001 0.000004 0.003395
0.180000 -0.000000 0.000001 0.001745
0.190000 -0.000000 0.000000 0.000860
0.200000 -0.000000 0.000000 0.000406
0.210000 0.000000 0.000000 0.000183
0.220000 0.000000 0.000000 0.000079
0.230000 0.000000 0.000000 0.000033
0.240000 -0.000000 0.000000 0.000013
0.250000 -0.000000 0.000000 0.000005
0.260000 0.000000 0.000000 0.000002
0.270000 0.000000 0.000000 0.000001
0.280000 -0.000000 0.000000 0.000000
0.290000 -0.000000 0.000000 0.000000
0.300000 0.000000 0.000000 0.000000
0.310000 0.000000 0.000000 0.000000
0.320000 -0.000000 0.000000 0.000000
0.330000 -0.000000 0.000000 0.000000
0.340000 0.000000 0.000000 0.000000
0.350000 0.000000 0.000000 0.000000
0.360000 -0.000000 0.000000 0.000000
0.370000 0.000000 0.000000 0.000000
0.380000 0.000000 0.000000 0.000000
0.390000 -0.000000 0.000000 0.000000
0.400000 -0.000000 0.000000 0.000000
0.410000 0.000000 0.000000 0.000000
0.420000 -0.000000 0.000000 0.000000
0.430000 -0.000000 0.000000 0.000000
0.440000 0.000000 0.000000 0.000000
0.450000 0.000000 0.000000 0.000000
0.460000 -0.000000 0.000000 0.000000
0.470000 0.000000 0.000000 0.000000
0.480000 0.000000 0.000000 0.000000
0.490000 -0.000000 0.000000 0.000000
0.500000 0.000000 0.000000 0.000000
0.510000 0.000000 0.000000 0.000000
0.520000 -0.000000 0.000000 0.000000
0.530000 0.000000 0.000000 0.000000
0.540000 0.000000 0.000000 0.000000
0.550000 -0.000000 0.000000 0.000000
0.560000 0.000000 0.000000 0.000000
0.570000 -0.000000 0.000000 0.000000
0.580000 -0.000000 0.000000 0.000000
0.590000 0.000000 0.000000 0.000000
0.600000 -0.000000 0.000000 0.000000
0.610000 -0.000000 0.000000 0.000000
0.620000 0.000000 0.000000 0.000000
0.630000 -0.000000 0.000000 0.000000
0.640000 0.000000 0.000000 0.000000
0.650000 0.000000 0.000000 0.000000
0.660000 -0.000000 0.000000 0.000000
0.670000 0.000000 0.000000 0.000000
0.680000 0.000000 0.000000 0.000000
0.690000 -0.000000 0.000000 0.000000
0.700000 0.000000 0.000000 0.000000
0.710000 -0.000000 0.000000 0.000000
0.720000 -0.000000 0.000000 0.000000
0.730000 0.000000 0.000000 0.000000
0.740000 -0.000000 0.000000 0.000000
0.750000 0.000000 0.000000 0.000000
0.760000 0.000000 0.000000 0.000000
0.770000 -0.000000 0.000000 0.000000
0.780000 0.000000 0.000000 0.000000
0.790000 -0.000000 0.000000 0.000000
0.800000 0.000000 0.000000 0.000000
0.810000 0.000000 0.000000 0.000000
0.820000 -0.000000 0.000000 0.000000
0.830000 0.000000 0.000000 0.000000
0.840000 -0.000000 0.000000 0.000000
0.850000 0.000000 0.000000 0.000000
0.860000 0.000000 0.000000 0.000000
0.870000 -0.000000 0.000000 0.000000
0.880000 0.000000 0.000000 0.000000
0.890000 -0.000000 0.000000 0.000000
0.900000 0.000000 0.000000 0.000000
0.910000 0.000000 0.000000 0.000000
0.920000 -0.000000 0.000000 0.000000
0.930000 0.000000 0.000000 0.000000
0.940000 -0.000000 0.000000 0.000000
0.950000 0.000000 0.000000 0.000000
0.960000 0.000000 0.000000 0.000000
0.970000 -0.000000 0.000000 0.000000
0.980000 0.000000 0.000000 0.000000
0.990000 -0.000000 0.000000 0.000000
1.000000 0.000000 0.000000 0.000000
