0.000000 1.000000 1.000000 0.999821
0.010000 0.999991 0.999992 0.999599
0.020000 0.999976 0.999979 0.999115
0.030000 0.999955 0.999959 0.998537
0.040000 0.999925 0.999931 0.997854
0.050000 0.999882 0.999892 0.997053
0.060000 0.999823 0.999837 0.996122
0.070000 0.999743 0.999763 0.995047
0.080000 0.999636 0.999664 0.993812
0.090000 0.999495 0.999532 0.992403
0.100000 0.999311 0.999360 0.990803
0.110000 0.999073 0.999136 0.988994
0.120000 0.998769 0.998850 0.986960
0.130000 0.998384 0.998486 0.984682
0.140000 0.997900 0.998027 0.982140
0.150000 0.997296 0.997453 0.979317
0.160000 0.996550 0.996741 0.976191
0.170000 0.995633 0.995864 0.972743
0.180000 0.994516 0.994793 0.968953
0.190000 0.993163 0.993491 0.964801
0.200000 0.991537 0.991922 0.960267
0.210000 0.989594 0.990042 0.955331
0.220000 0.987287 0.987805 0.949974
0.230000 0.984567 0.985159 0.944178
0.240000 0.981378 0.982050 0.937924
0.250000 0.977663 0.978418 0.931196
0.260000 0.973360 0.974202 0.923978
0.270000 0.968405 0.969336 0.916255
0.280000 0.962734 0.963754 0.908015
0.290000 0.956279 0.957386 0.899246
0.300000 0.948974 0.950165 0.889939
0.310000 0.940754 0.942023 0.880086
0.320000 0.931556 0.932894 0.869682
0.330000 0.921320 0.922716 0.858724
0.340000 0.909991 0.911432 0.847210
0.350000 0.897521 0.898991 0.835143
0.360000 0.883870 0.885349 0.822526
0.370000 0.869004 0.870472 0.809367
0.380000 0.852904 0.854336 0.795675
0.390000 0.835558 0.836931 0.781463
0.400000 0.816969 0.818256 0.766745
0.410000 0.797154 0.798326 0.751540
0.420000 0.776141 0.777171 0.735867
0.430000 0.753974 0.754835 0.719750
0.440000 0.730712 0.731377 0.703214
0.450000 0.706426 0.706870 0.686287
0.460000 0.681203 0.681403 0.668999
0.470000 0.655140 0.655076 0.651383
0.480000 0.628348 0.628002 0.633472
0.490000 0.600948 0.600307 0.615302
0.500000 0.573067 0.572122 0.596912
0.510000 0.544842 0.543589 0.578338
0.520000 0.516413 0.514853 0.559622
0.530000 0.487925 0.486062 0.540804
0.540000 0.459520 0.457365 0.521924
0.550000 0.431342 0.428909 0.503024
0.560000 0.403528 0.400836 0.484146
0.570000 0.376213 0.373285 0.465329
0.580000 0.349522 0.346384 0.446616
0.590000 0.323571 0.320251 0.428045
0.600000 0.298465 0.294996 0.409654
0.610000 0.274299 0.270712 0.391483
0.620000 0.251153 0.247482 0.373566
0.630000 0.229095 0.225373 0.355938
0.640000 0.208177 0.204439 0.338631
0.650000 0.188440 0.184716 0.321676
0.660000 0.169908 0.166230 0.305100
0.670000 0.152596 0.148990 0.288931
0.680000 0.136502 0.132995 0.273191
0.690000 0.121616 0.118229 0.257901
0.700000 0.107914 0.104667 0.243081
0.710000 0.095364 0.092273 0.228745
0.720000 0.083927 0.081005 0.214908
0.730000 0.073555 0.070811 0.201580
0.740000 0.064196 0.061636 0.188769
0.750000 0.055792 0.053419 0.176482
0.760000 0.048283 0.046097 0.164721
0.770000 0.041607 0.039607 0.153488
0.780000 0.035700 0.033881 0.142782
0.790000 0.030500 0.028856 0.132600
0.800000 0.025945 0.024468 0.122936
0.810000 0.021974 0.020655 0.113785
0.820000 0.018530 0.017358 0.105136
0.830000 0.015557 0.014523 0.096981
0.840000 0.013003 0.012096 0.089309
0.850000 0.010820 0.010029 0.082107
0.860000 0.008964 0.008278 0.075364
0.870000 0.007393 0.006802 0.069066
0.880000 0.006070 0.005563 0.063202
0.890000 0.004962 0.004530 0.057758
0.900000 0.004037 0.003671 0.052725
0.910000 0.003270 0.002962 0.048093
0.920000 0.002637 0.002378 0.043855
0.930000 0.002117 0.001901 0.040009
0.940000 0.001692 0.001513 0.036559
0.950000 0.001348 0.001198 0.033515
0.960000 0.001071 0.000944 0.030896
0.970000 0.000853 0.000741 0.028737
0.980000 0.000689 0.000579 0.027088
0.990000 0.000579 0.000450 0.026024
1.000000 0.000539 0.000348 0.025649
