0.000000 1.000000 1.000000 0.994420
0.010000 0.994575 0.994714 0.987569
0.020000 0.986428 0.986725 0.972706
0.030000 0.974910 0.975367 0.955287
0.040000 0.959368 0.959966 0.935225
0.050000 0.939198 0.939890 0.912478
0.060000 0.913894 0.914604 0.887052
0.070000 0.883102 0.883728 0.859003
0.080000 0.846671 0.847088 0.828441
0.090000 0.804687 0.804759 0.795528
0.100000 0.757497 0.757091 0.760477
0.110000 0.705714 0.704709 0.723548
0.120000 0.650193 0.648500 0.685041
0.130000 0.591991 0.589562 0.645292
0.140000 0.532309 0.529144 0.604661
0.150000 0.472418 0.468570 0.563527
0.160000 0.413585 0.409152 0.522274
0.170000 0.356992 0.352114 0.481284
0.180000 0.303673 0.298517 0.440925
0.190000 0.254464 0.249208 0.401545
0.200000 0.209966 0.204784 0.363462
0.210000 0.170538 0.165588 0.326956
0.220000 0.136302 0.131712 0.292267
0.230000 0.107167 0.103032 0.259591
0.240000 0.082866 0.079243 0.229075
0.250000 0.062999 0.059910 0.200820
0.260000 0.047079 0.044514 0.174881
0.270000 0.034574 0.032500 0.151269
0.280000 0.024947 0.023312 0.129956
0.290000 0.017682 0.016426 0.110881
0.300000 0.012308 0.011368 0.093951
0.310000 0.008413 0.007727 0.079050
0.320000 0.005645 0.005157 0.066044
0.330000 0.003718 0.003380 0.054787
0.340000 0.002403 0.002174 0.045124
0.350000 0.001524 0.001373 0.036898
0.360000 0.000948 0.000852 0.029953
0.370000 0.000578 0.000518 0.024138
0.380000 0.000346 0.000310 0.019309
0.390000 0.000203 0.000182 0.015333
0.400000 0.000117 0.000104 0.012085
0.410000 0.000066 0.000059 0.009455
0.420000 0.000036 0.000033 0.007341
0.430000 0.000020 0.000018 0.005657
0.440000 0.000010 0.000009 0.004327
0.450000 0.000005 0.000005 0.003284
0.460000 0.000003 0.000003 0.002474
0.470000 0.000001 0.000001 0.001849
0.480000 0.000001 0.000001 0.001372
0.490000 0.000000 0.000000 0.001010
0.500000 0.000000 0.000000 0.000737
0.510000 0.000000 0.000000 0.000534
0.520000 0.000000 0.000000 0.000384
0.530000 0.000000 0.000000 0.000274
0.540000 0.000000 0.000000 0.000194
0.550000 0.000000 0.000000 0.000136
0.560000 0.000000 0.000000 0.000095
0.570000 0.000000 0.000000 0.000066
0.580000 0.000000 0.000000 0.000045
0.590000 0.000000 0.000000 0.000031
0.600000 0.000000 0.000000 0.000021
0.610000 0.000000 0.000000 0.000014
0.620000 0.000000 0.000000 0.000009
0.630000 0.000000 0.000000 0.000006
0.640000 0.000000 0.000000 0.000004
0.650000 0.000000 0.000000 0.000003
0.660000 0.000000 0.000000 0.000002
0.670000 0.000000 0.000000 0.000001
0.680000 0.000000 0.000000 0.000001
0.690000 0.000000 0.000000 0.000000
0.700000 0.000000 0.000000 0.000000
0.710000 0.000000 0.000000 0.000000
0.720000 0.000000 0.000000 0.000000
0.730000 0.000000 0.000000 0.000000
0.740000 0.000000 0.000000 0.000000
0.750000 0.000000 0.000000 0.000000
0.760000 0.000000 0.000000 0.000000
0.770000 0.000000 0.000000 0.000000
0.780000 0.000000 0.000000 0.000000
0.790000 0.000000 0.000000 0.000000
0.800000 -0.000000 0.000000 0.000000
0.810000 -0.000000 0.000000 0.000000
0.820000 -0.000000 0.000000 0.000000
0.830000 -0.000000 0.000000 0.000000
0.840000 -0.000000 0.000000 0.000000
0.850000 0.000000 0.000000 0.000000
0.860000 0.000000 0.000000 0.000000
0.870000 0.000000 0.000000 0.000000
0.880000 0.000000 0.000000 0.000000
0.890000 -0.000000 0.000000 0.000000
0.900000 -0.000000 0.000000 0.000000
0.910000 -0.000000 0.000000 0.000000
0.920000 0.000000 0.000000 0.000000
0.930000 0.000000 0.000000 0.000000
0.940000 0.000000 0.000000 0.000000
0.950000 0.000000 0.000000 0.000000
0.960000 -0.000000 0.000000 0.000000
0.970000 -0.000000 0.000000 0.000000
0.980000 -0.000000 0.000000 0.000000
0.990000 0.000000 0.000000 0.000000
1.000000 0.000000 0.000000 0.000000
