0.000000 1.000000 1.000000 0.999570
0.010000 0.999948 0.999952 0.999039
0.020000 0.999868 0.999877 0.997880
0.030000 0.999749 0.999767 0.996500
0.040000 0.999581 0.999609 0.994873
0.050000 0.999345 0.999388 0.992972
0.060000 0.999025 0.999085 0.990772
0.070000 0.998595 0.998678 0.988243
0.080000 0.998027 0.998139 0.985356
0.090000 0.997290 0.997435 0.982080
0.100000 0.996342 0.996528 0.978386
0.110000 0.995138 0.995372 0.974243
0.120000 0.993627 0.993917 0.969619
0.130000 0.991749 0.992102 0.964484
0.140000 0.989438 0.989862 0.958809
0.150000 0.986621 0.987123 0.952564
0.160000 0.983217 0.983805 0.945722
0.170000 0.979141 0.979819 0.938256
0.180000 0.974300 0.975074 0.930142
0.190000 0.968600 0.969471 0.921358
0.200000 0.961940 0.962908 0.911885
0.210000 0.954222 0.955284 0.901705
0.220000 0.945345 0.946494 0.890807
0.230000 0.935214 0.936440 0.879179
0.240000 0.923738 0.925027 0.866817
0.250000 0.910833 0.912168 0.853718
0.260000 0.896428 0.897787 0.839886
0.270000 0.880465 0.881822 0.825326
0.280000 0.862900 0.864226 0.810051
0.290000 0.843710 0.844973 0.794076
0.300000 0.822892 0.824057 0.777423
0.310000 0.800463 0.801495 0.760117
0.320000 0.776465 0.777327 0.742188
0.330000 0.750966 0.751622 0.723670
0.340000 0.724054 0.724470 0.704604
0.350000 0.695845 0.695989 0.685030
0.360000 0.666475 0.666319 0.664997
0.370000 0.636101 0.635621 0.644554
0.380000 0.604898 0.604077 0.623755
0.390000 0.573056 0.571883 0.602655
0.400000 0.540778 0.539247 0.581312
0.410000 0.508273 0.506388 0.559785
0.420000 0.475754 0.473525 0.538137
0.430000 0.443434 0.440878 0.516429
0.440000 0.411523 0.408664 0.494722
0.450000 0.380220 0.377088 0.473078
0.460000 0.349713 0.346343 0.451559
0.470000 0.320175 0.316606 0.430223
0.480000 0.291760 0.288035 0.409129
0.490000 0.264602 0.260764 0.388333
0.500000 0.238812 0.234907 0.367887
0.510000 0.214479 0.210551 0.347841
0.520000 0.191669 0.187761 0.328242
0.530000 0.170423 0.166575 0.309133
0.540000 0.150761 0.147010 0.290553
0.550000 0.132680 0.129059 0.272538
0.560000 0.116161 0.112698 0.255117
0.570000 0.101165 0.097883 0.238318
0.580000 0.087638 0.084555 0.222163
0.590000 0.075514 0.072643 0.206669
0.600000 0.064716 0.062065 0.191849
0.610000 0.055162 0.052734 0.177714
0.620000 0.046761 0.044556 0.164267
0.630000 0.039421 0.037435 0.151511
0.640000 0.033049 0.031275 0.139442
0.650000 0.027553 0.025980 0.128054
0.660000 0.022842 0.021458 0.117337
0.670000 0.018830 0.017622 0.107280
0.680000 0.015434 0.014388 0.097867
0.690000 0.012579 0.011679 0.089081
0.700000 0.010193 0.009426 0.080901
0.710000 0.008213 0.007563 0.073307
0.720000 0.006579 0.006032 0.066275
0.730000 0.005239 0.004784 0.059781
0.740000 0.004148 0.003771 0.053800
0.750000 0.003265 0.002955 0.048307
0.760000 0.002555 0.002302 0.043274
0.770000 0.001987 0.001783 0.038676
0.780000 0.001537 0.001372 0.034487
0.790000 0.001181 0.001050 0.030679
0.800000 0.000903 0.000799 0.027228
0.810000 0.000686 0.000604 0.024109
0.820000 0.000518 0.000454 0.021297
0.830000 0.000389 0.000339 0.018769
0.840000 0.000290 0.000252 0.016502
0.850000 0.000215 0.000186 0.014474
0.860000 0.000158 0.000136 0.012667
0.870000 0.000116 0.000099 0.011059
0.880000 0.000084 0.000072 0.009633
0.890000 0.000061 0.000052 0.008374
0.900000 0.000044 0.000037 0.007264
0.910000 0.000031 0.000026 0.006290
0.920000 0.000022 0.000019 0.005440
0.930000 0.000016 0.000013 0.004702
0.940000 0.000011 0.000009 0.004067
0.950000 0.000008 0.000006 0.003528
0.960000 0.000005 0.000004 0.003081
0.970000 0.000004 0.000003 0.002722
0.980000 0.000003 0.000002 0.002455
0.990000 0.000002 0.000001 0.002284
1.000000 0.000002 0.000001 0.002225
