0.000000 1.000000 1.000000 0.999770
0.010000 0.999985 0.999986 0.999486
0.020000 0.999961 0.999965 0.998865
0.030000 0.999926 0.999933 0.998125
0.040000 0.999877 0.999887 0.997250
0.050000 0.999807 0.999822 0.996226
0.060000 0.999710 0.999732 0.995037
0.070000 0.999580 0.999611 0.993664
0.080000 0.999407 0.999449 0.992090
0.090000 0.999179 0.999235 0.990297
0.100000 0.998883 0.998956 0.988264
0.110000 0.998503 0.998596 0.985970
0.120000 0.998018 0.998137 0.983396
0.130000 0.997407 0.997556 0.980518
0.140000 0.996643 0.996826 0.977316
0.150000 0.995695 0.995920 0.973766
0.160000 0.994530 0.994801 0.969846
0.170000 0.993108 0.993432 0.965534
0.180000 0.991385 0.991769 0.960807
0.190000 0.989314 0.989764 0.955643
0.200000 0.986841 0.987363 0.950022
0.210000 0.983909 0.984509 0.943922
0.220000 0.980455 0.981137 0.937324
0.230000 0.976413 0.977183 0.930208
0.240000 0.971715 0.972575 0.922559
0.250000 0.966289 0.967239 0.914361
0.260000 0.960060 0.961101 0.905599
0.270000 0.952955 0.954084 0.896262
0.280000 0.944900 0.946111 0.886341
0.290000 0.935823 0.937109 0.875827
0.300000 0.925657 0.927007 0.864718
0.310000 0.914338 0.915738 0.853010
0.320000 0.901809 0.903243 0.840704
0.330000 0.888023 0.889471 0.827804
0.340000 0.872941 0.874381 0.814318
0.350000 0.856536 0.857944 0.800254
0.360000 0.838795 0.840144 0.785627
0.370000 0.819718 0.820979 0.770451
0.380000 0.799320 0.800465 0.754748
0.390000 0.777634 0.778632 0.738538
0.400000 0.754706 0.755527 0.721848
0.410000 0.730601 0.731217 0.704705
0.420000 0.705400 0.705784 0.687141
0.430000 0.679198 0.679325 0.669190
0.440000 0.652106 0.651955 0.650887
0.450000 0.624247 0.623802 0.632271
0.460000 0.595758 0.595004 0.613382
0.470000 0.566784 0.565712 0.594262
0.480000 0.537475 0.536083 0.574955
0.490000 0.507990 0.506279 0.555504
0.500000 0.478488 0.476467 0.535956
0.510000 0.449130 0.446810 0.516355
0.520000 0.420072 0.417471 0.496749
0.530000 0.391465 0.388606 0.477182
0.540000 0.363455 0.360364 0.457701
0.550000 0.336176 0.332883 0.438349
0.560000 0.309751 0.306289 0.419172
0.570000 0.284291 0.280694 0.400210
0.580000 0.259891 0.256195 0.381506
0.590000 0.236633 0.232874 0.363098
0.600000 0.214580 0.210795 0.345022
0.610000 0.193781 0.190004 0.327314
0.620000 0.174270 0.170535 0.310005
0.630000 0.156064 0.152401 0.293126
0.640000 0.139165 0.135602 0.276702
0.650000 0.123564 0.120126 0.260759
0.660000 0.109236 0.105944 0.245317
0.670000 0.096148 0.093018 0.230393
0.680000 0.084255 0.081302 0.216004
0.690000 0.073505 0.070739 0.202162
0.700000 0.063840 0.061267 0.188875
0.710000 0.055196 0.052820 0.176150
0.720000 0.047507 0.045326 0.163991
0.730000 0.040702 0.038715 0.152399
0.740000 0.034712 0.032913 0.141372
0.750000 0.029467 0.027849 0.130906
0.760000 0.024898 0.023453 0.120994
0.770000 0.020940 0.019657 0.111629
0.780000 0.017528 0.016396 0.102799
0.790000 0.014603 0.013611 0.094494
0.800000 0.012109 0.011245 0.086699
0.810000 0.009993 0.009245 0.079400
0.820000 0.008208 0.007565 0.072581
0.830000 0.006709 0.006159 0.066224
0.840000 0.005458 0.004990 0.060313
0.850000 0.004418 0.004024 0.054828
0.860000 0.003560 0.003228 0.049753
0.870000 0.002854 0.002577 0.045068
0.880000 0.002277 0.002048 0.040756
0.890000 0.001808 0.001619 0.036800
0.900000 0.001428 0.001273 0.033184
0.910000 0.001123 0.000997 0.029892
0.920000 0.000878 0.000776 0.026914
0.930000 0.000684 0.000602 0.024239
0.940000 0.000530 0.000464 0.021862
0.950000 0.000409 0.000356 0.019782
0.960000 0.000315 0.000272 0.018008
0.970000 0.000242 0.000206 0.016554
0.980000 0.000189 0.000156 0.015449
0.990000 0.000155 0.000117 0.014738
1.000000 0.000142 0.000088 0.014488
