0.000000 1.000000 1.000000 0.999940
0.010000 0.999999 0.999999 0.999867
0.020000 0.999997 0.999998 0.999705
0.030000 0.999995 0.999996 0.999513
0.040000 0.999992 0.999993 0.999284
0.050000 0.999987 0.999989 0.999016
0.060000 0.999981 0.999983 0.998703
0.070000 0.999972 0.999975 0.998339
0.080000 0.999960 0.999964 0.997920
0.090000 0.999944 0.999950 0.997439
0.100000 0.999923 0.999931 0.996889
0.110000 0.999896 0.999906 0.996265
0.120000 0.999860 0.999873 0.995557
0.130000 0.999814 0.999831 0.994759
0.140000 0.999755 0.999776 0.993863
0.150000 0.999680 0.999707 0.992858
0.160000 0.999586 0.999620 0.991737
0.170000 0.999468 0.999510 0.990488
0.180000 0.999321 0.999373 0.989103
0.190000 0.999138 0.999203 0.987571
0.200000 0.998914 0.998993 0.985880
0.210000 0.998639 0.998734 0.984019
0.220000 0.998305 0.998419 0.981977
0.230000 0.997899 0.998035 0.979742
0.240000 0.997410 0.997572 0.977300
0.250000 0.996823 0.997014 0.974641
0.260000 0.996123 0.996347 0.971750
0.270000 0.995291 0.995552 0.968615
0.280000 0.994307 0.994610 0.965224
0.290000 0.993149 0.993498 0.961563
0.300000 0.991793 0.992192 0.957619
0.310000 0.990212 0.990666 0.953380
0.320000 0.988376 0.988890 0.948833
0.330000 0.986254 0.986832 0.943966
0.340000 0.983812 0.984459 0.938768
0.350000 0.981015 0.981734 0.933226
0.360000 0.977825 0.978619 0.927329
0.370000 0.974202 0.975074 0.921068
0.380000 0.970104 0.971057 0.914433
0.390000 0.965490 0.966523 0.907416
0.400000 0.960315 0.961429 0.900007
0.410000 0.954537 0.955730 0.892202
0.420000 0.948111 0.949381 0.883992
0.430000 0.940994 0.942336 0.875375
0.440000 0.933146 0.934554 0.866345
0.450000 0.924525 0.925992 0.856902
0.460000 0.915095 0.916611 0.847043
0.470000 0.904821 0.906375 0.836771
0.480000 0.893673 0.895252 0.826085
0.490000 0.881625 0.883216 0.814990
0.500000 0.868658 0.870244 0.803490
0.510000 0.854757 0.856320 0.791593
0.520000 0.839913 0.841435 0.779305
0.530000 0.824126 0.825587 0.766636
0.540000 0.807403 0.808783 0.753598
0.550000 0.789758 0.791035 0.740202
0.560000 0.771213 0.772367 0.726463
0.570000 0.751800 0.752810 0.712396
0.580000 0.731558 0.732403 0.698019
0.590000 0.710533 0.711195 0.683349
0.600000 0.688781 0.689241 0.668407
0.610000 0.666364 0.666606 0.653212
0.620000 0.643352 0.643361 0.637787
0.630000 0.619821 0.619585 0.622156
0.640000 0.595853 0.595362 0.606341
0.650000 0.571533 0.570781 0.590367
0.660000 0.546952 0.545936 0.574261
0.670000 0.522203 0.520921 0.558047
0.680000 0.497381 0.495836 0.541754
0.690000 0.472582 0.470779 0.525407
0.700000 0.447901 0.445849 0.509033
0.710000 0.423431 0.421141 0.492661
0.720000 0.399263 0.396751 0.476317
0.730000 0.375486 0.372767 0.460029
0.740000 0.352182 0.349276 0.443823
0.750000 0.329430 0.326358 0.427726
0.760000 0.307301 0.304085 0.411764
0.770000 0.285859 0.282524 0.395963
0.780000 0.265164 0.261733 0.380348
0.790000 0.245265 0.241763 0.364943
0.800000 0.226203 0.222657 0.349774
0.810000 0.208014 0.204447 0.334863
0.820000 0.190724 0.187160 0.320234
0.830000 0.174349 0.170812 0.305909
0.840000 0.158902 0.155411 0.291913
0.850000 0.144383 0.140961 0.278269
0.860000 0.130790 0.127453 0.265001
0.870000 0.118112 0.114877 0.252136
0.880000 0.106332 0.103212 0.239701
0.890000 0.095428 0.092434 0.227730
0.900000 0.085375 0.082516 0.216258
0.910000 0.076144 0.073422 0.205331
0.920000 0.067702 0.065118 0.195000
0.930000 0.060021 0.057563 0.185331
0.940000 0.053074 0.050717 0.176406
0.950000 0.046843 0.044536 0.168325
0.960000 0.041334 0.038979 0.161219
0.970000 0.036592 0.034000 0.155250
0.980000 0.032738 0.029558 0.150627
0.990000 0.030037 0.025609 0.147613
1.000000 0.029020 0.022113 0.146546
