0.000000 1.000000 1.000000 0.999494
0.010000 0.999929 0.999934 0.998870
0.020000 0.999819 0.999832 0.997507
0.030000 0.999657 0.999680 0.995884
0.040000 0.999427 0.999463 0.993973
0.050000 0.999107 0.999161 0.991743
0.060000 0.998671 0.998748 0.989163
0.070000 0.998088 0.998194 0.986201
0.080000 0.997322 0.997463 0.982824
0.090000 0.996328 0.996511 0.978999
0.100000 0.995057 0.995290 0.974691
0.110000 0.993449 0.993740 0.969868
0.120000 0.991438 0.991795 0.964497
0.130000 0.988952 0.989383 0.958543
0.140000 0.985906 0.986420 0.951978
0.150000 0.982214 0.982816 0.944769
0.160000 0.977777 0.978473 0.936890
0.170000 0.972495 0.973290 0.928315
0.180000 0.966263 0.967156 0.919021
0.190000 0.958970 0.959962 0.908987
0.200000 0.950510 0.951594 0.898198
0.210000 0.940774 0.941942 0.886641
0.220000 0.929661 0.930900 0.874307
0.230000 0.917076 0.918370 0.861192
0.240000 0.902935 0.904263 0.847297
0.250000 0.887169 0.888504 0.832627
0.260000 0.869724 0.871037 0.817193
0.270000 0.850567 0.851825 0.801011
0.280000 0.829685 0.830853 0.784102
0.290000 0.807092 0.808132 0.766491
0.300000 0.782827 0.783700 0.748211
0.310000 0.756955 0.757622 0.729297
0.320000 0.729568 0.729993 0.709792
0.330000 0.700786 0.700934 0.689740
0.340000 0.670752 0.670594 0.669192
0.350000 0.639636 0.639146 0.648203
0.360000 0.607624 0.606783 0.626829
0.370000 0.574922 0.573718 0.605131
0.380000 0.541750 0.540177 0.583172
0.390000 0.508334 0.506396 0.561017
0.400000 0.474906 0.472614 0.538733
0.410000 0.441697 0.439070 0.516386
0.420000 0.408934 0.405998 0.494044
0.430000 0.376832 0.373619 0.471774
0.440000 0.345594 0.342142 0.449642
0.450000 0.315405 0.311756 0.427712
0.460000 0.286428 0.282628 0.406048
0.470000 0.258803 0.254900 0.384709
0.480000 0.232648 0.228688 0.363752
0.490000 0.208051 0.204082 0.343231
0.500000 0.185076 0.181143 0.323196
0.510000 0.163762 0.159906 0.303691
0.520000 0.144122 0.140380 0.284759
0.530000 0.126146 0.122552 0.266435
0.540000 0.109805 0.106386 0.248751
0.550000 0.095049 0.091828 0.231735
0.560000 0.081815 0.078808 0.215409
0.570000 0.070026 0.067243 0.199788
0.580000 0.059593 0.057042 0.184887
0.590000 0.050424 0.048104 0.170711
0.600000 0.042418 0.040328 0.157266
0.610000 0.035476 0.033608 0.144548
0.620000 0.029496 0.027841 0.132554
0.630000 0.024379 0.022924 0.121274
0.640000 0.020030 0.018763 0.110697
0.650000 0.016359 0.015263 0.100805
0.660000 0.013281 0.012341 0.091582
0.670000 0.010717 0.009917 0.083005
0.680000 0.008595 0.007920 0.075054
0.690000 0.006852 0.006287 0.067702
0.700000 0.005429 0.004959 0.060924
0.710000 0.004275 0.003888 0.054692
0.720000 0.003345 0.003029 0.048979
0.730000 0.002602 0.002345 0.043756
0.740000 0.002011 0.001804 0.038995
0.750000 0.001545 0.001379 0.034667
0.760000 0.001179 0.001048 0.030744
0.770000 0.000894 0.000791 0.027197
0.780000 0.000674 0.000593 0.024000
0.790000 0.000505 0.000442 0.021127
0.800000 0.000376 0.000328 0.018551
0.810000 0.000278 0.000241 0.016248
0.820000 0.000204 0.000176 0.014196
0.830000 0.000149 0.000128 0.012372
0.840000 0.000108 0.000092 0.010755
0.850000 0.000078 0.000066 0.009326
0.860000 0.000056 0.000047 0.008067
0.870000 0.000040 0.000033 0.006961
0.880000 0.000028 0.000024 0.005991
0.890000 0.000020 0.000016 0.005145
0.900000 0.000014 0.000011 0.004408
0.910000 0.000010 0.000008 0.003769
0.920000 0.000007 0.000005 0.003218
0.930000 0.000004 0.000004 0.002745
0.940000 0.000003 0.000002 0.002343
0.950000 0.000002 0.000002 0.002005
0.960000 0.000001 0.000001 0.001727
0.970000 0.000001 0.000001 0.001506
0.980000 0.000001 0.000000 0.001342
0.990000 0.000000 0.000000 0.001238
1.000000 0.000000 0.000000 0.001202
