0.000000 1.000000 1.000000 0.999977
0.010000 1.000000 1.000000 0.999950
0.020000 1.000000 1.000000 0.999889
0.030000 0.999999 0.999999 0.999816
0.040000 0.999999 0.999999 0.999729
0.050000 0.999998 0.999999 0.999627
0.060000 0.999997 0.999998 0.999508
0.070000 0.999996 0.999997 0.999369
0.080000 0.999995 0.999995 0.999209
0.090000 0.999993 0.999993 0.999024
0.100000 0.999990 0.999991 0.998812
0.110000 0.999986 0.999988 0.998571
0.120000 0.999981 0.999983 0.998296
0.130000 0.999974 0.999977 0.997985
0.140000 0.999966 0.999970 0.997633
0.150000 0.999955 0.999960 0.997238
0.160000 0.999942 0.999948 0.996794
0.170000 0.999924 0.999932 0.996297
0.180000 0.999902 0.999912 0.995743
0.190000 0.999875 0.999887 0.995126
0.200000 0.999840 0.999856 0.994441
0.210000 0.999797 0.999817 0.993682
0.220000 0.999745 0.999768 0.992844
0.230000 0.999679 0.999708 0.991920
0.240000 0.999599 0.999634 0.990903
0.250000 0.999502 0.999544 0.989787
0.260000 0.999383 0.999434 0.988564
0.270000 0.999240 0.999301 0.987228
0.280000 0.999067 0.999139 0.985770
0.290000 0.998859 0.998945 0.984183
0.300000 0.998611 0.998712 0.982458
0.310000 0.998315 0.998434 0.980586
0.320000 0.997964 0.998103 0.978560
0.330000 0.997549 0.997710 0.976371
0.340000 0.997060 0.997247 0.974008
0.350000 0.996487 0.996702 0.971464
0.360000 0.995817 0.996064 0.968729
0.370000 0.995036 0.995319 0.965794
0.380000 0.994130 0.994452 0.962648
0.390000 0.993083 0.993447 0.959284
0.400000 0.991876 0.992287 0.955692
0.410000 0.990491 0.990952 0.951862
0.420000 0.988906 0.989422 0.947786
0.430000 0.987100 0.987673 0.943454
0.440000 0.985048 0.985682 0.938857
0.450000 0.982724 0.983424 0.933988
0.460000 0.980103 0.980870 0.928839
0.470000 0.977156 0.977994 0.923400
0.480000 0.973854 0.974764 0.917666
0.490000 0.970166 0.971151 0.911629
0.500000 0.966062 0.967122 0.905283
0.510000 0.961509 0.962645 0.898622
0.520000 0.956477 0.957686 0.891641
0.530000 0.950931 0.952214 0.884336
0.540000 0.944842 0.946195 0.876703
0.550000 0.938177 0.939596 0.868738
0.560000 0.930906 0.932386 0.860440
0.570000 0.923001 0.924535 0.851807
0.580000 0.914433 0.916014 0.842839
0.590000 0.905178 0.906797 0.833537
0.600000 0.895214 0.896861 0.823901
0.610000 0.884521 0.886184 0.813935
0.620000 0.873083 0.874750 0.803641
0.630000 0.860888 0.862545 0.793024
0.640000 0.847928 0.849560 0.782089
0.650000 0.834199 0.835790 0.770844
0.660000 0.819702 0.821237 0.759295
0.670000 0.804445 0.805906 0.747452
0.680000 0.788437 0.789808 0.735323
0.690000 0.771697 0.772961 0.722920
0.700000 0.754247 0.755386 0.710255
0.710000 0.736114 0.737112 0.697340
0.720000 0.717333 0.718174 0.684189
0.730000 0.697942 0.698610 0.670817
0.740000 0.677985 0.678465 0.657241
0.750000 0.657510 0.657791 0.643476
0.760000 0.636570 0.636641 0.629543
0.770000 0.615224 0.615074 0.615459
0.780000 0.593531 0.593153 0.601246
0.790000 0.571557 0.570945 0.586925
0.800000 0.549367 0.548517 0.572521
0.810000 0.527030 0.525942 0.558057
0.820000 0.504616 0.503290 0.543562
0.830000 0.482196 0.480635 0.529064
0.840000 0.459839 0.458049 0.514596
0.850000 0.437618 0.435605 0.500193
0.860000 0.415600 0.413374 0.485895
0.870000 0.393853 0.391423 0.471747
0.880000 0.372443 0.369818 0.457799
0.890000 0.351436 0.348623 0.444110
0.900000 0.330894 0.327895 0.430749
0.910000 0.310884 0.307690 0.417796
0.920000 0.291476 0.288056 0.405348
0.930000 0.272751 0.269039 0.393519
0.940000 0.254816 0.250679 0.382448
0.950000 0.237824 0.233008 0.372302
0.960000 0.222015 0.216055 0.363286
0.970000 0.207779 0.199843 0.355647
0.980000 0.195781 0.184389 0.349692
0.990000 0.187157 0.169704 0.345793
1.000000 0.183869 0.155794 0.344409
