0.000000 1.000000 1.000000 0.999951
0.010000 0.999999 0.999999 0.999890
0.020000 0.999998 0.999999 0.999757
0.030000 0.999997 0.999997 0.999599
0.040000 0.999995 0.999995 0.999410
0.050000 0.999991 0.999992 0.999189
0.060000 0.999987 0.999989 0.998930
0.070000 0.999981 0.999983 0.998630
0.080000 0.999973 0.999976 0.998284
0.090000 0.999962 0.999966 0.997887
0.100000 0.999948 0.999954 0.997432
0.110000 0.999930 0.999937 0.996915
0.120000 0.999905 0.999915 0.996329
0.130000 0.999874 0.999886 0.995667
0.140000 0.999834 0.999849 0.994922
0.150000 0.999783 0.999802 0.994087
0.160000 0.999718 0.999743 0.993154
0.170000 0.999637 0.999668 0.992114
0.180000 0.999536 0.999574 0.990958
0.190000 0.999410 0.999457 0.989678
0.200000 0.999254 0.999312 0.988263
0.210000 0.999063 0.999133 0.986704
0.220000 0.998829 0.998914 0.984990
0.230000 0.998545 0.998647 0.983111
0.240000 0.998201 0.998322 0.981056
0.250000 0.997787 0.997931 0.978813
0.260000 0.997290 0.997460 0.976371
0.270000 0.996698 0.996897 0.973718
0.280000 0.995994 0.996226 0.970842
0.290000 0.995162 0.995431 0.967731
0.300000 0.994183 0.994493 0.964373
0.310000 0.993036 0.993392 0.960757
0.320000 0.991697 0.992103 0.956870
0.330000 0.990142 0.990603 0.952700
0.340000 0.988343 0.988863 0.948235
0.350000 0.986272 0.986854 0.943465
0.360000 0.983895 0.984545 0.938377
0.370000 0.981181 0.981901 0.932962
0.380000 0.978093 0.978888 0.927209
0.390000 0.974595 0.975466 0.921109
0.400000 0.970648 0.971598 0.914652
0.410000 0.966213 0.967242 0.907830
0.420000 0.961248 0.962357 0.900637
0.430000 0.955714 0.956901 0.893064
0.440000 0.949569 0.950833 0.885107
0.450000 0.942773 0.944109 0.876761
0.460000 0.935286 0.936689 0.868022
0.470000 0.927071 0.928534 0.858887
0.480000 0.918091 0.919606 0.849357
0.490000 0.908314 0.909871 0.839430
0.500000 0.897709 0.899297 0.829107
0.510000 0.886252 0.887857 0.818393
0.520000 0.873922 0.875528 0.807290
0.530000 0.860702 0.862294 0.795804
0.540000 0.846582 0.848143 0.783941
0.550000 0.831559 0.833070 0.771711
0.560000 0.815635 0.817078 0.759123
0.570000 0.798821 0.800175 0.746187
0.580000 0.781133 0.782378 0.732916
0.590000 0.762597 0.763713 0.719325
0.600000 0.743245 0.744212 0.705427
0.610000 0.723116 0.723915 0.691240
0.620000 0.702258 0.702871 0.676782
0.630000 0.680725 0.681135 0.662070
0.640000 0.658579 0.658771 0.647126
0.650000 0.635886 0.635847 0.631969
0.660000 0.612720 0.612439 0.616622
0.670000 0.589158 0.588626 0.601107
0.680000 0.565283 0.564495 0.585449
0.690000 0.541179 0.540132 0.569670
0.700000 0.516935 0.515629 0.553796
0.710000 0.492640 0.491077 0.537851
0.720000 0.468384 0.466570 0.521862
0.730000 0.444255 0.442199 0.505854
0.740000 0.420341 0.418054 0.489852
0.750000 0.396727 0.394224 0.473883
0.760000 0.373496 0.370792 0.457973
0.770000 0.350724 0.347837 0.442147
0.780000 0.328484 0.325436 0.426432
0.790000 0.306844 0.303655 0.410853
0.800000 0.285864 0.282557 0.395436
0.810000 0.265598 0.262197 0.380207
0.820000 0.246094 0.242622 0.365192
0.830000 0.227390 0.223872 0.350416
0.840000 0.209521 0.205980 0.335908
0.850000 0.192511 0.188969 0.321694
0.860000 0.176377 0.172856 0.307806
0.870000 0.161131 0.157652 0.294273
0.880000 0.146776 0.143357 0.281132
0.890000 0.133310 0.129968 0.268423
0.900000 0.120726 0.117473 0.256190
0.910000 0.109013 0.105856 0.244488
0.920000 0.098156 0.095096 0.233381
0.930000 0.088141 0.085165 0.222947
0.940000 0.078961 0.076035 0.213283
0.950000 0.070622 0.067672 0.204508
0.960000 0.063158 0.060039 0.196770
0.970000 0.056663 0.053099 0.190258
0.980000 0.051338 0.046812 0.185205
0.990000 0.047583 0.041138 0.181908
1.000000 0.046165 0.036035 0.180739
