0.000000 1.000000 1.000000 0.990354
0.010000 0.986904 0.987116 0.978539
0.020000 0.967518 0.967908 0.953008
0.030000 0.940767 0.941245 0.923369
0.040000 0.905856 0.906273 0.889690
0.050000 0.862399 0.862560 0.852157
0.060000 0.810529 0.810214 0.811069
0.070000 0.750951 0.749945 0.766833
0.080000 0.684938 0.683067 0.719955
0.090000 0.614250 0.611415 0.671023
0.100000 0.541005 0.537199 0.620683
0.110000 0.467489 0.462808 0.569619
0.120000 0.395961 0.390591 0.518528
0.130000 0.328458 0.322655 0.468091
0.140000 0.266640 0.260693 0.418951
0.150000 0.211687 0.205880 0.371691
0.160000 0.164252 0.158835 0.326818
0.170000 0.124490 0.119649 0.284745
0.180000 0.092114 0.087965 0.245790
0.190000 0.066509 0.063094 0.210166
0.200000 0.046837 0.044136 0.177988
0.210000 0.032156 0.030102 0.149276
0.220000 0.021513 0.020012 0.123967
0.230000 0.014020 0.012965 0.101927
0.240000 0.008896 0.008183 0.082964
0.250000 0.005494 0.005032 0.066845
0.260000 0.003300 0.003013 0.053307
0.270000 0.001928 0.001757 0.042071
0.280000 0.001095 0.000998 0.032858
0.290000 0.000604 0.000552 0.025394
0.300000 0.000323 0.000297 0.019417
0.310000 0.000168 0.000156 0.014690
0.320000 0.000085 0.000079 0.010994
0.330000 0.000041 0.000039 0.008139
0.340000 0.000020 0.000019 0.005960
0.350000 0.000009 0.000009 0.004317
0.360000 0.000004 0.000004 0.003093
0.370000 0.000002 0.000002 0.002191
0.380000 0.000001 0.000001 0.001535
0.390000 0.000000 0.000000 0.001063
0.400000 0.000000 0.000000 0.000728
0.410000 0.000000 0.000000 0.000493
0.420000 0.000000 0.000000 0.000330
0.430000 0.000000 0.000000 0.000219
0.440000 0.000000 0.000000 0.000143
0.450000 0.000000 0.000000 0.000093
0.460000 0.000000 0.000000 0.000059
0.470000 0.000000 0.000000 0.000037
0.480000 0.000000 0.000000 0.000023
0.490000 0.000000 0.000000 0.000014
0.500000 0.000000 0.000000 0.000009
0.510000 0.000000 0.000000 0.000005
0.520000 0.000000 0.000000 0.000003
0.530000 0.000000 0.000000 0.000002
0.540000 0.000000 0.000000 0.000001
0.550000 0.000000 0.000000 0.000001
0.560000 0.000000 0.000000 0.000000
0.570000 -0.000000 0.000000 0.000000
0.580000 -0.000000 0.000000 0.000000
0.590000 -0.000000 0.000000 0.000000
0.600000 -0.000000 0.000000 0.000000
0.610000 0.000000 0.000000 0.000000
0.620000 0.000000 0.000000 0.000000
0.630000 0.000000 0.000000 0.000000
0.640000 0.000000 0.000000 0.000000
0.650000 -0.000000 0.000000 0.000000
0.660000 -0.000000 0.000000 0.000000
0.670000 -0.000000 0.000000 0.000000
0.680000 0.000000 0.000000 0.000000
0.690000 0.000000 0.000000 0.000000
0.700000 0.000000 0.000000 0.000000
0.710000 -0.000000 0.000000 0.000000
0.720000 -0.000000 0.000000 0.000000
0.730000 -0.000000 0.000000 0.000000
0.740000 0.000000 0.000000 0.000000
0.750000 0.000000 0.000000 0.000000
0.760000 -0.000000 0.000000 0.000000
0.770000 -0.000000 0.000000 0.000000
0.780000 -0.000000 0.000000 0.000000
0.790000 0.000000 0.000000 0.000000
0.800000 0.000000 0.000000 0.000000
0.810000 -0.000000 0.000000 0.000000
0.820000 -0.000000 0.000000 0.000000
0.830000 -0.000000 0.000000 0.000000
0.840000 0.000000 0.000000 0.000000
0.850000 0.000000 0.000000 0.000000
0.860000 -0.000000 0.000000 0.000000
0.870000 -0.000000 0.000000 0.000000
0.880000 0.000000 0.000000 0.000000
0.890000 0.000000 0.000000 0.000000
0.900000 0.000000 0.000000 0.000000
0.910000 -0.000000 0.000000 0.000000
0.920000 -0.000000 0.000000 0.000000
0.930000 0.000000 0.000000 0.000000
0.940000 0.000000 0.000000 0.000000
0.950000 -0.000000 0.000000 0.000000
0.960000 -0.000000 0.000000 0.000000
0.970000 0.000000 0.000000 0.000000
0.980000 0.000000 0.000000 0.000000
0.990000 -0.000000 0.000000 0.000000
1.000000 -0.000000 0.000000 0.000000
