0.000000 1.000000 1.000000 0.996256
0.010000 0.997227 0.997318 0.991653
0.020000 0.993034 0.993237 0.981648
0.030000 0.987033 0.987367 0.969867
0.040000 0.978802 0.979278 0.956209
0.050000 0.967901 0.968516 0.940592
0.060000 0.953889 0.954626 0.922956
0.070000 0.936355 0.937180 0.903270
0.080000 0.914939 0.915799 0.881528
0.090000 0.889368 0.890193 0.857758
0.100000 0.859479 0.860182 0.832017
0.110000 0.825247 0.825729 0.804397
0.120000 0.786796 0.786956 0.775020
0.130000 0.744414 0.744152 0.744039
0.140000 0.698547 0.697776 0.711636
0.150000 0.649792 0.648442 0.678016
0.160000 0.598867 0.596898 0.643408
0.170000 0.546588 0.543989 0.608056
0.180000 0.493824 0.490618 0.572216
0.190000 0.441458 0.437702 0.536153
0.200000 0.390344 0.386125 0.500129
0.210000 0.341269 0.336696 0.464406
0.220000 0.294915 0.290113 0.429234
0.230000 0.251837 0.246939 0.394851
0.240000 0.212445 0.207581 0.361474
0.250000 0.176997 0.172288 0.329299
0.260000 0.145607 0.141155 0.298499
0.270000 0.118249 0.114137 0.269216
0.280000 0.094782 0.091067 0.241567
0.290000 0.074970 0.071685 0.215637
0.300000 0.058506 0.055663 0.191483
0.310000 0.045040 0.042630 0.169137
0.320000 0.034199 0.032197 0.148601
0.330000 0.025609 0.023978 0.129855
0.340000 0.018908 0.017607 0.112856
0.350000 0.013764 0.012746 0.097545
0.360000 0.009877 0.009096 0.083846
0.370000 0.006986 0.006398 0.071669
0.380000 0.004869 0.004436 0.060917
0.390000 0.003345 0.003031 0.051486
0.400000 0.002263 0.002041 0.043268
0.410000 0.001509 0.001354 0.036154
0.420000 0.000991 0.000886 0.030036
0.430000 0.000641 0.000571 0.024810
0.440000 0.000408 0.000362 0.020373
0.450000 0.000256 0.000227 0.016633
0.460000 0.000158 0.000140 0.013500
0.470000 0.000096 0.000085 0.010892
0.480000 0.000058 0.000051 0.008736
0.490000 0.000034 0.000030 0.006965
0.500000 0.000020 0.000017 0.005520
0.510000 0.000011 0.000010 0.004349
0.520000 0.000006 0.000006 0.003406
0.530000 0.000003 0.000003 0.002651
0.540000 0.000002 0.000002 0.002051
0.550000 0.000001 0.000001 0.001577
0.560000 0.000001 0.000000 0.001205
0.570000 0.000000 0.000000 0.000916
0.580000 0.000000 0.000000 0.000691
0.590000 0.000000 0.000000 0.000519
0.600000 0.000000 0.000000 0.000387
0.610000 0.000000 0.000000 0.000287
0.620000 0.000000 0.000000 0.000211
0.630000 0.000000 0.000000 0.000155
0.640000 0.000000 0.000000 0.000112
0.650000 0.000000 0.000000 0.000081
0.660000 0.000000 0.000000 0.000058
0.670000 0.000000 0.000000 0.000042
0.680000 0.000000 0.000000 0.000030
0.690000 0.000000 0.000000 0.000021
0.700000 0.000000 0.000000 0.000015
0.710000 0.000000 0.000000 0.000010
0.720000 0.000000 0.000000 0.000007
0.730000 0.000000 0.000000 0.000005
0.740000 0.000000 0.000000 0.000003
0.750000 0.000000 0.000000 0.000002
0.760000 0.000000 0.000000 0.000002
0.770000 0.000000 0.000000 0.000001
0.780000 0.000000 0.000000 0.000001
0.790000 0.000000 0.000000 0.000000
0.800000 0.000000 0.000000 0.000000
0.810000 0.000000 0.000000 0.000000
0.820000 0.000000 0.000000 0.000000
0.830000 0.000000 0.000000 0.000000
0.840000 0.000000 0.000000 0.000000
0.850000 0.000000 0.000000 0.000000
0.860000 0.000000 0.000000 0.000000
0.870000 0.000000 0.000000 0.000000
0.880000 0.000000 0.000000 0.000000
0.890000 0.000000 0.000000 0.000000
0.900000 0.000000 0.000000 0.000000
0.910000 0.000000 0.000000 0.000000
0.920000 0.000000 0.000000 0.000000
0.930000 0.000000 0.000000 0.000000
0.940000 0.000000 0.000000 0.000000
0.950000 0.000000 0.000000 0.000000
0.960000 0.000000 0.000000 0.000000
0.970000 0.000000 0.000000 0.000000
0.980000 0.000000 0.000000 0.000000
0.990000 -0.000000 0.000000 0.000000
1.000000 -0.000000 0.000000 0.000000
