0.000000 1.000000 1.000000 0.999959
0.010000 1.000000 1.000000 0.999909
0.020000 0.999999 0.999999 0.999800
0.030000 0.999998 0.999998 0.999669
0.040000 0.999996 0.999997 0.999513
0.050000 0.999994 0.999995 0.999330
0.060000 0.999991 0.999992 0.999117
0.070000 0.999987 0.999989 0.998869
0.080000 0.999982 0.999984 0.998582
0.090000 0.999975 0.999977 0.998253
0.100000 0.999965 0.999969 0.997877
0.110000 0.999952 0.999957 0.997448
0.120000 0.999936 0.999942 0.996961
0.130000 0.999915 0.999923 0.996412
0.140000 0.999887 0.999898 0.995792
0.150000 0.999852 0.999866 0.995098
0.160000 0.999808 0.999826 0.994320
0.170000 0.999752 0.999775 0.993452
0.180000 0.999683 0.999710 0.992487
0.190000 0.999596 0.999630 0.991417
0.200000 0.999488 0.999530 0.990232
0.210000 0.999355 0.999406 0.988925
0.220000 0.999192 0.999254 0.987487
0.230000 0.998993 0.999068 0.985907
0.240000 0.998751 0.998842 0.984176
0.250000 0.998459 0.998567 0.982284
0.260000 0.998108 0.998236 0.980221
0.270000 0.997687 0.997838 0.977975
0.280000 0.997185 0.997362 0.975537
0.290000 0.996590 0.996796 0.972896
0.300000 0.995885 0.996124 0.970039
0.310000 0.995056 0.995332 0.966956
0.320000 0.994085 0.994402 0.963635
0.330000 0.992951 0.993313 0.960066
0.340000 0.991632 0.992044 0.956237
0.350000 0.990106 0.990571 0.952137
0.360000 0.988347 0.988870 0.947754
0.370000 0.986327 0.986912 0.943079
0.380000 0.984016 0.984667 0.938101
0.390000 0.981384 0.982104 0.932810
0.400000 0.978397 0.979190 0.927196
0.410000 0.975020 0.975889 0.921250
0.420000 0.971219 0.972164 0.914964
0.430000 0.966955 0.967979 0.908329
0.440000 0.962191 0.963294 0.901340
0.450000 0.956889 0.958069 0.893989
0.460000 0.951010 0.952266 0.886270
0.470000 0.944515 0.945844 0.878180
0.480000 0.937368 0.938765 0.869715
0.490000 0.929533 0.930991 0.860872
0.500000 0.920975 0.922487 0.851650
0.510000 0.911662 0.913220 0.842048
0.520000 0.901566 0.903158 0.832067
0.530000 0.890660 0.892275 0.821709
0.540000 0.878924 0.880547 0.810978
0.550000 0.866340 0.867957 0.799878
0.560000 0.852897 0.854492 0.788415
0.570000 0.838589 0.840144 0.776596
0.580000 0.823414 0.824911 0.764430
0.590000 0.807380 0.808801 0.751926
0.600000 0.790498 0.791823 0.739096
0.610000 0.772789 0.773999 0.725951
0.620000 0.754279 0.755355 0.712506
0.630000 0.735001 0.735924 0.698775
0.640000 0.714996 0.715748 0.684774
0.650000 0.694310 0.694874 0.670520
0.660000 0.672998 0.673359 0.656032
0.670000 0.651118 0.651262 0.641327
0.680000 0.628737 0.628651 0.626427
0.690000 0.605923 0.605598 0.611352
0.700000 0.582752 0.582180 0.596125
0.710000 0.559301 0.558478 0.580766
0.720000 0.535652 0.534574 0.565300
0.730000 0.511886 0.510556 0.549749
0.740000 0.488089 0.486509 0.534139
0.750000 0.464345 0.462520 0.518492
0.760000 0.440736 0.438675 0.502836
0.770000 0.417346 0.415060 0.487193
0.780000 0.394253 0.391757 0.471591
0.790000 0.371534 0.368843 0.456054
0.800000 0.349263 0.346394 0.440610
0.810000 0.327506 0.324479 0.425285
0.820000 0.306327 0.303162 0.410106
0.830000 0.285783 0.282502 0.395102
0.840000 0.265924 0.262550 0.380303
0.850000 0.246795 0.243350 0.365740
0.860000 0.228434 0.224941 0.351447
0.870000 0.210873 0.207353 0.337459
0.880000 0.194135 0.190609 0.323819
0.890000 0.178240 0.174726 0.310571
0.900000 0.163201 0.159714 0.297770
0.910000 0.149026 0.145576 0.285478
0.920000 0.135722 0.132307 0.273769
0.930000 0.123298 0.119899 0.262734
0.940000 0.111769 0.108338 0.252482
0.950000 0.101172 0.097604 0.243148
0.960000 0.091584 0.087673 0.234899
0.970000 0.083159 0.078518 0.227943
0.980000 0.076197 0.070108 0.222539
0.990000 0.071261 0.062411 0.219009
1.000000 0.069391 0.055390 0.217758
