0.000000 1.000000 1.000000 0.999962
0.010000 1.000000 1.000000 0.999916
0.020000 0.999999 0.999999 0.999815
0.030000 0.999998 0.999998 0.999694
0.040000 0.999997 0.999997 0.999550
0.050000 0.999995 0.999996 0.999381
0.060000 0.999993 0.999994 0.999183
0.070000 0.999989 0.999991 0.998954
0.080000 0.999985 0.999986 0.998689
0.090000 0.999978 0.999981 0.998384
0.100000 0.999970 0.999974 0.998035
0.110000 0.999960 0.999964 0.997638
0.120000 0.999945 0.999951 0.997187
0.130000 0.999927 0.999935 0.996678
0.140000 0.999904 0.999913 0.996103
0.150000 0.999874 0.999886 0.995459
0.160000 0.999836 0.999851 0.994737
0.170000 0.999788 0.999808 0.993932
0.180000 0.999728 0.999753 0.993035
0.190000 0.999654 0.999684 0.992040
0.200000 0.999561 0.999598 0.990939
0.210000 0.999447 0.999492 0.989723
0.220000 0.999306 0.999361 0.988384
0.230000 0.999134 0.999201 0.986912
0.240000 0.998925 0.999005 0.985299
0.250000 0.998673 0.998768 0.983535
0.260000 0.998368 0.998481 0.981610
0.270000 0.998003 0.998136 0.979514
0.280000 0.997566 0.997723 0.977236
0.290000 0.997047 0.997231 0.974766
0.300000 0.996433 0.996647 0.972092
0.310000 0.995708 0.995956 0.969206
0.320000 0.994857 0.995142 0.966094
0.330000 0.993862 0.994189 0.962747
0.340000 0.992703 0.993076 0.959153
0.350000 0.991359 0.991782 0.955301
0.360000 0.989807 0.990283 0.951181
0.370000 0.988020 0.988555 0.946781
0.380000 0.985973 0.986570 0.942093
0.390000 0.983635 0.984298 0.937105
0.400000 0.980977 0.981709 0.931807
0.410000 0.977965 0.978770 0.926191
0.420000 0.974566 0.975446 0.920248
0.430000 0.970744 0.971702 0.913969
0.440000 0.966465 0.967500 0.907348
0.450000 0.961689 0.962803 0.900376
0.460000 0.956381 0.957571 0.893049
0.470000 0.950502 0.951767 0.885360
0.480000 0.944015 0.945353 0.877306
0.490000 0.936885 0.938289 0.868883
0.500000 0.929075 0.930541 0.860088
0.510000 0.920553 0.922072 0.850920
0.520000 0.911287 0.912852 0.841380
0.530000 0.901250 0.902849 0.831467
0.540000 0.890417 0.892037 0.821184
0.550000 0.878766 0.880395 0.810534
0.560000 0.866282 0.867905 0.799521
0.570000 0.852952 0.854554 0.788152
0.580000 0.838772 0.840334 0.776433
0.590000 0.823739 0.825246 0.764373
0.600000 0.807861 0.809292 0.751980
0.610000 0.791149 0.792486 0.739267
0.620000 0.773622 0.774847 0.726244
0.630000 0.755306 0.756399 0.712925
0.640000 0.736232 0.737175 0.699325
0.650000 0.716441 0.717215 0.685459
0.660000 0.695976 0.696566 0.671343
0.670000 0.674891 0.675280 0.656995
0.680000 0.653242 0.653417 0.642433
0.690000 0.631093 0.631042 0.627678
0.700000 0.608511 0.608224 0.612749
0.710000 0.585568 0.585038 0.597668
0.720000 0.562341 0.561562 0.582457
0.730000 0.538908 0.537878 0.567138
0.740000 0.515350 0.514068 0.551734
0.750000 0.491748 0.490217 0.536269
0.760000 0.468185 0.466410 0.520767
0.770000 0.444742 0.442732 0.505253
0.780000 0.421499 0.419265 0.489752
0.790000 0.398536 0.396090 0.474289
0.800000 0.375927 0.373284 0.458892
0.810000 0.353744 0.350921 0.443587
0.820000 0.332054 0.329070 0.428402
0.830000 0.310920 0.307794 0.413365
0.840000 0.290398 0.287152 0.398508
0.850000 0.270540 0.267195 0.383863
0.860000 0.251390 0.247969 0.369464
0.870000 0.232988 0.229512 0.355350
0.880000 0.215367 0.211856 0.341564
0.890000 0.198552 0.195025 0.328153
0.900000 0.182565 0.179037 0.315176
0.910000 0.167425 0.163904 0.302696
0.920000 0.153145 0.149630 0.290792
0.930000 0.139746 0.136213 0.279559
0.940000 0.127254 0.123646 0.269112
0.950000 0.115720 0.111918 0.259590
0.960000 0.105241 0.101009 0.251169
0.970000 0.095998 0.090899 0.244062
0.980000 0.088338 0.081561 0.238537
0.990000 0.082895 0.072968 0.234928
1.000000 0.080831 0.065086 0.233648
