0.000000 1.000000 1.000000 0.984196
0.010000 0.972232 0.972445 0.964907
0.020000 0.931961 0.932164 0.923466
0.030000 0.878321 0.878182 0.876013
0.040000 0.811635 0.810768 0.823145
0.050000 0.733544 0.731598 0.765699
0.060000 0.646926 0.643671 0.704714
0.070000 0.555588 0.550986 0.641381
0.080000 0.463795 0.458023 0.576980
0.090000 0.375723 0.369149 0.512810
0.100000 0.294953 0.288055 0.450119
0.110000 0.224086 0.217367 0.390043
0.120000 0.164569 0.158457 0.333553
0.130000 0.116703 0.111495 0.281416
0.140000 0.079831 0.075667 0.234173
0.150000 0.052626 0.049497 0.192139
0.160000 0.033401 0.031193 0.155409
0.170000 0.020391 0.018929 0.123886
0.180000 0.011962 0.011056 0.097310
0.190000 0.006737 0.006214 0.075301
0.200000 0.003638 0.003359 0.057393
0.210000 0.001882 0.001746 0.043079
0.220000 0.000932 0.000873 0.031838
0.230000 0.000441 0.000419 0.023165
0.240000 0.000199 0.000194 0.016590
0.250000 0.000085 0.000086 0.011694
0.260000 0.000035 0.000037 0.008111
0.270000 0.000014 0.000015 0.005535
0.280000 0.000005 0.000006 0.003716
0.290000 0.000002 0.000002 0.002454
0.300000 0.000001 0.000001 0.001594
0.310000 0.000000 0.000000 0.001018
0.320000 0.000000 0.000000 0.000639
0.330000 0.000000 0.000000 0.000395
0.340000 0.000000 0.000000 0.000239
0.350000 0.000000 0.000000 0.000143
0.360000 0.000000 0.000000 0.000084
0.370000 0.000000 0.000000 0.000048
0.380000 0.000000 0.000000 0.000027
0.390000 -0.000000 0.000000 0.000015
0.400000 -0.000000 0.000000 0.000008
0.410000 -0.000000 0.000000 0.000004
0.420000 -0.000000 0.000000 0.000002
0.430000 0.000000 0.000000 0.000001
0.440000 0.000000 0.000000 0.000001
0.450000 0.000000 0.000000 0.000000
0.460000 0.000000 0.000000 0.000000
0.470000 -0.000000 0.000000 0.000000
0.480000 -0.000000 0.000000 0.000000
0.490000 -0.000000 0.000000 0.000000
0.500000 0.000000 0.000000 0.000000
0.510000 0.000000 0.000000 0.000000
0.520000 -0.000000 0.000000 0.000000
0.530000 -0.000000 0.000000 0.000000
0.540000 -0.000000 0.000000 0.000000
0.550000 0.000000 0.000000 0.000000
0.560000 0.000000 0.000000 0.000000
0.570000 -0.000000 0.000000 0.000000
0.580000 -0.000000 0.000000 0.000000
0.590000 0.000000 0.000000 0.000000
0.600000 0.000000 0.000000 0.000000
0.610000 0.000000 0.000000 0.000000
0.620000 -0.000000 0.000000 0.000000
0.630000 -0.000000 0.000000 0.000000
0.640000 0.000000 0.000000 0.000000
0.650000 0.000000 0.000000 0.000000
0.660000 -0.000000 0.000000 0.000000
0.670000 -0.000000 0.000000 0.000000
0.680000 0.000000 0.000000 0.000000
0.690000 0.000000 0.000000 0.000000
0.700000 -0.000000 0.000000 0.000000
0.710000 -0.000000 0.000000 0.000000
0.720000 0.000000 0.000000 0.000000
0.730000 0.000000 0.000000 0.000000
0.740000 -0.000000 0.000000 0.000000
0.750000 -0.000000 0.000000 0.000000
0.760000 0.000000 0.000000 0.000000
0.770000 0.000000 0.000000 0.000000
0.780000 -0.000000 0.000000 0.000000
0.790000 -0.000000 0.000000 0.000000
0.800000 0.000000 0.000000 0.000000
0.810000 -0.000000 0.000000 0.000000
0.820000 -0.000000 0.000000 0.000000
0.830000 0.000000 0.000000 0.000000
0.840000 0.000000 0.000000 0.000000
0.850000 -0.000000 0.000000 0.000000
0.860000 -0.000000 0.000000 0.000000
0.870000 0.000000 0.000000 0.000000
0.880000 -0.000000 0.000000 0.000000
0.890000 -0.000000 0.000000 0.000000
0.900000 0.000000 0.000000 0.000000
0.910000 0.000000 0.000000 0.000000
0.920000 -0.000000 0.000000 0.000000
0.930000 -0.000000 0.000000 0.000000
0.940000 0.000000 0.000000 0.000000
0.950000 -0.000000 0.000000 0.000000
0.960000 -0.000000 0.000000 0.000000
0.970000 0.000000 0.000000 0.000000
0.980000 0.000000 0.000000 0.000000
0.990000 -0.000000 0.000000 0.000000
1.000000 0.000000 0.000000 0.000000
