0.000000 1.000000 1.000000 0.999802
0.010000 0.999989 0.999990 0.999558
0.020000 0.999971 0.999974 0.999025
0.030000 0.999946 0.999950 0.998388
0.040000 0.999909 0.999916 0.997635
0.050000 0.999857 0.999868 0.996754
0.060000 0.999785 0.999802 0.995729
0.070000 0.999688 0.999712 0.994545
0.080000 0.999559 0.999592 0.993188
0.090000 0.999389 0.999432 0.991639
0.100000 0.999167 0.999224 0.989881
0.110000 0.998881 0.998955 0.987896
0.120000 0.998515 0.998610 0.985665
0.130000 0.998053 0.998172 0.983168
0.140000 0.997474 0.997621 0.980385
0.150000 0.996753 0.996934 0.977295
0.160000 0.995863 0.996083 0.973879
0.170000 0.994773 0.995038 0.970114
0.180000 0.993448 0.993763 0.965980
0.190000 0.991848 0.992220 0.961456
0.200000 0.989928 0.990363 0.956522
0.210000 0.987642 0.988146 0.951157
0.220000 0.984935 0.985514 0.945341
0.230000 0.981753 0.982412 0.939057
0.240000 0.978035 0.978778 0.932285
0.250000 0.973716 0.974547 0.925011
0.260000 0.968732 0.969652 0.917218
0.270000 0.963013 0.964023 0.908893
0.280000 0.956491 0.957589 0.900025
0.290000 0.949095 0.950278 0.890602
0.300000 0.940759 0.942020 0.880617
0.310000 0.931416 0.932746 0.870065
0.320000 0.921004 0.922392 0.858943
0.330000 0.909466 0.910898 0.847248
0.340000 0.896752 0.898212 0.834985
0.350000 0.882821 0.884288 0.822156
0.360000 0.867640 0.869093 0.808769
0.370000 0.851187 0.852602 0.794836
0.380000 0.833455 0.834805 0.780367
0.390000 0.814446 0.815704 0.765381
0.400000 0.794179 0.795317 0.749896
0.410000 0.772688 0.773676 0.733932
0.420000 0.750019 0.750831 0.717515
0.430000 0.726237 0.726845 0.700672
0.440000 0.701420 0.701797 0.683432
0.450000 0.675659 0.675783 0.665828
0.460000 0.649059 0.648910 0.647892
0.470000 0.621738 0.621300 0.629662
0.480000 0.593824 0.593084 0.611174
0.490000 0.565453 0.564403 0.592469
0.500000 0.536767 0.535404 0.573587
0.510000 0.507915 0.506241 0.554569
0.520000 0.479046 0.477068 0.535458
0.530000 0.450310 0.448040 0.516297
0.540000 0.421855 0.419308 0.497130
0.550000 0.393822 0.391021 0.477997
0.560000 0.366348 0.363317 0.458944
0.570000 0.339561 0.336328 0.440011
0.580000 0.313577 0.310173 0.421239
0.590000 0.288502 0.284959 0.402668
0.600000 0.264428 0.260781 0.384338
0.610000 0.241432 0.237716 0.366284
0.620000 0.219580 0.215828 0.348541
0.630000 0.198920 0.195167 0.331143
0.640000 0.179486 0.175764 0.314119
0.650000 0.161300 0.157638 0.297500
0.660000 0.144366 0.140793 0.281309
0.670000 0.128681 0.125219 0.265571
0.680000 0.114224 0.110897 0.250306
0.690000 0.100968 0.097793 0.235532
0.700000 0.088874 0.085866 0.221264
0.710000 0.077897 0.075066 0.207515
0.720000 0.067984 0.065338 0.194295
0.730000 0.059077 0.056621 0.181610
0.740000 0.051115 0.048849 0.169466
0.750000 0.044032 0.041957 0.157863
0.760000 0.037765 0.035876 0.146803
0.770000 0.032247 0.030538 0.136282
0.780000 0.027413 0.025877 0.126296
0.790000 0.023200 0.021827 0.116837
0.800000 0.019546 0.018327 0.107898
0.810000 0.016394 0.015318 0.099469
0.820000 0.013688 0.012744 0.091537
0.830000 0.011377 0.010554 0.084091
0.840000 0.009412 0.008700 0.077115
0.850000 0.007752 0.007138 0.070597
0.860000 0.006355 0.005829 0.064520
0.870000 0.005186 0.004738 0.058870
0.880000 0.004212 0.003833 0.053632
0.890000 0.003405 0.003086 0.048791
0.900000 0.002740 0.002473 0.044333
0.910000 0.002195 0.001973 0.040248
0.920000 0.001750 0.001566 0.036526
0.930000 0.001389 0.001237 0.033162
0.940000 0.001097 0.000973 0.030154
0.950000 0.000863 0.000761 0.027509
0.960000 0.000678 0.000593 0.025240
0.970000 0.000533 0.000459 0.023374
0.980000 0.000425 0.000354 0.021951
0.990000 0.000354 0.000272 0.021034
1.000000 0.000328 0.000208 0.020711
