0.000000 1.000000 1.000000 0.999356
0.010000 0.999887 0.999894 0.998562
0.020000 0.999713 0.999731 0.996829
0.030000 0.999457 0.999491 0.994768
0.040000 0.999094 0.999147 0.992342
0.050000 0.998590 0.998668 0.989515
0.060000 0.997907 0.998018 0.986251
0.070000 0.996998 0.997148 0.982510
0.080000 0.995809 0.996007 0.978254
0.090000 0.994275 0.994530 0.973445
0.100000 0.992324 0.992644 0.968045
0.110000 0.989874 0.990268 0.962015
0.120000 0.986831 0.987308 0.955319
0.130000 0.983096 0.983664 0.947924
0.140000 0.978560 0.979224 0.939796
0.150000 0.973107 0.973872 0.930906
0.160000 0.966615 0.967483 0.921228
0.170000 0.958962 0.959930 0.910739
0.180000 0.950023 0.951086 0.899421
0.190000 0.939677 0.940824 0.887259
0.200000 0.927809 0.929026 0.874245
0.210000 0.914313 0.915580 0.860375
0.220000 0.899097 0.900390 0.845651
0.230000 0.882087 0.883376 0.830080
0.240000 0.863229 0.864481 0.813679
0.250000 0.842495 0.843672 0.796465
0.260000 0.819883 0.820945 0.778466
0.270000 0.795422 0.796327 0.759715
0.280000 0.769170 0.769876 0.740251
0.290000 0.741220 0.741686 0.720117
0.300000 0.711695 0.711882 0.699365
0.310000 0.680750 0.680623 0.678050
0.320000 0.648566 0.648096 0.656231
0.330000 0.615352 0.614517 0.633974
0.340000 0.581337 0.580123 0.611347
0.350000 0.546768 0.545167 0.588421
0.360000 0.511901 0.509917 0.565269
0.370000 0.477000 0.474643 0.541968
0.380000 0.442326 0.439619 0.518594
0.390000 0.408138 0.405108 0.495223
0.400000 0.374679 0.371363 0.471932
0.410000 0.342179 0.338619 0.448796
0.420000 0.310843 0.307087 0.425889
0.430000 0.280855 0.276952 0.403281
0.440000 0.252368 0.248372 0.381040
0.450000 0.225508 0.221470 0.359231
0.460000 0.200366 0.196338 0.337912
0.470000 0.177008 0.173036 0.317139
0.480000 0.155464 0.151594 0.296962
0.490000 0.135740 0.132010 0.277427
0.500000 0.117815 0.114258 0.258571
0.510000 0.101642 0.098286 0.240429
0.520000 0.087159 0.084024 0.223028
0.530000 0.074281 0.071382 0.206390
0.540000 0.062916 0.060260 0.190532
0.550000 0.052958 0.050548 0.175463
0.560000 0.044297 0.042131 0.161190
0.570000 0.036819 0.034890 0.147711
0.580000 0.030408 0.028706 0.135022
0.590000 0.024953 0.023464 0.123114
0.600000 0.020345 0.019055 0.111974
0.610000 0.016480 0.015372 0.101583
0.620000 0.013263 0.012319 0.091921
0.630000 0.010604 0.009807 0.082965
0.640000 0.008422 0.007755 0.074688
0.650000 0.006645 0.006092 0.067063
0.660000 0.005208 0.004753 0.060060
0.670000 0.004055 0.003683 0.053647
0.680000 0.003136 0.002835 0.047793
0.690000 0.002409 0.002168 0.042466
0.700000 0.001838 0.001646 0.037632
0.710000 0.001393 0.001241 0.033260
0.720000 0.001048 0.000930 0.029318
0.730000 0.000783 0.000692 0.025774
0.740000 0.000582 0.000511 0.022597
0.750000 0.000429 0.000375 0.019758
0.760000 0.000314 0.000273 0.017229
0.770000 0.000228 0.000198 0.014983
0.780000 0.000165 0.000142 0.012995
0.790000 0.000118 0.000101 0.011239
0.800000 0.000084 0.000072 0.009695
0.810000 0.000059 0.000051 0.008339
0.820000 0.000042 0.000035 0.007153
0.830000 0.000029 0.000025 0.006119
0.840000 0.000020 0.000017 0.005220
0.850000 0.000014 0.000012 0.004441
0.860000 0.000009 0.000008 0.003768
0.870000 0.000006 0.000005 0.003188
0.880000 0.000004 0.000004 0.002690
0.890000 0.000003 0.000002 0.002264
0.900000 0.000002 0.000002 0.001900
0.910000 0.000001 0.000001 0.001591
0.920000 0.000001 0.000001 0.001330
0.930000 0.000001 0.000000 0.001110
0.940000 0.000000 0.000000 0.000926
0.950000 0.000000 0.000000 0.000775
0.960000 0.000000 0.000000 0.000652
0.970000 0.000000 0.000000 0.000556
0.980000 0.000000 0.000000 0.000485
0.990000 0.000000 0.000000 0.000441
1.000000 0.000000 0.000000 0.000426
