0.000000 1.000000 1.000000 0.998251
0.010000 0.999274 0.999308 0.996098
0.020000 0.998167 0.998247 0.991407
0.030000 0.996558 0.996698 0.985850
0.040000 0.994305 0.994519 0.979354
0.050000 0.991243 0.991545 0.971846
0.060000 0.987186 0.987589 0.963258
0.070000 0.981929 0.982443 0.953528
0.080000 0.975248 0.975880 0.942600
0.090000 0.966912 0.967663 0.930423
0.100000 0.956684 0.957547 0.916961
0.110000 0.944332 0.945293 0.902184
0.120000 0.929636 0.930672 0.886074
0.130000 0.912403 0.913482 0.868629
0.140000 0.892474 0.893552 0.849857
0.150000 0.869734 0.870761 0.829782
0.160000 0.844126 0.845042 0.808441
0.170000 0.815653 0.816396 0.785886
0.180000 0.784390 0.784895 0.762184
0.190000 0.750485 0.750686 0.737416
0.200000 0.714155 0.713993 0.711674
0.210000 0.675692 0.675115 0.685064
0.220000 0.635448 0.634415 0.657701
0.230000 0.593830 0.592316 0.629711
0.240000 0.551287 0.549280 0.601227
0.250000 0.508294 0.505803 0.572388
0.260000 0.465339 0.462388 0.543335
0.270000 0.422905 0.419536 0.514214
0.280000 0.381455 0.377723 0.485167
0.290000 0.341416 0.337391 0.456337
0.300000 0.303169 0.298927 0.427861
0.310000 0.267036 0.262659 0.399871
0.320000 0.233275 0.228848 0.372490
0.330000 0.202077 0.197679 0.345833
0.340000 0.173561 0.169268 0.320003
0.350000 0.147781 0.143660 0.295094
0.360000 0.124727 0.120833 0.271186
0.370000 0.104336 0.100713 0.248345
0.380000 0.086493 0.083173 0.226626
0.390000 0.071051 0.068052 0.206070
0.400000 0.057830 0.055159 0.186705
0.410000 0.046633 0.044288 0.168545
0.420000 0.037252 0.035221 0.151595
0.430000 0.029477 0.027743 0.135846
0.440000 0.023103 0.021642 0.121281
0.450000 0.017934 0.016719 0.107872
0.460000 0.013787 0.012790 0.095583
0.470000 0.010496 0.009689 0.084373
0.480000 0.007913 0.007267 0.074193
0.490000 0.005906 0.005397 0.064991
0.500000 0.004365 0.003968 0.056710
0.510000 0.003194 0.002889 0.049292
0.520000 0.002314 0.002082 0.042677
0.530000 0.001659 0.001485 0.036804
0.540000 0.001178 0.001049 0.031615
0.550000 0.000827 0.000733 0.027050
0.560000 0.000575 0.000508 0.023052
0.570000 0.000396 0.000348 0.019566
0.580000 0.000270 0.000236 0.016541
0.590000 0.000182 0.000158 0.013927
0.600000 0.000121 0.000105 0.011679
0.610000 0.000080 0.000069 0.009754
0.620000 0.000052 0.000045 0.008114
0.630000 0.000034 0.000029 0.006721
0.640000 0.000022 0.000018 0.005545
0.650000 0.000014 0.000012 0.004556
0.660000 0.000009 0.000007 0.003728
0.670000 0.000005 0.000004 0.003038
0.680000 0.000003 0.000003 0.002465
0.690000 0.000002 0.000002 0.001992
0.700000 0.000001 0.000001 0.001603
0.710000 0.000001 0.000001 0.001285
0.720000 0.000000 0.000000 0.001025
0.730000 0.000000 0.000000 0.000815
0.740000 0.000000 0.000000 0.000645
0.750000 0.000000 0.000000 0.000508
0.760000 0.000000 0.000000 0.000399
0.770000 0.000000 0.000000 0.000312
0.780000 0.000000 0.000000 0.000242
0.790000 0.000000 0.000000 0.000188
0.800000 0.000000 0.000000 0.000145
0.810000 0.000000 0.000000 0.000111
0.820000 0.000000 0.000000 0.000085
0.830000 0.000000 0.000000 0.000065
0.840000 0.000000 0.000000 0.000049
0.850000 0.000000 0.000000 0.000037
0.860000 0.000000 0.000000 0.000028
0.870000 0.000000 0.000000 0.000021
0.880000 0.000000 0.000000 0.000016
0.890000 0.000000 0.000000 0.000012
0.900000 0.000000 0.000000 0.000009
0.910000 0.000000 0.000000 0.000006
0.920000 0.000000 0.000000 0.000005
0.930000 0.000000 0.000000 0.000003
0.940000 0.000000 0.000000 0.000002
0.950000 0.000000 0.000000 0.000002
0.960000 0.000000 0.000000 0.000001
0.970000 0.000000 0.000000 0.000001
0.980000 0.000000 0.000000 0.000001
0.990000 0.000000 0.000000 0.000001
1.000000 0.000000 0.000000 0.000001
