0.000000 1.000000 1.000000 0.999269
0.010000 0.999856 0.999865 0.998367
0.020000 0.999634 0.999657 0.996400
0.030000 0.999309 0.999350 0.994060
0.040000 0.998848 0.998912 0.991309
0.050000 0.998209 0.998304 0.988106
0.060000 0.997346 0.997479 0.984410
0.070000 0.996200 0.996379 0.980180
0.080000 0.994704 0.994940 0.975373
0.090000 0.992782 0.993082 0.969949
0.100000 0.990345 0.990720 0.963867
0.110000 0.987296 0.987754 0.957088
0.120000 0.983526 0.984076 0.949574
0.130000 0.978919 0.979567 0.941291
0.140000 0.973350 0.974100 0.932206
0.150000 0.966689 0.967543 0.922291
0.160000 0.958802 0.959759 0.911522
0.170000 0.949557 0.950609 0.899879
0.180000 0.938824 0.939960 0.887348
0.190000 0.926478 0.927683 0.873920
0.200000 0.912410 0.913661 0.859591
0.210000 0.896522 0.897794 0.844365
0.220000 0.878739 0.879999 0.828251
0.230000 0.859008 0.860220 0.811266
0.240000 0.837305 0.838430 0.793434
0.250000 0.813637 0.814630 0.774785
0.260000 0.788042 0.788861 0.755355
0.270000 0.760596 0.761195 0.735188
0.280000 0.731408 0.731745 0.714335
0.290000 0.700621 0.700658 0.692850
0.300000 0.668415 0.668116 0.670797
0.310000 0.634994 0.634333 0.648241
0.320000 0.600594 0.599550 0.625254
0.330000 0.565469 0.564029 0.601911
0.340000 0.529888 0.528052 0.578288
0.350000 0.494132 0.491908 0.554468
0.360000 0.458484 0.455888 0.530531
0.370000 0.423222 0.420282 0.506560
0.380000 0.388616 0.385366 0.482637
0.390000 0.354918 0.351401 0.458844
0.400000 0.322360 0.318624 0.435261
0.410000 0.291148 0.287245 0.411964
0.420000 0.261457 0.257442 0.389028
0.430000 0.233432 0.229360 0.366523
0.440000 0.207184 0.203109 0.344514
0.450000 0.182788 0.178761 0.323062
0.460000 0.160288 0.156357 0.302223
0.470000 0.139695 0.135903 0.282046
0.480000 0.120994 0.117376 0.262575
0.490000 0.104138 0.100724 0.243846
0.500000 0.089064 0.085876 0.225890
0.510000 0.075684 0.072739 0.208731
0.520000 0.063900 0.061206 0.192389
0.530000 0.053600 0.051160 0.176874
0.540000 0.044665 0.042477 0.162193
0.550000 0.036974 0.035031 0.148346
0.560000 0.030404 0.028694 0.135327
0.570000 0.024834 0.023344 0.123128
0.580000 0.020148 0.018862 0.111732
0.590000 0.016235 0.015135 0.101123
0.600000 0.012993 0.012061 0.091276
0.610000 0.010327 0.009544 0.082167
0.620000 0.008152 0.007500 0.073768
0.630000 0.006390 0.005853 0.066047
0.640000 0.004975 0.004535 0.058973
0.650000 0.003845 0.003489 0.052513
0.660000 0.002952 0.002666 0.046632
0.670000 0.002250 0.002022 0.041295
0.680000 0.001703 0.001523 0.036468
0.690000 0.001279 0.001139 0.032115
0.700000 0.000955 0.000846 0.028203
0.710000 0.000707 0.000623 0.024698
0.720000 0.000520 0.000456 0.021568
0.730000 0.000380 0.000331 0.018781
0.740000 0.000275 0.000239 0.016308
0.750000 0.000198 0.000171 0.014120
0.760000 0.000141 0.000122 0.012191
0.770000 0.000100 0.000086 0.010496
0.780000 0.000071 0.000060 0.009010
0.790000 0.000049 0.000042 0.007712
0.800000 0.000034 0.000029 0.006583
0.810000 0.000024 0.000020 0.005602
0.820000 0.000016 0.000013 0.004754
0.830000 0.000011 0.000009 0.004022
0.840000 0.000007 0.000006 0.003394
0.850000 0.000005 0.000004 0.002855
0.860000 0.000003 0.000003 0.002394
0.870000 0.000002 0.000002 0.002003
0.880000 0.000001 0.000001 0.001670
0.890000 0.000001 0.000001 0.001389
0.900000 0.000001 0.000000 0.001152
0.910000 0.000000 0.000000 0.000953
0.920000 0.000000 0.000000 0.000786
0.930000 0.000000 0.000000 0.000648
0.940000 0.000000 0.000000 0.000534
0.950000 0.000000 0.000000 0.000440
0.960000 0.000000 0.000000 0.000366
0.970000 0.000000 0.000000 0.000307
0.980000 0.000000 0.000000 0.000265
0.990000 0.000000 0.000000 0.000239
1.000000 0.000000 0.000000 0.000229
