0.000000 1.000000 1.000000 0.999880
0.010000 0.999996 0.999996 0.999732
0.020000 0.999989 0.999991 0.999407
0.030000 0.999980 0.999982 0.999020
0.040000 0.999966 0.999970 0.998561
0.050000 0.999947 0.999952 0.998023
0.060000 0.999921 0.999928 0.997397
0.070000 0.999884 0.999895 0.996672
0.080000 0.999836 0.999850 0.995838
0.090000 0.999771 0.999790 0.994884
0.100000 0.999687 0.999712 0.993798
0.110000 0.999577 0.999610 0.992568
0.120000 0.999436 0.999478 0.991181
0.130000 0.999256 0.999310 0.989622
0.140000 0.999028 0.999096 0.987878
0.150000 0.998741 0.998826 0.985933
0.160000 0.998384 0.998489 0.983773
0.170000 0.997941 0.998070 0.981382
0.180000 0.997397 0.997554 0.978743
0.190000 0.996732 0.996921 0.975840
0.200000 0.995925 0.996149 0.972656
0.210000 0.994950 0.995216 0.969174
0.220000 0.993780 0.994093 0.965378
0.230000 0.992385 0.992749 0.961250
0.240000 0.990730 0.991152 0.956774
0.250000 0.988778 0.989263 0.951934
0.260000 0.986489 0.987042 0.946713
0.270000 0.983819 0.984444 0.941095
0.280000 0.980720 0.981423 0.935066
0.290000 0.977145 0.977929 0.928612
0.300000 0.973039 0.973907 0.921720
0.310000 0.968350 0.969304 0.914377
0.320000 0.963023 0.964061 0.906572
0.330000 0.956999 0.958123 0.898296
0.340000 0.950224 0.951429 0.889541
0.350000 0.942641 0.943923 0.880299
0.360000 0.934195 0.935547 0.870567
0.370000 0.924836 0.926249 0.860339
0.380000 0.914515 0.915977 0.849616
0.390000 0.903188 0.904687 0.838398
0.400000 0.890817 0.892337 0.826688
0.410000 0.877372 0.878895 0.814489
0.420000 0.862829 0.864334 0.801810
0.430000 0.847172 0.848639 0.788659
0.440000 0.830397 0.831803 0.775047
0.450000 0.812509 0.813830 0.760988
0.460000 0.793524 0.794734 0.746497
0.470000 0.773468 0.774543 0.731592
0.480000 0.752380 0.753295 0.716293
0.490000 0.730311 0.731042 0.700622
0.500000 0.707321 0.707846 0.684602
0.510000 0.683484 0.683782 0.668260
0.520000 0.658883 0.658934 0.651621
0.530000 0.633608 0.633398 0.634715
0.540000 0.607763 0.607278 0.617573
0.550000 0.581454 0.580685 0.600225
0.560000 0.554796 0.553738 0.582704
0.570000 0.527908 0.526558 0.565044
0.580000 0.500911 0.499273 0.547279
0.590000 0.473927 0.472008 0.529443
0.600000 0.447080 0.444890 0.511571
0.610000 0.420490 0.418043 0.493699
0.620000 0.394274 0.391587 0.475861
0.630000 0.368542 0.365638 0.458093
0.640000 0.343400 0.340302 0.440428
0.650000 0.318945 0.315680 0.422899
0.660000 0.295266 0.291861 0.405541
0.670000 0.272441 0.268925 0.388383
0.680000 0.250538 0.246941 0.371457
0.690000 0.229613 0.225966 0.354792
0.700000 0.209714 0.206045 0.338415
0.710000 0.190874 0.187213 0.322353
0.720000 0.173116 0.169490 0.306629
0.730000 0.156454 0.152888 0.291265
0.740000 0.140890 0.137407 0.276284
0.750000 0.126416 0.123037 0.261702
0.760000 0.113015 0.109760 0.247537
0.770000 0.100664 0.097547 0.233803
0.780000 0.089332 0.086365 0.220512
0.790000 0.078979 0.076174 0.207676
0.800000 0.069565 0.066928 0.195303
0.810000 0.061041 0.058577 0.183401
0.820000 0.053358 0.051068 0.171973
0.830000 0.046464 0.044349 0.161025
0.840000 0.040305 0.038362 0.150558
0.850000 0.034827 0.033053 0.140574
0.860000 0.029977 0.028365 0.131074
0.870000 0.025701 0.024246 0.122058
0.880000 0.021949 0.020641 0.113527
0.890000 0.018671 0.017502 0.105482
0.900000 0.015820 0.014781 0.097927
0.910000 0.013352 0.012432 0.090869
0.920000 0.011224 0.010414 0.084319
0.930000 0.009399 0.008688 0.078293
0.940000 0.007843 0.007218 0.072819
0.950000 0.006526 0.005973 0.067932
0.960000 0.005423 0.004922 0.063687
0.970000 0.004520 0.004039 0.060157
0.980000 0.003815 0.003301 0.057444
0.990000 0.003336 0.002686 0.055685
1.000000 0.003158 0.002177 0.055064
