0.000000 1.000000 1.000000 0.999556
0.010000 0.999945 0.999949 0.999008
0.020000 0.999859 0.999869 0.997811
0.030000 0.999733 0.999752 0.996385
0.040000 0.999554 0.999583 0.994705
0.050000 0.999304 0.999348 0.992744
0.060000 0.998962 0.999026 0.990472
0.070000 0.998506 0.998593 0.987863
0.080000 0.997903 0.998020 0.984884
0.090000 0.997120 0.997273 0.981506
0.100000 0.996115 0.996310 0.977697
0.110000 0.994840 0.995085 0.973427
0.120000 0.993240 0.993542 0.968663
0.130000 0.991254 0.991621 0.963374
0.140000 0.988812 0.989252 0.957532
0.150000 0.985837 0.986359 0.951106
0.160000 0.982248 0.982856 0.944068
0.170000 0.977954 0.978655 0.936393
0.180000 0.972861 0.973659 0.928055
0.190000 0.966871 0.967766 0.919034
0.200000 0.959883 0.960875 0.909311
0.210000 0.951794 0.952879 0.898869
0.220000 0.942505 0.943675 0.887697
0.230000 0.931920 0.933163 0.875785
0.240000 0.919947 0.921248 0.863128
0.250000 0.906506 0.907847 0.849727
0.260000 0.891528 0.892885 0.835585
0.270000 0.874959 0.876304 0.820711
0.280000 0.856760 0.858063 0.805118
0.290000 0.836915 0.838143 0.788824
0.300000 0.815426 0.816544 0.771852
0.310000 0.792322 0.793292 0.754230
0.320000 0.767652 0.768439 0.735989
0.330000 0.741494 0.742060 0.717166
0.340000 0.713948 0.714260 0.697803
0.350000 0.685138 0.685165 0.677944
0.360000 0.655210 0.654926 0.657639
0.370000 0.624333 0.623716 0.636938
0.380000 0.592690 0.591724 0.615899
0.390000 0.560479 0.559156 0.594577
0.400000 0.527910 0.526228 0.573033
0.410000 0.495197 0.493161 0.551329
0.420000 0.462557 0.460182 0.529526
0.430000 0.430207 0.427512 0.507687
0.440000 0.398354 0.395366 0.485876
0.450000 0.367197 0.363950 0.464154
0.460000 0.336922 0.333451 0.442584
0.470000 0.307695 0.304043 0.421225
0.480000 0.279665 0.275875 0.400135
0.490000 0.252958 0.249075 0.379369
0.500000 0.227676 0.223747 0.358981
0.510000 0.203901 0.199968 0.339018
0.520000 0.181686 0.177793 0.319528
0.530000 0.161063 0.157250 0.300552
0.540000 0.142044 0.138344 0.282128
0.550000 0.124616 0.121061 0.264289
0.560000 0.108749 0.105365 0.247066
0.570000 0.094396 0.091204 0.230482
0.580000 0.081497 0.078513 0.214558
0.590000 0.069980 0.067214 0.199310
0.600000 0.059762 0.057220 0.184749
0.610000 0.050754 0.048438 0.170882
0.620000 0.042866 0.040772 0.157713
0.630000 0.036001 0.034124 0.145241
0.640000 0.030066 0.028397 0.133461
0.650000 0.024968 0.023495 0.122364
0.660000 0.020616 0.019327 0.111941
0.670000 0.016926 0.015806 0.102176
0.680000 0.013816 0.012851 0.093053
0.690000 0.011213 0.010387 0.084553
0.700000 0.009047 0.008346 0.076654
0.710000 0.007257 0.006667 0.069335
0.720000 0.005788 0.005294 0.062570
0.730000 0.004588 0.004179 0.056336
0.740000 0.003616 0.003279 0.050605
0.750000 0.002833 0.002557 0.045351
0.760000 0.002206 0.001983 0.040548
0.770000 0.001708 0.001528 0.036169
0.780000 0.001314 0.001170 0.032187
0.790000 0.001005 0.000891 0.028576
0.800000 0.000764 0.000674 0.025310
0.810000 0.000578 0.000507 0.022364
0.820000 0.000434 0.000379 0.019714
0.830000 0.000324 0.000282 0.017336
0.840000 0.000240 0.000208 0.015209
0.850000 0.000177 0.000153 0.013312
0.860000 0.000130 0.000111 0.011623
0.870000 0.000095 0.000081 0.010125
0.880000 0.000069 0.000058 0.008800
0.890000 0.000049 0.000042 0.007631
0.900000 0.000035 0.000030 0.006604
0.910000 0.000025 0.000021 0.005705
0.920000 0.000018 0.000015 0.004921
0.930000 0.000012 0.000010 0.004243
0.940000 0.000009 0.000007 0.003661
0.950000 0.000006 0.000005 0.003168
0.960000 0.000004 0.000003 0.002759
0.970000 0.000003 0.000002 0.002431
0.980000 0.000002 0.000002 0.002187
0.990000 0.000001 0.000001 0.002033
1.000000 0.000001 0.000001 0.001978
