0.000000 1.000000 1.000000 0.999483
0.010000 0.999926 0.999931 0.998846
0.020000 0.999812 0.999825 0.997455
0.030000 0.999644 0.999667 0.995799
0.040000 0.999404 0.999442 0.993849
0.050000 0.999071 0.999127 0.991573
0.060000 0.998618 0.998698 0.988941
0.070000 0.998013 0.998122 0.985919
0.080000 0.997217 0.997362 0.982475
0.090000 0.996186 0.996374 0.978574
0.100000 0.994866 0.995106 0.974183
0.110000 0.993199 0.993498 0.969267
0.120000 0.991116 0.991482 0.963793
0.130000 0.988540 0.988982 0.957728
0.140000 0.985388 0.985913 0.951041
0.150000 0.981569 0.982184 0.943702
0.160000 0.976983 0.977694 0.935682
0.170000 0.971529 0.972338 0.926957
0.180000 0.965097 0.966006 0.917504
0.190000 0.957579 0.958585 0.907302
0.200000 0.948864 0.949962 0.896337
0.210000 0.938845 0.940025 0.884595
0.220000 0.927420 0.928669 0.872070
0.230000 0.914495 0.915795 0.858757
0.240000 0.899989 0.901317 0.844660
0.250000 0.883833 0.885163 0.829783
0.260000 0.865977 0.867278 0.814139
0.270000 0.846392 0.847631 0.797745
0.280000 0.825071 0.826211 0.780623
0.290000 0.802033 0.803035 0.762802
0.300000 0.777322 0.778148 0.744313
0.310000 0.751011 0.751622 0.725194
0.320000 0.723199 0.723559 0.705490
0.330000 0.694012 0.694087 0.685246
0.340000 0.663602 0.663363 0.664514
0.350000 0.632144 0.631567 0.643351
0.360000 0.599833 0.598899 0.621814
0.370000 0.566879 0.565578 0.599966
0.380000 0.533506 0.531836 0.577871
0.390000 0.499946 0.497911 0.555594
0.400000 0.466433 0.464047 0.533204
0.410000 0.433200 0.430483 0.510769
0.420000 0.400472 0.397453 0.488355
0.430000 0.368466 0.365179 0.466032
0.440000 0.337381 0.333865 0.443865
0.450000 0.307399 0.303698 0.421919
0.460000 0.278679 0.274839 0.400257
0.470000 0.251356 0.247425 0.378939
0.480000 0.225539 0.221567 0.358021
0.490000 0.201314 0.197345 0.337557
0.500000 0.178736 0.174815 0.317595
0.510000 0.157836 0.154005 0.298180
0.520000 0.138622 0.134916 0.279353
0.530000 0.121077 0.117529 0.261149
0.540000 0.105164 0.101800 0.243598
0.550000 0.090831 0.087671 0.226727
0.560000 0.078007 0.075066 0.210556
0.570000 0.066611 0.063899 0.195101
0.580000 0.056553 0.054073 0.180373
0.590000 0.047735 0.045488 0.166377
0.600000 0.040057 0.038038 0.153117
0.610000 0.033416 0.031618 0.140589
0.620000 0.027711 0.026123 0.128787
0.630000 0.022844 0.021453 0.117701
0.640000 0.018718 0.017510 0.107316
0.650000 0.015246 0.014204 0.097617
0.660000 0.012342 0.011452 0.088585
0.670000 0.009931 0.009176 0.080196
0.680000 0.007942 0.007307 0.072428
0.690000 0.006313 0.005783 0.065255
0.700000 0.004986 0.004548 0.058650
0.710000 0.003915 0.003554 0.052585
0.720000 0.003054 0.002760 0.047033
0.730000 0.002368 0.002130 0.041964
0.740000 0.001824 0.001634 0.037349
0.750000 0.001397 0.001245 0.033160
0.760000 0.001063 0.000943 0.029368
0.770000 0.000803 0.000709 0.025945
0.780000 0.000603 0.000530 0.022863
0.790000 0.000450 0.000394 0.020098
0.800000 0.000334 0.000291 0.017622
0.810000 0.000246 0.000213 0.015413
0.820000 0.000180 0.000155 0.013446
0.830000 0.000131 0.000112 0.011701
0.840000 0.000095 0.000081 0.010157
0.850000 0.000068 0.000058 0.008794
0.860000 0.000049 0.000041 0.007595
0.870000 0.000034 0.000029 0.006543
0.880000 0.000024 0.000020 0.005623
0.890000 0.000017 0.000014 0.004821
0.900000 0.000012 0.000010 0.004123
0.910000 0.000008 0.000007 0.003520
0.920000 0.000006 0.000005 0.003000
0.930000 0.000004 0.000003 0.002555
0.940000 0.000003 0.000002 0.002177
0.950000 0.000002 0.000001 0.001859
0.960000 0.000001 0.000001 0.001598
0.970000 0.000001 0.000001 0.001391
0.980000 0.000001 0.000000 0.001238
0.990000 0.000000 0.000000 0.001141
1.000000 0.000000 0.000000 0.001107
