0.000000 1.000000 1.000000 0.997910
0.010000 0.999000 0.999044 0.995338
0.020000 0.997478 0.997579 0.989736
0.030000 0.995272 0.995447 0.983108
0.040000 0.992195 0.992460 0.975372
0.050000 0.988034 0.988403 0.966449
0.060000 0.982553 0.983038 0.956268
0.070000 0.975496 0.976103 0.944765
0.080000 0.966596 0.967325 0.931886
0.090000 0.955583 0.956426 0.917589
0.100000 0.942192 0.943132 0.901843
0.110000 0.926181 0.927189 0.884633
0.120000 0.907338 0.908375 0.865958
0.130000 0.885497 0.886513 0.845836
0.140000 0.860552 0.861487 0.824299
0.150000 0.832465 0.833253 0.801398
0.160000 0.801278 0.801847 0.777199
0.170000 0.767118 0.767396 0.751788
0.180000 0.730198 0.730116 0.725264
0.190000 0.690815 0.690314 0.697741
0.200000 0.649348 0.648378 0.669349
0.210000 0.606240 0.604768 0.640226
0.220000 0.561990 0.560001 0.610523
0.230000 0.517134 0.514631 0.580396
0.240000 0.472223 0.469233 0.550006
0.250000 0.427810 0.424375 0.519518
0.260000 0.384422 0.380604 0.489096
0.270000 0.342549 0.338422 0.458902
0.280000 0.302623 0.298274 0.429091
0.290000 0.265010 0.260530 0.399815
0.300000 0.229999 0.225478 0.371213
0.310000 0.197796 0.193324 0.343414
0.320000 0.168527 0.164185 0.316536
0.330000 0.142239 0.138098 0.290679
0.340000 0.118907 0.115023 0.265934
0.350000 0.098441 0.094860 0.242371
0.360000 0.080700 0.077450 0.220049
0.370000 0.065502 0.062599 0.199007
0.380000 0.052635 0.050081 0.179273
0.390000 0.041868 0.039655 0.160858
0.400000 0.032964 0.031076 0.143759
0.410000 0.025687 0.024099 0.127961
0.420000 0.019809 0.018492 0.113439
0.430000 0.015116 0.014041 0.100154
0.440000 0.011414 0.010548 0.088061
0.450000 0.008527 0.007839 0.077109
0.460000 0.006302 0.005764 0.067238
0.470000 0.004608 0.004193 0.058385
0.480000 0.003333 0.003017 0.050484
0.490000 0.002384 0.002147 0.043468
0.500000 0.001687 0.001512 0.037268
0.510000 0.001181 0.001053 0.031815
0.520000 0.000817 0.000725 0.027044
0.530000 0.000559 0.000494 0.022889
0.540000 0.000378 0.000333 0.019288
0.550000 0.000253 0.000222 0.016184
0.560000 0.000167 0.000146 0.013519
0.570000 0.000110 0.000095 0.011244
0.580000 0.000071 0.000061 0.009311
0.590000 0.000045 0.000039 0.007676
0.600000 0.000029 0.000025 0.006300
0.610000 0.000018 0.000015 0.005148
0.620000 0.000011 0.000009 0.004187
0.630000 0.000007 0.000006 0.003391
0.640000 0.000004 0.000003 0.002734
0.650000 0.000002 0.000002 0.002194
0.660000 0.000001 0.000001 0.001753
0.670000 0.000001 0.000001 0.001394
0.680000 0.000000 0.000000 0.001104
0.690000 0.000000 0.000000 0.000870
0.700000 0.000000 0.000000 0.000683
0.710000 0.000000 0.000000 0.000533
0.720000 0.000000 0.000000 0.000414
0.730000 0.000000 0.000000 0.000321
0.740000 0.000000 0.000000 0.000247
0.750000 0.000000 0.000000 0.000189
0.760000 0.000000 0.000000 0.000145
0.770000 0.000000 0.000000 0.000110
0.780000 0.000000 0.000000 0.000083
0.790000 0.000000 0.000000 0.000062
0.800000 0.000000 0.000000 0.000047
0.810000 0.000000 0.000000 0.000035
0.820000 0.000000 0.000000 0.000026
0.830000 0.000000 0.000000 0.000019
0.840000 0.000000 0.000000 0.000014
0.850000 0.000000 0.000000 0.000010
0.860000 0.000000 0.000000 0.000007
0.870000 0.000000 0.000000 0.000005
0.880000 0.000000 0.000000 0.000004
0.890000 0.000000 0.000000 0.000003
0.900000 0.000000 0.000000 0.000002
0.910000 0.000000 0.000000 0.000001
0.920000 0.000000 0.000000 0.000001
0.930000 0.000000 0.000000 0.000001
0.940000 0.000000 0.000000 0.000001
0.950000 0.000000 0.000000 0.000000
0.960000 0.000000 0.000000 0.000000
0.970000 0.000000 0.000000 0.000000
0.980000 0.000000 0.000000 0.000000
0.990000 0.000000 0.000000 0.000000
1.000000 0.000000 0.000000 0.000000
