0.000000 1.000000 1.000000 0.984796
0.010000 0.973780 0.973999 0.966234
0.020000 0.935679 0.935917 0.926330
0.030000 0.884755 0.884707 0.880577
0.040000 0.821145 0.820447 0.829504
0.050000 0.746212 0.744515 0.773871
0.060000 0.662496 0.659557 0.714633
0.070000 0.573475 0.569217 0.652896
0.080000 0.483146 0.477696 0.589863
0.090000 0.395536 0.389207 0.526767
0.100000 0.314212 0.307442 0.464812
0.110000 0.241902 0.235173 0.405106
0.120000 0.180277 0.174025 0.348617
0.130000 0.129918 0.124469 0.296133
0.140000 0.090450 0.085984 0.248233
0.150000 0.060778 0.057332 0.205283
0.160000 0.039383 0.036879 0.167442
0.170000 0.024587 0.022874 0.134678
0.180000 0.014775 0.013675 0.106797
0.190000 0.008540 0.007877 0.083477
0.200000 0.004742 0.004370 0.064305
0.210000 0.002528 0.002335 0.048810
0.220000 0.001292 0.001201 0.036501
0.230000 0.000632 0.000595 0.026887
0.240000 0.000296 0.000283 0.019507
0.250000 0.000132 0.000130 0.013936
0.260000 0.000056 0.000057 0.009803
0.270000 0.000023 0.000024 0.006789
0.280000 0.000009 0.000010 0.004628
0.290000 0.000003 0.000004 0.003106
0.300000 0.000001 0.000001 0.002051
0.310000 0.000000 0.000001 0.001332
0.320000 0.000000 0.000000 0.000852
0.330000 0.000000 0.000000 0.000536
0.340000 0.000000 0.000000 0.000331
0.350000 0.000000 0.000000 0.000202
0.360000 0.000000 0.000000 0.000121
0.370000 0.000000 0.000000 0.000071
0.380000 0.000000 0.000000 0.000041
0.390000 0.000000 0.000000 0.000023
0.400000 0.000000 0.000000 0.000013
0.410000 -0.000000 0.000000 0.000007
0.420000 -0.000000 0.000000 0.000004
0.430000 -0.000000 0.000000 0.000002
0.440000 -0.000000 0.000000 0.000001
0.450000 0.000000 0.000000 0.000001
0.460000 0.000000 0.000000 0.000000
0.470000 0.000000 0.000000 0.000000
0.480000 -0.000000 0.000000 0.000000
0.490000 -0.000000 0.000000 0.000000
0.500000 -0.000000 0.000000 0.000000
0.510000 0.000000 0.000000 0.000000
0.520000 0.000000 0.000000 0.000000
0.530000 0.000000 0.000000 0.000000
0.540000 -0.000000 0.000000 0.000000
0.550000 -0.000000 0.000000 0.000000
0.560000 0.000000 0.000000 0.000000
0.570000 0.000000 0.000000 0.000000
0.580000 0.000000 0.000000 0.000000
0.590000 -0.000000 0.000000 0.000000
0.600000 -0.000000 0.000000 0.000000
0.610000 0.000000 0.000000 0.000000
0.620000 0.000000 0.000000 0.000000
0.630000 -0.000000 0.000000 0.000000
0.640000 -0.000000 0.000000 0.000000
0.650000 0.000000 0.000000 0.000000
0.660000 0.000000 0.000000 0.000000
0.670000 -0.000000 0.000000 0.000000
0.680000 -0.000000 0.000000 0.000000
0.690000 -0.000000 0.000000 0.000000
0.700000 0.000000 0.000000 0.000000
0.710000 0.000000 0.000000 0.000000
0.720000 -0.000000 0.000000 0.000000
0.730000 -0.000000 0.000000 0.000000
0.740000 0.000000 0.000000 0.000000
0.750000 -0.000000 0.000000 0.000000
0.760000 -0.000000 0.000000 0.000000
0.770000 0.000000 0.000000 0.000000
0.780000 0.000000 0.000000 0.000000
0.790000 -0.000000 0.000000 0.000000
0.800000 -0.000000 0.000000 0.000000
0.810000 0.000000 0.000000 0.000000
0.820000 0.000000 0.000000 0.000000
0.830000 -0.000000 0.000000 0.000000
0.840000 -0.000000 0.000000 0.000000
0.850000 0.000000 0.000000 0.000000
0.860000 0.000000 0.000000 0.000000
0.870000 -0.000000 0.000000 0.000000
0.880000 0.000000 0.000000 0.000000
0.890000 0.000000 0.000000 0.000000
0.900000 -0.000000 0.000000 0.000000
0.910000 -0.000000 0.000000 0.000000
0.920000 0.000000 0.000000 0.000000
0.930000 0.000000 0.000000 0.000000
0.940000 -0.000000 0.000000 0.000000
0.950000 0.000000 0.000000 0.000000
0.960000 0.000000 0.000000 0.000000
0.970000 -0.000000 0.000000 0.000000
0.980000 -0.000000 0.000000 0.000000
0.990000 0.000000 0.000000 0.000000
1.000000 -0.000000 0.000000 0.000000
