0.000000 1.000000 1.000000 0.999992
0.010000 1.000000 1.000000 0.999983
0.020000 1.000000 1.000000 0.999962
0.030000 1.000000 1.000000 0.999938
0.040000 1.000000 1.000000 0.999909
0.050000 1.000000 1.000000 0.999874
0.060000 1.000000 1.000000 0.999833
0.070000 1.000000 1.000000 0.999786
0.080000 0.999999 1.000000 0.999732
0.090000 0.999999 0.999999 0.999669
0.100000 0.999999 0.999999 0.999596
0.110000 0.999999 0.999999 0.999513
0.120000 0.999998 0.999998 0.999418
0.130000 0.999997 0.999998 0.999311
0.140000 0.999996 0.999997 0.999189
0.150000 0.999995 0.999996 0.999051
0.160000 0.999994 0.999995 0.998895
0.170000 0.999992 0.999993 0.998721
0.180000 0.999990 0.999991 0.998525
0.190000 0.999987 0.999988 0.998306
0.200000 0.999983 0.999985 0.998061
0.210000 0.999978 0.999981 0.997789
0.220000 0.999972 0.999975 0.997487
0.230000 0.999964 0.999968 0.997152
0.240000 0.999955 0.999960 0.996781
0.250000 0.999943 0.999949 0.996372
0.260000 0.999929 0.999936 0.995920
0.270000 0.999911 0.999921 0.995423
0.280000 0.999889 0.999901 0.994878
0.290000 0.999863 0.999877 0.994280
0.300000 0.999831 0.999848 0.993625
0.310000 0.999792 0.999812 0.992910
0.320000 0.999745 0.999769 0.992129
0.330000 0.999688 0.999718 0.991280
0.340000 0.999621 0.999655 0.990355
0.350000 0.999539 0.999580 0.989352
0.360000 0.999443 0.999491 0.988264
0.370000 0.999328 0.999385 0.987086
0.380000 0.999192 0.999258 0.985813
0.390000 0.999031 0.999109 0.984439
0.400000 0.998842 0.998932 0.982959
0.410000 0.998620 0.998724 0.981365
0.420000 0.998360 0.998480 0.979653
0.430000 0.998057 0.998195 0.977815
0.440000 0.997704 0.997863 0.975846
0.450000 0.997295 0.997476 0.973738
0.460000 0.996823 0.997028 0.971485
0.470000 0.996277 0.996510 0.969081
0.480000 0.995650 0.995914 0.966518
0.490000 0.994932 0.995228 0.963789
0.500000 0.994111 0.994443 0.960889
0.510000 0.993174 0.993546 0.957809
0.520000 0.992110 0.992524 0.954543
0.530000 0.990904 0.991364 0.951085
0.540000 0.989541 0.990050 0.947428
0.550000 0.988005 0.988566 0.943564
0.560000 0.986279 0.986895 0.939488
0.570000 0.984345 0.985018 0.935193
0.580000 0.982183 0.982917 0.930673
0.590000 0.979773 0.980571 0.925923
0.600000 0.977095 0.977958 0.920937
0.610000 0.974126 0.975057 0.915709
0.620000 0.970845 0.971845 0.910235
0.630000 0.967228 0.968298 0.904509
0.640000 0.963252 0.964392 0.898529
0.650000 0.958893 0.960103 0.892290
0.660000 0.954127 0.955407 0.885788
0.670000 0.948931 0.950277 0.879023
0.680000 0.943279 0.944691 0.871990
0.690000 0.937151 0.938624 0.864690
0.700000 0.930522 0.932052 0.857120
0.710000 0.923371 0.924954 0.849282
0.720000 0.915679 0.917308 0.841176
0.730000 0.907426 0.909093 0.832805
0.740000 0.898594 0.900292 0.824170
0.750000 0.889169 0.890889 0.815275
0.760000 0.879137 0.880869 0.806127
0.770000 0.868488 0.870222 0.796731
0.780000 0.857214 0.858937 0.787095
0.790000 0.845309 0.847009 0.777230
0.800000 0.832772 0.834436 0.767146
0.810000 0.819604 0.821219 0.756859
0.820000 0.805810 0.807361 0.746384
0.830000 0.791399 0.792872 0.735743
0.840000 0.776383 0.777761 0.724958
0.850000 0.760779 0.762046 0.714058
0.860000 0.744608 0.745746 0.703076
0.870000 0.727897 0.728884 0.692051
0.880000 0.710677 0.711488 0.681030
0.890000 0.692988 0.693588 0.670069
0.900000 0.674880 0.675219 0.659235
0.910000 0.656416 0.656419 0.648606
0.920000 0.637679 0.637229 0.638278
0.930000 0.618788 0.617694 0.628364
0.940000 0.599909 0.597859 0.619001
0.950000 0.581299 0.577775 0.610353
0.960000 0.563348 0.557491 0.602614
0.970000 0.546678 0.537060 0.596023
0.980000 0.532280 0.516535 0.590863
0.990000 0.521757 0.495972 0.587475
1.000000 0.517713 0.475424 0.586271
