0.000000 1.000000 1.000000 0.999843
0.010000 0.999993 0.999994 0.999649
0.020000 0.999982 0.999984 0.999226
0.030000 0.999966 0.999969 0.998720
0.040000 0.999942 0.999948 0.998122
0.050000 0.999910 0.999917 0.997421
0.060000 0.999864 0.999876 0.996605
0.070000 0.999803 0.999819 0.995662
0.080000 0.999720 0.999743 0.994578
0.090000 0.999612 0.999641 0.993341
0.100000 0.999469 0.999509 0.991934
0.110000 0.999285 0.999337 0.990343
0.120000 0.999049 0.999115 0.988552
0.130000 0.998750 0.998833 0.986544
0.140000 0.998372 0.998476 0.984301
0.150000 0.997900 0.998029 0.981806
0.160000 0.997315 0.997473 0.979041
0.170000 0.996594 0.996786 0.975988
0.180000 0.995713 0.995943 0.972626
0.190000 0.994642 0.994916 0.968938
0.200000 0.993350 0.993674 0.964904
0.210000 0.991801 0.992181 0.960507
0.220000 0.989955 0.990396 0.955726
0.230000 0.987770 0.988278 0.950544
0.240000 0.985197 0.985777 0.944943
0.250000 0.982187 0.982844 0.938906
0.260000 0.978684 0.979424 0.932417
0.270000 0.974633 0.975458 0.925462
0.280000 0.969974 0.970886 0.918024
0.290000 0.964645 0.965645 0.910093
0.300000 0.958584 0.959670 0.901657
0.310000 0.951728 0.952898 0.892707
0.320000 0.944014 0.945264 0.883233
0.330000 0.935381 0.936703 0.873231
0.340000 0.925772 0.927157 0.862697
0.350000 0.915133 0.916569 0.851629
0.360000 0.903415 0.904887 0.840027
0.370000 0.890576 0.892068 0.827895
0.380000 0.876581 0.878073 0.815237
0.390000 0.861406 0.862877 0.802062
0.400000 0.845034 0.846460 0.788379
0.410000 0.827462 0.828819 0.774202
0.420000 0.808696 0.809958 0.759546
0.430000 0.788759 0.789898 0.744429
0.440000 0.767682 0.768673 0.728871
0.450000 0.745513 0.746328 0.712895
0.460000 0.722311 0.722926 0.696525
0.470000 0.698149 0.698540 0.679789
0.480000 0.673113 0.673258 0.662716
0.490000 0.647299 0.647180 0.645337
0.500000 0.620814 0.620415 0.627686
0.510000 0.593774 0.593084 0.609795
0.520000 0.566304 0.565315 0.591701
0.530000 0.538534 0.537243 0.573441
0.540000 0.510597 0.509005 0.555052
0.550000 0.482629 0.480742 0.536574
0.560000 0.454767 0.452595 0.518044
0.570000 0.427145 0.424703 0.499501
0.580000 0.399894 0.397200 0.480986
0.590000 0.373140 0.370216 0.462536
0.600000 0.346999 0.343872 0.444189
0.610000 0.321582 0.318278 0.425984
0.620000 0.296987 0.293538 0.407957
0.630000 0.273303 0.269739 0.390142
0.640000 0.250605 0.246959 0.372575
0.650000 0.228957 0.225261 0.355286
0.660000 0.208410 0.204696 0.338308
0.670000 0.189001 0.185299 0.321669
0.680000 0.170754 0.167094 0.305395
0.690000 0.153683 0.150092 0.289511
0.700000 0.137787 0.134289 0.274040
0.710000 0.123057 0.119675 0.259001
0.720000 0.109473 0.106224 0.244413
0.730000 0.097004 0.093906 0.230291
0.740000 0.085614 0.082679 0.216647
0.750000 0.075260 0.072496 0.203493
0.760000 0.065891 0.063306 0.190837
0.770000 0.057455 0.055052 0.178684
0.780000 0.049895 0.047675 0.167040
0.790000 0.043151 0.041113 0.155904
0.800000 0.037165 0.035306 0.145277
0.810000 0.031877 0.030190 0.135157
0.820000 0.027227 0.025705 0.125540
0.830000 0.023158 0.021793 0.116420
0.840000 0.019614 0.018398 0.107792
0.850000 0.016542 0.015464 0.099646
0.860000 0.013892 0.012942 0.091975
0.870000 0.011617 0.010784 0.084770
0.880000 0.009672 0.008947 0.078022
0.890000 0.008019 0.007390 0.071723
0.900000 0.006620 0.006078 0.065866
0.910000 0.005441 0.004976 0.060447
0.920000 0.004453 0.004057 0.055464
0.930000 0.003629 0.003292 0.050919
0.940000 0.002945 0.002660 0.046824
0.950000 0.002383 0.002140 0.043194
0.960000 0.001924 0.001713 0.040062
0.970000 0.001557 0.001366 0.037471
0.980000 0.001277 0.001084 0.035487
0.990000 0.001090 0.000856 0.034205
1.000000 0.001021 0.000674 0.033752
