0.000000 1.000000 1.000000 0.999784
0.010000 0.999987 0.999988 0.999518
0.020000 0.999966 0.999969 0.998936
0.030000 0.999935 0.999941 0.998242
0.040000 0.999891 0.999900 0.997422
0.050000 0.999830 0.999843 0.996461
0.060000 0.999745 0.999765 0.995344
0.070000 0.999630 0.999658 0.994056
0.080000 0.999477 0.999515 0.992578
0.090000 0.999276 0.999326 0.990893
0.100000 0.999014 0.999080 0.988982
0.110000 0.998677 0.998762 0.986826
0.120000 0.998247 0.998355 0.984404
0.130000 0.997705 0.997840 0.981695
0.140000 0.997025 0.997193 0.978678
0.150000 0.996182 0.996387 0.975332
0.160000 0.995143 0.995391 0.971635
0.170000 0.993872 0.994170 0.967565
0.180000 0.992331 0.992685 0.963100
0.190000 0.990475 0.990890 0.958219
0.200000 0.988254 0.988737 0.952901
0.210000 0.985615 0.986173 0.947125
0.220000 0.982500 0.983138 0.940871
0.230000 0.978848 0.979569 0.934121
0.240000 0.974593 0.975402 0.926858
0.250000 0.969666 0.970565 0.919065
0.260000 0.963997 0.964987 0.910728
0.270000 0.957514 0.958593 0.901834
0.280000 0.950146 0.951310 0.892373
0.290000 0.941820 0.943065 0.882336
0.300000 0.932469 0.933784 0.871717
0.310000 0.922028 0.923403 0.860513
0.320000 0.910436 0.911857 0.848721
0.330000 0.897643 0.899091 0.836345
0.340000 0.883602 0.885059 0.823388
0.350000 0.868281 0.869724 0.809858
0.360000 0.851658 0.853061 0.795766
0.370000 0.833721 0.835059 0.781125
0.380000 0.814476 0.815721 0.765952
0.390000 0.793942 0.795063 0.750267
0.400000 0.772153 0.773122 0.734091
0.410000 0.749159 0.749947 0.717450
0.420000 0.725027 0.725606 0.700373
0.430000 0.699837 0.700182 0.682891
0.440000 0.673688 0.673774 0.665035
0.450000 0.646689 0.646496 0.646843
0.460000 0.618962 0.618474 0.628351
0.470000 0.590641 0.589846 0.609600
0.480000 0.561869 0.560759 0.590629
0.490000 0.532795 0.531368 0.571482
0.500000 0.503571 0.501830 0.552202
0.510000 0.474355 0.472306 0.532833
0.520000 0.445300 0.442958 0.513419
0.530000 0.416559 0.413941 0.494005
0.540000 0.388278 0.385408 0.474636
0.550000 0.360599 0.357501 0.455356
0.560000 0.333649 0.330354 0.436208
0.570000 0.307549 0.304089 0.417235
0.580000 0.282404 0.278812 0.398478
0.590000 0.258306 0.254619 0.379975
0.600000 0.235332 0.231585 0.361766
0.610000 0.213546 0.209773 0.343886
0.620000 0.192993 0.189229 0.326367
0.630000 0.173704 0.169982 0.309242
0.640000 0.155697 0.152047 0.292540
0.650000 0.138974 0.135422 0.276285
0.660000 0.123524 0.120095 0.260501
0.670000 0.109324 0.106039 0.245209
0.680000 0.096341 0.093217 0.230427
0.690000 0.084533 0.081583 0.216169
0.700000 0.073849 0.071083 0.202446
0.710000 0.064232 0.061656 0.189269
0.720000 0.055620 0.053238 0.176643
0.730000 0.047949 0.045761 0.164572
0.740000 0.041150 0.039153 0.153057
0.750000 0.035157 0.033346 0.142097
0.760000 0.029900 0.028270 0.131688
0.770000 0.025314 0.023854 0.121824
0.780000 0.021333 0.020035 0.112497
0.790000 0.017895 0.016748 0.103697
0.800000 0.014942 0.013935 0.095414
0.810000 0.012419 0.011539 0.087633
0.820000 0.010273 0.009510 0.080341
0.830000 0.008459 0.007801 0.073522
0.840000 0.006932 0.006368 0.067161
0.850000 0.005654 0.005174 0.061241
0.860000 0.004590 0.004183 0.055745
0.870000 0.003708 0.003366 0.050656
0.880000 0.002982 0.002695 0.045957
0.890000 0.002386 0.002148 0.041632
0.900000 0.001900 0.001703 0.037666
0.910000 0.001506 0.001344 0.034045
0.920000 0.001188 0.001056 0.030759
0.930000 0.000933 0.000825 0.027799
0.940000 0.000729 0.000641 0.025162
0.950000 0.000567 0.000496 0.022850
0.960000 0.000440 0.000382 0.020872
0.970000 0.000342 0.000293 0.019249
0.980000 0.000270 0.000223 0.018014
0.990000 0.000222 0.000169 0.017219
1.000000 0.000205 0.000128 0.016939
