0.000000 1.000000 1.000000 0.999861
0.010000 0.999994 0.999995 0.999690
0.020000 0.999986 0.999987 0.999317
0.030000 0.999973 0.999976 0.998870
0.040000 0.999955 0.999959 0.998342
0.050000 0.999930 0.999936 0.997723
0.060000 0.999894 0.999904 0.997002
0.070000 0.999846 0.999859 0.996168
0.080000 0.999782 0.999800 0.995209
0.090000 0.999697 0.999721 0.994114
0.100000 0.999585 0.999617 0.992867
0.110000 0.999440 0.999482 0.991457
0.120000 0.999255 0.999308 0.989867
0.130000 0.999018 0.999087 0.988083
0.140000 0.998720 0.998806 0.986089
0.150000 0.998346 0.998452 0.983868
0.160000 0.997881 0.998012 0.981404
0.170000 0.997307 0.997466 0.978680
0.180000 0.996602 0.996795 0.975677
0.190000 0.995744 0.995975 0.972379
0.200000 0.994706 0.994980 0.968766
0.210000 0.993456 0.993779 0.964822
0.220000 0.991963 0.992340 0.960528
0.230000 0.990188 0.990625 0.955867
0.240000 0.988092 0.988594 0.950821
0.250000 0.985629 0.986202 0.945374
0.260000 0.982753 0.983401 0.939509
0.270000 0.979412 0.980140 0.933210
0.280000 0.975554 0.976365 0.926464
0.290000 0.971121 0.972018 0.919256
0.300000 0.966057 0.967041 0.911575
0.310000 0.960302 0.961372 0.903408
0.320000 0.953796 0.954951 0.894747
0.330000 0.946479 0.947714 0.885584
0.340000 0.938294 0.939603 0.875913
0.350000 0.929183 0.930559 0.865728
0.360000 0.919095 0.920526 0.855029
0.370000 0.907981 0.909454 0.843814
0.380000 0.895799 0.897298 0.832085
0.390000 0.882512 0.884020 0.819847
0.400000 0.868092 0.869590 0.807106
0.410000 0.852522 0.853987 0.793871
0.420000 0.835791 0.837200 0.780152
0.430000 0.817902 0.819231 0.765964
0.440000 0.798868 0.800091 0.751322
0.450000 0.778714 0.779805 0.736244
0.460000 0.757479 0.758412 0.720751
0.470000 0.735212 0.735962 0.704866
0.480000 0.711976 0.712519 0.688612
0.490000 0.687845 0.688159 0.672016
0.500000 0.662905 0.662971 0.655108
0.510000 0.637252 0.637052 0.637917
0.520000 0.610991 0.610513 0.620475
0.530000 0.584237 0.583469 0.602815
0.540000 0.557108 0.556046 0.584971
0.550000 0.529731 0.528371 0.566979
0.560000 0.502233 0.500579 0.548875
0.570000 0.474744 0.472802 0.530695
0.580000 0.447393 0.445175 0.512477
0.590000 0.420308 0.417829 0.494258
0.600000 0.393612 0.390890 0.476074
0.610000 0.367423 0.364480 0.457962
0.620000 0.341851 0.338713 0.439959
0.630000 0.316998 0.313692 0.422100
0.640000 0.292957 0.289512 0.404419
0.650000 0.269810 0.266256 0.386950
0.660000 0.247627 0.243996 0.369725
0.670000 0.226467 0.222790 0.352774
0.680000 0.206376 0.202684 0.336126
0.690000 0.187390 0.183711 0.319809
0.700000 0.169530 0.165893 0.303847
0.710000 0.152807 0.149238 0.288265
0.720000 0.137222 0.133745 0.273082
0.730000 0.122764 0.119399 0.258319
0.740000 0.109414 0.106180 0.243992
0.750000 0.097144 0.094056 0.230116
0.760000 0.085918 0.082989 0.216702
0.770000 0.075695 0.072935 0.203762
0.780000 0.066429 0.063843 0.191304
0.790000 0.058068 0.055660 0.179333
0.800000 0.050560 0.048331 0.167854
0.810000 0.043847 0.041796 0.156869
0.820000 0.037874 0.035998 0.146377
0.830000 0.032583 0.030877 0.136379
0.840000 0.027918 0.026375 0.126872
0.850000 0.023824 0.022437 0.117852
0.860000 0.020248 0.019007 0.109315
0.870000 0.017138 0.016035 0.101255
0.880000 0.014446 0.013470 0.093670
0.890000 0.012126 0.011269 0.086554
0.900000 0.010137 0.009387 0.079906
0.910000 0.008440 0.007787 0.073725
0.920000 0.006997 0.006432 0.068016
0.930000 0.005778 0.005290 0.062788
0.940000 0.004753 0.004332 0.058057
0.950000 0.003898 0.003533 0.053850
0.960000 0.003191 0.002868 0.050207
0.970000 0.002620 0.002319 0.047187
0.980000 0.002179 0.001867 0.044870
0.990000 0.001882 0.001496 0.043370
1.000000 0.001772 0.001194 0.042840
