0.000000 1.000000 1.000000 0.960331
0.010000 0.900046 0.898941 0.912633
0.020000 0.766574 0.762816 0.812535
0.030000 0.612642 0.605543 0.704285
0.040000 0.456114 0.446384 0.593223
0.050000 0.314340 0.303786 0.484770
0.060000 0.199371 0.189989 0.383762
0.070000 0.115721 0.108800 0.293915
0.080000 0.061107 0.056893 0.217516
0.090000 0.029162 0.027105 0.155379
0.100000 0.012478 0.011745 0.107023
0.110000 0.004739 0.004622 0.071011
0.120000 0.001575 0.001650 0.045346
0.130000 0.000449 0.000534 0.027844
0.140000 0.000106 0.000157 0.016425
0.150000 0.000019 0.000042 0.009300
0.160000 0.000002 0.000010 0.005050
0.170000 0.000000 0.000002 0.002628
0.180000 -0.000000 0.000000 0.001309
0.190000 -0.000000 0.000000 0.000623
0.200000 0.000000 0.000000 0.000284
0.210000 0.000000 0.000000 0.000123
0.220000 0.000000 0.000000 0.000051
0.230000 -0.000000 0.000000 0.000020
0.240000 -0.000000 0.000000 0.000008
0.250000 0.000000 0.000000 0.000003
0.260000 0.000000 0.000000 0.000001
0.270000 -0.000000 0.000000 0.000000
0.280000 -0.000000 0.000000 0.000000
0.290000 0.000000 0.000000 0.000000
0.300000 0.000000 0.000000 0.000000
0.310000 -0.000000 0.000000 0.000000
0.320000 -0.000000 0.000000 0.000000
0.330000 0.000000 0.000000 0.000000
0.340000 0.000000 0.000000 0.000000
0.350000 -0.000000 0.000000 0.000000
0.360000 -0.000000 0.000000 0.000000
0.370000 0.000000 0.000000 0.000000
0.380000 -0.000000 0.000000 0.000000
0.390000 -0.000000 0.000000 0.000000
0.400000 0.000000 0.000000 0.000000
0.410000 -0.000000 0.000000 0.000000
0.420000 -0.000000 0.000000 0.000000
0.430000 0.000000 0.000000 0.000000
0.440000 0.000000 0.000000 0.000000
0.450000 -0.000000 0.000000 0.000000
0.460000 0.000000 0.000000 0.000000
0.470000 0.000000 0.000000 0.000000
0.480000 -0.000000 0.000000 0.000000
0.490000 0.000000 0.000000 0.000000
0.500000 0.000000 0.000000 0.000000
0.510000 -0.000000 0.000000 0.000000
0.520000 0.000000 0.000000 0.000000
0.530000 0.000000 0.000000 0.000000
0.540000 -0.000000 0.000000 0.000000
0.550000 0.000000 0.000000 0.000000
0.560000 -0.000000 0.000000 0.000000
0.570000 -0.000000 0.000000 0.000000
0.580000 0.000000 0.000000 0.000000
0.590000 -0.000000 0.000000 0.000000
0.600000 -0.000000 0.000000 0.000000
0.610000 0.000000 0.000000 0.000000
0.620000 -0.000000 0.000000 0.000000
0.630000 0.000000 0.000000 0.000000
0.640000 0.000000 0.000000 0.000000
0.650000 -0.000000 0.000000 0.000000
0.660000 0.000000 0.000000 0.000000
0.670000 -0.000000 0.000000 0.000000
0.680000 -0.000000 0.000000 0.000000
0.690000 0.000000 0.000000 0.000000
0.700000 -0.000000 0.000000 0.000000
0.710000 0.000000 0.000000 0.000000
0.720000 0.000000 0.000000 0.000000
0.730000 -0.000000 0.000000 0.000000
0.740000 0.000000 0.000000 0.000000
0.750000 -0.000000 0.000000 0.000000
0.760000 -0.000000 0.000000 0.000000
0.770000 0.000000 0.000000 0.000000
0.780000 -0.000000 0.000000 0.000000
0.790000 0.000000 0.000000 0.000000
0.800000 -0.000000 0.000000 0.000000
0.810000 -0.000000 0.000000 0.000000
0.820000 0.000000 0.000000 0.000000
0.830000 -0.000000 0.000000 0.000000
0.840000 0.000000 0.000000 0.000000
0.850000 0.000000 0.000000 0.000000
0.860000 -0.000000 0.000000 0.000000
0.870000 0.000000 0.000000 0.000000
0.880000 -0.000000 0.000000 0.000000
0.890000 0.000000 0.000000 0.000000
0.900000 -0.000000 0.000000 0.000000
0.910000 -0.000000 0.000000 0.000000
0.920000 0.000000 0.000000 0.000000
0.930000 -0.000000 0.000000 0.000000
0.940000 0.000000 0.000000 0.000000
0.950000 -0.000000 0.000000 0.000000
0.960000 -0.000000 0.000000 0.000000
0.970000 0.000000 0.000000 0.000000
0.980000 -0.000000 0.000000 0.000000
0.990000 0.000000 0.000000 0.000000
1.000000 -0.000000 0.000000 0.000000
