0.000000 1.000000 1.000000 0.999902
0.010000 0.999997 0.999998 0.999781
0.020000 0.999993 0.999994 0.999517
0.030000 0.999987 0.999988 0.999202
0.040000 0.999978 0.999980 0.998828
0.050000 0.999965 0.999969 0.998389
0.060000 0.999947 0.999953 0.997878
0.070000 0.999924 0.999931 0.997286
0.080000 0.999891 0.999901 0.996604
0.090000 0.999848 0.999862 0.995824
0.100000 0.999792 0.999810 0.994934
0.110000 0.999719 0.999742 0.993926
0.120000 0.999624 0.999654 0.992786
0.130000 0.999502 0.999541 0.991505
0.140000 0.999348 0.999398 0.990069
0.150000 0.999154 0.999216 0.988465
0.160000 0.998911 0.998988 0.986681
0.170000 0.998609 0.998704 0.984703
0.180000 0.998236 0.998351 0.982516
0.190000 0.997779 0.997918 0.980105
0.200000 0.997220 0.997388 0.977456
0.210000 0.996543 0.996743 0.974554
0.220000 0.995726 0.995963 0.971382
0.230000 0.994748 0.995025 0.967926
0.240000 0.993580 0.993904 0.964170
0.250000 0.992196 0.992572 0.960099
0.260000 0.990563 0.990996 0.955696
0.270000 0.988647 0.989141 0.950947
0.280000 0.986411 0.986972 0.945838
0.290000 0.983813 0.984446 0.940353
0.300000 0.980811 0.981520 0.934479
0.310000 0.977360 0.978147 0.928204
0.320000 0.973411 0.974280 0.921514
0.330000 0.968914 0.969868 0.914399
0.340000 0.963820 0.964857 0.906847
0.350000 0.958074 0.959195 0.898852
0.360000 0.951626 0.952828 0.890403
0.370000 0.944423 0.945702 0.881495
0.380000 0.936415 0.937765 0.872124
0.390000 0.927553 0.928966 0.862284
0.400000 0.917792 0.919258 0.851976
0.410000 0.907090 0.908597 0.841198
0.420000 0.895409 0.896943 0.829953
0.430000 0.882719 0.884264 0.818244
0.440000 0.868995 0.870532 0.806077
0.450000 0.854219 0.855730 0.793460
0.460000 0.838383 0.839846 0.780401
0.470000 0.821487 0.822879 0.766913
0.480000 0.803540 0.804839 0.753009
0.490000 0.784562 0.785743 0.738703
0.500000 0.764583 0.765623 0.724014
0.510000 0.743642 0.744518 0.708961
0.520000 0.721791 0.722480 0.693564
0.530000 0.699090 0.699572 0.677846
0.540000 0.675609 0.675865 0.661831
0.550000 0.651429 0.651441 0.645544
0.560000 0.626637 0.626391 0.629014
0.570000 0.601328 0.600813 0.612267
0.580000 0.575605 0.574812 0.595334
0.590000 0.549574 0.548499 0.578245
0.600000 0.523345 0.521987 0.561030
0.610000 0.497031 0.495393 0.543722
0.620000 0.470746 0.468835 0.526352
0.630000 0.444603 0.442429 0.508952
0.640000 0.418714 0.416291 0.491556
0.650000 0.393186 0.390531 0.474196
0.660000 0.368122 0.365254 0.456902
0.670000 0.343619 0.340562 0.439708
0.680000 0.319768 0.316546 0.422645
0.690000 0.296650 0.293290 0.405741
0.700000 0.274338 0.270867 0.389028
0.710000 0.252897 0.249344 0.372532
0.720000 0.232381 0.228773 0.356281
0.730000 0.212833 0.209198 0.340301
0.740000 0.194286 0.190652 0.324617
0.750000 0.176765 0.173158 0.309250
0.760000 0.160282 0.156727 0.294222
0.770000 0.144843 0.141363 0.279553
0.780000 0.130443 0.127057 0.265262
0.790000 0.117069 0.113795 0.251363
0.800000 0.104699 0.101554 0.237873
0.810000 0.093308 0.090305 0.224803
0.820000 0.082863 0.080011 0.212167
0.830000 0.073325 0.070633 0.199974
0.840000 0.064652 0.062126 0.188234
0.850000 0.056799 0.054442 0.176956
0.860000 0.049720 0.047531 0.166147
0.870000 0.043364 0.041344 0.155816
0.880000 0.037682 0.035827 0.145972
0.890000 0.032624 0.030929 0.136625
0.900000 0.028141 0.026600 0.127789
0.910000 0.024185 0.022790 0.119479
0.920000 0.020709 0.019452 0.111720
0.930000 0.017669 0.016539 0.104540
0.940000 0.015027 0.014008 0.097981
0.950000 0.012747 0.011819 0.092099
0.960000 0.010804 0.009933 0.086968
0.970000 0.009186 0.008316 0.082687
0.980000 0.007906 0.006935 0.079387
0.990000 0.007027 0.005760 0.077244
1.000000 0.006699 0.004766 0.076486
