0.000000 1.000000 1.000000 0.993889
0.010000 0.993698 0.993850 0.986388
0.020000 0.984254 0.984573 0.970123
0.030000 0.970945 0.971425 0.951086
0.040000 0.953067 0.953678 0.929200
0.050000 0.929997 0.930673 0.904444
0.060000 0.901249 0.901895 0.876849
0.070000 0.866537 0.867029 0.846508
0.080000 0.825827 0.826025 0.813571
0.090000 0.779373 0.779128 0.778249
0.100000 0.727725 0.726902 0.740807
0.110000 0.671723 0.670211 0.701559
0.120000 0.612451 0.610183 0.660860
0.130000 0.551183 0.548142 0.619097
0.140000 0.489296 0.485524 0.576682
0.150000 0.428186 0.423778 0.534034
0.160000 0.369177 0.364275 0.491573
0.170000 0.313442 0.308220 0.449708
0.180000 0.261936 0.256586 0.408823
0.190000 0.215360 0.210071 0.369273
0.200000 0.174139 0.169083 0.331370
0.210000 0.138431 0.133749 0.295382
0.220000 0.108152 0.103946 0.261524
0.230000 0.083016 0.079349 0.229960
0.240000 0.062589 0.059482 0.200802
0.250000 0.046336 0.043777 0.174108
0.260000 0.033676 0.031626 0.149889
0.270000 0.024021 0.022423 0.128110
0.280000 0.016812 0.015601 0.108701
0.290000 0.011543 0.010650 0.091555
0.300000 0.007773 0.007132 0.076544
0.310000 0.005133 0.004685 0.063516
0.320000 0.003323 0.003019 0.052309
0.330000 0.002108 0.001907 0.042754
0.340000 0.001311 0.001182 0.034677
0.350000 0.000798 0.000718 0.027910
0.360000 0.000476 0.000428 0.022290
0.370000 0.000278 0.000250 0.017664
0.380000 0.000159 0.000143 0.013888
0.390000 0.000089 0.000080 0.010834
0.400000 0.000049 0.000044 0.008384
0.410000 0.000026 0.000024 0.006437
0.420000 0.000014 0.000013 0.004903
0.430000 0.000007 0.000007 0.003704
0.440000 0.000004 0.000003 0.002776
0.450000 0.000002 0.000002 0.002064
0.460000 0.000001 0.000001 0.001522
0.470000 0.000000 0.000000 0.001113
0.480000 0.000000 0.000000 0.000807
0.490000 0.000000 0.000000 0.000581
0.500000 0.000000 0.000000 0.000414
0.510000 0.000000 0.000000 0.000293
0.520000 0.000000 0.000000 0.000206
0.530000 0.000000 0.000000 0.000143
0.540000 0.000000 0.000000 0.000099
0.550000 0.000000 0.000000 0.000068
0.560000 0.000000 0.000000 0.000046
0.570000 0.000000 0.000000 0.000031
0.580000 0.000000 0.000000 0.000021
0.590000 0.000000 0.000000 0.000014
0.600000 0.000000 0.000000 0.000009
0.610000 0.000000 0.000000 0.000006
0.620000 0.000000 0.000000 0.000004
0.630000 0.000000 0.000000 0.000002
0.640000 0.000000 0.000000 0.000002
0.650000 0.000000 0.000000 0.000001
0.660000 0.000000 0.000000 0.000001
0.670000 0.000000 0.000000 0.000000
0.680000 0.000000 0.000000 0.000000
0.690000 0.000000 0.000000 0.000000
0.700000 0.000000 0.000000 0.000000
0.710000 0.000000 0.000000 0.000000
0.720000 0.000000 0.000000 0.000000
0.730000 0.000000 0.000000 0.000000
0.740000 0.000000 0.000000 0.000000
0.750000 0.000000 0.000000 0.000000
0.760000 -0.000000 0.000000 0.000000
0.770000 -0.000000 0.000000 0.000000
0.780000 -0.000000 0.000000 0.000000
0.790000 -0.000000 0.000000 0.000000
0.800000 0.000000 0.000000 0.000000
0.810000 0.000000 0.000000 0.000000
0.820000 0.000000 0.000000 0.000000
0.830000 0.000000 0.000000 0.000000
0.840000 -0.000000 0.000000 0.000000
0.850000 -0.000000 0.000000 0.000000
0.860000 -0.000000 0.000000 0.000000
0.870000 -0.000000 0.000000 0.000000
0.880000 0.000000 0.000000 0.000000
0.890000 0.000000 0.000000 0.000000
0.900000 0.000000 0.000000 0.000000
0.910000 -0.000000 0.000000 0.000000
0.920000 -0.000000 0.000000 0.000000
0.930000 -0.000000 0.000000 0.000000
0.940000 0.000000 0.000000 0.000000
0.950000 0.000000 0.000000 0.000000
0.960000 0.000000 0.000000 0.000000
0.970000 -0.000000 0.000000 0.000000
0.980000 -0.000000 0.000000 0.000000
0.990000 -0.000000 0.000000 0.000000
1.000000 0.000000 0.000000 0.000000
