0.000000 1.000000 1.000000 0.999938
0.010000 0.999999 0.999999 0.999861
0.020000 0.999997 0.999998 0.999693
0.030000 0.999995 0.999995 0.999492
0.040000 0.999991 0.999992 0.999254
0.050000 0.999986 0.999988 0.998974
0.060000 0.999979 0.999981 0.998647
0.070000 0.999970 0.999973 0.998269
0.080000 0.999957 0.999961 0.997832
0.090000 0.999939 0.999945 0.997330
0.100000 0.999916 0.999924 0.996758
0.110000 0.999886 0.999897 0.996108
0.120000 0.999848 0.999861 0.995371
0.130000 0.999798 0.999816 0.994540
0.140000 0.999734 0.999757 0.993607
0.150000 0.999653 0.999682 0.992562
0.160000 0.999550 0.999587 0.991395
0.170000 0.999422 0.999468 0.990097
0.180000 0.999263 0.999319 0.988657
0.190000 0.999066 0.999135 0.987064
0.200000 0.998823 0.998907 0.985307
0.210000 0.998526 0.998628 0.983374
0.220000 0.998165 0.998286 0.981254
0.230000 0.997727 0.997872 0.978933
0.240000 0.997200 0.997372 0.976400
0.250000 0.996568 0.996771 0.973642
0.260000 0.995814 0.996052 0.970645
0.270000 0.994920 0.995196 0.967396
0.280000 0.993863 0.994183 0.963883
0.290000 0.992621 0.992989 0.960092
0.300000 0.991168 0.991588 0.956010
0.310000 0.989474 0.989952 0.951625
0.320000 0.987511 0.988051 0.946924
0.330000 0.985245 0.985851 0.941894
0.340000 0.982640 0.983316 0.936524
0.350000 0.979660 0.980410 0.930802
0.360000 0.976264 0.977092 0.924718
0.370000 0.972413 0.973320 0.918261
0.380000 0.968064 0.969051 0.911422
0.390000 0.963172 0.964241 0.904193
0.400000 0.957695 0.958844 0.896566
0.410000 0.951587 0.952814 0.888534
0.420000 0.944804 0.946107 0.880092
0.430000 0.937304 0.938676 0.871237
0.440000 0.929044 0.930479 0.861964
0.450000 0.919986 0.921476 0.852272
0.460000 0.910093 0.911627 0.842161
0.470000 0.899333 0.900898 0.831632
0.480000 0.887676 0.889260 0.820688
0.490000 0.875100 0.876687 0.809332
0.500000 0.861587 0.863160 0.797572
0.510000 0.847126 0.848666 0.785412
0.520000 0.831712 0.833200 0.772864
0.530000 0.815349 0.816765 0.759936
0.540000 0.798047 0.799370 0.746642
0.550000 0.779826 0.781034 0.732994
0.560000 0.760712 0.761785 0.719008
0.570000 0.740742 0.741658 0.704700
0.580000 0.719960 0.720700 0.690088
0.590000 0.698419 0.698963 0.675191
0.600000 0.676177 0.676510 0.660031
0.610000 0.653304 0.653408 0.644628
0.620000 0.629873 0.629736 0.629006
0.630000 0.605965 0.605576 0.613188
0.640000 0.581666 0.581017 0.597200
0.650000 0.557065 0.556151 0.581066
0.660000 0.532255 0.531074 0.564814
0.670000 0.507333 0.505886 0.548469
0.680000 0.482396 0.480687 0.532059
0.690000 0.457539 0.455576 0.515612
0.700000 0.432859 0.430653 0.499155
0.710000 0.408450 0.406014 0.482715
0.720000 0.384401 0.381751 0.466321
0.730000 0.360799 0.357954 0.449999
0.740000 0.337726 0.334705 0.433777
0.750000 0.315255 0.312082 0.417681
0.760000 0.293457 0.290155 0.401737
0.770000 0.272391 0.268985 0.385971
0.780000 0.252112 0.248626 0.370407
0.790000 0.232665 0.229125 0.355071
0.800000 0.214087 0.210519 0.339985
0.810000 0.196409 0.192836 0.325173
0.820000 0.179650 0.176096 0.310657
0.830000 0.163824 0.160312 0.296459
0.840000 0.148936 0.145486 0.282602
0.850000 0.134985 0.131615 0.269109
0.860000 0.121960 0.118688 0.256002
0.870000 0.109848 0.106688 0.243307
0.880000 0.098627 0.095592 0.231050
0.890000 0.088273 0.085372 0.219262
0.900000 0.078755 0.075996 0.207978
0.910000 0.070041 0.067427 0.197239
0.920000 0.062099 0.059626 0.187096
0.930000 0.054893 0.052552 0.177611
0.940000 0.048395 0.046163 0.168862
0.950000 0.042585 0.040414 0.160947
0.960000 0.037462 0.035262 0.153990
0.970000 0.033063 0.030662 0.148149
0.980000 0.029495 0.026571 0.143627
0.990000 0.026999 0.022947 0.140680
1.000000 0.026059 0.019750 0.139636
