0.000000 1.000000 1.000000 0.999845
0.010000 0.999993 0.999994 0.999654
0.020000 0.999982 0.999984 0.999237
0.030000 0.999967 0.999970 0.998739
0.040000 0.999944 0.999949 0.998149
0.050000 0.999912 0.999920 0.997458
0.060000 0.999868 0.999879 0.996654
0.070000 0.999808 0.999824 0.995725
0.080000 0.999728 0.999750 0.994657
0.090000 0.999623 0.999652 0.993437
0.100000 0.999484 0.999523 0.992050
0.110000 0.999306 0.999356 0.990482
0.120000 0.999076 0.999140 0.988716
0.130000 0.998785 0.998866 0.986735
0.140000 0.998418 0.998519 0.984524
0.150000 0.997959 0.998084 0.982063
0.160000 0.997389 0.997543 0.979335
0.170000 0.996687 0.996874 0.976322
0.180000 0.995829 0.996054 0.973005
0.190000 0.994785 0.995054 0.969365
0.200000 0.993526 0.993844 0.965384
0.210000 0.992016 0.992388 0.961042
0.220000 0.990215 0.990648 0.956321
0.230000 0.988082 0.988581 0.951203
0.240000 0.985571 0.986141 0.945670
0.250000 0.982630 0.983277 0.939706
0.260000 0.979208 0.979936 0.933294
0.270000 0.975247 0.976060 0.926419
0.280000 0.970690 0.971589 0.919066
0.290000 0.965474 0.966461 0.911224
0.300000 0.959539 0.960613 0.902880
0.310000 0.952821 0.953980 0.894024
0.320000 0.945258 0.946497 0.884650
0.330000 0.936790 0.938103 0.874750
0.340000 0.927359 0.928736 0.864321
0.350000 0.916909 0.918339 0.853359
0.360000 0.905393 0.906862 0.841866
0.370000 0.892766 0.894258 0.829845
0.380000 0.878994 0.880489 0.817299
0.390000 0.864049 0.865527 0.804236
0.400000 0.847914 0.849352 0.790666
0.410000 0.830584 0.831957 0.776602
0.420000 0.812064 0.813346 0.762057
0.430000 0.792371 0.793536 0.747050
0.440000 0.771536 0.772558 0.731601
0.450000 0.749605 0.750456 0.715730
0.460000 0.726632 0.727289 0.699463
0.470000 0.702690 0.703127 0.682827
0.480000 0.677860 0.678055 0.665849
0.490000 0.652236 0.652171 0.648561
0.500000 0.625922 0.625581 0.630995
0.510000 0.599034 0.598404 0.613184
0.520000 0.571693 0.570766 0.595164
0.530000 0.544026 0.542798 0.576971
0.540000 0.516167 0.514638 0.558643
0.550000 0.488250 0.486425 0.540217
0.560000 0.460411 0.458299 0.521733
0.570000 0.432784 0.430399 0.503228
0.580000 0.405501 0.402860 0.484742
0.590000 0.378686 0.375812 0.466314
0.600000 0.352459 0.349375 0.447981
0.610000 0.326930 0.323665 0.429781
0.620000 0.302200 0.298783 0.411750
0.630000 0.278359 0.274821 0.393924
0.640000 0.255486 0.251858 0.376336
0.650000 0.233645 0.229960 0.359020
0.660000 0.212891 0.209181 0.342006
0.670000 0.193263 0.189558 0.325324
0.680000 0.174788 0.171119 0.308999
0.690000 0.157483 0.153876 0.293058
0.700000 0.141349 0.137830 0.277523
0.710000 0.126380 0.122971 0.262414
0.720000 0.112558 0.109278 0.247750
0.730000 0.099854 0.096721 0.233547
0.740000 0.088235 0.085261 0.219818
0.750000 0.077657 0.074853 0.206574
0.760000 0.068074 0.065447 0.193824
0.770000 0.059433 0.056987 0.181574
0.780000 0.051678 0.049415 0.169830
0.790000 0.044752 0.042670 0.158592
0.800000 0.038595 0.036692 0.147862
0.810000 0.033147 0.031418 0.137637
0.820000 0.028351 0.026788 0.127915
0.830000 0.024147 0.022744 0.118690
0.840000 0.020480 0.019227 0.109956
0.850000 0.017297 0.016185 0.101707
0.860000 0.014547 0.013565 0.093933
0.870000 0.012183 0.011321 0.086627
0.880000 0.010159 0.009406 0.079780
0.890000 0.008435 0.007782 0.073386
0.900000 0.006974 0.006410 0.067436
0.910000 0.005741 0.005256 0.061928
0.920000 0.004706 0.004292 0.056860
0.930000 0.003841 0.003489 0.052236
0.940000 0.003123 0.002823 0.048067
0.950000 0.002530 0.002275 0.044371
0.960000 0.002046 0.001825 0.041179
0.970000 0.001659 0.001457 0.038538
0.980000 0.001363 0.001158 0.036516
0.990000 0.001165 0.000917 0.035209
1.000000 0.001092 0.000722 0.034748
