0.000000 1.000000 1.000000 0.999865
0.010000 0.999995 0.999995 0.999698
0.020000 0.999987 0.999988 0.999334
0.030000 0.999975 0.999977 0.998899
0.040000 0.999957 0.999961 0.998384
0.050000 0.999933 0.999939 0.997780
0.060000 0.999900 0.999908 0.997077
0.070000 0.999854 0.999866 0.996264
0.080000 0.999793 0.999810 0.995329
0.090000 0.999712 0.999735 0.994260
0.100000 0.999606 0.999636 0.993045
0.110000 0.999468 0.999508 0.991668
0.120000 0.999291 0.999343 0.990117
0.130000 0.999066 0.999131 0.988376
0.140000 0.998782 0.998864 0.986429
0.150000 0.998425 0.998527 0.984261
0.160000 0.997981 0.998107 0.981855
0.170000 0.997433 0.997587 0.979194
0.180000 0.996761 0.996947 0.976260
0.190000 0.995941 0.996164 0.973036
0.200000 0.994949 0.995213 0.969505
0.210000 0.993754 0.994065 0.965648
0.220000 0.992324 0.992689 0.961448
0.230000 0.990624 0.991047 0.956888
0.240000 0.988614 0.989101 0.951949
0.250000 0.986252 0.986808 0.946616
0.260000 0.983491 0.984121 0.940872
0.270000 0.980281 0.980990 0.934701
0.280000 0.976571 0.977362 0.928089
0.290000 0.972305 0.973181 0.921022
0.300000 0.967427 0.968389 0.913488
0.310000 0.961878 0.962927 0.905475
0.320000 0.955598 0.956733 0.896974
0.330000 0.948530 0.949746 0.887976
0.340000 0.940615 0.941907 0.878475
0.350000 0.931796 0.933156 0.868465
0.360000 0.922020 0.923439 0.857944
0.370000 0.911239 0.912703 0.846912
0.380000 0.899407 0.900903 0.835368
0.390000 0.886488 0.887999 0.823318
0.400000 0.872452 0.873958 0.810766
0.410000 0.857277 0.858758 0.797720
0.420000 0.840952 0.842384 0.784191
0.430000 0.823474 0.824833 0.770192
0.440000 0.804853 0.806115 0.755737
0.450000 0.785112 0.786250 0.740843
0.460000 0.764282 0.765272 0.725531
0.470000 0.742411 0.743226 0.709821
0.480000 0.719556 0.720173 0.693738
0.490000 0.695788 0.696184 0.677307
0.500000 0.671186 0.671341 0.660555
0.510000 0.645844 0.645740 0.643514
0.520000 0.619863 0.619484 0.626212
0.530000 0.593352 0.592688 0.608683
0.540000 0.566428 0.565472 0.590959
0.550000 0.539214 0.537963 0.573077
0.560000 0.511836 0.510290 0.555071
0.570000 0.484421 0.482586 0.536977
0.580000 0.457099 0.454983 0.518832
0.590000 0.429996 0.427614 0.500672
0.600000 0.403235 0.400604 0.482535
0.610000 0.376936 0.374077 0.464457
0.620000 0.351211 0.348148 0.446473
0.630000 0.326164 0.322923 0.428619
0.640000 0.301891 0.298499 0.410930
0.650000 0.278475 0.274964 0.393439
0.660000 0.255993 0.252392 0.376178
0.670000 0.234505 0.230846 0.359179
0.680000 0.214063 0.210377 0.342470
0.690000 0.194706 0.191023 0.326078
0.700000 0.176461 0.172808 0.310031
0.710000 0.159342 0.155747 0.294351
0.720000 0.143355 0.139842 0.279060
0.730000 0.128493 0.125084 0.264179
0.740000 0.114740 0.111454 0.249724
0.750000 0.102072 0.098926 0.235711
0.760000 0.090458 0.087464 0.222153
0.770000 0.079857 0.077027 0.209062
0.780000 0.070227 0.067568 0.196446
0.790000 0.061517 0.059035 0.184312
0.800000 0.053677 0.051373 0.172665
0.810000 0.046652 0.044526 0.161509
0.820000 0.040386 0.038436 0.150844
0.830000 0.034823 0.033044 0.140670
0.840000 0.029905 0.028292 0.130987
0.850000 0.025579 0.024124 0.121790
0.860000 0.021790 0.020486 0.113077
0.870000 0.018488 0.017324 0.104843
0.880000 0.015621 0.014590 0.097086
0.890000 0.013146 0.012236 0.089803
0.900000 0.011017 0.010218 0.082991
0.910000 0.009195 0.008498 0.076653
0.920000 0.007643 0.007037 0.070793
0.930000 0.006328 0.005803 0.065422
0.940000 0.005219 0.004765 0.060558
0.950000 0.004291 0.003896 0.056231
0.960000 0.003523 0.003172 0.052481
0.970000 0.002901 0.002572 0.049370
0.980000 0.002419 0.002076 0.046982
0.990000 0.002094 0.001669 0.045436
1.000000 0.001974 0.001335 0.044891
