0.000000 1.000000 1.000000 0.999982
0.010000 1.000000 1.000000 0.999960
0.020000 1.000000 1.000000 0.999912
0.030000 1.000000 1.000000 0.999854
0.040000 0.999999 0.999999 0.999785
0.050000 0.999999 0.999999 0.999704
0.060000 0.999998 0.999999 0.999609
0.070000 0.999998 0.999998 0.999499
0.080000 0.999997 0.999997 0.999372
0.090000 0.999995 0.999996 0.999225
0.100000 0.999994 0.999994 0.999056
0.110000 0.999991 0.999992 0.998864
0.120000 0.999988 0.999990 0.998645
0.130000 0.999984 0.999986 0.998397
0.140000 0.999979 0.999981 0.998116
0.150000 0.999972 0.999975 0.997800
0.160000 0.999964 0.999968 0.997445
0.170000 0.999953 0.999958 0.997047
0.180000 0.999939 0.999946 0.996602
0.190000 0.999922 0.999930 0.996107
0.200000 0.999900 0.999910 0.995556
0.210000 0.999873 0.999886 0.994946
0.220000 0.999839 0.999855 0.994270
0.230000 0.999798 0.999817 0.993525
0.240000 0.999747 0.999770 0.992703
0.250000 0.999684 0.999713 0.991800
0.260000 0.999608 0.999642 0.990809
0.270000 0.999515 0.999557 0.989724
0.280000 0.999403 0.999453 0.988539
0.290000 0.999268 0.999327 0.987246
0.300000 0.999106 0.999176 0.985839
0.310000 0.998911 0.998994 0.984309
0.320000 0.998680 0.998778 0.982651
0.330000 0.998405 0.998520 0.980854
0.340000 0.998080 0.998214 0.978913
0.350000 0.997697 0.997852 0.976818
0.360000 0.997248 0.997426 0.974561
0.370000 0.996721 0.996927 0.972133
0.380000 0.996107 0.996343 0.969527
0.390000 0.995394 0.995663 0.966733
0.400000 0.994568 0.994873 0.963743
0.410000 0.993614 0.993960 0.960548
0.420000 0.992517 0.992906 0.957140
0.430000 0.991260 0.991696 0.953509
0.440000 0.989823 0.990311 0.949647
0.450000 0.988187 0.988729 0.945546
0.460000 0.986330 0.986930 0.941197
0.470000 0.984229 0.984891 0.936593
0.480000 0.981860 0.982588 0.931726
0.490000 0.979198 0.979993 0.926588
0.500000 0.976217 0.977082 0.921172
0.510000 0.972887 0.973824 0.915471
0.520000 0.969182 0.970192 0.909479
0.530000 0.965071 0.966156 0.903191
0.540000 0.960525 0.961684 0.896602
0.550000 0.955514 0.956746 0.889705
0.560000 0.950008 0.951312 0.882498
0.570000 0.943978 0.945349 0.874978
0.580000 0.937393 0.938829 0.867140
0.590000 0.930226 0.931722 0.858985
0.600000 0.922450 0.923999 0.850509
0.610000 0.914039 0.915635 0.841714
0.620000 0.904971 0.906604 0.832600
0.630000 0.895224 0.896885 0.823167
0.640000 0.884780 0.886457 0.813419
0.650000 0.873623 0.875306 0.803359
0.660000 0.861743 0.863418 0.792991
0.670000 0.849132 0.850784 0.782320
0.680000 0.835785 0.837400 0.771353
0.690000 0.821703 0.823266 0.760096
0.700000 0.806892 0.808387 0.748558
0.710000 0.791362 0.792772 0.736748
0.720000 0.775127 0.776436 0.724677
0.730000 0.758208 0.759399 0.712356
0.740000 0.740630 0.741687 0.699798
0.750000 0.722422 0.723330 0.687017
0.760000 0.703620 0.704364 0.674027
0.770000 0.684263 0.684829 0.660845
0.780000 0.664395 0.664771 0.647489
0.790000 0.644066 0.644239 0.633979
0.800000 0.623327 0.623288 0.620335
0.810000 0.602233 0.601974 0.606581
0.820000 0.580845 0.580359 0.592741
0.830000 0.559223 0.558506 0.578845
0.840000 0.537432 0.536481 0.564924
0.850000 0.515536 0.514350 0.551012
0.860000 0.493603 0.492182 0.537149
0.870000 0.471700 0.470044 0.523381
0.880000 0.449895 0.448004 0.509760
0.890000 0.428259 0.426130 0.496346
0.900000 0.406863 0.404487 0.483211
0.910000 0.385785 0.383138 0.470439
0.920000 0.365112 0.362144 0.458128
0.930000 0.344946 0.341562 0.446399
0.940000 0.325426 0.321445 0.435396
0.950000 0.306746 0.301843 0.425291
0.960000 0.289206 0.282802 0.416295
0.970000 0.273286 0.264361 0.408664
0.980000 0.259783 0.246557 0.402707
0.990000 0.250035 0.229420 0.398804
1.000000 0.246310 0.212975 0.397418
