0.000000 1.000000 1.000000 0.999915
0.010000 0.999998 0.999998 0.999809
0.020000 0.999995 0.999995 0.999578
0.030000 0.999990 0.999991 0.999303
0.040000 0.999983 0.999985 0.998976
0.050000 0.999974 0.999976 0.998593
0.060000 0.999960 0.999964 0.998146
0.070000 0.999942 0.999947 0.997628
0.080000 0.999917 0.999925 0.997031
0.090000 0.999885 0.999895 0.996348
0.100000 0.999841 0.999856 0.995568
0.110000 0.999785 0.999804 0.994683
0.120000 0.999713 0.999737 0.993683
0.130000 0.999619 0.999650 0.992557
0.140000 0.999501 0.999540 0.991295
0.150000 0.999351 0.999400 0.989884
0.160000 0.999163 0.999225 0.988312
0.170000 0.998929 0.999005 0.986567
0.180000 0.998639 0.998732 0.984636
0.190000 0.998283 0.998396 0.982506
0.200000 0.997846 0.997983 0.980162
0.210000 0.997316 0.997479 0.977590
0.220000 0.996674 0.996869 0.974776
0.230000 0.995902 0.996132 0.971706
0.240000 0.994979 0.995249 0.968365
0.250000 0.993880 0.994195 0.964737
0.260000 0.992580 0.992944 0.960809
0.270000 0.991049 0.991467 0.956565
0.280000 0.989254 0.989732 0.951992
0.290000 0.987162 0.987705 0.947074
0.300000 0.984735 0.985346 0.941799
0.310000 0.981932 0.982617 0.936153
0.320000 0.978712 0.979474 0.930123
0.330000 0.975029 0.975871 0.923697
0.340000 0.970837 0.971761 0.916866
0.350000 0.966088 0.967096 0.909617
0.360000 0.960733 0.961824 0.901942
0.370000 0.954722 0.955894 0.893834
0.380000 0.948005 0.949256 0.885285
0.390000 0.940534 0.941858 0.876290
0.400000 0.932261 0.933652 0.866845
0.410000 0.923142 0.924591 0.856948
0.420000 0.913134 0.914631 0.846597
0.430000 0.902200 0.903732 0.835794
0.440000 0.890307 0.891860 0.824541
0.450000 0.877427 0.878984 0.812841
0.460000 0.863539 0.865083 0.800703
0.470000 0.848631 0.850142 0.788132
0.480000 0.832696 0.834153 0.775139
0.490000 0.815738 0.817118 0.761735
0.500000 0.797768 0.799050 0.747934
0.510000 0.778808 0.779969 0.733751
0.520000 0.758889 0.759906 0.719203
0.530000 0.738053 0.738903 0.704308
0.540000 0.716350 0.717012 0.689087
0.550000 0.693840 0.694295 0.673562
0.560000 0.670593 0.670821 0.657756
0.570000 0.646684 0.646671 0.641693
0.580000 0.622201 0.621932 0.625399
0.590000 0.597234 0.596699 0.608903
0.600000 0.571882 0.571073 0.592231
0.610000 0.546246 0.545160 0.575412
0.620000 0.520431 0.519068 0.558477
0.630000 0.494547 0.492908 0.541454
0.640000 0.468700 0.466793 0.524376
0.650000 0.442998 0.440834 0.507272
0.660000 0.417548 0.415140 0.490174
0.670000 0.392451 0.389815 0.473111
0.680000 0.367806 0.364961 0.456116
0.690000 0.343704 0.340673 0.439217
0.700000 0.320233 0.317039 0.422444
0.710000 0.297469 0.294137 0.405826
0.720000 0.275483 0.272040 0.389392
0.730000 0.254337 0.250810 0.373167
0.740000 0.234081 0.230498 0.357178
0.750000 0.214759 0.211146 0.341450
0.760000 0.196404 0.192788 0.326006
0.770000 0.179038 0.175445 0.310868
0.780000 0.162677 0.159130 0.296057
0.790000 0.147326 0.143848 0.281594
0.800000 0.132981 0.129592 0.267494
0.810000 0.119632 0.116349 0.253776
0.820000 0.107261 0.104100 0.240456
0.830000 0.095842 0.092817 0.227547
0.840000 0.085347 0.082468 0.215063
0.850000 0.075739 0.073015 0.203017
0.860000 0.066980 0.064416 0.191423
0.870000 0.059028 0.056628 0.180294
0.880000 0.051837 0.049603 0.169644
0.890000 0.045363 0.043293 0.159490
0.900000 0.039557 0.037649 0.149851
0.910000 0.034373 0.032621 0.140752
0.920000 0.029764 0.028162 0.132224
0.930000 0.025687 0.024223 0.124305
0.940000 0.022100 0.020758 0.117048
0.950000 0.018970 0.017723 0.110522
0.960000 0.016272 0.015076 0.104814
0.970000 0.014003 0.012776 0.100042
0.980000 0.012193 0.010786 0.096358
0.990000 0.010943 0.009073 0.093963
1.000000 0.010475 0.007602 0.093116
