0.000000 1.000000 1.000000 0.994663
0.010000 0.994961 0.995094 0.988110
0.020000 0.987387 0.987673 0.973888
0.030000 0.976661 0.977107 0.957211
0.040000 0.962159 0.962749 0.937988
0.050000 0.943289 0.943984 0.916169
0.060000 0.919543 0.920275 0.891747
0.070000 0.890543 0.891219 0.864765
0.080000 0.856091 0.856596 0.835315
0.090000 0.816206 0.816411 0.803539
0.100000 0.771150 0.770924 0.769625
0.110000 0.721436 0.720656 0.733809
0.120000 0.667811 0.666382 0.696369
0.130000 0.611233 0.609093 0.657614
0.140000 0.552812 0.549944 0.617882
0.150000 0.493749 0.490186 0.577530
0.160000 0.435267 0.431089 0.536926
0.170000 0.378537 0.373864 0.496435
0.180000 0.324611 0.319595 0.456418
0.190000 0.274372 0.269182 0.417216
0.200000 0.228491 0.223299 0.379145
0.210000 0.187412 0.182379 0.342491
0.220000 0.151351 0.146614 0.307502
0.230000 0.120310 0.115978 0.274384
0.240000 0.094109 0.090253 0.243300
0.250000 0.072419 0.069078 0.214369
0.260000 0.054811 0.051991 0.187664
0.270000 0.040792 0.038472 0.163218
0.280000 0.029845 0.027984 0.141024
0.290000 0.021463 0.020007 0.121039
0.300000 0.015168 0.014057 0.103189
0.310000 0.010532 0.009705 0.087377
0.320000 0.007183 0.006583 0.073484
0.330000 0.004812 0.004387 0.061375
0.340000 0.003165 0.002872 0.050907
0.350000 0.002044 0.001846 0.041929
0.360000 0.001296 0.001166 0.034293
0.370000 0.000806 0.000723 0.027849
0.380000 0.000492 0.000441 0.022456
0.390000 0.000295 0.000263 0.017978
0.400000 0.000173 0.000155 0.014289
0.410000 0.000100 0.000089 0.011276
0.420000 0.000056 0.000051 0.008833
0.430000 0.000031 0.000028 0.006869
0.440000 0.000017 0.000015 0.005303
0.450000 0.000009 0.000008 0.004063
0.460000 0.000005 0.000004 0.003091
0.470000 0.000002 0.000002 0.002334
0.480000 0.000001 0.000001 0.001749
0.490000 0.000001 0.000001 0.001301
0.500000 0.000000 0.000000 0.000960
0.510000 0.000000 0.000000 0.000703
0.520000 0.000000 0.000000 0.000512
0.530000 0.000000 0.000000 0.000369
0.540000 0.000000 0.000000 0.000264
0.550000 0.000000 0.000000 0.000188
0.560000 0.000000 0.000000 0.000132
0.570000 0.000000 0.000000 0.000093
0.580000 0.000000 0.000000 0.000064
0.590000 0.000000 0.000000 0.000044
0.600000 0.000000 0.000000 0.000030
0.610000 0.000000 0.000000 0.000021
0.620000 0.000000 0.000000 0.000014
0.630000 0.000000 0.000000 0.000009
0.640000 0.000000 0.000000 0.000006
0.650000 0.000000 0.000000 0.000004
0.660000 0.000000 0.000000 0.000003
0.670000 0.000000 0.000000 0.000002
0.680000 0.000000 0.000000 0.000001
0.690000 0.000000 0.000000 0.000001
0.700000 0.000000 0.000000 0.000000
0.710000 0.000000 0.000000 0.000000
0.720000 0.000000 0.000000 0.000000
0.730000 0.000000 0.000000 0.000000
0.740000 0.000000 0.000000 0.000000
0.750000 0.000000 0.000000 0.000000
0.760000 0.000000 0.000000 0.000000
0.770000 0.000000 0.000000 0.000000
0.780000 0.000000 0.000000 0.000000
0.790000 0.000000 0.000000 0.000000
0.800000 0.000000 0.000000 0.000000
0.810000 0.000000 0.000000 0.000000
0.820000 -0.000000 0.000000 0.000000
0.830000 -0.000000 0.000000 0.000000
0.840000 -0.000000 0.000000 0.000000
0.850000 -0.000000 0.000000 0.000000
0.860000 -0.000000 0.000000 0.000000
0.870000 0.000000 0.000000 0.000000
0.880000 0.000000 0.000000 0.000000
0.890000 0.000000 0.000000 0.000000
0.900000 0.000000 0.000000 0.000000
0.910000 -0.000000 0.000000 0.000000
0.920000 -0.000000 0.000000 0.000000
0.930000 -0.000000 0.000000 0.000000
0.940000 -0.000000 0.000000 0.000000
0.950000 0.000000 0.000000 0.000000
0.960000 0.000000 0.000000 0.000000
0.970000 0.000000 0.000000 0.000000
0.980000 -0.000000 0.000000 0.000000
0.990000 -0.000000 0.000000 0.000000
1.000000 -0.000000 0.000000 0.000000
