0.000000 1.000000 1.000000 0.999988
0.010000 1.000000 1.000000 0.999973
0.020000 1.000000 1.000000 0.999941
0.030000 1.000000 1.000000 0.999903
0.040000 1.000000 1.000000 0.999857
0.050000 1.000000 1.000000 0.999803
0.060000 0.999999 0.999999 0.999740
0.070000 0.999999 0.999999 0.999666
0.080000 0.999999 0.999999 0.999581
0.090000 0.999998 0.999998 0.999482
0.100000 0.999997 0.999998 0.999369
0.110000 0.999996 0.999997 0.999240
0.120000 0.999995 0.999996 0.999093
0.130000 0.999993 0.999994 0.998926
0.140000 0.999991 0.999992 0.998737
0.150000 0.999988 0.999990 0.998524
0.160000 0.999984 0.999986 0.998284
0.170000 0.999980 0.999982 0.998014
0.180000 0.999974 0.999977 0.997713
0.190000 0.999966 0.999970 0.997376
0.200000 0.999956 0.999961 0.997002
0.210000 0.999944 0.999950 0.996585
0.220000 0.999929 0.999937 0.996123
0.230000 0.999911 0.999920 0.995613
0.240000 0.999888 0.999899 0.995048
0.250000 0.999859 0.999873 0.994427
0.260000 0.999824 0.999842 0.993744
0.270000 0.999782 0.999803 0.992993
0.280000 0.999730 0.999755 0.992172
0.290000 0.999667 0.999698 0.991273
0.300000 0.999591 0.999628 0.990292
0.310000 0.999500 0.999543 0.989223
0.320000 0.999390 0.999442 0.988060
0.330000 0.999259 0.999320 0.986797
0.340000 0.999103 0.999175 0.985427
0.350000 0.998918 0.999002 0.983945
0.360000 0.998699 0.998796 0.982343
0.370000 0.998440 0.998554 0.980615
0.380000 0.998136 0.998268 0.978752
0.390000 0.997780 0.997932 0.976749
0.400000 0.997363 0.997538 0.974598
0.410000 0.996879 0.997079 0.972291
0.420000 0.996317 0.996546 0.969820
0.430000 0.995667 0.995927 0.967178
0.440000 0.994918 0.995212 0.964358
0.450000 0.994057 0.994388 0.961351
0.460000 0.993070 0.993442 0.958150
0.470000 0.991943 0.992359 0.954746
0.480000 0.990659 0.991123 0.951133
0.490000 0.989202 0.989717 0.947303
0.500000 0.987553 0.988122 0.943248
0.510000 0.985693 0.986319 0.938961
0.520000 0.983600 0.984287 0.934435
0.530000 0.981253 0.982004 0.929663
0.540000 0.978628 0.979446 0.924639
0.550000 0.975703 0.976589 0.919357
0.560000 0.972452 0.973408 0.913809
0.570000 0.968849 0.969877 0.907992
0.580000 0.964868 0.965968 0.901900
0.590000 0.960483 0.961655 0.895528
0.600000 0.955667 0.956910 0.888873
0.610000 0.950392 0.951706 0.881930
0.620000 0.944633 0.946014 0.874697
0.630000 0.938364 0.939808 0.867172
0.640000 0.931558 0.933062 0.859352
0.650000 0.924191 0.925749 0.851238
0.660000 0.916241 0.917846 0.842828
0.670000 0.907686 0.909331 0.834124
0.680000 0.898506 0.900182 0.825126
0.690000 0.888685 0.890382 0.815837
0.700000 0.878208 0.879915 0.806260
0.710000 0.867063 0.868769 0.796400
0.720000 0.855241 0.856933 0.786261
0.730000 0.842738 0.844403 0.775850
0.740000 0.829551 0.831175 0.765174
0.750000 0.815684 0.817253 0.754241
0.760000 0.801143 0.802641 0.743061
0.770000 0.785939 0.787350 0.731646
0.780000 0.770085 0.771395 0.720008
0.790000 0.753602 0.754796 0.708163
0.800000 0.736514 0.737575 0.696126
0.810000 0.718847 0.719763 0.683917
0.820000 0.700635 0.701391 0.671557
0.830000 0.681914 0.682496 0.659070
0.840000 0.662725 0.663121 0.646486
0.850000 0.643111 0.643308 0.633837
0.860000 0.623121 0.623108 0.621159
0.870000 0.602809 0.602571 0.608498
0.880000 0.582229 0.581752 0.595904
0.890000 0.561446 0.560707 0.583438
0.900000 0.540527 0.539495 0.571170
0.910000 0.519553 0.518176 0.559185
0.920000 0.498619 0.496811 0.547585
0.930000 0.477849 0.475460 0.536490
0.940000 0.457411 0.454185 0.526043
0.950000 0.437549 0.433046 0.516421
0.960000 0.418637 0.412102 0.507831
0.970000 0.401265 0.391409 0.500529
0.980000 0.386389 0.371025 0.494820
0.990000 0.375581 0.351000 0.491076
1.000000 0.371439 0.331386 0.489745
