0.000000 1.000000 1.000000 0.979218
0.010000 0.958662 0.958774 0.953928
0.020000 0.899696 0.899469 0.899846
0.030000 0.823370 0.822252 0.838611
0.040000 0.732162 0.729651 0.771480
0.050000 0.630572 0.626390 0.700035
0.060000 0.524499 0.518695 0.626088
0.070000 0.420292 0.413261 0.551550
0.080000 0.323741 0.316123 0.478310
0.090000 0.239239 0.231757 0.408104
0.100000 0.169309 0.162595 0.342416
0.110000 0.114558 0.109027 0.282397
0.120000 0.073992 0.069802 0.228827
0.130000 0.045550 0.042630 0.182109
0.140000 0.026684 0.024819 0.142291
0.150000 0.014852 0.013765 0.109119
0.160000 0.007840 0.007269 0.082105
0.170000 0.003918 0.003653 0.060599
0.180000 0.001850 0.001747 0.043859
0.190000 0.000823 0.000794 0.031120
0.200000 0.000344 0.000343 0.021643
0.210000 0.000135 0.000141 0.014749
0.220000 0.000049 0.000055 0.009847
0.230000 0.000017 0.000020 0.006439
0.240000 0.000005 0.000007 0.004123
0.250000 0.000001 0.000002 0.002585
0.260000 0.000000 0.000001 0.001586
0.270000 0.000000 0.000000 0.000952
0.280000 0.000000 0.000000 0.000559
0.290000 0.000000 0.000000 0.000322
0.300000 0.000000 0.000000 0.000181
0.310000 0.000000 0.000000 0.000099
0.320000 -0.000000 0.000000 0.000053
0.330000 -0.000000 0.000000 0.000028
0.340000 -0.000000 0.000000 0.000014
0.350000 0.000000 0.000000 0.000007
0.360000 0.000000 0.000000 0.000004
0.370000 0.000000 0.000000 0.000002
0.380000 -0.000000 0.000000 0.000001
0.390000 -0.000000 0.000000 0.000000
0.400000 -0.000000 0.000000 0.000000
0.410000 0.000000 0.000000 0.000000
0.420000 0.000000 0.000000 0.000000
0.430000 0.000000 0.000000 0.000000
0.440000 -0.000000 0.000000 0.000000
0.450000 -0.000000 0.000000 0.000000
0.460000 0.000000 0.000000 0.000000
0.470000 0.000000 0.000000 0.000000
0.480000 -0.000000 0.000000 0.000000
0.490000 -0.000000 0.000000 0.000000
0.500000 0.000000 0.000000 0.000000
0.510000 0.000000 0.000000 0.000000
0.520000 -0.000000 0.000000 0.000000
0.530000 -0.000000 0.000000 0.000000
0.540000 0.000000 0.000000 0.000000
0.550000 0.000000 0.000000 0.000000
0.560000 -0.000000 0.000000 0.000000
0.570000 -0.000000 0.000000 0.000000
0.580000 0.000000 0.000000 0.000000
0.590000 0.000000 0.000000 0.000000
0.600000 -0.000000 0.000000 0.000000
0.610000 -0.000000 0.000000 0.000000
0.620000 0.000000 0.000000 0.000000
0.630000 0.000000 0.000000 0.000000
0.640000 -0.000000 0.000000 0.000000
0.650000 -0.000000 0.000000 0.000000
0.660000 0.000000 0.000000 0.000000
0.670000 -0.000000 0.000000 0.000000
0.680000 -0.000000 0.000000 0.000000
0.690000 0.000000 0.000000 0.000000
0.700000 0.000000 0.000000 0.000000
0.710000 -0.000000 0.000000 0.000000
0.720000 -0.000000 0.000000 0.000000
0.730000 0.000000 0.000000 0.000000
0.740000 -0.000000 0.000000 0.000000
0.750000 -0.000000 0.000000 0.000000
0.760000 0.000000 0.000000 0.000000
0.770000 0.000000 0.000000 0.000000
0.780000 -0.000000 0.000000 0.000000
0.790000 0.000000 0.000000 0.000000
0.800000 0.000000 0.000000 0.000000
0.810000 -0.000000 0.000000 0.000000
0.820000 0.000000 0.000000 0.000000
0.830000 0.000000 0.000000 0.000000
0.840000 -0.000000 0.000000 0.000000
0.850000 -0.000000 0.000000 0.000000
0.860000 0.000000 0.000000 0.000000
0.870000 -0.000000 0.000000 0.000000
0.880000 -0.000000 0.000000 0.000000
0.890000 0.000000 0.000000 0.000000
0.900000 -0.000000 0.000000 0.000000
0.910000 -0.000000 0.000000 0.000000
0.920000 0.000000 0.000000 0.000000
0.930000 -0.000000 0.000000 0.000000
0.940000 -0.000000 0.000000 0.000000
0.950000 0.000000 0.000000 0.000000
0.960000 -0.000000 0.000000 0.000000
0.970000 -0.000000 0.000000 0.000000
0.980000 0.000000 0.000000 0.000000
0.990000 -0.000000 0.000000 0.000000
1.000000 -0.000000 0.000000 0.000000
