0.000000 1.000000 1.000000 0.998515
0.010000 0.999460 0.999487 0.996685
0.020000 0.998636 0.998700 0.992698
0.030000 0.997435 0.997548 0.987970
0.040000 0.995748 0.995922 0.982436
0.050000 0.993447 0.993695 0.976030
0.060000 0.990383 0.990718 0.968687
0.070000 0.986390 0.986825 0.960349
0.080000 0.981286 0.981829 0.950959
0.090000 0.974873 0.975530 0.940466
0.100000 0.966946 0.967718 0.928827
0.110000 0.957293 0.958176 0.916006
0.120000 0.945708 0.946689 0.901976
0.130000 0.931992 0.933052 0.886721
0.140000 0.915968 0.917078 0.870233
0.150000 0.897484 0.898608 0.852518
0.160000 0.876427 0.877519 0.833593
0.170000 0.852727 0.853736 0.813486
0.180000 0.826367 0.827236 0.792241
0.190000 0.797388 0.798057 0.769910
0.200000 0.765892 0.766301 0.746560
0.210000 0.732045 0.732137 0.722269
0.220000 0.696075 0.695796 0.697124
0.230000 0.658266 0.657574 0.671224
0.240000 0.618956 0.617817 0.644677
0.250000 0.578524 0.576919 0.617595
0.260000 0.537381 0.535306 0.590101
0.270000 0.495956 0.493422 0.562319
0.280000 0.454687 0.451721 0.534376
0.290000 0.414003 0.410645 0.506401
0.300000 0.374311 0.370615 0.478522
0.310000 0.335987 0.332018 0.450865
0.320000 0.299367 0.295195 0.423552
0.330000 0.264733 0.260433 0.396700
0.340000 0.232312 0.227962 0.370419
0.350000 0.202272 0.197946 0.344811
0.360000 0.174721 0.170488 0.319969
0.370000 0.149709 0.145632 0.295975
0.380000 0.127232 0.123363 0.272902
0.390000 0.107238 0.103618 0.250812
0.400000 0.089631 0.086291 0.229754
0.410000 0.074282 0.071244 0.209768
0.420000 0.061036 0.058309 0.190880
0.430000 0.049721 0.047304 0.173107
0.440000 0.040152 0.038038 0.156455
0.450000 0.032140 0.030314 0.140921
0.460000 0.025500 0.023943 0.126490
0.470000 0.020052 0.018740 0.113142
0.480000 0.015626 0.014535 0.100848
0.490000 0.012068 0.011171 0.089573
0.500000 0.009235 0.008507 0.079277
0.510000 0.007003 0.006419 0.069914
0.520000 0.005262 0.004799 0.061435
0.530000 0.003917 0.003554 0.053790
0.540000 0.002888 0.002608 0.046925
0.550000 0.002110 0.001896 0.040788
0.560000 0.001527 0.001365 0.035323
0.570000 0.001095 0.000974 0.030478
0.580000 0.000778 0.000688 0.026201
0.590000 0.000547 0.000482 0.022440
0.600000 0.000381 0.000334 0.019147
0.610000 0.000263 0.000229 0.016277
0.620000 0.000180 0.000156 0.013785
0.630000 0.000122 0.000105 0.011631
0.640000 0.000081 0.000070 0.009776
0.650000 0.000054 0.000046 0.008186
0.660000 0.000035 0.000030 0.006828
0.670000 0.000023 0.000020 0.005674
0.680000 0.000015 0.000013 0.004697
0.690000 0.000009 0.000008 0.003874
0.700000 0.000006 0.000005 0.003182
0.710000 0.000004 0.000003 0.002604
0.720000 0.000002 0.000002 0.002123
0.730000 0.000001 0.000001 0.001724
0.740000 0.000001 0.000001 0.001394
0.750000 0.000001 0.000000 0.001123
0.760000 0.000000 0.000000 0.000901
0.770000 0.000000 0.000000 0.000721
0.780000 0.000000 0.000000 0.000574
0.790000 0.000000 0.000000 0.000455
0.800000 0.000000 0.000000 0.000360
0.810000 0.000000 0.000000 0.000283
0.820000 0.000000 0.000000 0.000222
0.830000 0.000000 0.000000 0.000173
0.840000 0.000000 0.000000 0.000135
0.850000 0.000000 0.000000 0.000104
0.860000 0.000000 0.000000 0.000080
0.870000 0.000000 0.000000 0.000062
0.880000 0.000000 0.000000 0.000047
0.890000 0.000000 0.000000 0.000036
0.900000 0.000000 0.000000 0.000027
0.910000 0.000000 0.000000 0.000021
0.920000 0.000000 0.000000 0.000016
0.930000 0.000000 0.000000 0.000012
0.940000 0.000000 0.000000 0.000009
0.950000 0.000000 0.000000 0.000007
0.960000 0.000000 0.000000 0.000005
0.970000 0.000000 0.000000 0.000004
0.980000 0.000000 0.000000 0.000003
0.990000 0.000000 0.000000 0.000002
1.000000 0.000000 0.000000 0.000002
