0.000000 1.000000 1.000000 0.995794
0.010000 0.996620 0.996723 0.990625
0.020000 0.991517 0.991747 0.979395
0.030000 0.984238 0.984610 0.966188
0.040000 0.974297 0.974816 0.950903
0.050000 0.961200 0.961854 0.933463
0.060000 0.944472 0.945232 0.913823
0.070000 0.923689 0.924506 0.891965
0.080000 0.898514 0.899316 0.867910
0.090000 0.868730 0.869427 0.841713
0.100000 0.834269 0.834757 0.813467
0.110000 0.795234 0.795403 0.783302
0.120000 0.751914 0.751654 0.751382
0.130000 0.704779 0.703995 0.717906
0.140000 0.654476 0.653091 0.683101
0.150000 0.601794 0.599761 0.647217
0.160000 0.547632 0.544941 0.610527
0.170000 0.492956 0.489633 0.573314
0.180000 0.438744 0.434851 0.535873
0.190000 0.385938 0.381574 0.498495
0.200000 0.335401 0.330686 0.461469
0.210000 0.287871 0.282944 0.425073
0.220000 0.243939 0.238944 0.389565
0.230000 0.204025 0.199101 0.355183
0.240000 0.168379 0.163653 0.322138
0.250000 0.137083 0.132660 0.290613
0.260000 0.110071 0.106030 0.260758
0.270000 0.087148 0.083543 0.232690
0.280000 0.068022 0.064879 0.206494
0.290000 0.052333 0.049653 0.182220
0.300000 0.039677 0.037442 0.159888
0.310000 0.029641 0.027817 0.139491
0.320000 0.021814 0.020357 0.120993
0.330000 0.015814 0.014675 0.104337
0.340000 0.011290 0.010418 0.089444
0.350000 0.007937 0.007284 0.076224
0.360000 0.005494 0.005015 0.064570
0.370000 0.003744 0.003399 0.054369
0.380000 0.002511 0.002269 0.045503
0.390000 0.001658 0.001491 0.037851
0.400000 0.001077 0.000964 0.031293
0.410000 0.000688 0.000614 0.025712
0.420000 0.000433 0.000385 0.020996
0.430000 0.000268 0.000237 0.017038
0.440000 0.000163 0.000144 0.013740
0.450000 0.000097 0.000086 0.011011
0.460000 0.000057 0.000051 0.008768
0.470000 0.000033 0.000029 0.006938
0.480000 0.000019 0.000017 0.005455
0.490000 0.000011 0.000009 0.004261
0.500000 0.000006 0.000005 0.003308
0.510000 0.000003 0.000003 0.002551
0.520000 0.000002 0.000001 0.001954
0.530000 0.000001 0.000001 0.001488
0.540000 0.000000 0.000000 0.001125
0.550000 0.000000 0.000000 0.000846
0.560000 0.000000 0.000000 0.000631
0.570000 0.000000 0.000000 0.000468
0.580000 0.000000 0.000000 0.000345
0.590000 0.000000 0.000000 0.000252
0.600000 0.000000 0.000000 0.000183
0.610000 0.000000 0.000000 0.000132
0.620000 0.000000 0.000000 0.000095
0.630000 0.000000 0.000000 0.000068
0.640000 0.000000 0.000000 0.000048
0.650000 0.000000 0.000000 0.000034
0.660000 0.000000 0.000000 0.000024
0.670000 0.000000 0.000000 0.000016
0.680000 0.000000 0.000000 0.000011
0.690000 0.000000 0.000000 0.000008
0.700000 0.000000 0.000000 0.000005
0.710000 0.000000 0.000000 0.000004
0.720000 0.000000 0.000000 0.000002
0.730000 0.000000 0.000000 0.000002
0.740000 0.000000 0.000000 0.000001
0.750000 0.000000 0.000000 0.000001
0.760000 0.000000 0.000000 0.000000
0.770000 0.000000 0.000000 0.000000
0.780000 0.000000 0.000000 0.000000
0.790000 0.000000 0.000000 0.000000
0.800000 0.000000 0.000000 0.000000
0.810000 0.000000 0.000000 0.000000
0.820000 0.000000 0.000000 0.000000
0.830000 0.000000 0.000000 0.000000
0.840000 0.000000 0.000000 0.000000
0.850000 0.000000 0.000000 0.000000
0.860000 0.000000 0.000000 0.000000
0.870000 0.000000 0.000000 0.000000
0.880000 0.000000 0.000000 0.000000
0.890000 0.000000 0.000000 0.000000
0.900000 0.000000 0.000000 0.000000
0.910000 0.000000 0.000000 0.000000
0.920000 0.000000 0.000000 0.000000
0.930000 -0.000000 0.000000 0.000000
0.940000 -0.000000 0.000000 0.000000
0.950000 -0.000000 0.000000 0.000000
0.960000 -0.000000 0.000000 0.000000
0.970000 -0.000000 0.000000 0.000000
0.980000 0.000000 0.000000 0.000000
0.990000 0.000000 0.000000 0.000000
1.000000 0.000000 0.000000 0.000000
