0.000000 1.000000 1.000000 0.971132
0.010000 0.934587 0.934340 0.936176
0.020000 0.843809 0.842406 0.862002
0.030000 0.731796 0.728420 0.779593
0.040000 0.606559 0.600862 0.691678
0.050000 0.478405 0.470711 0.601357
0.060000 0.357686 0.348913 0.511820
0.070000 0.252652 0.243978 0.426053
0.080000 0.168079 0.160544 0.346588
0.090000 0.105002 0.099217 0.275325
0.100000 0.061419 0.057494 0.213433
0.110000 0.033536 0.031199 0.161359
0.120000 0.017037 0.015837 0.118903
0.130000 0.008022 0.007513 0.085353
0.140000 0.003486 0.003329 0.059657
0.150000 0.001391 0.001377 0.040579
0.160000 0.000506 0.000531 0.026850
0.170000 0.000166 0.000191 0.017274
0.180000 0.000049 0.000064 0.010801
0.190000 0.000013 0.000020 0.006561
0.200000 0.000003 0.000006 0.003870
0.210000 0.000000 0.000002 0.002216
0.220000 0.000000 0.000000 0.001231
0.230000 0.000000 0.000000 0.000663
0.240000 -0.000000 0.000000 0.000346
0.250000 -0.000000 0.000000 0.000175
0.260000 -0.000000 0.000000 0.000086
0.270000 0.000000 0.000000 0.000041
0.280000 0.000000 0.000000 0.000019
0.290000 0.000000 0.000000 0.000008
0.300000 -0.000000 0.000000 0.000004
0.310000 -0.000000 0.000000 0.000001
0.320000 0.000000 0.000000 0.000001
0.330000 0.000000 0.000000 0.000000
0.340000 0.000000 0.000000 0.000000
0.350000 -0.000000 0.000000 0.000000
0.360000 -0.000000 0.000000 0.000000
0.370000 0.000000 0.000000 0.000000
0.380000 0.000000 0.000000 0.000000
0.390000 -0.000000 0.000000 0.000000
0.400000 -0.000000 0.000000 0.000000
0.410000 0.000000 0.000000 0.000000
0.420000 0.000000 0.000000 0.000000
0.430000 -0.000000 0.000000 0.000000
0.440000 -0.000000 0.000000 0.000000
0.450000 0.000000 0.000000 0.000000
0.460000 -0.000000 0.000000 0.000000
0.470000 -0.000000 0.000000 0.000000
0.480000 0.000000 0.000000 0.000000
0.490000 0.000000 0.000000 0.000000
0.500000 -0.000000 0.000000 0.000000
0.510000 -0.000000 0.000000 0.000000
0.520000 0.000000 0.000000 0.000000
0.530000 -0.000000 0.000000 0.000000
0.540000 -0.000000 0.000000 0.000000
0.550000 0.000000 0.000000 0.000000
0.560000 0.000000 0.000000 0.000000
0.570000 -0.000000 0.000000 0.000000
0.580000 0.000000 0.000000 0.000000
0.590000 0.000000 0.000000 0.000000
0.600000 -0.000000 0.000000 0.000000
0.610000 0.000000 0.000000 0.000000
0.620000 0.000000 0.000000 0.000000
0.630000 -0.000000 0.000000 0.000000
0.640000 -0.000000 0.000000 0.000000
0.650000 0.000000 0.000000 0.000000
0.660000 -0.000000 0.000000 0.000000
0.670000 -0.000000 0.000000 0.000000
0.680000 0.000000 0.000000 0.000000
0.690000 -0.000000 0.000000 0.000000
0.700000 -0.000000 0.000000 0.000000
0.710000 0.000000 0.000000 0.000000
0.720000 -0.000000 0.000000 0.000000
0.730000 -0.000000 0.000000 0.000000
0.740000 0.000000 0.000000 0.000000
0.750000 -0.000000 0.000000 0.000000
0.760000 0.000000 0.000000 0.000000
0.770000 0.000000 0.000000 0.000000
0.780000 -0.000000 0.000000 0.000000
0.790000 0.000000 0.000000 0.000000
0.800000 0.000000 0.000000 0.000000
0.810000 -0.000000 0.000000 0.000000
0.820000 0.000000 0.000000 0.000000
0.830000 -0.000000 0.000000 0.000000
0.840000 -0.000000 0.000000 0.000000
0.850000 0.000000 0.000000 0.000000
0.860000 -0.000000 0.000000 0.000000
0.870000 -0.000000 0.000000 0.000000
0.880000 0.000000 0.000000 0.000000
0.890000 -0.000000 0.000000 0.000000
0.900000 0.000000 0.000000 0.000000
0.910000 0.000000 0.000000 0.000000
0.920000 -0.000000 0.000000 0.000000
0.930000 0.000000 0.000000 0.000000
0.940000 -0.000000 0.000000 0.000000
0.950000 -0.000000 0.000000 0.000000
0.960000 0.000000 0.000000 0.000000
0.970000 -0.000000 0.000000 0.000000
0.980000 0.000000 0.000000 0.000000
0.990000 0.000000 0.000000 0.000000
1.000000 -0.000000 0.000000 0.000000
