0.000000 1.000000 1.000000 0.999978
0.010000 1.000000 1.000000 0.999952
0.020000 1.000000 1.000000 0.999893
0.030000 0.999999 1.000000 0.999823
0.040000 0.999999 0.999999 0.999740
0.050000 0.999998 0.999999 0.999642
0.060000 0.999998 0.999998 0.999527
0.070000 0.999997 0.999997 0.999394
0.080000 0.999995 0.999996 0.999239
0.090000 0.999993 0.999994 0.999062
0.100000 0.999990 0.999992 0.998858
0.110000 0.999987 0.999989 0.998626
0.120000 0.999982 0.999984 0.998362
0.130000 0.999976 0.999979 0.998062
0.140000 0.999969 0.999972 0.997724
0.150000 0.999959 0.999963 0.997344
0.160000 0.999946 0.999952 0.996916
0.170000 0.999930 0.999937 0.996438
0.180000 0.999910 0.999919 0.995905
0.190000 0.999884 0.999896 0.995311
0.200000 0.999853 0.999867 0.994651
0.210000 0.999813 0.999831 0.993920
0.220000 0.999764 0.999786 0.993112
0.230000 0.999704 0.999731 0.992221
0.240000 0.999630 0.999662 0.991241
0.250000 0.999539 0.999579 0.990165
0.260000 0.999429 0.999477 0.988986
0.270000 0.999296 0.999353 0.987696
0.280000 0.999136 0.999203 0.986289
0.290000 0.998943 0.999023 0.984757
0.300000 0.998712 0.998807 0.983091
0.310000 0.998436 0.998548 0.981283
0.320000 0.998109 0.998240 0.979325
0.330000 0.997723 0.997875 0.977208
0.340000 0.997267 0.997443 0.974924
0.350000 0.996732 0.996935 0.972463
0.360000 0.996105 0.996340 0.969816
0.370000 0.995375 0.995644 0.966975
0.380000 0.994528 0.994833 0.963929
0.390000 0.993547 0.993893 0.960670
0.400000 0.992415 0.992806 0.957188
0.410000 0.991115 0.991555 0.953475
0.420000 0.989627 0.990118 0.949521
0.430000 0.987928 0.988476 0.945318
0.440000 0.985996 0.986604 0.940856
0.450000 0.983807 0.984477 0.936127
0.460000 0.981334 0.982071 0.931123
0.470000 0.978551 0.979357 0.925837
0.480000 0.975430 0.976307 0.920260
0.490000 0.971939 0.972890 0.914386
0.500000 0.968051 0.969076 0.908208
0.510000 0.963732 0.964833 0.901721
0.520000 0.958952 0.960128 0.894918
0.530000 0.953679 0.954928 0.887796
0.540000 0.947881 0.949202 0.880350
0.550000 0.941528 0.942916 0.872576
0.560000 0.934588 0.936040 0.864473
0.570000 0.927032 0.928542 0.856039
0.580000 0.918833 0.920393 0.847272
0.590000 0.909964 0.911567 0.838173
0.600000 0.900402 0.902038 0.828742
0.610000 0.890127 0.891785 0.818982
0.620000 0.879120 0.880789 0.808896
0.630000 0.867367 0.869034 0.798487
0.640000 0.854859 0.856509 0.787760
0.650000 0.841590 0.843208 0.776721
0.660000 0.827557 0.829128 0.765377
0.670000 0.812765 0.814272 0.753736
0.680000 0.797223 0.798649 0.741807
0.690000 0.780944 0.782272 0.729600
0.700000 0.763947 0.765160 0.717127
0.710000 0.746257 0.747339 0.704400
0.720000 0.727904 0.728838 0.691431
0.730000 0.708923 0.709694 0.678236
0.740000 0.689356 0.689949 0.664829
0.750000 0.669247 0.669648 0.651227
0.760000 0.648647 0.648844 0.637449
0.770000 0.627609 0.627592 0.623512
0.780000 0.606193 0.605953 0.609437
0.790000 0.584459 0.583989 0.595246
0.800000 0.562472 0.561768 0.580961
0.810000 0.540300 0.539358 0.566608
0.820000 0.518009 0.516830 0.552213
0.830000 0.495670 0.494255 0.537805
0.840000 0.473353 0.471706 0.523417
0.850000 0.451128 0.449254 0.509084
0.860000 0.429063 0.426970 0.494846
0.870000 0.407228 0.404923 0.480747
0.880000 0.385689 0.383180 0.466839
0.890000 0.364512 0.361805 0.453182
0.900000 0.343763 0.340858 0.439843
0.910000 0.323511 0.320396 0.426905
0.920000 0.303828 0.300470 0.414465
0.930000 0.284801 0.281130 0.402638
0.940000 0.266543 0.262415 0.391564
0.950000 0.249214 0.244365 0.381411
0.960000 0.233064 0.227009 0.372386
0.970000 0.218501 0.210375 0.364738
0.980000 0.206212 0.194482 0.358774
0.990000 0.197373 0.179346 0.354869
1.000000 0.194001 0.164975 0.353483
