0.000000 1.000000 1.000000 0.994630
0.010000 0.994908 0.995041 0.988034
0.020000 0.987255 0.987542 0.973724
0.030000 0.976420 0.976867 0.956943
0.040000 0.961774 0.962365 0.937603
0.050000 0.942724 0.943418 0.915654
0.060000 0.918761 0.919491 0.891092
0.070000 0.889512 0.890182 0.863961
0.080000 0.854783 0.855277 0.834355
0.090000 0.814604 0.814791 0.802418
0.100000 0.769248 0.768997 0.768344
0.110000 0.719240 0.718429 0.732372
0.120000 0.665344 0.663879 0.694780
0.130000 0.608532 0.606351 0.655884
0.140000 0.549925 0.547015 0.616023
0.150000 0.490736 0.487132 0.575559
0.160000 0.432194 0.427979 0.534861
0.170000 0.375472 0.370769 0.494297
0.180000 0.321621 0.316584 0.454228
0.190000 0.271518 0.266317 0.414997
0.200000 0.225824 0.220631 0.376920
0.210000 0.184972 0.179948 0.340284
0.220000 0.149165 0.144447 0.305333
0.230000 0.118392 0.114086 0.272274
0.240000 0.092459 0.088636 0.241266
0.250000 0.071030 0.067724 0.212427
0.260000 0.053664 0.050881 0.185828
0.270000 0.039864 0.037580 0.161498
0.280000 0.029110 0.027282 0.139427
0.290000 0.020892 0.019466 0.119569
0.300000 0.014733 0.013648 0.101849
0.310000 0.010208 0.009402 0.086166
0.320000 0.006947 0.006363 0.072399
0.330000 0.004642 0.004230 0.060411
0.340000 0.003046 0.002763 0.050058
0.350000 0.001962 0.001772 0.041189
0.360000 0.001241 0.001116 0.033652
0.370000 0.000770 0.000690 0.027300
0.380000 0.000469 0.000419 0.021988
0.390000 0.000280 0.000250 0.017583
0.400000 0.000164 0.000147 0.013959
0.410000 0.000094 0.000084 0.011002
0.420000 0.000053 0.000048 0.008608
0.430000 0.000029 0.000026 0.006686
0.440000 0.000016 0.000014 0.005154
0.450000 0.000008 0.000008 0.003945
0.460000 0.000004 0.000004 0.002996
0.470000 0.000002 0.000002 0.002259
0.480000 0.000001 0.000001 0.001691
0.490000 0.000001 0.000001 0.001256
0.500000 0.000000 0.000000 0.000925
0.510000 0.000000 0.000000 0.000677
0.520000 0.000000 0.000000 0.000492
0.530000 0.000000 0.000000 0.000354
0.540000 0.000000 0.000000 0.000253
0.550000 0.000000 0.000000 0.000180
0.560000 0.000000 0.000000 0.000126
0.570000 0.000000 0.000000 0.000088
0.580000 0.000000 0.000000 0.000061
0.590000 0.000000 0.000000 0.000042
0.600000 0.000000 0.000000 0.000029
0.610000 0.000000 0.000000 0.000019
0.620000 0.000000 0.000000 0.000013
0.630000 0.000000 0.000000 0.000009
0.640000 0.000000 0.000000 0.000006
0.650000 0.000000 0.000000 0.000004
0.660000 0.000000 0.000000 0.000002
0.670000 0.000000 0.000000 0.000002
0.680000 0.000000 0.000000 0.000001
0.690000 0.000000 0.000000 0.000001
0.700000 0.000000 0.000000 0.000000
0.710000 0.000000 0.000000 0.000000
0.720000 0.000000 0.000000 0.000000
0.730000 0.000000 0.000000 0.000000
0.740000 0.000000 0.000000 0.000000
0.750000 0.000000 0.000000 0.000000
0.760000 0.000000 0.000000 0.000000
0.770000 0.000000 0.000000 0.000000
0.780000 0.000000 0.000000 0.000000
0.790000 0.000000 0.000000 0.000000
0.800000 0.000000 0.000000 0.000000
0.810000 -0.000000 0.000000 0.000000
0.820000 -0.000000 0.000000 0.000000
0.830000 -0.000000 0.000000 0.000000
0.840000 -0.000000 0.000000 0.000000
0.850000 -0.000000 0.000000 0.000000
0.860000 0.000000 0.000000 0.000000
0.870000 0.000000 0.000000 0.000000
0.880000 0.000000 0.000000 0.000000
0.890000 0.000000 0.000000 0.000000
0.900000 0.000000 0.000000 0.000000
0.910000 -0.000000 0.000000 0.000000
0.920000 -0.000000 0.000000 0.000000
0.930000 -0.000000 0.000000 0.000000
0.940000 0.000000 0.000000 0.000000
0.950000 0.000000 0.000000 0.000000
0.960000 0.000000 0.000000 0.000000
0.970000 0.000000 0.000000 0.000000
0.980000 -0.000000 0.000000 0.000000
0.990000 -0.000000 0.000000 0.000000
1.000000 -0.000000 0.000000 0.000000
