0.000000 1.000000 1.000000 0.999439
0.010000 0.999913 0.999919 0.998747
0.020000 0.999779 0.999794 0.997237
0.030000 0.999583 0.999609 0.995439
0.040000 0.999302 0.999345 0.993322
0.050000 0.998913 0.998977 0.990854
0.060000 0.998385 0.998475 0.988001
0.070000 0.997679 0.997803 0.984728
0.080000 0.996754 0.996917 0.980999
0.090000 0.995556 0.995768 0.976780
0.100000 0.994028 0.994295 0.972034
0.110000 0.992100 0.992432 0.966726
0.120000 0.989696 0.990102 0.960822
0.130000 0.986733 0.987219 0.954287
0.140000 0.983116 0.983691 0.947091
0.150000 0.978745 0.979415 0.939203
0.160000 0.973515 0.974284 0.930595
0.170000 0.967313 0.968182 0.921242
0.180000 0.960025 0.960993 0.911124
0.190000 0.951536 0.952599 0.900222
0.200000 0.941733 0.942882 0.888523
0.210000 0.930507 0.931729 0.876016
0.220000 0.917758 0.919036 0.862699
0.230000 0.903398 0.904708 0.848570
0.240000 0.887351 0.888669 0.833636
0.250000 0.869562 0.870857 0.817909
0.260000 0.849997 0.851233 0.801404
0.270000 0.828643 0.829783 0.784144
0.280000 0.805516 0.806522 0.766158
0.290000 0.780658 0.781490 0.747478
0.300000 0.754143 0.754760 0.728145
0.310000 0.726070 0.726434 0.708202
0.320000 0.696569 0.696646 0.687697
0.330000 0.665796 0.665555 0.666686
0.340000 0.633932 0.633348 0.645225
0.350000 0.601179 0.600234 0.623377
0.360000 0.567758 0.566440 0.601204
0.370000 0.533901 0.532207 0.578775
0.380000 0.499851 0.497786 0.556159
0.390000 0.465851 0.463430 0.533425
0.400000 0.432144 0.429388 0.510646
0.410000 0.398967 0.395906 0.487891
0.420000 0.366544 0.363213 0.465232
0.430000 0.335081 0.331522 0.442739
0.440000 0.304767 0.301025 0.420478
0.450000 0.275766 0.271889 0.398515
0.460000 0.248217 0.244254 0.376912
0.470000 0.222230 0.218231 0.355727
0.480000 0.197889 0.193903 0.335017
0.490000 0.175250 0.171321 0.314831
0.500000 0.154340 0.150510 0.295216
0.510000 0.135164 0.131469 0.276212
0.520000 0.117699 0.114171 0.257856
0.530000 0.101904 0.098569 0.240179
0.540000 0.087719 0.084596 0.223207
0.550000 0.075068 0.072172 0.206959
0.560000 0.063864 0.061202 0.191453
0.570000 0.054010 0.051586 0.176696
0.580000 0.045403 0.043216 0.162696
0.590000 0.037939 0.035982 0.149451
0.600000 0.031510 0.029775 0.136960
0.610000 0.026010 0.024485 0.125213
0.620000 0.021339 0.020010 0.114198
0.630000 0.017399 0.016250 0.103901
0.640000 0.014099 0.013114 0.094302
0.650000 0.011353 0.010516 0.085382
0.660000 0.009085 0.008379 0.077115
0.670000 0.007224 0.006634 0.069477
0.680000 0.005708 0.005219 0.062440
0.690000 0.004482 0.004079 0.055976
0.700000 0.003496 0.003168 0.050056
0.710000 0.002710 0.002444 0.044650
0.720000 0.002087 0.001874 0.039727
0.730000 0.001597 0.001427 0.035257
0.740000 0.001214 0.001080 0.031211
0.750000 0.000917 0.000812 0.027559
0.760000 0.000688 0.000606 0.024271
0.770000 0.000513 0.000450 0.021321
0.780000 0.000380 0.000331 0.018682
0.790000 0.000280 0.000243 0.016327
0.800000 0.000204 0.000177 0.014231
0.810000 0.000148 0.000128 0.012373
0.820000 0.000107 0.000092 0.010729
0.830000 0.000077 0.000065 0.009279
0.840000 0.000055 0.000046 0.008005
0.850000 0.000039 0.000033 0.006887
0.860000 0.000027 0.000023 0.005910
0.870000 0.000019 0.000016 0.005058
0.880000 0.000013 0.000011 0.004319
0.890000 0.000009 0.000007 0.003678
0.900000 0.000006 0.000005 0.003125
0.910000 0.000004 0.000003 0.002649
0.920000 0.000003 0.000002 0.002242
0.930000 0.000002 0.000002 0.001895
0.940000 0.000001 0.000001 0.001603
0.950000 0.000001 0.000001 0.001359
0.960000 0.000001 0.000000 0.001159
0.970000 0.000000 0.000000 0.001001
0.980000 0.000000 0.000000 0.000885
0.990000 0.000000 0.000000 0.000812
1.000000 0.000000 0.000000 0.000786
