0.000000 1.000000 1.000000 0.999934
0.010000 0.999999 0.999999 0.999853
0.020000 0.999997 0.999997 0.999675
0.030000 0.999994 0.999995 0.999463
0.040000 0.999990 0.999991 0.999211
0.050000 0.999984 0.999986 0.998915
0.060000 0.999977 0.999979 0.998570
0.070000 0.999966 0.999969 0.998170
0.080000 0.999951 0.999956 0.997708
0.090000 0.999932 0.999939 0.997179
0.100000 0.999906 0.999915 0.996574
0.110000 0.999873 0.999885 0.995887
0.120000 0.999829 0.999845 0.995110
0.130000 0.999774 0.999793 0.994233
0.140000 0.999702 0.999728 0.993248
0.150000 0.999612 0.999644 0.992146
0.160000 0.999498 0.999538 0.990916
0.170000 0.999355 0.999405 0.989548
0.180000 0.999178 0.999240 0.988031
0.190000 0.998959 0.999034 0.986354
0.200000 0.998690 0.998781 0.984505
0.210000 0.998360 0.998471 0.982472
0.220000 0.997960 0.998092 0.980243
0.230000 0.997475 0.997634 0.977804
0.240000 0.996893 0.997080 0.975143
0.250000 0.996195 0.996415 0.972247
0.260000 0.995364 0.995621 0.969102
0.270000 0.994380 0.994678 0.965695
0.280000 0.993218 0.993562 0.962013
0.290000 0.991854 0.992249 0.958042
0.300000 0.990260 0.990711 0.953769
0.310000 0.988407 0.988918 0.949181
0.320000 0.986260 0.986836 0.944266
0.330000 0.983787 0.984432 0.939011
0.340000 0.980949 0.981666 0.933404
0.350000 0.977706 0.978500 0.927434
0.360000 0.974019 0.974892 0.921090
0.370000 0.969844 0.970798 0.914364
0.380000 0.965138 0.966173 0.907244
0.390000 0.959854 0.960970 0.899725
0.400000 0.953949 0.955145 0.891797
0.410000 0.947376 0.948649 0.883456
0.420000 0.940092 0.941437 0.874697
0.430000 0.932054 0.933464 0.865516
0.440000 0.923221 0.924688 0.855911
0.450000 0.913553 0.915069 0.845880
0.460000 0.903018 0.904570 0.835426
0.470000 0.891584 0.893158 0.824550
0.480000 0.879225 0.880807 0.813255
0.490000 0.865922 0.867495 0.801547
0.500000 0.851662 0.853208 0.789433
0.510000 0.836436 0.837936 0.776921
0.520000 0.820248 0.821681 0.764022
0.530000 0.803104 0.804449 0.750748
0.540000 0.785023 0.786259 0.737111
0.550000 0.766030 0.767134 0.723126
0.560000 0.746158 0.747111 0.708811
0.570000 0.725452 0.726232 0.694182
0.580000 0.703961 0.704549 0.679260
0.590000 0.681746 0.682124 0.664065
0.600000 0.658873 0.659025 0.648618
0.610000 0.635417 0.635329 0.632944
0.620000 0.611458 0.611118 0.617065
0.630000 0.587082 0.586482 0.601007
0.640000 0.562381 0.561515 0.584797
0.650000 0.537448 0.536314 0.568460
0.660000 0.512382 0.510979 0.552023
0.670000 0.487279 0.485612 0.535515
0.680000 0.462240 0.460315 0.518963
0.690000 0.437362 0.435190 0.502396
0.700000 0.412740 0.410334 0.485840
0.710000 0.388469 0.385844 0.469326
0.720000 0.364635 0.361811 0.452879
0.730000 0.341324 0.338320 0.436529
0.740000 0.318612 0.315452 0.420301
0.750000 0.296570 0.293277 0.404223
0.760000 0.275263 0.271861 0.388321
0.770000 0.254745 0.251260 0.372618
0.780000 0.235064 0.231522 0.357141
0.790000 0.216260 0.212686 0.341912
0.800000 0.198363 0.194782 0.326955
0.810000 0.181395 0.177831 0.312292
0.820000 0.165371 0.161847 0.297943
0.830000 0.150297 0.146834 0.283931
0.840000 0.136172 0.132789 0.270277
0.850000 0.122986 0.119701 0.257000
0.860000 0.110726 0.107553 0.244124
0.870000 0.099370 0.096323 0.231670
0.880000 0.088893 0.085982 0.219665
0.890000 0.079264 0.076497 0.208134
0.900000 0.070450 0.067832 0.197112
0.910000 0.062415 0.059947 0.186637
0.920000 0.055120 0.052801 0.176755
0.930000 0.048531 0.046349 0.167525
0.940000 0.042613 0.040546 0.159021
0.950000 0.037343 0.035349 0.151334
0.960000 0.032713 0.030713 0.144583
0.970000 0.028751 0.026592 0.138920
0.980000 0.025547 0.022944 0.134537
0.990000 0.023309 0.019728 0.131682
1.000000 0.022468 0.016904 0.130671
