0.000000 1.000000 1.000000 0.986766
0.010000 0.978702 0.978932 0.970591
0.020000 0.947551 0.947880 0.935756
0.030000 0.905445 0.905651 0.895638
0.040000 0.852028 0.851821 0.850573
0.050000 0.787860 0.786930 0.801085
0.060000 0.714470 0.712545 0.747869
0.070000 0.634260 0.631172 0.691765
0.080000 0.550281 0.546007 0.633718
0.090000 0.465904 0.460583 0.574740
0.100000 0.384442 0.378357 0.515858
0.110000 0.308800 0.302330 0.458065
0.120000 0.241200 0.234753 0.402284
0.130000 0.183029 0.176978 0.349320
0.140000 0.134810 0.129445 0.299839
0.150000 0.096302 0.091797 0.254344
0.160000 0.066670 0.063083 0.213171
0.170000 0.044699 0.041988 0.176490
0.180000 0.029001 0.027058 0.144316
0.190000 0.018197 0.016875 0.116528
0.200000 0.011034 0.010183 0.092897
0.210000 0.006461 0.005943 0.073107
0.220000 0.003651 0.003355 0.056785
0.230000 0.001989 0.001831 0.043528
0.240000 0.001044 0.000966 0.032924
0.250000 0.000528 0.000492 0.024570
0.260000 0.000256 0.000243 0.018088
0.270000 0.000120 0.000115 0.013135
0.280000 0.000054 0.000053 0.009407
0.290000 0.000023 0.000024 0.006645
0.300000 0.000009 0.000010 0.004628
0.310000 0.000004 0.000004 0.003178
0.320000 0.000001 0.000002 0.002151
0.330000 0.000000 0.000001 0.001436
0.340000 0.000000 0.000000 0.000945
0.350000 0.000000 0.000000 0.000612
0.360000 0.000000 0.000000 0.000391
0.370000 0.000000 0.000000 0.000246
0.380000 0.000000 0.000000 0.000153
0.390000 0.000000 0.000000 0.000093
0.400000 0.000000 0.000000 0.000056
0.410000 0.000000 0.000000 0.000033
0.420000 0.000000 0.000000 0.000019
0.430000 0.000000 0.000000 0.000011
0.440000 0.000000 0.000000 0.000006
0.450000 -0.000000 0.000000 0.000004
0.460000 -0.000000 0.000000 0.000002
0.470000 -0.000000 0.000000 0.000001
0.480000 -0.000000 0.000000 0.000001
0.490000 0.000000 0.000000 0.000000
0.500000 0.000000 0.000000 0.000000
0.510000 0.000000 0.000000 0.000000
0.520000 0.000000 0.000000 0.000000
0.530000 -0.000000 0.000000 0.000000
0.540000 -0.000000 0.000000 0.000000
0.550000 -0.000000 0.000000 0.000000
0.560000 0.000000 0.000000 0.000000
0.570000 0.000000 0.000000 0.000000
0.580000 0.000000 0.000000 0.000000
0.590000 -0.000000 0.000000 0.000000
0.600000 -0.000000 0.000000 0.000000
0.610000 0.000000 0.000000 0.000000
0.620000 0.000000 0.000000 0.000000
0.630000 0.000000 0.000000 0.000000
0.640000 -0.000000 0.000000 0.000000
0.650000 -0.000000 0.000000 0.000000
0.660000 0.000000 0.000000 0.000000
0.670000 0.000000 0.000000 0.000000
0.680000 -0.000000 0.000000 0.000000
0.690000 -0.000000 0.000000 0.000000
0.700000 -0.000000 0.000000 0.000000
0.710000 0.000000 0.000000 0.000000
0.720000 0.000000 0.000000 0.000000
0.730000 -0.000000 0.000000 0.000000
0.740000 -0.000000 0.000000 0.000000
0.750000 0.000000 0.000000 0.000000
0.760000 0.000000 0.000000 0.000000
0.770000 -0.000000 0.000000 0.000000
0.780000 -0.000000 0.000000 0.000000
0.790000 0.000000 0.000000 0.000000
0.800000 0.000000 0.000000 0.000000
0.810000 -0.000000 0.000000 0.000000
0.820000 -0.000000 0.000000 0.000000
0.830000 0.000000 0.000000 0.000000
0.840000 0.000000 0.000000 0.000000
0.850000 -0.000000 0.000000 0.000000
0.860000 -0.000000 0.000000 0.000000
0.870000 0.000000 0.000000 0.000000
0.880000 0.000000 0.000000 0.000000
0.890000 -0.000000 0.000000 0.000000
0.900000 -0.000000 0.000000 0.000000
0.910000 0.000000 0.000000 0.000000
0.920000 0.000000 0.000000 0.000000
0.930000 -0.000000 0.000000 0.000000
0.940000 0.000000 0.000000 0.000000
0.950000 0.000000 0.000000 0.000000
0.960000 -0.000000 0.000000 0.000000
0.970000 -0.000000 0.000000 0.000000
0.980000 0.000000 0.000000 0.000000
0.990000 0.000000 0.000000 0.000000
1.000000 -0.000000 0.000000 0.000000
