0.000000 1.000000 1.000000 0.997687
0.010000 0.998802 0.998852 0.994840
0.020000 0.996979 0.997095 0.988641
0.030000 0.994343 0.994542 0.981313
0.040000 0.990676 0.990973 0.972767
0.050000 0.985731 0.986142 0.962923
0.060000 0.979241 0.979774 0.951709
0.070000 0.970919 0.971578 0.939060
0.080000 0.960473 0.961253 0.924927
0.090000 0.947613 0.948499 0.909272
0.100000 0.932068 0.933033 0.892073
0.110000 0.913596 0.914603 0.873326
0.120000 0.892004 0.893002 0.853043
0.130000 0.867160 0.868088 0.831256
0.140000 0.839005 0.839794 0.808015
0.150000 0.807568 0.808143 0.783389
0.160000 0.772970 0.773254 0.757468
0.170000 0.735427 0.735348 0.730356
0.180000 0.695251 0.694744 0.702177
0.190000 0.652842 0.651854 0.673067
0.200000 0.608675 0.607170 0.643177
0.210000 0.563285 0.561246 0.612668
0.220000 0.517250 0.514682 0.581709
0.230000 0.471166 0.468096 0.550475
0.240000 0.425627 0.422103 0.519144
0.250000 0.381201 0.377289 0.487893
0.260000 0.338411 0.334192 0.456895
0.270000 0.297717 0.293283 0.426320
0.280000 0.259503 0.254950 0.396329
0.290000 0.224066 0.219492 0.367069
0.300000 0.191614 0.187111 0.338680
0.310000 0.162264 0.157916 0.311284
0.320000 0.136050 0.131928 0.284988
0.330000 0.112924 0.109086 0.259882
0.340000 0.092775 0.089263 0.236042
0.350000 0.075436 0.072275 0.213522
0.360000 0.060698 0.057899 0.192362
0.370000 0.048325 0.045887 0.172585
0.380000 0.038065 0.035974 0.154197
0.390000 0.029662 0.027897 0.137190
0.400000 0.022863 0.021396 0.121542
0.410000 0.017430 0.016229 0.107220
0.420000 0.013142 0.012174 0.094180
0.430000 0.009799 0.009030 0.082368
0.440000 0.007225 0.006623 0.071724
0.450000 0.005267 0.004803 0.062181
0.460000 0.003796 0.003444 0.053671
0.470000 0.002705 0.002441 0.046121
0.480000 0.001905 0.001711 0.039456
0.490000 0.001327 0.001185 0.033603
0.500000 0.000913 0.000812 0.028489
0.510000 0.000621 0.000550 0.024045
0.520000 0.000417 0.000368 0.020202
0.530000 0.000277 0.000243 0.016895
0.540000 0.000182 0.000159 0.014066
0.550000 0.000118 0.000103 0.011656
0.560000 0.000076 0.000066 0.009615
0.570000 0.000048 0.000041 0.007894
0.580000 0.000030 0.000026 0.006451
0.590000 0.000018 0.000016 0.005248
0.600000 0.000011 0.000010 0.004249
0.610000 0.000007 0.000006 0.003424
0.620000 0.000004 0.000003 0.002746
0.630000 0.000002 0.000002 0.002192
0.640000 0.000001 0.000001 0.001741
0.650000 0.000001 0.000001 0.001377
0.660000 0.000000 0.000000 0.001084
0.670000 0.000000 0.000000 0.000849
0.680000 0.000000 0.000000 0.000662
0.690000 0.000000 0.000000 0.000513
0.700000 0.000000 0.000000 0.000396
0.710000 0.000000 0.000000 0.000304
0.720000 0.000000 0.000000 0.000233
0.730000 0.000000 0.000000 0.000177
0.740000 0.000000 0.000000 0.000134
0.750000 0.000000 0.000000 0.000101
0.760000 0.000000 0.000000 0.000076
0.770000 0.000000 0.000000 0.000057
0.780000 0.000000 0.000000 0.000042
0.790000 0.000000 0.000000 0.000031
0.800000 0.000000 0.000000 0.000023
0.810000 0.000000 0.000000 0.000017
0.820000 0.000000 0.000000 0.000012
0.830000 0.000000 0.000000 0.000009
0.840000 0.000000 0.000000 0.000006
0.850000 0.000000 0.000000 0.000005
0.860000 0.000000 0.000000 0.000003
0.870000 0.000000 0.000000 0.000002
0.880000 0.000000 0.000000 0.000002
0.890000 0.000000 0.000000 0.000001
0.900000 0.000000 0.000000 0.000001
0.910000 0.000000 0.000000 0.000001
0.920000 0.000000 0.000000 0.000000
0.930000 0.000000 0.000000 0.000000
0.940000 0.000000 0.000000 0.000000
0.950000 0.000000 0.000000 0.000000
0.960000 0.000000 0.000000 0.000000
0.970000 0.000000 0.000000 0.000000
0.980000 0.000000 0.000000 0.000000
0.990000 0.000000 0.000000 0.000000
1.000000 0.000000 0.000000 0.000000
