0.000000 1.000000 1.000000 0.999635
0.010000 0.999962 0.999965 0.999184
0.020000 0.999904 0.999911 0.998200
0.030000 0.999818 0.999831 0.997027
0.040000 0.999695 0.999716 0.995644
0.050000 0.999523 0.999555 0.994027
0.060000 0.999288 0.999335 0.992154
0.070000 0.998972 0.999037 0.989998
0.080000 0.998555 0.998642 0.987533
0.090000 0.998010 0.998124 0.984734
0.100000 0.997308 0.997455 0.981572
0.110000 0.996413 0.996599 0.978019
0.120000 0.995285 0.995517 0.974048
0.130000 0.993876 0.994161 0.969630
0.140000 0.992135 0.992481 0.964737
0.150000 0.990003 0.990416 0.959341
0.160000 0.987412 0.987901 0.953415
0.170000 0.984294 0.984863 0.946934
0.180000 0.980568 0.981225 0.939873
0.190000 0.976155 0.976904 0.932209
0.200000 0.970965 0.971809 0.923921
0.210000 0.964910 0.965850 0.914989
0.220000 0.957898 0.958932 0.905397
0.230000 0.949837 0.950960 0.895133
0.240000 0.940636 0.941841 0.884184
0.250000 0.930209 0.931484 0.872544
0.260000 0.918474 0.919806 0.860209
0.270000 0.905359 0.906729 0.847179
0.280000 0.890802 0.892188 0.833457
0.290000 0.874754 0.876131 0.819052
0.300000 0.857181 0.858520 0.803976
0.310000 0.838066 0.839335 0.788244
0.320000 0.817410 0.818577 0.771877
0.330000 0.795236 0.796267 0.754899
0.340000 0.771587 0.772448 0.737340
0.350000 0.746528 0.747185 0.719232
0.360000 0.720147 0.720567 0.700611
0.370000 0.692551 0.692705 0.681517
0.380000 0.663869 0.663729 0.661993
0.390000 0.634247 0.633792 0.642087
0.400000 0.603846 0.603061 0.621846
0.410000 0.572845 0.571717 0.601323
0.420000 0.541428 0.539953 0.580572
0.430000 0.509789 0.507970 0.559646
0.440000 0.478125 0.475972 0.538602
0.450000 0.446634 0.444161 0.517497
0.460000 0.415509 0.412737 0.496389
0.470000 0.384935 0.381893 0.475333
0.480000 0.355088 0.351807 0.454387
0.490000 0.326130 0.322647 0.433605
0.500000 0.298207 0.294561 0.413042
0.510000 0.271448 0.267680 0.392748
0.520000 0.245961 0.242114 0.372773
0.530000 0.221833 0.217949 0.353165
0.540000 0.199133 0.195252 0.333967
0.550000 0.177905 0.174067 0.315221
0.560000 0.158174 0.154416 0.296962
0.570000 0.139948 0.136300 0.279226
0.580000 0.123212 0.119705 0.262042
0.590000 0.107939 0.104596 0.245436
0.600000 0.094086 0.090926 0.229430
0.610000 0.081596 0.078635 0.214044
0.620000 0.070403 0.067651 0.199290
0.630000 0.060434 0.057896 0.185180
0.640000 0.051608 0.049286 0.171721
0.650000 0.043842 0.041733 0.158915
0.660000 0.037049 0.035149 0.146762
0.670000 0.031144 0.029445 0.135258
0.680000 0.026040 0.024533 0.124397
0.690000 0.021657 0.020329 0.114169
0.700000 0.017916 0.016754 0.104562
0.710000 0.014740 0.013732 0.095561
0.720000 0.012062 0.011193 0.087149
0.730000 0.009817 0.009073 0.079308
0.740000 0.007946 0.007314 0.072017
0.750000 0.006396 0.005863 0.065256
0.760000 0.005120 0.004674 0.059002
0.770000 0.004076 0.003705 0.053232
0.780000 0.003227 0.002921 0.047921
0.790000 0.002541 0.002289 0.043045
0.800000 0.001989 0.001784 0.038581
0.810000 0.001548 0.001383 0.034503
0.820000 0.001199 0.001065 0.030789
0.830000 0.000923 0.000816 0.027413
0.840000 0.000706 0.000622 0.024354
0.850000 0.000537 0.000471 0.021589
0.860000 0.000407 0.000355 0.019096
0.870000 0.000306 0.000266 0.016854
0.880000 0.000229 0.000198 0.014845
0.890000 0.000170 0.000146 0.013049
0.900000 0.000126 0.000108 0.011449
0.910000 0.000093 0.000079 0.010030
0.920000 0.000068 0.000057 0.008777
0.930000 0.000049 0.000041 0.007679
0.940000 0.000036 0.000030 0.006725
0.950000 0.000026 0.000021 0.005908
0.960000 0.000018 0.000015 0.005224
0.970000 0.000013 0.000011 0.004671
0.980000 0.000009 0.000008 0.004257
0.990000 0.000007 0.000005 0.003992
1.000000 0.000006 0.000004 0.003900
