0.000000 1.000000 1.000000 0.999983
0.010000 1.000000 1.000000 0.999961
0.020000 1.000000 1.000000 0.999914
0.030000 1.000000 1.000000 0.999858
0.040000 0.999999 0.999999 0.999791
0.050000 0.999999 0.999999 0.999713
0.060000 0.999999 0.999999 0.999621
0.070000 0.999998 0.999998 0.999514
0.080000 0.999997 0.999997 0.999390
0.090000 0.999996 0.999996 0.999247
0.100000 0.999994 0.999995 0.999084
0.110000 0.999992 0.999993 0.998897
0.120000 0.999989 0.999990 0.998684
0.130000 0.999985 0.999987 0.998443
0.140000 0.999980 0.999983 0.998170
0.150000 0.999974 0.999977 0.997863
0.160000 0.999966 0.999970 0.997518
0.170000 0.999956 0.999960 0.997131
0.180000 0.999943 0.999949 0.996699
0.190000 0.999926 0.999934 0.996218
0.200000 0.999906 0.999915 0.995682
0.210000 0.999880 0.999892 0.995088
0.220000 0.999849 0.999863 0.994431
0.230000 0.999809 0.999828 0.993706
0.240000 0.999761 0.999784 0.992906
0.250000 0.999702 0.999729 0.992028
0.260000 0.999630 0.999663 0.991063
0.270000 0.999542 0.999582 0.990007
0.280000 0.999436 0.999484 0.988853
0.290000 0.999308 0.999365 0.987594
0.300000 0.999155 0.999222 0.986223
0.310000 0.998971 0.999050 0.984732
0.320000 0.998752 0.998845 0.983116
0.330000 0.998491 0.998601 0.981365
0.340000 0.998183 0.998311 0.979472
0.350000 0.997820 0.997968 0.977428
0.360000 0.997393 0.997564 0.975226
0.370000 0.996892 0.997090 0.972858
0.380000 0.996309 0.996535 0.970314
0.390000 0.995630 0.995888 0.967587
0.400000 0.994843 0.995137 0.964667
0.410000 0.993935 0.994268 0.961546
0.420000 0.992889 0.993264 0.958215
0.430000 0.991690 0.992111 0.954666
0.440000 0.990318 0.990789 0.950891
0.450000 0.988755 0.989279 0.946880
0.460000 0.986980 0.987561 0.942626
0.470000 0.984970 0.985612 0.938120
0.480000 0.982702 0.983407 0.933356
0.490000 0.980151 0.980923 0.928324
0.500000 0.977292 0.978133 0.923019
0.510000 0.974097 0.975009 0.917433
0.520000 0.970538 0.971523 0.911560
0.530000 0.966586 0.967645 0.905394
0.540000 0.962212 0.963345 0.898930
0.550000 0.957387 0.958593 0.892162
0.560000 0.952080 0.953358 0.885088
0.570000 0.946262 0.947610 0.877702
0.580000 0.939904 0.941318 0.870003
0.590000 0.932977 0.934453 0.861987
0.600000 0.925454 0.926986 0.853654
0.610000 0.917310 0.918891 0.845004
0.620000 0.908520 0.910142 0.836035
0.630000 0.899063 0.900716 0.826750
0.640000 0.888920 0.890594 0.817150
0.650000 0.878073 0.879757 0.807239
0.660000 0.866511 0.868193 0.797019
0.670000 0.854225 0.855889 0.786497
0.680000 0.841208 0.842842 0.775677
0.690000 0.827459 0.829047 0.764567
0.700000 0.812983 0.814509 0.753174
0.710000 0.797786 0.799235 0.741507
0.720000 0.781883 0.783237 0.729577
0.730000 0.765290 0.766534 0.717394
0.740000 0.748030 0.749148 0.704971
0.750000 0.730131 0.731107 0.692320
0.760000 0.711626 0.712444 0.679458
0.770000 0.692553 0.693199 0.666399
0.780000 0.672952 0.673413 0.653161
0.790000 0.652870 0.653135 0.639763
0.800000 0.632358 0.632416 0.626227
0.810000 0.611470 0.611311 0.612574
0.820000 0.590262 0.589880 0.598831
0.830000 0.568796 0.568184 0.585024
0.840000 0.547132 0.546288 0.571186
0.850000 0.525336 0.524256 0.557350
0.860000 0.503473 0.502158 0.543558
0.870000 0.481610 0.480059 0.529853
0.880000 0.459816 0.458027 0.516289
0.890000 0.438161 0.436130 0.502926
0.900000 0.416717 0.414433 0.489835
0.910000 0.395563 0.392999 0.477101
0.920000 0.374786 0.371891 0.464824
0.930000 0.354493 0.351166 0.453123
0.940000 0.334824 0.330879 0.442143
0.950000 0.315978 0.311082 0.432057
0.960000 0.298263 0.291822 0.423075
0.970000 0.282169 0.273140 0.415455
0.980000 0.268508 0.255075 0.409506
0.990000 0.258641 0.237659 0.405608
1.000000 0.254870 0.220920 0.404224
