0.000000 1.000000 1.000000 0.999991
0.010000 1.000000 1.000000 0.999981
0.020000 1.000000 1.000000 0.999957
0.030000 1.000000 1.000000 0.999929
0.040000 1.000000 1.000000 0.999896
0.050000 1.000000 1.000000 0.999856
0.060000 1.000000 1.000000 0.999810
0.070000 1.000000 1.000000 0.999756
0.080000 0.999999 0.999999 0.999694
0.090000 0.999999 0.999999 0.999622
0.100000 0.999999 0.999999 0.999540
0.110000 0.999998 0.999998 0.999445
0.120000 0.999997 0.999998 0.999337
0.130000 0.999997 0.999997 0.999215
0.140000 0.999995 0.999996 0.999076
0.150000 0.999994 0.999995 0.998919
0.160000 0.999992 0.999993 0.998743
0.170000 0.999989 0.999991 0.998544
0.180000 0.999986 0.999988 0.998322
0.190000 0.999982 0.999984 0.998074
0.200000 0.999977 0.999980 0.997796
0.210000 0.999971 0.999974 0.997488
0.220000 0.999963 0.999967 0.997146
0.230000 0.999953 0.999958 0.996766
0.240000 0.999941 0.999947 0.996347
0.250000 0.999926 0.999934 0.995884
0.260000 0.999907 0.999917 0.995374
0.270000 0.999884 0.999896 0.994813
0.280000 0.999856 0.999871 0.994197
0.290000 0.999822 0.999840 0.993523
0.300000 0.999780 0.999802 0.992785
0.310000 0.999730 0.999756 0.991980
0.320000 0.999670 0.999701 0.991102
0.330000 0.999598 0.999634 0.990147
0.340000 0.999511 0.999554 0.989109
0.350000 0.999407 0.999458 0.987982
0.360000 0.999284 0.999343 0.986763
0.370000 0.999138 0.999207 0.985443
0.380000 0.998965 0.999046 0.984019
0.390000 0.998761 0.998856 0.982483
0.400000 0.998522 0.998632 0.980829
0.410000 0.998242 0.998369 0.979051
0.420000 0.997915 0.998061 0.977142
0.430000 0.997535 0.997702 0.975095
0.440000 0.997093 0.997284 0.972904
0.450000 0.996583 0.996800 0.970562
0.460000 0.995994 0.996240 0.968061
0.470000 0.995316 0.995594 0.965395
0.480000 0.994540 0.994853 0.962557
0.490000 0.993652 0.994003 0.959538
0.500000 0.992640 0.993032 0.956333
0.510000 0.991490 0.991926 0.952934
0.520000 0.990186 0.990670 0.949335
0.530000 0.988713 0.989248 0.945527
0.540000 0.987053 0.987643 0.941506
0.550000 0.985188 0.985835 0.937263
0.560000 0.983099 0.983806 0.932793
0.570000 0.980765 0.981535 0.928089
0.580000 0.978165 0.979000 0.923145
0.590000 0.975277 0.976179 0.917957
0.600000 0.972077 0.973049 0.912518
0.610000 0.968542 0.969584 0.906824
0.620000 0.964649 0.965762 0.900869
0.630000 0.960372 0.961555 0.894651
0.640000 0.955687 0.956940 0.888166
0.650000 0.950569 0.951891 0.881409
0.660000 0.944993 0.946382 0.874380
0.670000 0.938936 0.940388 0.867076
0.680000 0.932374 0.933885 0.859495
0.690000 0.925285 0.926849 0.851638
0.700000 0.917646 0.919258 0.843504
0.710000 0.909439 0.911092 0.835095
0.720000 0.900644 0.902330 0.826412
0.730000 0.891246 0.892956 0.817459
0.740000 0.881230 0.882954 0.808240
0.750000 0.870585 0.872312 0.798758
0.760000 0.859302 0.861020 0.789022
0.770000 0.847375 0.849072 0.779039
0.780000 0.834801 0.836465 0.768817
0.790000 0.821582 0.823198 0.758369
0.800000 0.807722 0.809276 0.747707
0.810000 0.793229 0.794706 0.736847
0.820000 0.778115 0.779500 0.725808
0.830000 0.762395 0.763674 0.714609
0.840000 0.746091 0.747248 0.703277
0.850000 0.729227 0.730245 0.691841
0.860000 0.711832 0.712694 0.680336
0.870000 0.693939 0.694625 0.668802
0.880000 0.675590 0.676076 0.657288
0.890000 0.656829 0.657084 0.645852
0.900000 0.637715 0.637692 0.634561
0.910000 0.618315 0.617946 0.623498
0.920000 0.598719 0.597893 0.612758
0.930000 0.579049 0.577585 0.602460
0.940000 0.559477 0.557073 0.592742
0.950000 0.540258 0.536413 0.583772
0.960000 0.521786 0.515659 0.575751
0.970000 0.504683 0.494868 0.568923
0.980000 0.489946 0.474095 0.563579
0.990000 0.479193 0.453398 0.560072
1.000000 0.475063 0.432830 0.558825
