0.000000 1.000000 1.000000 0.999859
0.010000 0.999994 0.999995 0.999685
0.020000 0.999985 0.999987 0.999304
0.030000 0.999972 0.999975 0.998849
0.040000 0.999953 0.999958 0.998312
0.050000 0.999927 0.999933 0.997681
0.060000 0.999890 0.999900 0.996947
0.070000 0.999840 0.999854 0.996097
0.080000 0.999774 0.999792 0.995122
0.090000 0.999685 0.999710 0.994006
0.100000 0.999570 0.999603 0.992738
0.110000 0.999420 0.999463 0.991302
0.120000 0.999228 0.999283 0.989684
0.130000 0.998983 0.999053 0.987869
0.140000 0.998674 0.998762 0.985840
0.150000 0.998287 0.998396 0.983581
0.160000 0.997806 0.997940 0.981075
0.170000 0.997212 0.997376 0.978305
0.180000 0.996484 0.996682 0.975252
0.190000 0.995598 0.995834 0.971899
0.200000 0.994525 0.994806 0.968227
0.210000 0.993236 0.993566 0.964220
0.220000 0.991695 0.992081 0.959857
0.230000 0.989865 0.990311 0.955123
0.240000 0.987704 0.988217 0.949999
0.250000 0.985167 0.985752 0.944469
0.260000 0.982206 0.982867 0.938516
0.270000 0.978769 0.979510 0.932124
0.280000 0.974801 0.975627 0.925280
0.290000 0.970246 0.971158 0.917970
0.300000 0.965045 0.966044 0.910182
0.310000 0.959139 0.960224 0.901904
0.320000 0.952466 0.953635 0.893128
0.330000 0.944967 0.946216 0.883845
0.340000 0.936584 0.937906 0.874050
0.350000 0.927261 0.928647 0.863739
0.360000 0.916945 0.918384 0.852911
0.370000 0.905589 0.907067 0.841564
0.380000 0.893151 0.894652 0.829702
0.390000 0.879597 0.881102 0.817329
0.400000 0.864900 0.866390 0.804452
0.410000 0.849043 0.850496 0.791080
0.420000 0.832020 0.833411 0.777225
0.430000 0.813834 0.815139 0.762902
0.440000 0.794503 0.795696 0.748126
0.450000 0.774054 0.775109 0.732917
0.460000 0.752529 0.753419 0.717294
0.470000 0.729979 0.730681 0.701283
0.480000 0.706473 0.706962 0.684908
0.490000 0.682086 0.682341 0.668195
0.500000 0.656908 0.656909 0.651175
0.510000 0.631037 0.630769 0.633879
0.520000 0.604583 0.604032 0.616337
0.530000 0.577661 0.576819 0.598585
0.540000 0.550394 0.549255 0.580657
0.550000 0.522908 0.521472 0.562589
0.560000 0.495334 0.493603 0.544417
0.570000 0.467801 0.465785 0.526179
0.580000 0.440440 0.438150 0.507911
0.590000 0.413379 0.410831 0.489651
0.600000 0.386739 0.383953 0.471436
0.610000 0.360638 0.357638 0.453303
0.620000 0.335186 0.331996 0.435289
0.630000 0.310481 0.307131 0.417429
0.640000 0.286616 0.283135 0.399757
0.650000 0.263669 0.260088 0.382307
0.660000 0.241708 0.238058 0.365110
0.670000 0.220789 0.217102 0.348197
0.680000 0.200956 0.197261 0.331597
0.690000 0.182239 0.178567 0.315336
0.700000 0.164659 0.161036 0.299439
0.710000 0.148222 0.144675 0.283929
0.720000 0.132927 0.129478 0.268827
0.730000 0.118759 0.115429 0.254151
0.740000 0.105698 0.102504 0.239918
0.750000 0.093711 0.090668 0.226141
0.760000 0.082763 0.079882 0.212834
0.770000 0.072808 0.070098 0.200004
0.780000 0.063800 0.061266 0.187660
0.790000 0.055685 0.053331 0.175808
0.800000 0.048410 0.046235 0.164450
0.810000 0.041916 0.039919 0.153589
0.820000 0.036148 0.034325 0.143223
0.830000 0.031048 0.029393 0.133352
0.840000 0.026559 0.025066 0.123971
0.850000 0.022626 0.021286 0.115078
0.860000 0.019197 0.018001 0.106667
0.870000 0.016220 0.015160 0.098733
0.880000 0.013648 0.012712 0.091270
0.890000 0.011437 0.010615 0.084274
0.900000 0.009544 0.008827 0.077742
0.910000 0.007931 0.007308 0.071674
0.920000 0.006563 0.006025 0.066073
0.930000 0.005409 0.004946 0.060946
0.940000 0.004441 0.004043 0.056310
0.950000 0.003635 0.003290 0.052189
0.960000 0.002970 0.002666 0.048622
0.970000 0.002434 0.002151 0.045666
0.980000 0.002020 0.001728 0.043399
0.990000 0.001741 0.001382 0.041931
1.000000 0.001638 0.001101 0.041413
