0.000000 1.000000 1.000000 0.996599
0.010000 0.997650 0.997731 0.992418
0.020000 0.994090 0.994273 0.983325
0.030000 0.988984 0.989288 0.972608
0.040000 0.981958 0.982396 0.960167
0.050000 0.972614 0.973190 0.945918
0.060000 0.960546 0.961252 0.929795
0.070000 0.945360 0.946172 0.911754
0.080000 0.926695 0.927574 0.891777
0.090000 0.904253 0.905142 0.869870
0.100000 0.877819 0.878645 0.846069
0.110000 0.847285 0.847963 0.820437
0.120000 0.812674 0.813109 0.793069
0.130000 0.774145 0.774241 0.764084
0.140000 0.732004 0.731671 0.733630
0.150000 0.686700 0.685858 0.701881
0.160000 0.638807 0.637398 0.669030
0.170000 0.589008 0.586997 0.635290
0.180000 0.538065 0.535448 0.600888
0.190000 0.486783 0.483585 0.566061
0.200000 0.435974 0.432251 0.531052
0.210000 0.386420 0.382254 0.496103
0.220000 0.338838 0.334333 0.461453
0.230000 0.293854 0.289128 0.427333
0.240000 0.251975 0.247151 0.393960
0.250000 0.213580 0.208781 0.361535
0.260000 0.178912 0.174252 0.330239
0.270000 0.148081 0.143658 0.300232
0.280000 0.121075 0.116968 0.271648
0.290000 0.097774 0.094040 0.244596
0.300000 0.077971 0.074645 0.219160
0.310000 0.061392 0.058489 0.195396
0.320000 0.047718 0.045234 0.173336
0.330000 0.036610 0.034525 0.152990
0.340000 0.027720 0.026003 0.134342
0.350000 0.020712 0.019324 0.117360
0.360000 0.015269 0.014168 0.101992
0.370000 0.011105 0.010248 0.088172
0.380000 0.007966 0.007312 0.075824
0.390000 0.005637 0.005146 0.064858
0.400000 0.003934 0.003572 0.055182
0.410000 0.002707 0.002445 0.046697
0.420000 0.001837 0.001651 0.039303
0.430000 0.001229 0.001099 0.032900
0.440000 0.000810 0.000722 0.027389
0.450000 0.000527 0.000467 0.022676
0.460000 0.000337 0.000298 0.018671
0.470000 0.000213 0.000188 0.015287
0.480000 0.000132 0.000117 0.012447
0.490000 0.000081 0.000071 0.010078
0.500000 0.000049 0.000043 0.008114
0.510000 0.000029 0.000026 0.006496
0.520000 0.000017 0.000015 0.005171
0.530000 0.000010 0.000009 0.004093
0.540000 0.000006 0.000005 0.003221
0.550000 0.000003 0.000003 0.002521
0.560000 0.000002 0.000002 0.001961
0.570000 0.000001 0.000001 0.001517
0.580000 0.000000 0.000000 0.001167
0.590000 0.000000 0.000000 0.000892
0.600000 0.000000 0.000000 0.000678
0.610000 0.000000 0.000000 0.000512
0.620000 0.000000 0.000000 0.000385
0.630000 0.000000 0.000000 0.000288
0.640000 0.000000 0.000000 0.000214
0.650000 0.000000 0.000000 0.000158
0.660000 0.000000 0.000000 0.000116
0.670000 0.000000 0.000000 0.000084
0.680000 0.000000 0.000000 0.000061
0.690000 0.000000 0.000000 0.000044
0.700000 0.000000 0.000000 0.000032
0.710000 0.000000 0.000000 0.000022
0.720000 0.000000 0.000000 0.000016
0.730000 0.000000 0.000000 0.000011
0.740000 0.000000 0.000000 0.000008
0.750000 0.000000 0.000000 0.000005
0.760000 0.000000 0.000000 0.000004
0.770000 0.000000 0.000000 0.000003
0.780000 0.000000 0.000000 0.000002
0.790000 0.000000 0.000000 0.000001
0.800000 0.000000 0.000000 0.000001
0.810000 0.000000 0.000000 0.000001
0.820000 0.000000 0.000000 0.000000
0.830000 0.000000 0.000000 0.000000
0.840000 0.000000 0.000000 0.000000
0.850000 0.000000 0.000000 0.000000
0.860000 0.000000 0.000000 0.000000
0.870000 0.000000 0.000000 0.000000
0.880000 0.000000 0.000000 0.000000
0.890000 0.000000 0.000000 0.000000
0.900000 0.000000 0.000000 0.000000
0.910000 0.000000 0.000000 0.000000
0.920000 0.000000 0.000000 0.000000
0.930000 0.000000 0.000000 0.000000
0.940000 0.000000 0.000000 0.000000
0.950000 0.000000 0.000000 0.000000
0.960000 0.000000 0.000000 0.000000
0.970000 0.000000 0.000000 0.000000
0.980000 0.000000 0.000000 0.000000
0.990000 0.000000 0.000000 0.000000
1.000000 0.000000 0.000000 0.000000
