0.000000 1.000000 1.000000 0.999922
0.010000 0.999998 0.999998 0.999826
0.020000 0.999996 0.999996 0.999615
0.030000 0.999992 0.999993 0.999364
0.040000 0.999986 0.999988 0.999066
0.050000 0.999978 0.999980 0.998716
0.060000 0.999967 0.999970 0.998308
0.070000 0.999952 0.999957 0.997835
0.080000 0.999931 0.999938 0.997290
0.090000 0.999904 0.999913 0.996666
0.100000 0.999868 0.999880 0.995953
0.110000 0.999821 0.999837 0.995144
0.120000 0.999761 0.999781 0.994229
0.130000 0.999683 0.999709 0.993198
0.140000 0.999584 0.999617 0.992041
0.150000 0.999458 0.999501 0.990748
0.160000 0.999301 0.999354 0.989306
0.170000 0.999104 0.999170 0.987705
0.180000 0.998860 0.998941 0.985931
0.190000 0.998560 0.998658 0.983973
0.200000 0.998191 0.998310 0.981816
0.210000 0.997742 0.997885 0.979449
0.220000 0.997198 0.997369 0.976856
0.230000 0.996543 0.996745 0.974025
0.240000 0.995757 0.995995 0.970940
0.250000 0.994820 0.995098 0.967589
0.260000 0.993708 0.994031 0.963956
0.270000 0.992396 0.992769 0.960027
0.280000 0.990855 0.991282 0.955788
0.290000 0.989053 0.989540 0.951225
0.300000 0.986957 0.987508 0.946326
0.310000 0.984530 0.985150 0.941075
0.320000 0.981735 0.982428 0.935462
0.330000 0.978528 0.979298 0.929472
0.340000 0.974868 0.975717 0.923096
0.350000 0.970709 0.971639 0.916323
0.360000 0.966004 0.967017 0.909142
0.370000 0.960706 0.961802 0.901544
0.380000 0.954767 0.955944 0.893523
0.390000 0.948139 0.949394 0.885072
0.400000 0.940775 0.942102 0.876184
0.410000 0.932628 0.934023 0.866858
0.420000 0.923656 0.925109 0.857089
0.430000 0.913818 0.915319 0.846877
0.440000 0.903076 0.904614 0.836223
0.450000 0.891399 0.892959 0.825130
0.460000 0.878759 0.880326 0.813600
0.470000 0.865136 0.866692 0.801639
0.480000 0.850515 0.852041 0.789256
0.490000 0.834891 0.836366 0.776459
0.500000 0.818264 0.819668 0.763260
0.510000 0.800646 0.801957 0.749670
0.520000 0.782056 0.783250 0.735704
0.530000 0.762522 0.763578 0.721379
0.540000 0.742082 0.742978 0.706712
0.550000 0.720784 0.721499 0.691722
0.560000 0.698683 0.699197 0.676431
0.570000 0.675846 0.676141 0.660860
0.580000 0.652344 0.652404 0.645033
0.590000 0.628260 0.628070 0.628975
0.600000 0.603679 0.603229 0.612712
0.610000 0.578696 0.577977 0.596271
0.620000 0.553407 0.552415 0.579679
0.630000 0.527915 0.526649 0.562965
0.640000 0.502323 0.500784 0.546157
0.650000 0.476736 0.474930 0.529287
0.660000 0.451258 0.449193 0.512382
0.670000 0.425993 0.423681 0.495473
0.680000 0.401040 0.398497 0.478590
0.690000 0.376496 0.373740 0.461762
0.700000 0.352453 0.349504 0.445018
0.710000 0.328995 0.325876 0.428388
0.720000 0.306202 0.302936 0.411899
0.730000 0.284144 0.280758 0.395580
0.740000 0.262885 0.259404 0.379456
0.750000 0.242477 0.238929 0.363553
0.760000 0.222967 0.219377 0.347896
0.770000 0.204389 0.200785 0.332508
0.780000 0.186771 0.183177 0.317412
0.790000 0.170131 0.166571 0.302629
0.800000 0.154477 0.150974 0.288178
0.810000 0.139810 0.136385 0.274080
0.820000 0.126124 0.122796 0.260351
0.830000 0.113404 0.110188 0.247009
0.840000 0.101629 0.098541 0.234071
0.850000 0.090773 0.087824 0.221551
0.860000 0.080805 0.078004 0.209467
0.870000 0.071689 0.069043 0.197836
0.880000 0.063385 0.060898 0.186675
0.890000 0.055852 0.053527 0.176005
0.900000 0.049046 0.046883 0.165851
0.910000 0.042922 0.040918 0.156241
0.920000 0.037436 0.035585 0.147212
0.930000 0.032546 0.030837 0.138811
0.940000 0.028211 0.026627 0.131096
0.950000 0.024400 0.022908 0.124145
0.960000 0.021093 0.019638 0.118056
0.970000 0.018292 0.016774 0.112959
0.980000 0.016048 0.014275 0.109021
0.990000 0.014491 0.012104 0.106458
1.000000 0.013907 0.010226 0.105552
