0.000000 1.000000 1.000000 0.999990
0.010000 1.000000 1.000000 0.999977
0.020000 1.000000 1.000000 0.999949
0.030000 1.000000 1.000000 0.999915
0.040000 1.000000 1.000000 0.999875
0.050000 1.000000 1.000000 0.999828
0.060000 1.000000 1.000000 0.999773
0.070000 0.999999 0.999999 0.999709
0.080000 0.999999 0.999999 0.999635
0.090000 0.999999 0.999999 0.999549
0.100000 0.999998 0.999998 0.999451
0.110000 0.999997 0.999998 0.999338
0.120000 0.999996 0.999997 0.999210
0.130000 0.999995 0.999996 0.999064
0.140000 0.999993 0.999994 0.998899
0.150000 0.999991 0.999992 0.998713
0.160000 0.999988 0.999990 0.998503
0.170000 0.999985 0.999987 0.998268
0.180000 0.999980 0.999983 0.998004
0.190000 0.999974 0.999977 0.997710
0.200000 0.999967 0.999971 0.997381
0.210000 0.999958 0.999963 0.997016
0.220000 0.999947 0.999953 0.996612
0.230000 0.999933 0.999940 0.996163
0.240000 0.999915 0.999924 0.995668
0.250000 0.999894 0.999905 0.995122
0.260000 0.999867 0.999881 0.994521
0.270000 0.999835 0.999851 0.993861
0.280000 0.999795 0.999815 0.993137
0.290000 0.999747 0.999771 0.992344
0.300000 0.999689 0.999718 0.991479
0.310000 0.999619 0.999653 0.990535
0.320000 0.999534 0.999575 0.989507
0.330000 0.999433 0.999482 0.988389
0.340000 0.999312 0.999370 0.987176
0.350000 0.999169 0.999236 0.985862
0.360000 0.998998 0.999077 0.984441
0.370000 0.998796 0.998889 0.982905
0.380000 0.998559 0.998666 0.981249
0.390000 0.998280 0.998404 0.979466
0.400000 0.997953 0.998096 0.977548
0.410000 0.997572 0.997736 0.975490
0.420000 0.997128 0.997317 0.973283
0.430000 0.996614 0.996828 0.970920
0.440000 0.996019 0.996263 0.968395
0.450000 0.995333 0.995609 0.965698
0.460000 0.994545 0.994856 0.962825
0.470000 0.993642 0.993992 0.959765
0.480000 0.992611 0.993002 0.956513
0.490000 0.991436 0.991873 0.953061
0.500000 0.990102 0.990588 0.949402
0.510000 0.988593 0.989130 0.945527
0.520000 0.986889 0.987481 0.941431
0.530000 0.984971 0.985622 0.937106
0.540000 0.982820 0.983532 0.932546
0.550000 0.980413 0.981189 0.927744
0.560000 0.977728 0.978570 0.922693
0.570000 0.974742 0.975653 0.917389
0.580000 0.971431 0.972412 0.911825
0.590000 0.967769 0.968821 0.905997
0.600000 0.963732 0.964856 0.899899
0.610000 0.959294 0.960489 0.893527
0.620000 0.954428 0.955693 0.886879
0.630000 0.949109 0.950443 0.879949
0.640000 0.943312 0.944712 0.872737
0.650000 0.937011 0.938473 0.865239
0.660000 0.930182 0.931702 0.857455
0.670000 0.922801 0.924374 0.849384
0.680000 0.914848 0.916467 0.841026
0.690000 0.906301 0.907958 0.832381
0.700000 0.897142 0.898828 0.823453
0.710000 0.887354 0.889061 0.814243
0.720000 0.876925 0.878641 0.804755
0.730000 0.865843 0.867557 0.794993
0.740000 0.854101 0.855800 0.784964
0.750000 0.841693 0.843365 0.774675
0.760000 0.828618 0.830249 0.764133
0.770000 0.814880 0.816454 0.753348
0.780000 0.800484 0.801988 0.742332
0.790000 0.785441 0.786860 0.731097
0.800000 0.769765 0.771084 0.719659
0.810000 0.753476 0.754679 0.708035
0.820000 0.736596 0.737669 0.696245
0.830000 0.719152 0.720080 0.684313
0.840000 0.701176 0.701945 0.672265
0.850000 0.682704 0.683298 0.660132
0.860000 0.663775 0.664180 0.647951
0.870000 0.644434 0.644633 0.635765
0.880000 0.624730 0.624704 0.623624
0.890000 0.604721 0.604443 0.611587
0.900000 0.584469 0.583900 0.599724
0.910000 0.564052 0.563132 0.588119
0.920000 0.543563 0.542194 0.576871
0.930000 0.523127 0.521143 0.566100
0.940000 0.502915 0.500039 0.555949
0.950000 0.483180 0.478940 0.546589
0.960000 0.464308 0.457905 0.538228
0.970000 0.446910 0.436992 0.531115
0.980000 0.431969 0.416259 0.525552
0.990000 0.421093 0.395760 0.521902
1.000000 0.416920 0.375551 0.520605
