0.000000 1.000000 1.000000 0.999967
0.010000 1.000000 1.000000 0.999927
0.020000 0.999999 0.999999 0.999839
0.030000 0.999999 0.999999 0.999734
0.040000 0.999998 0.999998 0.999610
0.050000 0.999996 0.999997 0.999463
0.060000 0.999995 0.999995 0.999291
0.070000 0.999992 0.999993 0.999092
0.080000 0.999989 0.999990 0.998862
0.090000 0.999984 0.999986 0.998597
0.100000 0.999978 0.999980 0.998294
0.110000 0.999970 0.999973 0.997948
0.120000 0.999959 0.999964 0.997556
0.130000 0.999946 0.999951 0.997112
0.140000 0.999928 0.999935 0.996611
0.150000 0.999906 0.999915 0.996049
0.160000 0.999877 0.999889 0.995419
0.170000 0.999841 0.999856 0.994715
0.180000 0.999796 0.999815 0.993931
0.190000 0.999739 0.999763 0.993061
0.200000 0.999669 0.999698 0.992096
0.210000 0.999582 0.999617 0.991030
0.220000 0.999474 0.999518 0.989855
0.230000 0.999343 0.999396 0.988563
0.240000 0.999183 0.999247 0.987144
0.250000 0.998989 0.999065 0.985591
0.260000 0.998754 0.998845 0.983895
0.270000 0.998472 0.998580 0.982045
0.280000 0.998134 0.998262 0.980033
0.290000 0.997731 0.997881 0.977849
0.300000 0.997253 0.997428 0.975482
0.310000 0.996687 0.996890 0.972922
0.320000 0.996020 0.996255 0.970159
0.330000 0.995238 0.995508 0.967183
0.340000 0.994324 0.994634 0.963983
0.350000 0.993261 0.993614 0.960549
0.360000 0.992028 0.992428 0.956869
0.370000 0.990604 0.991055 0.952935
0.380000 0.988966 0.989473 0.948735
0.390000 0.987089 0.987655 0.944260
0.400000 0.984946 0.985576 0.939499
0.410000 0.982508 0.983205 0.934444
0.420000 0.979746 0.980513 0.929084
0.430000 0.976628 0.977468 0.923413
0.440000 0.973121 0.974036 0.917421
0.450000 0.969192 0.970183 0.911101
0.460000 0.964804 0.965872 0.904445
0.470000 0.959922 0.961068 0.897448
0.480000 0.954511 0.955733 0.890105
0.490000 0.948535 0.949831 0.882409
0.500000 0.941959 0.943324 0.874358
0.510000 0.934747 0.936178 0.865948
0.520000 0.926868 0.928357 0.857178
0.530000 0.918289 0.919829 0.848046
0.540000 0.908981 0.910564 0.838552
0.550000 0.898919 0.900533 0.828698
0.560000 0.888079 0.889713 0.818486
0.570000 0.876443 0.878083 0.807919
0.580000 0.863994 0.865627 0.797001
0.590000 0.850724 0.852333 0.785739
0.600000 0.836627 0.838196 0.774139
0.610000 0.821704 0.823215 0.762209
0.620000 0.805961 0.807396 0.749959
0.630000 0.789410 0.790751 0.737399
0.640000 0.772070 0.773299 0.724541
0.650000 0.753966 0.755064 0.711397
0.660000 0.735129 0.736079 0.697982
0.670000 0.715597 0.716381 0.684309
0.680000 0.695413 0.696015 0.670396
0.690000 0.674628 0.675033 0.656260
0.700000 0.653296 0.653490 0.641917
0.710000 0.631477 0.631449 0.627388
0.720000 0.609237 0.608977 0.612691
0.730000 0.586644 0.586145 0.597848
0.740000 0.563772 0.563028 0.582879
0.750000 0.540694 0.539702 0.567807
0.760000 0.517487 0.516248 0.552654
0.770000 0.494231 0.492747 0.537444
0.780000 0.471004 0.469279 0.522202
0.790000 0.447884 0.445926 0.506951
0.800000 0.424948 0.422767 0.491719
0.810000 0.402272 0.399880 0.476532
0.820000 0.379927 0.377338 0.461418
0.830000 0.357984 0.355214 0.446407
0.840000 0.336508 0.333574 0.431530
0.850000 0.315559 0.312481 0.416821
0.860000 0.295193 0.291990 0.402318
0.870000 0.275462 0.272154 0.388061
0.880000 0.256410 0.253016 0.374095
0.890000 0.238078 0.234616 0.360474
0.900000 0.220503 0.216985 0.347257
0.910000 0.203716 0.200150 0.334516
0.920000 0.187751 0.184128 0.322335
0.930000 0.172644 0.168934 0.310816
0.940000 0.158445 0.154573 0.300081
0.950000 0.145232 0.141046 0.290281
0.960000 0.133140 0.128348 0.281601
0.970000 0.122407 0.116469 0.274266
0.980000 0.113466 0.105394 0.268560
0.990000 0.107090 0.095104 0.264829
1.000000 0.104668 0.085575 0.263506
