0.000000 1.000000 1.000000 0.996320
0.010000 0.997307 0.997396 0.991795
0.020000 0.993234 0.993434 0.981958
0.030000 0.987403 0.987732 0.970375
0.040000 0.979400 0.979869 0.956942
0.050000 0.968793 0.969401 0.941577
0.060000 0.955147 0.955879 0.924221
0.070000 0.938052 0.938876 0.904838
0.080000 0.917150 0.918015 0.883420
0.090000 0.892160 0.892999 0.859991
0.100000 0.862909 0.863637 0.834605
0.110000 0.829355 0.829876 0.807347
0.120000 0.791602 0.791816 0.778335
0.130000 0.749914 0.749721 0.747715
0.140000 0.704711 0.704022 0.715662
0.150000 0.656561 0.655306 0.682376
0.160000 0.606157 0.604291 0.648080
0.170000 0.554291 0.551798 0.613011
0.180000 0.501813 0.498712 0.577421
0.190000 0.449596 0.445937 0.541569
0.200000 0.398487 0.394351 0.505715
0.210000 0.349274 0.344767 0.470117
0.220000 0.302650 0.297893 0.435023
0.230000 0.259183 0.254307 0.400670
0.240000 0.219305 0.214438 0.367275
0.250000 0.183296 0.178561 0.335038
0.260000 0.151295 0.146797 0.304131
0.270000 0.123300 0.119124 0.274700
0.280000 0.099194 0.095403 0.246866
0.290000 0.078761 0.075392 0.220720
0.300000 0.061711 0.058780 0.196322
0.310000 0.047706 0.045207 0.173710
0.320000 0.036380 0.034293 0.152890
0.330000 0.027364 0.025655 0.133849
0.340000 0.020299 0.018927 0.116550
0.350000 0.014847 0.013768 0.100936
0.360000 0.010707 0.009874 0.086936
0.370000 0.007612 0.006981 0.074466
0.380000 0.005334 0.004866 0.063431
0.390000 0.003684 0.003343 0.053729
0.400000 0.002508 0.002264 0.045256
0.410000 0.001682 0.001511 0.037904
0.420000 0.001111 0.000994 0.031565
0.430000 0.000723 0.000644 0.026137
0.440000 0.000464 0.000412 0.021517
0.450000 0.000293 0.000259 0.017612
0.460000 0.000182 0.000161 0.014332
0.470000 0.000111 0.000098 0.011595
0.480000 0.000067 0.000059 0.009326
0.490000 0.000040 0.000035 0.007457
0.500000 0.000023 0.000021 0.005927
0.510000 0.000013 0.000012 0.004683
0.520000 0.000008 0.000007 0.003679
0.530000 0.000004 0.000004 0.002872
0.540000 0.000002 0.000002 0.002229
0.550000 0.000001 0.000001 0.001720
0.560000 0.000001 0.000001 0.001319
0.570000 0.000000 0.000000 0.001005
0.580000 0.000000 0.000000 0.000761
0.590000 0.000000 0.000000 0.000573
0.600000 0.000000 0.000000 0.000429
0.610000 0.000000 0.000000 0.000319
0.620000 0.000000 0.000000 0.000236
0.630000 0.000000 0.000000 0.000173
0.640000 0.000000 0.000000 0.000127
0.650000 0.000000 0.000000 0.000092
0.660000 0.000000 0.000000 0.000066
0.670000 0.000000 0.000000 0.000047
0.680000 0.000000 0.000000 0.000034
0.690000 0.000000 0.000000 0.000024
0.700000 0.000000 0.000000 0.000017
0.710000 0.000000 0.000000 0.000012
0.720000 0.000000 0.000000 0.000008
0.730000 0.000000 0.000000 0.000006
0.740000 0.000000 0.000000 0.000004
0.750000 0.000000 0.000000 0.000003
0.760000 0.000000 0.000000 0.000002
0.770000 0.000000 0.000000 0.000001
0.780000 0.000000 0.000000 0.000001
0.790000 0.000000 0.000000 0.000001
0.800000 0.000000 0.000000 0.000000
0.810000 0.000000 0.000000 0.000000
0.820000 0.000000 0.000000 0.000000
0.830000 0.000000 0.000000 0.000000
0.840000 0.000000 0.000000 0.000000
0.850000 0.000000 0.000000 0.000000
0.860000 0.000000 0.000000 0.000000
0.870000 0.000000 0.000000 0.000000
0.880000 0.000000 0.000000 0.000000
0.890000 0.000000 0.000000 0.000000
0.900000 0.000000 0.000000 0.000000
0.910000 0.000000 0.000000 0.000000
0.920000 0.000000 0.000000 0.000000
0.930000 0.000000 0.000000 0.000000
0.940000 0.000000 0.000000 0.000000
0.950000 0.000000 0.000000 0.000000
0.960000 0.000000 0.000000 0.000000
0.970000 0.000000 0.000000 0.000000
0.980000 0.000000 0.000000 0.000000
0.990000 0.000000 0.000000 0.000000
1.000000 -0.000000 0.000000 0.000000
