0.000000 1.000000 1.000000 0.999977
0.010000 1.000000 1.000000 0.999949
0.020000 1.000000 1.000000 0.999888
0.030000 0.999999 0.999999 0.999814
0.040000 0.999999 0.999999 0.999726
0.050000 0.999998 0.999999 0.999623
0.060000 0.999997 0.999998 0.999503
0.070000 0.999996 0.999997 0.999363
0.080000 0.999995 0.999995 0.999201
0.090000 0.999992 0.999993 0.999014
0.100000 0.999989 0.999991 0.998800
0.110000 0.999986 0.999987 0.998556
0.120000 0.999980 0.999983 0.998279
0.130000 0.999974 0.999977 0.997965
0.140000 0.999965 0.999969 0.997610
0.150000 0.999954 0.999959 0.997210
0.160000 0.999940 0.999947 0.996762
0.170000 0.999923 0.999931 0.996261
0.180000 0.999900 0.999910 0.995701
0.190000 0.999872 0.999885 0.995078
0.200000 0.999837 0.999853 0.994387
0.210000 0.999793 0.999813 0.993621
0.220000 0.999739 0.999763 0.992775
0.230000 0.999673 0.999702 0.991842
0.240000 0.999592 0.999627 0.990816
0.250000 0.999492 0.999535 0.989690
0.260000 0.999371 0.999423 0.988457
0.270000 0.999225 0.999287 0.987108
0.280000 0.999049 0.999122 0.985637
0.290000 0.998837 0.998924 0.984036
0.300000 0.998584 0.998687 0.982296
0.310000 0.998283 0.998404 0.980408
0.320000 0.997926 0.998067 0.978365
0.330000 0.997503 0.997667 0.976156
0.340000 0.997006 0.997196 0.973774
0.350000 0.996423 0.996641 0.971209
0.360000 0.995741 0.995992 0.968451
0.370000 0.994947 0.995234 0.965492
0.380000 0.994026 0.994352 0.962321
0.390000 0.992962 0.993331 0.958930
0.400000 0.991736 0.992152 0.955310
0.410000 0.990328 0.990795 0.951450
0.420000 0.988719 0.989240 0.947343
0.430000 0.986885 0.987464 0.942978
0.440000 0.984801 0.985442 0.938348
0.450000 0.982443 0.983150 0.933443
0.460000 0.979784 0.980558 0.928256
0.470000 0.976794 0.977640 0.922779
0.480000 0.973445 0.974364 0.917005
0.490000 0.969707 0.970700 0.910927
0.500000 0.965547 0.966616 0.904538
0.510000 0.960934 0.962078 0.897833
0.520000 0.955837 0.957055 0.890807
0.530000 0.950222 0.951512 0.883456
0.540000 0.944057 0.945418 0.875775
0.550000 0.937313 0.938739 0.867762
0.560000 0.929957 0.931443 0.859415
0.570000 0.921962 0.923502 0.850732
0.580000 0.913301 0.914887 0.841713
0.590000 0.903948 0.905570 0.832359
0.600000 0.893882 0.895530 0.822672
0.610000 0.883083 0.884746 0.812653
0.620000 0.871535 0.873201 0.802307
0.630000 0.859228 0.860882 0.791638
0.640000 0.846154 0.847780 0.780652
0.650000 0.832309 0.833893 0.769355
0.660000 0.817695 0.819220 0.757755
0.670000 0.802320 0.803770 0.745861
0.680000 0.786196 0.787553 0.733682
0.690000 0.769341 0.770588 0.721230
0.700000 0.751778 0.752897 0.708517
0.710000 0.733535 0.734511 0.695555
0.720000 0.714648 0.715464 0.682359
0.730000 0.695155 0.695796 0.668943
0.740000 0.675102 0.675554 0.655325
0.750000 0.654537 0.654788 0.641520
0.760000 0.633515 0.633553 0.627548
0.770000 0.612094 0.611910 0.613428
0.780000 0.590335 0.589922 0.599181
0.790000 0.568304 0.567655 0.584829
0.800000 0.546066 0.545180 0.570395
0.810000 0.523692 0.522566 0.555905
0.820000 0.501250 0.499888 0.541386
0.830000 0.478814 0.477217 0.526866
0.840000 0.456452 0.454626 0.512379
0.850000 0.434235 0.432189 0.497960
0.860000 0.412233 0.409974 0.483648
0.870000 0.390512 0.388051 0.469488
0.880000 0.369139 0.366485 0.455531
0.890000 0.348178 0.345339 0.441835
0.900000 0.327692 0.324670 0.428470
0.910000 0.307747 0.304533 0.415515
0.920000 0.288410 0.284976 0.403066
0.930000 0.269764 0.266044 0.391238
0.940000 0.251913 0.247775 0.380168
0.950000 0.235009 0.230202 0.370025
0.960000 0.219287 0.213352 0.361012
0.970000 0.205135 0.197248 0.353376
0.980000 0.193211 0.181905 0.347424
0.990000 0.184643 0.167335 0.343527
1.000000 0.181376 0.153541 0.342144
