0.000000 1.000000 1.000000 0.997675
0.010000 0.998791 0.998841 0.994813
0.020000 0.996952 0.997068 0.988583
0.030000 0.994292 0.994492 0.981217
0.040000 0.990592 0.990891 0.972628
0.050000 0.985604 0.986017 0.962736
0.060000 0.979059 0.979594 0.951466
0.070000 0.970668 0.971329 0.938757
0.080000 0.960138 0.960920 0.924557
0.090000 0.947178 0.948065 0.908831
0.100000 0.931516 0.932482 0.891556
0.110000 0.912913 0.913918 0.872728
0.120000 0.891174 0.892169 0.852361
0.130000 0.866171 0.867093 0.830487
0.140000 0.837847 0.838627 0.807157
0.150000 0.806236 0.806798 0.782443
0.160000 0.771461 0.771730 0.756433
0.170000 0.733747 0.733648 0.729234
0.180000 0.693408 0.692878 0.700970
0.190000 0.650850 0.649836 0.671780
0.200000 0.606553 0.605020 0.641815
0.210000 0.561058 0.558989 0.611237
0.220000 0.514945 0.512347 0.580217
0.230000 0.468813 0.465715 0.548931
0.240000 0.423258 0.419708 0.517555
0.250000 0.378848 0.374914 0.486269
0.260000 0.336106 0.331869 0.455248
0.270000 0.295488 0.291041 0.424659
0.280000 0.257376 0.252817 0.394663
0.290000 0.222064 0.217488 0.365411
0.300000 0.189753 0.185255 0.337038
0.310000 0.160558 0.156219 0.309668
0.320000 0.134504 0.130397 0.283407
0.330000 0.111543 0.107723 0.258346
0.340000 0.091556 0.088064 0.234556
0.350000 0.074374 0.071235 0.212094
0.360000 0.059785 0.057010 0.190998
0.370000 0.047550 0.045135 0.171289
0.380000 0.037415 0.035347 0.152973
0.390000 0.029123 0.027380 0.136040
0.400000 0.022423 0.020976 0.120468
0.410000 0.017075 0.015892 0.106223
0.420000 0.012859 0.011906 0.093258
0.430000 0.009576 0.008821 0.081521
0.440000 0.007052 0.006461 0.070950
0.450000 0.005134 0.004680 0.061478
0.460000 0.003696 0.003351 0.053036
0.470000 0.002630 0.002372 0.045550
0.480000 0.001850 0.001660 0.038945
0.490000 0.001286 0.001148 0.033149
0.500000 0.000884 0.000785 0.028088
0.510000 0.000600 0.000531 0.023692
0.520000 0.000403 0.000355 0.019893
0.530000 0.000267 0.000234 0.016627
0.540000 0.000175 0.000153 0.013833
0.550000 0.000113 0.000099 0.011456
0.560000 0.000072 0.000063 0.009443
0.570000 0.000046 0.000040 0.007748
0.580000 0.000029 0.000025 0.006328
0.590000 0.000018 0.000015 0.005143
0.600000 0.000011 0.000009 0.004161
0.610000 0.000006 0.000006 0.003351
0.620000 0.000004 0.000003 0.002685
0.630000 0.000002 0.000002 0.002142
0.640000 0.000001 0.000001 0.001700
0.650000 0.000001 0.000001 0.001344
0.660000 0.000000 0.000000 0.001056
0.670000 0.000000 0.000000 0.000827
0.680000 0.000000 0.000000 0.000644
0.690000 0.000000 0.000000 0.000499
0.700000 0.000000 0.000000 0.000385
0.710000 0.000000 0.000000 0.000295
0.720000 0.000000 0.000000 0.000226
0.730000 0.000000 0.000000 0.000172
0.740000 0.000000 0.000000 0.000130
0.750000 0.000000 0.000000 0.000098
0.760000 0.000000 0.000000 0.000073
0.770000 0.000000 0.000000 0.000055
0.780000 0.000000 0.000000 0.000040
0.790000 0.000000 0.000000 0.000030
0.800000 0.000000 0.000000 0.000022
0.810000 0.000000 0.000000 0.000016
0.820000 0.000000 0.000000 0.000012
0.830000 0.000000 0.000000 0.000008
0.840000 0.000000 0.000000 0.000006
0.850000 0.000000 0.000000 0.000004
0.860000 0.000000 0.000000 0.000003
0.870000 0.000000 0.000000 0.000002
0.880000 0.000000 0.000000 0.000002
0.890000 0.000000 0.000000 0.000001
0.900000 0.000000 0.000000 0.000001
0.910000 0.000000 0.000000 0.000001
0.920000 0.000000 0.000000 0.000000
0.930000 0.000000 0.000000 0.000000
0.940000 0.000000 0.000000 0.000000
0.950000 0.000000 0.000000 0.000000
0.960000 0.000000 0.000000 0.000000
0.970000 0.000000 0.000000 0.000000
0.980000 0.000000 0.000000 0.000000
0.990000 0.000000 0.000000 0.000000
1.000000 0.000000 0.000000 0.000000
