0.000000 1.000000 1.000000 0.999936
0.010000 0.999999 0.999999 0.999856
0.020000 0.999997 0.999997 0.999682
0.030000 0.999994 0.999995 0.999474
0.040000 0.999991 0.999992 0.999227
0.050000 0.999985 0.999987 0.998938
0.060000 0.999978 0.999980 0.998599
0.070000 0.999967 0.999971 0.998207
0.080000 0.999953 0.999958 0.997755
0.090000 0.999935 0.999941 0.997237
0.100000 0.999910 0.999919 0.996644
0.110000 0.999878 0.999889 0.995971
0.120000 0.999836 0.999851 0.995209
0.130000 0.999783 0.999802 0.994350
0.140000 0.999714 0.999739 0.993385
0.150000 0.999628 0.999659 0.992305
0.160000 0.999518 0.999557 0.991099
0.170000 0.999381 0.999430 0.989758
0.180000 0.999211 0.999271 0.988270
0.190000 0.999000 0.999073 0.986625
0.200000 0.998741 0.998830 0.984811
0.210000 0.998424 0.998532 0.982816
0.220000 0.998039 0.998168 0.980628
0.230000 0.997573 0.997726 0.978235
0.240000 0.997012 0.997193 0.975622
0.250000 0.996339 0.996553 0.972778
0.260000 0.995538 0.995788 0.969690
0.270000 0.994588 0.994879 0.966343
0.280000 0.993467 0.993803 0.962725
0.290000 0.992150 0.992535 0.958823
0.300000 0.990611 0.991050 0.954623
0.310000 0.988819 0.989317 0.950112
0.320000 0.986743 0.987305 0.945278
0.330000 0.984349 0.984979 0.940108
0.340000 0.981601 0.982303 0.934591
0.350000 0.978459 0.979237 0.928716
0.360000 0.974884 0.975740 0.922470
0.370000 0.970833 0.971769 0.915846
0.380000 0.966263 0.967281 0.908833
0.390000 0.961130 0.962229 0.901423
0.400000 0.955388 0.956567 0.893610
0.410000 0.948993 0.950249 0.885386
0.420000 0.941901 0.943230 0.876747
0.430000 0.934068 0.935464 0.867689
0.440000 0.925453 0.926909 0.858209
0.450000 0.916018 0.917524 0.848307
0.460000 0.905727 0.907273 0.837982
0.470000 0.894549 0.896121 0.827237
0.480000 0.882457 0.884040 0.816074
0.490000 0.869429 0.871009 0.804499
0.500000 0.855452 0.857009 0.792518
0.510000 0.840515 0.842031 0.780139
0.520000 0.824619 0.826074 0.767372
0.530000 0.807769 0.809142 0.754228
0.540000 0.789981 0.791251 0.740719
0.550000 0.771278 0.772423 0.726861
0.560000 0.751690 0.752689 0.712669
0.570000 0.731259 0.732091 0.698161
0.580000 0.710032 0.710679 0.683354
0.590000 0.688067 0.688509 0.668270
0.600000 0.665428 0.665649 0.652931
0.610000 0.642187 0.642172 0.637357
0.620000 0.618422 0.618159 0.621574
0.630000 0.594217 0.593697 0.605605
0.640000 0.569660 0.568876 0.589477
0.650000 0.544846 0.543795 0.573214
0.660000 0.519869 0.518550 0.556845
0.670000 0.494828 0.493243 0.540397
0.680000 0.469819 0.467975 0.523897
0.690000 0.444942 0.442847 0.507372
0.700000 0.420291 0.417959 0.490852
0.710000 0.395960 0.393405 0.474363
0.720000 0.372038 0.369278 0.457934
0.730000 0.348610 0.345664 0.441593
0.740000 0.325755 0.322645 0.425365
0.750000 0.303546 0.300295 0.409278
0.760000 0.282047 0.278681 0.393357
0.770000 0.261318 0.257860 0.377629
0.780000 0.241407 0.237884 0.362117
0.790000 0.222357 0.218793 0.346845
0.800000 0.204200 0.200621 0.331838
0.810000 0.186962 0.183392 0.317116
0.820000 0.170659 0.167122 0.302702
0.830000 0.155301 0.151817 0.288619
0.840000 0.140887 0.137477 0.274886
0.850000 0.127413 0.124094 0.261526
0.860000 0.114866 0.111654 0.248561
0.870000 0.103226 0.100136 0.236015
0.880000 0.092471 0.089512 0.223913
0.890000 0.082571 0.079753 0.212285
0.900000 0.073495 0.070823 0.201163
0.910000 0.065207 0.062684 0.190587
0.920000 0.057672 0.055294 0.180606
0.930000 0.050854 0.048612 0.171279
0.940000 0.044721 0.042593 0.162682
0.950000 0.039251 0.037192 0.154908
0.960000 0.034440 0.032365 0.148079
0.970000 0.030317 0.028068 0.142349
0.980000 0.026979 0.024258 0.137913
0.990000 0.024646 0.020893 0.135023
1.000000 0.023768 0.017932 0.133999
