0.000000 1.000000 1.000000 0.999890
0.010000 0.999997 0.999997 0.999755
0.020000 0.999991 0.999992 0.999458
0.030000 0.999983 0.999985 0.999104
0.040000 0.999972 0.999975 0.998685
0.050000 0.999956 0.999960 0.998194
0.060000 0.999934 0.999940 0.997621
0.070000 0.999904 0.999912 0.996958
0.080000 0.999863 0.999875 0.996195
0.090000 0.999809 0.999825 0.995321
0.100000 0.999738 0.999760 0.994327
0.110000 0.999646 0.999675 0.993199
0.120000 0.999528 0.999564 0.991927
0.130000 0.999376 0.999423 0.990497
0.140000 0.999184 0.999244 0.988896
0.150000 0.998943 0.999017 0.987109
0.160000 0.998641 0.998733 0.985123
0.170000 0.998267 0.998379 0.982923
0.180000 0.997806 0.997943 0.980493
0.190000 0.997241 0.997406 0.977817
0.200000 0.996554 0.996752 0.974881
0.210000 0.995723 0.995958 0.971666
0.220000 0.994724 0.995000 0.968158
0.230000 0.993529 0.993853 0.964340
0.240000 0.992108 0.992485 0.960195
0.250000 0.990429 0.990863 0.955708
0.260000 0.988454 0.988951 0.950863
0.270000 0.986144 0.986709 0.945644
0.280000 0.983456 0.984094 0.940036
0.290000 0.980346 0.981061 0.934026
0.300000 0.976764 0.977560 0.927599
0.310000 0.972661 0.973540 0.920743
0.320000 0.967984 0.968948 0.913447
0.330000 0.962680 0.963728 0.905699
0.340000 0.956693 0.957826 0.897491
0.350000 0.949970 0.951184 0.888815
0.360000 0.942457 0.943747 0.879664
0.370000 0.934101 0.935461 0.870033
0.380000 0.924853 0.926273 0.859920
0.390000 0.914665 0.916135 0.849324
0.400000 0.903495 0.905002 0.838244
0.410000 0.891307 0.892836 0.826683
0.420000 0.878071 0.879603 0.814645
0.430000 0.863762 0.865280 0.802139
0.440000 0.848367 0.849849 0.789170
0.450000 0.831879 0.833303 0.775752
0.460000 0.814303 0.815645 0.761896
0.470000 0.795652 0.796888 0.747617
0.480000 0.775952 0.777058 0.732931
0.490000 0.755238 0.756189 0.717859
0.500000 0.733557 0.734331 0.702421
0.510000 0.710967 0.711541 0.686639
0.520000 0.687537 0.687890 0.670538
0.530000 0.663346 0.663459 0.654143
0.540000 0.638479 0.638337 0.637483
0.550000 0.613034 0.612623 0.620586
0.560000 0.587115 0.586424 0.603483
0.570000 0.560829 0.559854 0.586204
0.580000 0.534291 0.533028 0.568781
0.590000 0.507617 0.506069 0.551249
0.600000 0.480928 0.479099 0.533639
0.610000 0.454340 0.452240 0.515986
0.620000 0.427970 0.425612 0.498323
0.630000 0.401934 0.399334 0.480684
0.640000 0.376340 0.373518 0.463104
0.650000 0.351291 0.348270 0.445614
0.660000 0.326885 0.323689 0.428248
0.670000 0.303209 0.299865 0.411038
0.680000 0.280343 0.276879 0.394014
0.690000 0.258355 0.254800 0.377206
0.700000 0.237305 0.233689 0.360643
0.710000 0.217242 0.213593 0.344352
0.720000 0.198202 0.194549 0.328359
0.730000 0.180213 0.176582 0.312688
0.740000 0.163291 0.159709 0.297361
0.750000 0.147441 0.143932 0.282399
0.760000 0.132662 0.129246 0.267820
0.770000 0.118941 0.115638 0.253642
0.780000 0.106257 0.103084 0.239880
0.790000 0.094584 0.091553 0.226547
0.800000 0.083887 0.081011 0.213655
0.810000 0.074128 0.071414 0.201214
0.820000 0.065263 0.062717 0.189231
0.830000 0.057246 0.054871 0.177713
0.840000 0.050026 0.047824 0.166667
0.850000 0.043553 0.041522 0.156096
0.860000 0.037774 0.035912 0.146005
0.870000 0.032639 0.030939 0.136397
0.880000 0.028094 0.026552 0.127277
0.890000 0.024089 0.022698 0.118651
0.900000 0.020576 0.019327 0.110525
0.910000 0.017509 0.016392 0.102911
0.920000 0.014842 0.013848 0.095825
0.930000 0.012535 0.011652 0.089289
0.940000 0.010550 0.009766 0.083336
0.950000 0.008855 0.008152 0.078010
0.960000 0.007424 0.006778 0.073375
0.970000 0.006244 0.005612 0.069516
0.980000 0.005317 0.004629 0.066545
0.990000 0.004684 0.003802 0.064618
1.000000 0.004448 0.003110 0.063937
