0.000000 1.000000 1.000000 0.999512
0.010000 0.999934 0.999938 0.998911
0.020000 0.999831 0.999843 0.997597
0.030000 0.999681 0.999702 0.996032
0.040000 0.999466 0.999500 0.994189
0.050000 0.999167 0.999219 0.992039
0.060000 0.998760 0.998834 0.989550
0.070000 0.998216 0.998317 0.986692
0.080000 0.997500 0.997634 0.983433
0.090000 0.996571 0.996745 0.979740
0.100000 0.995381 0.995603 0.975579
0.110000 0.993875 0.994152 0.970919
0.120000 0.991990 0.992330 0.965726
0.130000 0.989655 0.990068 0.959969
0.140000 0.986793 0.987285 0.953615
0.150000 0.983318 0.983896 0.946636
0.160000 0.979138 0.979809 0.939004
0.170000 0.974154 0.974922 0.930692
0.180000 0.968264 0.969131 0.921678
0.190000 0.961363 0.962327 0.911940
0.200000 0.953343 0.954402 0.901462
0.210000 0.944098 0.945244 0.890229
0.220000 0.933528 0.934750 0.878233
0.230000 0.921535 0.922818 0.865467
0.240000 0.908035 0.909359 0.851930
0.250000 0.892952 0.894294 0.837627
0.260000 0.876229 0.877560 0.822565
0.270000 0.857826 0.859115 0.806759
0.280000 0.837722 0.838935 0.790227
0.290000 0.815921 0.817021 0.772993
0.300000 0.792451 0.793401 0.755085
0.310000 0.767365 0.768127 0.736539
0.320000 0.740745 0.741281 0.717391
0.330000 0.712696 0.712971 0.697686
0.340000 0.683350 0.683333 0.677470
0.350000 0.652862 0.652526 0.656796
0.360000 0.621409 0.620732 0.635719
0.370000 0.589186 0.588152 0.614295
0.380000 0.556402 0.555004 0.592587
0.390000 0.523278 0.521515 0.570657
0.400000 0.490038 0.487917 0.548570
0.410000 0.456911 0.454448 0.526391
0.420000 0.424122 0.421339 0.504187
0.430000 0.391888 0.388814 0.482023
0.440000 0.360414 0.357083 0.459964
0.450000 0.329890 0.326343 0.438076
0.460000 0.300487 0.296767 0.416419
0.470000 0.272355 0.268508 0.395055
0.480000 0.245619 0.241692 0.374041
0.490000 0.220381 0.216421 0.353431
0.500000 0.196716 0.192768 0.333276
0.510000 0.174674 0.170782 0.313622
0.520000 0.154282 0.150484 0.294513
0.530000 0.135541 0.131872 0.275985
0.540000 0.118433 0.114924 0.258075
0.550000 0.102919 0.099594 0.240809
0.560000 0.088945 0.085823 0.224212
0.570000 0.076440 0.073536 0.208304
0.580000 0.065325 0.062647 0.193100
0.590000 0.055511 0.053062 0.178609
0.600000 0.046902 0.044684 0.164837
0.610000 0.039402 0.037408 0.151785
0.620000 0.032909 0.031133 0.139451
0.630000 0.027327 0.025757 0.127827
0.640000 0.022560 0.021183 0.116904
0.650000 0.018514 0.017317 0.106669
0.660000 0.015105 0.014072 0.097104
0.670000 0.012250 0.011366 0.088191
0.680000 0.009875 0.009124 0.079909
0.690000 0.007913 0.007281 0.072234
0.700000 0.006303 0.005774 0.065143
0.710000 0.004990 0.004551 0.058608
0.720000 0.003927 0.003565 0.052603
0.730000 0.003071 0.002776 0.047100
0.740000 0.002387 0.002148 0.042072
0.750000 0.001844 0.001652 0.037490
0.760000 0.001416 0.001262 0.033326
0.770000 0.001080 0.000959 0.029552
0.780000 0.000819 0.000723 0.026142
0.790000 0.000617 0.000543 0.023069
0.800000 0.000462 0.000404 0.020308
0.810000 0.000344 0.000299 0.017832
0.820000 0.000254 0.000220 0.015620
0.830000 0.000187 0.000161 0.013649
0.840000 0.000136 0.000117 0.011897
0.850000 0.000099 0.000085 0.010344
0.860000 0.000071 0.000061 0.008972
0.870000 0.000051 0.000043 0.007763
0.880000 0.000036 0.000031 0.006701
0.890000 0.000026 0.000022 0.005770
0.900000 0.000018 0.000015 0.004958
0.910000 0.000013 0.000010 0.004252
0.920000 0.000009 0.000007 0.003641
0.930000 0.000006 0.000005 0.003116
0.940000 0.000004 0.000003 0.002668
0.950000 0.000003 0.000002 0.002290
0.960000 0.000002 0.000002 0.001979
0.970000 0.000001 0.000001 0.001731
0.980000 0.000001 0.000001 0.001547
0.990000 0.000001 0.000000 0.001430
1.000000 0.000001 0.000000 0.001389
