0.000000 1.000000 1.000000 0.998944
0.010000 0.999712 0.999729 0.997642
0.020000 0.999271 0.999311 0.994803
0.030000 0.998626 0.998696 0.991432
0.040000 0.997715 0.997825 0.987476
0.050000 0.996463 0.996622 0.982883
0.060000 0.994782 0.995002 0.977600
0.070000 0.992570 0.992861 0.971575
0.080000 0.989711 0.990085 0.964758
0.090000 0.986075 0.986541 0.957100
0.100000 0.981520 0.982087 0.948557
0.110000 0.975891 0.976565 0.939086
0.120000 0.969028 0.969812 0.928652
0.130000 0.960765 0.961655 0.917223
0.140000 0.950933 0.951924 0.904774
0.150000 0.939370 0.940449 0.891286
0.160000 0.925923 0.927071 0.876749
0.170000 0.910457 0.911646 0.861161
0.180000 0.892855 0.894054 0.844526
0.190000 0.873031 0.874201 0.826860
0.200000 0.850933 0.852029 0.808186
0.210000 0.826548 0.827521 0.788539
0.220000 0.799904 0.800703 0.767959
0.230000 0.771076 0.771651 0.746499
0.240000 0.740186 0.740486 0.724218
0.250000 0.707404 0.707382 0.701184
0.260000 0.672942 0.672558 0.677473
0.270000 0.637054 0.636275 0.653168
0.280000 0.600029 0.598832 0.628358
0.290000 0.562184 0.560557 0.603135
0.300000 0.523856 0.521799 0.577598
0.310000 0.485394 0.482918 0.551847
0.320000 0.447147 0.444279 0.525985
0.330000 0.409459 0.406233 0.500114
0.340000 0.372655 0.369117 0.474337
0.350000 0.337038 0.333242 0.448755
0.360000 0.302877 0.298884 0.423464
0.370000 0.270405 0.266277 0.398560
0.380000 0.239813 0.235615 0.374131
0.390000 0.211247 0.207043 0.350260
0.400000 0.184808 0.180660 0.327024
0.410000 0.160555 0.156517 0.304492
0.420000 0.138502 0.134624 0.282727
0.430000 0.118627 0.114949 0.261782
0.440000 0.100871 0.097427 0.241702
0.450000 0.085148 0.081961 0.222524
0.460000 0.071346 0.068433 0.204277
0.470000 0.059338 0.056704 0.186980
0.480000 0.048981 0.046627 0.170645
0.490000 0.040126 0.038047 0.155276
0.500000 0.032621 0.030804 0.140870
0.510000 0.026317 0.024747 0.127417
0.520000 0.021067 0.019724 0.114900
0.530000 0.016734 0.015597 0.103298
0.540000 0.013188 0.012236 0.092583
0.550000 0.010311 0.009523 0.082724
0.560000 0.007998 0.007352 0.073685
0.570000 0.006155 0.005631 0.065430
0.580000 0.004699 0.004278 0.057918
0.590000 0.003558 0.003223 0.051107
0.600000 0.002672 0.002409 0.044955
0.610000 0.001991 0.001786 0.039418
0.620000 0.001471 0.001313 0.034452
0.630000 0.001078 0.000958 0.030016
0.640000 0.000784 0.000693 0.026067
0.650000 0.000565 0.000497 0.022564
0.660000 0.000404 0.000354 0.019469
0.670000 0.000286 0.000250 0.016744
0.680000 0.000201 0.000175 0.014353
0.690000 0.000140 0.000121 0.012264
0.700000 0.000097 0.000083 0.010444
0.710000 0.000067 0.000057 0.008865
0.720000 0.000045 0.000039 0.007500
0.730000 0.000030 0.000026 0.006324
0.740000 0.000020 0.000017 0.005315
0.750000 0.000013 0.000011 0.004452
0.760000 0.000009 0.000007 0.003716
0.770000 0.000006 0.000005 0.003092
0.780000 0.000004 0.000003 0.002564
0.790000 0.000002 0.000002 0.002119
0.800000 0.000002 0.000001 0.001746
0.810000 0.000001 0.000001 0.001433
0.820000 0.000001 0.000000 0.001172
0.830000 0.000000 0.000000 0.000956
0.840000 0.000000 0.000000 0.000777
0.850000 0.000000 0.000000 0.000629
0.860000 0.000000 0.000000 0.000508
0.870000 0.000000 0.000000 0.000408
0.880000 0.000000 0.000000 0.000327
0.890000 0.000000 0.000000 0.000261
0.900000 0.000000 0.000000 0.000208
0.910000 0.000000 0.000000 0.000165
0.920000 0.000000 0.000000 0.000131
0.930000 0.000000 0.000000 0.000103
0.940000 0.000000 0.000000 0.000081
0.950000 0.000000 0.000000 0.000064
0.960000 0.000000 0.000000 0.000051
0.970000 0.000000 0.000000 0.000041
0.980000 0.000000 0.000000 0.000034
0.990000 0.000000 0.000000 0.000029
1.000000 0.000000 0.000000 0.000028
