0.000000 1.000000 1.000000 0.998217
0.010000 0.999248 0.999283 0.996022
0.020000 0.998101 0.998184 0.991238
0.030000 0.996435 0.996579 0.985573
0.040000 0.994103 0.994323 0.978951
0.050000 0.990936 0.991246 0.971299
0.060000 0.986743 0.987154 0.962550
0.070000 0.981311 0.981835 0.952639
0.080000 0.974415 0.975058 0.941512
0.090000 0.965817 0.966579 0.929118
0.100000 0.955278 0.956151 0.915421
0.110000 0.942563 0.943532 0.900393
0.120000 0.927453 0.928493 0.884018
0.130000 0.909756 0.910832 0.866295
0.140000 0.889315 0.890384 0.847234
0.150000 0.866025 0.867033 0.826861
0.160000 0.839835 0.840722 0.805218
0.170000 0.810761 0.811463 0.782360
0.180000 0.778890 0.779340 0.758355
0.190000 0.744383 0.744517 0.733289
0.200000 0.707478 0.707236 0.707257
0.210000 0.668478 0.667811 0.680369
0.220000 0.627754 0.626622 0.652745
0.230000 0.585726 0.584106 0.624512
0.240000 0.542856 0.540742 0.595806
0.250000 0.499630 0.497032 0.566770
0.260000 0.456543 0.453490 0.537549
0.270000 0.414081 0.410618 0.508288
0.280000 0.372707 0.368894 0.479133
0.290000 0.332845 0.328754 0.450227
0.300000 0.294869 0.290579 0.421709
0.310000 0.259091 0.254685 0.393710
0.320000 0.225758 0.221321 0.366353
0.330000 0.195045 0.190657 0.339752
0.340000 0.167059 0.162794 0.314011
0.350000 0.141836 0.137759 0.289219
0.360000 0.119353 0.115517 0.265456
0.370000 0.099532 0.095978 0.242785
0.380000 0.082248 0.079005 0.221258
0.390000 0.067341 0.064424 0.200914
0.400000 0.054623 0.052038 0.181777
0.410000 0.043892 0.041633 0.163859
0.420000 0.034936 0.032988 0.147161
0.430000 0.027542 0.025886 0.131671
0.440000 0.021504 0.020115 0.117369
0.450000 0.016627 0.015478 0.104224
0.460000 0.012731 0.011792 0.092199
0.470000 0.009652 0.008896 0.081248
0.480000 0.007245 0.006644 0.071321
0.490000 0.005385 0.004912 0.062364
0.500000 0.003962 0.003596 0.054320
0.510000 0.002886 0.002606 0.047127
0.520000 0.002080 0.001869 0.040725
0.530000 0.001485 0.001327 0.035053
0.540000 0.001049 0.000933 0.030051
0.550000 0.000733 0.000649 0.025660
0.560000 0.000507 0.000447 0.021823
0.570000 0.000347 0.000304 0.018484
0.580000 0.000235 0.000205 0.015593
0.590000 0.000158 0.000137 0.013100
0.600000 0.000105 0.000091 0.010962
0.610000 0.000069 0.000059 0.009134
0.620000 0.000045 0.000038 0.007580
0.630000 0.000029 0.000025 0.006265
0.640000 0.000018 0.000016 0.005156
0.650000 0.000011 0.000010 0.004226
0.660000 0.000007 0.000006 0.003450
0.670000 0.000004 0.000004 0.002804
0.680000 0.000003 0.000002 0.002270
0.690000 0.000002 0.000001 0.001829
0.700000 0.000001 0.000001 0.001468
0.710000 0.000001 0.000000 0.001174
0.720000 0.000000 0.000000 0.000934
0.730000 0.000000 0.000000 0.000740
0.740000 0.000000 0.000000 0.000584
0.750000 0.000000 0.000000 0.000459
0.760000 0.000000 0.000000 0.000359
0.770000 0.000000 0.000000 0.000280
0.780000 0.000000 0.000000 0.000217
0.790000 0.000000 0.000000 0.000168
0.800000 0.000000 0.000000 0.000129
0.810000 0.000000 0.000000 0.000099
0.820000 0.000000 0.000000 0.000075
0.830000 0.000000 0.000000 0.000057
0.840000 0.000000 0.000000 0.000043
0.850000 0.000000 0.000000 0.000033
0.860000 0.000000 0.000000 0.000024
0.870000 0.000000 0.000000 0.000018
0.880000 0.000000 0.000000 0.000014
0.890000 0.000000 0.000000 0.000010
0.900000 0.000000 0.000000 0.000007
0.910000 0.000000 0.000000 0.000005
0.920000 0.000000 0.000000 0.000004
0.930000 0.000000 0.000000 0.000003
0.940000 0.000000 0.000000 0.000002
0.950000 0.000000 0.000000 0.000002
0.960000 0.000000 0.000000 0.000001
0.970000 0.000000 0.000000 0.000001
0.980000 0.000000 0.000000 0.000001
0.990000 0.000000 0.000000 0.000000
1.000000 0.000000 0.000000 0.000000
