0.000000 1.000000 1.000000 0.999877
0.010000 0.999996 0.999996 0.999725
0.020000 0.999989 0.999990 0.999392
0.030000 0.999979 0.999981 0.998995
0.040000 0.999965 0.999968 0.998524
0.050000 0.999944 0.999949 0.997973
0.060000 0.999916 0.999924 0.997330
0.070000 0.999878 0.999889 0.996587
0.080000 0.999827 0.999842 0.995732
0.090000 0.999759 0.999779 0.994754
0.100000 0.999671 0.999697 0.993641
0.110000 0.999555 0.999590 0.992381
0.120000 0.999407 0.999451 0.990959
0.130000 0.999218 0.999274 0.989362
0.140000 0.998978 0.999050 0.987576
0.150000 0.998678 0.998767 0.985584
0.160000 0.998303 0.998413 0.983373
0.170000 0.997840 0.997974 0.980925
0.180000 0.997270 0.997432 0.978224
0.190000 0.996574 0.996769 0.975254
0.200000 0.995729 0.995962 0.971997
0.210000 0.994709 0.994985 0.968437
0.220000 0.993487 0.993811 0.964555
0.230000 0.992030 0.992407 0.960337
0.240000 0.990303 0.990739 0.955763
0.250000 0.988268 0.988768 0.950819
0.260000 0.985882 0.986452 0.945487
0.270000 0.983102 0.983745 0.939753
0.280000 0.979879 0.980600 0.933601
0.290000 0.976161 0.976965 0.927018
0.300000 0.971897 0.972786 0.919989
0.310000 0.967031 0.968005 0.912504
0.320000 0.961507 0.962567 0.904552
0.330000 0.955267 0.956412 0.896122
0.340000 0.948256 0.949480 0.887208
0.350000 0.940415 0.941715 0.877803
0.360000 0.931692 0.933060 0.867902
0.370000 0.922035 0.923462 0.857502
0.380000 0.911397 0.912869 0.846604
0.390000 0.899735 0.901239 0.835207
0.400000 0.887012 0.888532 0.823316
0.410000 0.873200 0.874717 0.810935
0.420000 0.858277 0.859770 0.798072
0.430000 0.842231 0.843679 0.784737
0.440000 0.825059 0.826438 0.770943
0.450000 0.806771 0.808056 0.756702
0.460000 0.787385 0.788552 0.742033
0.470000 0.766932 0.767956 0.726952
0.480000 0.745456 0.746311 0.711481
0.490000 0.723010 0.723673 0.695643
0.500000 0.699661 0.700110 0.679462
0.510000 0.675484 0.675698 0.662964
0.520000 0.650568 0.650529 0.646177
0.530000 0.625007 0.624701 0.629132
0.540000 0.598907 0.598322 0.611859
0.550000 0.572380 0.571507 0.594390
0.560000 0.545541 0.544377 0.576758
0.570000 0.518513 0.517058 0.558997
0.580000 0.491418 0.489675 0.541143
0.590000 0.464381 0.462359 0.523229
0.600000 0.437525 0.435235 0.505293
0.610000 0.410970 0.408428 0.487368
0.620000 0.384832 0.382058 0.469491
0.630000 0.359221 0.356238 0.451695
0.640000 0.334242 0.331073 0.434017
0.650000 0.309988 0.306661 0.416488
0.660000 0.286545 0.283090 0.399142
0.670000 0.263989 0.260434 0.382010
0.680000 0.242385 0.238760 0.365123
0.690000 0.221784 0.218121 0.348508
0.700000 0.202230 0.198557 0.332195
0.710000 0.183753 0.180099 0.316207
0.720000 0.166372 0.162763 0.300569
0.730000 0.150095 0.146556 0.285303
0.740000 0.134922 0.131475 0.270428
0.750000 0.120840 0.117506 0.255963
0.760000 0.107829 0.104626 0.241924
0.770000 0.095863 0.092804 0.228323
0.780000 0.084907 0.082004 0.215174
0.790000 0.074920 0.072182 0.202485
0.800000 0.065857 0.063291 0.190265
0.810000 0.057670 0.055278 0.178521
0.820000 0.050307 0.048091 0.167255
0.830000 0.043715 0.041674 0.156472
0.840000 0.037839 0.035970 0.146173
0.850000 0.032626 0.030923 0.136358
0.860000 0.028020 0.026478 0.127027
0.870000 0.023970 0.022581 0.118180
0.880000 0.020424 0.019179 0.109817
0.890000 0.017334 0.016224 0.101937
0.900000 0.014653 0.013669 0.094544
0.910000 0.012337 0.011469 0.087643
0.920000 0.010346 0.009584 0.081244
0.930000 0.008643 0.007976 0.075362
0.940000 0.007194 0.006610 0.070021
0.950000 0.005971 0.005456 0.065257
0.960000 0.004949 0.004484 0.061121
0.970000 0.004114 0.003670 0.057683
0.980000 0.003464 0.002992 0.055042
0.990000 0.003022 0.002428 0.053330
1.000000 0.002858 0.001963 0.052725
