0.000000 1.000000 1.000000 0.999919
0.010000 0.999998 0.999998 0.999820
0.020000 0.999995 0.999996 0.999602
0.030000 0.999991 0.999992 0.999341
0.040000 0.999985 0.999987 0.999033
0.050000 0.999976 0.999979 0.998670
0.060000 0.999964 0.999968 0.998248
0.070000 0.999948 0.999953 0.997758
0.080000 0.999926 0.999933 0.997194
0.090000 0.999897 0.999907 0.996547
0.100000 0.999859 0.999871 0.995809
0.110000 0.999808 0.999825 0.994972
0.120000 0.999743 0.999765 0.994025
0.130000 0.999660 0.999688 0.992959
0.140000 0.999554 0.999589 0.991762
0.150000 0.999419 0.999464 0.990425
0.160000 0.999251 0.999307 0.988935
0.170000 0.999040 0.999110 0.987280
0.180000 0.998780 0.998865 0.985447
0.190000 0.998459 0.998563 0.983424
0.200000 0.998066 0.998191 0.981198
0.210000 0.997587 0.997738 0.978754
0.220000 0.997007 0.997187 0.976078
0.230000 0.996309 0.996522 0.973157
0.240000 0.995473 0.995723 0.969976
0.250000 0.994477 0.994769 0.966521
0.260000 0.993296 0.993634 0.962777
0.270000 0.991903 0.992293 0.958730
0.280000 0.990269 0.990715 0.954365
0.290000 0.988360 0.988868 0.949669
0.300000 0.986142 0.986716 0.944628
0.310000 0.983577 0.984222 0.939229
0.320000 0.980625 0.981344 0.933458
0.330000 0.977242 0.978039 0.927305
0.340000 0.973385 0.974263 0.920757
0.350000 0.969007 0.969967 0.913804
0.360000 0.964061 0.965104 0.906436
0.370000 0.958498 0.959624 0.898646
0.380000 0.952270 0.953475 0.890425
0.390000 0.945328 0.946610 0.881768
0.400000 0.937624 0.938977 0.872669
0.410000 0.929114 0.930531 0.863126
0.420000 0.919754 0.921225 0.853136
0.430000 0.909504 0.911020 0.842700
0.440000 0.898330 0.899875 0.831818
0.450000 0.886199 0.887761 0.820494
0.460000 0.873088 0.874649 0.808732
0.470000 0.858978 0.860520 0.796539
0.480000 0.843859 0.845362 0.783922
0.490000 0.827727 0.829170 0.770893
0.500000 0.810588 0.811949 0.757463
0.510000 0.792456 0.793714 0.743646
0.520000 0.773356 0.774487 0.729456
0.530000 0.753320 0.754302 0.714912
0.540000 0.732392 0.733203 0.700031
0.550000 0.710623 0.711242 0.684834
0.560000 0.688075 0.688483 0.669343
0.570000 0.664816 0.664996 0.653581
0.580000 0.640926 0.640862 0.637572
0.590000 0.616490 0.616169 0.621343
0.600000 0.591597 0.591011 0.604919
0.610000 0.566346 0.565488 0.588329
0.620000 0.540838 0.539704 0.571601
0.630000 0.515175 0.513766 0.554764
0.640000 0.489465 0.487784 0.537848
0.650000 0.463812 0.461867 0.520882
0.660000 0.438323 0.436124 0.503898
0.670000 0.413100 0.410661 0.486924
0.680000 0.388243 0.385581 0.469992
0.690000 0.363848 0.360981 0.453130
0.700000 0.340002 0.336954 0.436369
0.710000 0.316791 0.313584 0.419737
0.720000 0.294288 0.290949 0.403263
0.730000 0.272563 0.269116 0.386973
0.740000 0.251672 0.248145 0.370894
0.750000 0.231666 0.228087 0.355051
0.760000 0.212586 0.208980 0.339469
0.770000 0.194463 0.190857 0.324171
0.780000 0.177319 0.173737 0.309178
0.790000 0.161166 0.157632 0.294511
0.800000 0.146010 0.142545 0.280189
0.810000 0.131846 0.128471 0.266231
0.820000 0.118663 0.115395 0.252654
0.830000 0.106443 0.103297 0.239472
0.840000 0.095162 0.092151 0.226703
0.850000 0.084789 0.081924 0.214361
0.860000 0.075291 0.072578 0.202461
0.870000 0.066628 0.064074 0.191018
0.880000 0.058759 0.056368 0.180049
0.890000 0.051640 0.049413 0.169574
0.900000 0.045227 0.043162 0.159615
0.910000 0.039474 0.037567 0.150198
0.920000 0.034335 0.032580 0.141359
0.930000 0.029767 0.028154 0.133141
0.940000 0.025729 0.024240 0.125600
0.950000 0.022190 0.020795 0.118810
0.960000 0.019125 0.017774 0.112866
0.970000 0.016538 0.015136 0.107893
0.980000 0.014468 0.012842 0.104052
0.990000 0.013034 0.010856 0.101553
1.000000 0.012496 0.009143 0.100669
