0.000000 1.000000 1.000000 0.999112
0.010000 0.999792 0.999804 0.998017
0.020000 0.999472 0.999503 0.995627
0.030000 0.999004 0.999059 0.992788
0.040000 0.998341 0.998427 0.989453
0.050000 0.997427 0.997553 0.985576
0.060000 0.996196 0.996370 0.981109
0.070000 0.994568 0.994802 0.976005
0.080000 0.992455 0.992757 0.970219
0.090000 0.989753 0.990135 0.963704
0.100000 0.986348 0.986818 0.956418
0.110000 0.982114 0.982681 0.948319
0.120000 0.976915 0.977586 0.939369
0.130000 0.970610 0.971387 0.929535
0.140000 0.963048 0.963932 0.918786
0.150000 0.954081 0.955065 0.907098
0.160000 0.943559 0.944635 0.894452
0.170000 0.931342 0.932493 0.880837
0.180000 0.917299 0.918505 0.866246
0.190000 0.901318 0.902551 0.850681
0.200000 0.883306 0.884533 0.834150
0.210000 0.863201 0.864383 0.816672
0.220000 0.840968 0.842063 0.798271
0.230000 0.816610 0.817571 0.778979
0.240000 0.790168 0.790948 0.758838
0.250000 0.761724 0.762274 0.737897
0.260000 0.731398 0.731673 0.716210
0.270000 0.699354 0.699312 0.693842
0.280000 0.665791 0.665396 0.670862
0.290000 0.630945 0.630167 0.647345
0.300000 0.595081 0.593899 0.623371
0.310000 0.558486 0.556891 0.599025
0.320000 0.521465 0.519457 0.574395
0.330000 0.484333 0.481924 0.549571
0.340000 0.447406 0.444618 0.524647
0.350000 0.410993 0.407859 0.499713
0.360000 0.375388 0.371949 0.474863
0.370000 0.340867 0.337172 0.450186
0.380000 0.307675 0.303779 0.425772
0.390000 0.276027 0.271988 0.401704
0.400000 0.246103 0.241981 0.378065
0.410000 0.218043 0.213898 0.354930
0.420000 0.191950 0.187838 0.332369
0.430000 0.167884 0.163860 0.310447
0.440000 0.145872 0.141983 0.289221
0.450000 0.125905 0.122191 0.268743
0.460000 0.107941 0.104436 0.249056
0.470000 0.091912 0.088642 0.230196
0.480000 0.077726 0.074710 0.212192
0.490000 0.065275 0.062523 0.195066
0.500000 0.054436 0.051952 0.178832
0.510000 0.045077 0.042858 0.163496
0.520000 0.037063 0.035101 0.149061
0.530000 0.030256 0.028540 0.135520
0.540000 0.024521 0.023035 0.122862
0.550000 0.019730 0.018455 0.111070
0.560000 0.015759 0.014677 0.100124
0.570000 0.012495 0.011586 0.089998
0.580000 0.009834 0.009077 0.080662
0.590000 0.007682 0.007059 0.072085
0.600000 0.005957 0.005448 0.064232
0.610000 0.004585 0.004173 0.057067
0.620000 0.003502 0.003172 0.050552
0.630000 0.002654 0.002393 0.044648
0.640000 0.001997 0.001791 0.039317
0.650000 0.001491 0.001331 0.034518
0.660000 0.001105 0.000981 0.030215
0.670000 0.000812 0.000718 0.026369
0.680000 0.000592 0.000521 0.022943
0.690000 0.000429 0.000375 0.019901
0.700000 0.000308 0.000268 0.017210
0.710000 0.000219 0.000190 0.014838
0.720000 0.000155 0.000134 0.012754
0.730000 0.000109 0.000094 0.010929
0.740000 0.000076 0.000065 0.009336
0.750000 0.000052 0.000045 0.007950
0.760000 0.000036 0.000030 0.006750
0.770000 0.000024 0.000021 0.005713
0.780000 0.000016 0.000014 0.004820
0.790000 0.000011 0.000009 0.004054
0.800000 0.000007 0.000006 0.003399
0.810000 0.000005 0.000004 0.002841
0.820000 0.000003 0.000003 0.002367
0.830000 0.000002 0.000002 0.001966
0.840000 0.000001 0.000001 0.001628
0.850000 0.000001 0.000001 0.001344
0.860000 0.000001 0.000000 0.001105
0.870000 0.000000 0.000000 0.000907
0.880000 0.000000 0.000000 0.000741
0.890000 0.000000 0.000000 0.000604
0.900000 0.000000 0.000000 0.000491
0.910000 0.000000 0.000000 0.000398
0.920000 0.000000 0.000000 0.000321
0.930000 0.000000 0.000000 0.000259
0.940000 0.000000 0.000000 0.000209
0.950000 0.000000 0.000000 0.000168
0.960000 0.000000 0.000000 0.000137
0.970000 0.000000 0.000000 0.000112
0.980000 0.000000 0.000000 0.000095
0.990000 0.000000 0.000000 0.000084
1.000000 0.000000 0.000000 0.000080
