0.000000 1.000000 1.000000 0.999897
0.010000 0.999997 0.999997 0.999771
0.020000 0.999992 0.999993 0.999494
0.030000 0.999986 0.999987 0.999164
0.040000 0.999976 0.999978 0.998772
0.050000 0.999962 0.999965 0.998313
0.060000 0.999942 0.999948 0.997777
0.070000 0.999916 0.999924 0.997157
0.080000 0.999881 0.999891 0.996444
0.090000 0.999833 0.999848 0.995627
0.100000 0.999772 0.999791 0.994696
0.110000 0.999691 0.999716 0.993641
0.120000 0.999587 0.999620 0.992450
0.130000 0.999455 0.999497 0.991110
0.140000 0.999286 0.999339 0.989609
0.150000 0.999074 0.999140 0.987934
0.160000 0.998809 0.998891 0.986070
0.170000 0.998479 0.998581 0.984004
0.180000 0.998073 0.998196 0.981722
0.190000 0.997574 0.997724 0.979207
0.200000 0.996967 0.997146 0.976445
0.210000 0.996231 0.996444 0.973419
0.220000 0.995344 0.995596 0.970115
0.230000 0.994283 0.994578 0.966516
0.240000 0.993018 0.993363 0.962607
0.250000 0.991521 0.991919 0.958372
0.260000 0.989756 0.990214 0.953794
0.270000 0.987689 0.988211 0.948860
0.280000 0.985278 0.985870 0.943553
0.290000 0.982483 0.983148 0.937860
0.300000 0.979257 0.980000 0.931767
0.310000 0.975553 0.976377 0.925262
0.320000 0.971322 0.972229 0.918331
0.330000 0.966512 0.967504 0.910965
0.340000 0.961070 0.962146 0.903153
0.350000 0.954944 0.956103 0.894886
0.360000 0.948079 0.949318 0.886158
0.370000 0.940425 0.941738 0.876962
0.380000 0.931931 0.933311 0.867295
0.390000 0.922548 0.923986 0.857153
0.400000 0.912232 0.913717 0.846536
0.410000 0.900943 0.902462 0.835445
0.420000 0.888646 0.890184 0.823882
0.430000 0.875314 0.876852 0.811853
0.440000 0.860924 0.862444 0.799364
0.450000 0.845465 0.846946 0.786423
0.460000 0.828932 0.830352 0.773043
0.470000 0.811331 0.812666 0.759235
0.480000 0.792676 0.793903 0.745015
0.490000 0.772995 0.774090 0.730398
0.500000 0.752323 0.753262 0.715404
0.510000 0.730708 0.731468 0.700054
0.520000 0.708207 0.708766 0.684369
0.530000 0.684888 0.685227 0.668374
0.540000 0.660830 0.660929 0.652094
0.550000 0.636117 0.635962 0.635555
0.560000 0.610845 0.610423 0.618787
0.570000 0.585114 0.584415 0.601819
0.580000 0.559032 0.558050 0.584681
0.590000 0.532709 0.531442 0.567405
0.600000 0.506259 0.504710 0.550022
0.610000 0.479799 0.477972 0.532565
0.620000 0.453443 0.451348 0.515068
0.630000 0.427306 0.424956 0.497562
0.640000 0.401499 0.398909 0.480081
0.650000 0.376128 0.373318 0.462658
0.660000 0.351294 0.348286 0.445325
0.670000 0.327092 0.323910 0.428113
0.680000 0.303606 0.300277 0.411054
0.690000 0.280915 0.277466 0.394178
0.700000 0.259086 0.255546 0.377514
0.710000 0.238177 0.234574 0.361090
0.720000 0.218236 0.214599 0.344932
0.730000 0.199300 0.195656 0.329066
0.740000 0.181395 0.177772 0.313516
0.750000 0.164539 0.160962 0.298302
0.760000 0.148738 0.145230 0.283446
0.770000 0.133989 0.130571 0.268966
0.780000 0.120282 0.116974 0.254879
0.790000 0.107597 0.104415 0.241201
0.800000 0.095909 0.092867 0.227944
0.810000 0.085186 0.082295 0.215121
0.820000 0.075389 0.072658 0.202742
0.830000 0.066478 0.063913 0.190816
0.840000 0.058407 0.056010 0.179351
0.850000 0.051128 0.048902 0.168354
0.860000 0.044591 0.042535 0.157831
0.870000 0.038746 0.036856 0.147789
0.880000 0.033542 0.031815 0.138234
0.890000 0.028928 0.027358 0.129176
0.900000 0.024856 0.023436 0.120625
0.910000 0.021277 0.019998 0.112595
0.920000 0.018145 0.016999 0.105107
0.930000 0.015419 0.014393 0.098187
0.940000 0.013059 0.012140 0.091873
0.950000 0.011031 0.010199 0.086216
0.960000 0.009309 0.008535 0.081286
0.970000 0.007880 0.007114 0.077175
0.980000 0.006754 0.005906 0.074009
0.990000 0.005982 0.004884 0.071953
1.000000 0.005694 0.004023 0.071227
