0.000000 1.000000 1.000000 0.999972
0.010000 1.000000 1.000000 0.999938
0.020000 0.999999 1.000000 0.999864
0.030000 0.999999 0.999999 0.999775
0.040000 0.999998 0.999999 0.999669
0.050000 0.999997 0.999998 0.999544
0.060000 0.999996 0.999997 0.999399
0.070000 0.999994 0.999995 0.999230
0.080000 0.999992 0.999993 0.999034
0.090000 0.999989 0.999990 0.998809
0.100000 0.999984 0.999986 0.998551
0.110000 0.999979 0.999981 0.998257
0.120000 0.999971 0.999974 0.997923
0.130000 0.999961 0.999965 0.997545
0.140000 0.999949 0.999954 0.997118
0.150000 0.999933 0.999940 0.996638
0.160000 0.999912 0.999921 0.996100
0.170000 0.999886 0.999897 0.995499
0.180000 0.999853 0.999867 0.994828
0.190000 0.999812 0.999830 0.994083
0.200000 0.999761 0.999783 0.993256
0.210000 0.999698 0.999725 0.992341
0.220000 0.999620 0.999653 0.991332
0.230000 0.999524 0.999564 0.990220
0.240000 0.999407 0.999456 0.988999
0.250000 0.999264 0.999323 0.987661
0.260000 0.999092 0.999162 0.986197
0.270000 0.998883 0.998967 0.984599
0.280000 0.998633 0.998732 0.982858
0.290000 0.998334 0.998450 0.980966
0.300000 0.997977 0.998114 0.978912
0.310000 0.997554 0.997714 0.976688
0.320000 0.997053 0.997239 0.974285
0.330000 0.996464 0.996679 0.971691
0.340000 0.995773 0.996021 0.968898
0.350000 0.994966 0.995250 0.965896
0.360000 0.994027 0.994351 0.962674
0.370000 0.992938 0.993306 0.959224
0.380000 0.991680 0.992095 0.955534
0.390000 0.990233 0.990700 0.951595
0.400000 0.988573 0.989096 0.947397
0.410000 0.986678 0.987260 0.942931
0.420000 0.984520 0.985165 0.938188
0.430000 0.982073 0.982785 0.933159
0.440000 0.979308 0.980090 0.927835
0.450000 0.976195 0.977049 0.922209
0.460000 0.972702 0.973630 0.916271
0.470000 0.968797 0.969801 0.910016
0.480000 0.964446 0.965527 0.903437
0.490000 0.959616 0.960773 0.896527
0.500000 0.954273 0.955505 0.889283
0.510000 0.948383 0.949687 0.881698
0.520000 0.941911 0.943285 0.873770
0.530000 0.934826 0.936264 0.865496
0.540000 0.927095 0.928592 0.856873
0.550000 0.918690 0.920238 0.847902
0.560000 0.909581 0.911172 0.838581
0.570000 0.899745 0.901368 0.828912
0.580000 0.889158 0.890802 0.818897
0.590000 0.877803 0.879456 0.808539
0.600000 0.865665 0.867312 0.797842
0.610000 0.852733 0.854359 0.786811
0.620000 0.839001 0.840592 0.775454
0.630000 0.824471 0.826008 0.763777
0.640000 0.809145 0.810613 0.751789
0.650000 0.793036 0.794416 0.739500
0.660000 0.776159 0.777433 0.726921
0.670000 0.758537 0.759687 0.714064
0.680000 0.740198 0.741207 0.700942
0.690000 0.721176 0.722027 0.687569
0.700000 0.701511 0.702189 0.673960
0.710000 0.681249 0.681738 0.660131
0.720000 0.660440 0.660727 0.646099
0.730000 0.639141 0.639213 0.631883
0.740000 0.617411 0.617259 0.617501
0.750000 0.595315 0.594930 0.602973
0.760000 0.572921 0.572297 0.588320
0.770000 0.550298 0.549432 0.573564
0.780000 0.527520 0.526411 0.558728
0.790000 0.504661 0.503309 0.543835
0.800000 0.481795 0.480204 0.528911
0.810000 0.458997 0.457173 0.513982
0.820000 0.436341 0.434293 0.499075
0.830000 0.413900 0.411638 0.484221
0.840000 0.391745 0.389280 0.469452
0.850000 0.369943 0.367290 0.454803
0.860000 0.348558 0.345734 0.440312
0.870000 0.327653 0.324672 0.426023
0.880000 0.307284 0.304161 0.411984
0.890000 0.287504 0.284255 0.398250
0.900000 0.268365 0.264998 0.384887
0.910000 0.249916 0.246432 0.371971
0.920000 0.232207 0.228592 0.359592
0.930000 0.215297 0.211504 0.347858
0.940000 0.199262 0.195192 0.336901
0.950000 0.184213 0.179673 0.326880
0.960000 0.170334 0.164956 0.317989
0.970000 0.157930 0.151045 0.310468
0.980000 0.147540 0.137941 0.304611
0.990000 0.140102 0.125637 0.300779
1.000000 0.137272 0.114123 0.299419
