0.000000 1.000000 1.000000 0.999648
0.010000 0.999965 0.999968 0.999213
0.020000 0.999910 0.999917 0.998263
0.030000 0.999830 0.999843 0.997131
0.040000 0.999715 0.999735 0.995796
0.050000 0.999555 0.999585 0.994235
0.060000 0.999335 0.999379 0.992426
0.070000 0.999040 0.999101 0.990343
0.080000 0.998650 0.998732 0.987962
0.090000 0.998140 0.998248 0.985257
0.100000 0.997482 0.997622 0.982200
0.110000 0.996644 0.996821 0.978765
0.120000 0.995586 0.995806 0.974924
0.130000 0.994264 0.994535 0.970648
0.140000 0.992628 0.992958 0.965911
0.150000 0.990621 0.991017 0.960684
0.160000 0.988182 0.988650 0.954943
0.170000 0.985242 0.985790 0.948659
0.180000 0.981726 0.982359 0.941810
0.190000 0.977555 0.978278 0.934372
0.200000 0.972645 0.973462 0.926323
0.210000 0.966907 0.967819 0.917645
0.220000 0.960253 0.961260 0.908320
0.230000 0.952592 0.953690 0.898333
0.240000 0.943834 0.945016 0.887675
0.250000 0.933892 0.935149 0.876335
0.260000 0.922686 0.924004 0.864310
0.270000 0.910139 0.911503 0.851597
0.280000 0.896188 0.897576 0.838199
0.290000 0.880779 0.882167 0.824124
0.300000 0.863873 0.865234 0.809379
0.310000 0.845446 0.846752 0.793981
0.320000 0.825494 0.826711 0.777948
0.330000 0.804030 0.805126 0.761301
0.340000 0.781089 0.782029 0.744068
0.350000 0.756726 0.757476 0.726280
0.360000 0.731018 0.731546 0.707969
0.370000 0.704063 0.704338 0.689175
0.380000 0.675979 0.675974 0.669939
0.390000 0.646902 0.646593 0.650305
0.400000 0.616987 0.616355 0.630320
0.410000 0.586399 0.585431 0.610034
0.420000 0.555320 0.554009 0.589498
0.430000 0.523935 0.522281 0.568766
0.440000 0.492439 0.490446 0.547893
0.450000 0.461025 0.458706 0.526935
0.460000 0.429884 0.427259 0.505946
0.470000 0.399205 0.396297 0.484985
0.480000 0.369164 0.366003 0.464105
0.490000 0.339927 0.336547 0.443363
0.500000 0.311647 0.308085 0.422810
0.510000 0.284457 0.280754 0.402500
0.520000 0.258475 0.254672 0.382482
0.530000 0.233796 0.229935 0.362804
0.540000 0.210498 0.206619 0.343509
0.550000 0.188635 0.184778 0.324640
0.560000 0.168242 0.164446 0.306236
0.570000 0.149336 0.145633 0.288330
0.580000 0.131913 0.128335 0.270956
0.590000 0.115953 0.112525 0.254140
0.600000 0.101422 0.098166 0.237906
0.610000 0.088270 0.085203 0.222275
0.620000 0.076438 0.073573 0.207262
0.630000 0.065857 0.063202 0.192880
0.640000 0.056452 0.054011 0.179138
0.650000 0.048142 0.045914 0.166041
0.660000 0.040843 0.038826 0.153590
0.670000 0.034470 0.032658 0.141783
0.680000 0.028940 0.027323 0.130616
0.690000 0.024169 0.022737 0.120080
0.700000 0.020078 0.018820 0.110165
0.710000 0.016591 0.015493 0.100858
0.720000 0.013636 0.012685 0.092145
0.730000 0.011147 0.010329 0.084006
0.740000 0.009064 0.008365 0.076425
0.750000 0.007330 0.006737 0.069380
0.760000 0.005895 0.005396 0.062850
0.770000 0.004716 0.004298 0.056813
0.780000 0.003751 0.003404 0.051245
0.790000 0.002968 0.002682 0.046123
0.800000 0.002335 0.002101 0.041423
0.810000 0.001827 0.001636 0.037121
0.820000 0.001422 0.001267 0.033194
0.830000 0.001100 0.000976 0.029617
0.840000 0.000846 0.000748 0.026369
0.850000 0.000647 0.000569 0.023425
0.860000 0.000493 0.000431 0.020766
0.870000 0.000373 0.000325 0.018369
0.880000 0.000280 0.000243 0.016216
0.890000 0.000210 0.000181 0.014287
0.900000 0.000156 0.000134 0.012565
0.910000 0.000115 0.000099 0.011034
0.920000 0.000085 0.000072 0.009680
0.930000 0.000062 0.000052 0.008490
0.940000 0.000045 0.000038 0.007454
0.950000 0.000033 0.000027 0.006565
0.960000 0.000023 0.000020 0.005819
0.970000 0.000017 0.000014 0.005217
0.980000 0.000012 0.000010 0.004764
0.990000 0.000009 0.000007 0.004475
1.000000 0.000008 0.000005 0.004374
