0.000000 1.000000 1.000000 0.999983
0.010000 1.000000 1.000000 0.999962
0.020000 1.000000 1.000000 0.999915
0.030000 1.000000 1.000000 0.999859
0.040000 0.999999 0.999999 0.999793
0.050000 0.999999 0.999999 0.999716
0.060000 0.999999 0.999999 0.999625
0.070000 0.999998 0.999998 0.999519
0.080000 0.999997 0.999997 0.999396
0.090000 0.999996 0.999996 0.999255
0.100000 0.999994 0.999995 0.999093
0.110000 0.999992 0.999993 0.998907
0.120000 0.999989 0.999990 0.998697
0.130000 0.999985 0.999987 0.998458
0.140000 0.999981 0.999983 0.998188
0.150000 0.999974 0.999977 0.997884
0.160000 0.999967 0.999970 0.997542
0.170000 0.999956 0.999961 0.997159
0.180000 0.999944 0.999950 0.996731
0.190000 0.999928 0.999935 0.996254
0.200000 0.999908 0.999917 0.995723
0.210000 0.999883 0.999894 0.995135
0.220000 0.999852 0.999866 0.994484
0.230000 0.999813 0.999831 0.993765
0.240000 0.999766 0.999788 0.992973
0.250000 0.999708 0.999735 0.992102
0.260000 0.999637 0.999669 0.991146
0.270000 0.999551 0.999590 0.990100
0.280000 0.999447 0.999494 0.988955
0.290000 0.999321 0.999377 0.987707
0.300000 0.999171 0.999237 0.986348
0.310000 0.998990 0.999068 0.984871
0.320000 0.998775 0.998867 0.983268
0.330000 0.998519 0.998627 0.981532
0.340000 0.998216 0.998342 0.979654
0.350000 0.997859 0.998005 0.977628
0.360000 0.997439 0.997608 0.975444
0.370000 0.996947 0.997142 0.973095
0.380000 0.996374 0.996597 0.970572
0.390000 0.995706 0.995961 0.967866
0.400000 0.994932 0.995222 0.964969
0.410000 0.994038 0.994367 0.961873
0.420000 0.993009 0.993380 0.958568
0.430000 0.991828 0.992244 0.955046
0.440000 0.990478 0.990943 0.951299
0.450000 0.988938 0.989457 0.947318
0.460000 0.987190 0.987764 0.943095
0.470000 0.985209 0.985844 0.938622
0.480000 0.982974 0.983672 0.933891
0.490000 0.980460 0.981224 0.928894
0.500000 0.977640 0.978473 0.923625
0.510000 0.974488 0.975393 0.918077
0.520000 0.970977 0.971954 0.912243
0.530000 0.967077 0.968127 0.906118
0.540000 0.962759 0.963884 0.899695
0.550000 0.957994 0.959192 0.892970
0.560000 0.952753 0.954023 0.885939
0.570000 0.947004 0.948344 0.878598
0.580000 0.940720 0.942127 0.870944
0.590000 0.933872 0.935341 0.862975
0.600000 0.926433 0.927958 0.854689
0.610000 0.918376 0.919951 0.846086
0.620000 0.909678 0.911295 0.837166
0.630000 0.900316 0.901966 0.827930
0.640000 0.890271 0.891944 0.818379
0.650000 0.879527 0.881211 0.808517
0.660000 0.868070 0.869753 0.798347
0.670000 0.855891 0.857559 0.787874
0.680000 0.842983 0.844622 0.777103
0.690000 0.829345 0.830941 0.766042
0.700000 0.814979 0.816516 0.754697
0.710000 0.799894 0.801355 0.743078
0.720000 0.784101 0.785470 0.731195
0.730000 0.767616 0.768878 0.719058
0.740000 0.750463 0.751600 0.706680
0.750000 0.732668 0.733665 0.694073
0.760000 0.714263 0.715105 0.681253
0.770000 0.695285 0.695957 0.668235
0.780000 0.675774 0.676264 0.655037
0.790000 0.655777 0.656071 0.641678
0.800000 0.635342 0.635431 0.628177
0.810000 0.614524 0.614398 0.614559
0.820000 0.593379 0.593031 0.600848
0.830000 0.571966 0.571390 0.587072
0.840000 0.550348 0.549539 0.573262
0.850000 0.528587 0.527544 0.559452
0.860000 0.506750 0.505471 0.545684
0.870000 0.484904 0.483388 0.532001
0.880000 0.463117 0.461362 0.518457
0.890000 0.441459 0.439460 0.505111
0.900000 0.420002 0.417748 0.492036
0.910000 0.398825 0.396290 0.479316
0.920000 0.378017 0.375146 0.467050
0.930000 0.357685 0.354377 0.455359
0.940000 0.337968 0.334037 0.444387
0.950000 0.319071 0.314177 0.434308
0.960000 0.301299 0.294846 0.425332
0.970000 0.285150 0.276087 0.417716
0.980000 0.271438 0.257937 0.411770
0.990000 0.261533 0.240430 0.407874
1.000000 0.257747 0.223595 0.406491
