0.000000 1.000000 1.000000 0.997393
0.010000 0.998520 0.998579 0.994185
0.020000 0.996272 0.996406 0.987203
0.030000 0.993028 0.993256 0.978956
0.040000 0.988528 0.988867 0.969351
0.050000 0.982485 0.982947 0.958306
0.060000 0.974589 0.975179 0.945746
0.070000 0.964518 0.965235 0.931611
0.080000 0.951951 0.952781 0.915858
0.090000 0.936583 0.937501 0.898458
0.100000 0.918139 0.919108 0.879402
0.110000 0.896398 0.897365 0.858701
0.120000 0.871203 0.872104 0.836387
0.130000 0.842480 0.843242 0.812513
0.140000 0.810253 0.810796 0.787155
0.150000 0.774649 0.774891 0.760407
0.160000 0.735905 0.735768 0.732388
0.170000 0.694364 0.693779 0.703231
0.180000 0.650467 0.649378 0.673089
0.190000 0.604742 0.603113 0.642127
0.200000 0.557782 0.555598 0.610525
0.210000 0.510224 0.507494 0.578468
0.220000 0.462724 0.459481 0.546150
0.230000 0.415928 0.412228 0.513765
0.240000 0.370451 0.366370 0.481508
0.250000 0.326849 0.322478 0.449570
0.260000 0.285604 0.281044 0.418132
0.270000 0.247108 0.242464 0.387367
0.280000 0.211654 0.207028 0.357436
0.290000 0.179432 0.174921 0.328483
0.300000 0.150533 0.146221 0.300636
0.310000 0.124954 0.120910 0.274006
0.320000 0.102609 0.098887 0.248683
0.330000 0.083345 0.079981 0.224739
0.340000 0.066954 0.063966 0.202226
0.350000 0.053188 0.050579 0.181176
0.360000 0.041778 0.039539 0.161604
0.370000 0.032443 0.030553 0.143508
0.380000 0.024906 0.023336 0.126868
0.390000 0.018899 0.017617 0.111652
0.400000 0.014173 0.013143 0.097814
0.410000 0.010505 0.009690 0.085300
0.420000 0.007694 0.007059 0.074044
0.430000 0.005568 0.005081 0.063975
0.440000 0.003981 0.003614 0.055018
0.450000 0.002812 0.002540 0.047093
0.460000 0.001962 0.001763 0.040119
0.470000 0.001352 0.001209 0.034016
0.480000 0.000921 0.000819 0.028704
0.490000 0.000619 0.000548 0.024105
0.500000 0.000411 0.000362 0.020146
0.510000 0.000269 0.000237 0.016756
0.520000 0.000174 0.000153 0.013868
0.530000 0.000111 0.000097 0.011423
0.540000 0.000070 0.000061 0.009362
0.550000 0.000044 0.000038 0.007636
0.560000 0.000027 0.000023 0.006197
0.570000 0.000016 0.000014 0.005005
0.580000 0.000010 0.000008 0.004021
0.590000 0.000006 0.000005 0.003215
0.600000 0.000003 0.000003 0.002558
0.610000 0.000002 0.000002 0.002025
0.620000 0.000001 0.000001 0.001595
0.630000 0.000001 0.000001 0.001250
0.640000 0.000000 0.000000 0.000975
0.650000 0.000000 0.000000 0.000756
0.660000 0.000000 0.000000 0.000584
0.670000 0.000000 0.000000 0.000448
0.680000 0.000000 0.000000 0.000342
0.690000 0.000000 0.000000 0.000260
0.700000 0.000000 0.000000 0.000197
0.710000 0.000000 0.000000 0.000148
0.720000 0.000000 0.000000 0.000111
0.730000 0.000000 0.000000 0.000082
0.740000 0.000000 0.000000 0.000061
0.750000 0.000000 0.000000 0.000045
0.760000 0.000000 0.000000 0.000033
0.770000 0.000000 0.000000 0.000024
0.780000 0.000000 0.000000 0.000017
0.790000 0.000000 0.000000 0.000013
0.800000 0.000000 0.000000 0.000009
0.810000 0.000000 0.000000 0.000006
0.820000 0.000000 0.000000 0.000005
0.830000 0.000000 0.000000 0.000003
0.840000 0.000000 0.000000 0.000002
0.850000 0.000000 0.000000 0.000002
0.860000 0.000000 0.000000 0.000001
0.870000 0.000000 0.000000 0.000001
0.880000 0.000000 0.000000 0.000001
0.890000 0.000000 0.000000 0.000000
0.900000 0.000000 0.000000 0.000000
0.910000 0.000000 0.000000 0.000000
0.920000 0.000000 0.000000 0.000000
0.930000 0.000000 0.000000 0.000000
0.940000 0.000000 0.000000 0.000000
0.950000 0.000000 0.000000 0.000000
0.960000 0.000000 0.000000 0.000000
0.970000 0.000000 0.000000 0.000000
0.980000 0.000000 0.000000 0.000000
0.990000 0.000000 0.000000 0.000000
1.000000 0.000000 0.000000 0.000000
