0.000000 1.000000 1.000000 0.999987
0.010000 1.000000 1.000000 0.999970
0.020000 1.000000 1.000000 0.999934
0.030000 1.000000 1.000000 0.999892
0.040000 1.000000 1.000000 0.999841
0.050000 0.999999 1.000000 0.999780
0.060000 0.999999 0.999999 0.999710
0.070000 0.999999 0.999999 0.999628
0.080000 0.999998 0.999998 0.999533
0.090000 0.999998 0.999998 0.999424
0.100000 0.999997 0.999997 0.999298
0.110000 0.999995 0.999996 0.999155
0.120000 0.999994 0.999994 0.998991
0.130000 0.999991 0.999993 0.998806
0.140000 0.999989 0.999990 0.998596
0.150000 0.999985 0.999987 0.998359
0.160000 0.999980 0.999983 0.998093
0.170000 0.999974 0.999977 0.997794
0.180000 0.999967 0.999971 0.997460
0.190000 0.999957 0.999962 0.997087
0.200000 0.999945 0.999951 0.996672
0.210000 0.999931 0.999938 0.996211
0.220000 0.999912 0.999921 0.995700
0.230000 0.999889 0.999900 0.995135
0.240000 0.999860 0.999874 0.994512
0.250000 0.999825 0.999842 0.993826
0.260000 0.999782 0.999803 0.993071
0.270000 0.999730 0.999755 0.992244
0.280000 0.999666 0.999697 0.991338
0.290000 0.999589 0.999626 0.990348
0.300000 0.999496 0.999540 0.989268
0.310000 0.999385 0.999436 0.988092
0.320000 0.999251 0.999312 0.986814
0.330000 0.999091 0.999163 0.985426
0.340000 0.998901 0.998986 0.983923
0.350000 0.998676 0.998775 0.982298
0.360000 0.998410 0.998525 0.980542
0.370000 0.998097 0.998231 0.978650
0.380000 0.997730 0.997884 0.976613
0.390000 0.997301 0.997478 0.974423
0.400000 0.996801 0.997004 0.972074
0.410000 0.996220 0.996452 0.969556
0.420000 0.995547 0.995811 0.966864
0.430000 0.994771 0.995070 0.963987
0.440000 0.993877 0.994215 0.960918
0.450000 0.992853 0.993233 0.957650
0.460000 0.991683 0.992108 0.954174
0.470000 0.990349 0.990823 0.950483
0.480000 0.988834 0.989360 0.946568
0.490000 0.987119 0.987700 0.942423
0.500000 0.985183 0.985823 0.938039
0.510000 0.983004 0.983706 0.933410
0.520000 0.980559 0.981326 0.928528
0.530000 0.977825 0.978660 0.923386
0.540000 0.974777 0.975681 0.917979
0.550000 0.971388 0.972364 0.912301
0.560000 0.967633 0.968681 0.906346
0.570000 0.963484 0.964605 0.900108
0.580000 0.958914 0.960107 0.893584
0.590000 0.953895 0.955159 0.886769
0.600000 0.948399 0.949733 0.879660
0.610000 0.942399 0.943799 0.872254
0.620000 0.935869 0.937332 0.864548
0.630000 0.928783 0.930303 0.856542
0.640000 0.921115 0.922688 0.848234
0.650000 0.912844 0.914461 0.839625
0.660000 0.903948 0.905601 0.830715
0.670000 0.894407 0.896087 0.821506
0.680000 0.884206 0.885903 0.812000
0.690000 0.873330 0.875032 0.802202
0.700000 0.861769 0.863464 0.792114
0.710000 0.849516 0.851190 0.781743
0.720000 0.836566 0.838206 0.771095
0.730000 0.822921 0.824512 0.760178
0.740000 0.808585 0.810112 0.749000
0.750000 0.793567 0.795014 0.737570
0.760000 0.777879 0.779231 0.725901
0.770000 0.761539 0.762781 0.714005
0.780000 0.744571 0.745686 0.701895
0.790000 0.726999 0.727974 0.689588
0.800000 0.708855 0.709675 0.677102
0.810000 0.690176 0.690827 0.664456
0.820000 0.670999 0.671469 0.651674
0.830000 0.651370 0.651646 0.638781
0.840000 0.631335 0.631407 0.625806
0.850000 0.610946 0.610803 0.612782
0.860000 0.590256 0.589890 0.599749
0.870000 0.569323 0.568723 0.586750
0.880000 0.548210 0.547364 0.573837
0.890000 0.526981 0.525873 0.561072
0.900000 0.505709 0.504313 0.548525
0.910000 0.484475 0.482745 0.536282
0.920000 0.463375 0.461234 0.524444
0.930000 0.442529 0.439841 0.513131
0.940000 0.422099 0.418628 0.502491
0.950000 0.402322 0.397653 0.492696
0.960000 0.383555 0.376976 0.483959
0.970000 0.366367 0.356650 0.476534
0.980000 0.351684 0.336728 0.470732
0.990000 0.341033 0.317258 0.466928
1.000000 0.336953 0.298285 0.465577
