0.000000 1.000000 1.000000 0.998420
0.010000 0.999396 0.999426 0.996474
0.020000 0.998474 0.998544 0.992233
0.030000 0.997131 0.997254 0.987207
0.040000 0.995248 0.995437 0.981326
0.050000 0.992682 0.992950 0.974522
0.060000 0.989273 0.989633 0.966730
0.070000 0.984839 0.985302 0.957888
0.080000 0.979182 0.979758 0.947940
0.090000 0.972094 0.972787 0.936837
0.100000 0.963355 0.964163 0.924535
0.110000 0.952747 0.953662 0.911002
0.120000 0.940055 0.941061 0.896213
0.130000 0.925082 0.926155 0.880156
0.140000 0.907654 0.908761 0.862830
0.150000 0.887631 0.888729 0.844247
0.160000 0.864916 0.865956 0.824429
0.170000 0.839465 0.840389 0.803416
0.180000 0.811290 0.812040 0.781256
0.190000 0.780470 0.780981 0.758014
0.200000 0.747148 0.747360 0.733765
0.210000 0.711534 0.711390 0.708597
0.220000 0.673900 0.673352 0.682609
0.230000 0.634578 0.633588 0.655908
0.240000 0.593948 0.592489 0.628611
0.250000 0.552427 0.550490 0.600842
0.260000 0.510459 0.508049 0.572729
0.270000 0.468497 0.465637 0.544406
0.280000 0.426992 0.423720 0.516006
0.290000 0.386380 0.382747 0.487662
0.300000 0.347063 0.343133 0.459509
0.310000 0.309403 0.305247 0.431673
0.320000 0.273712 0.269408 0.404280
0.330000 0.240241 0.235867 0.377445
0.340000 0.209181 0.204816 0.351277
0.350000 0.180661 0.176377 0.325875
0.360000 0.154744 0.150607 0.301328
0.370000 0.131439 0.127505 0.277715
0.380000 0.110700 0.107014 0.255101
0.390000 0.092435 0.089031 0.233542
0.400000 0.076515 0.073417 0.213078
0.410000 0.062783 0.060001 0.193742
0.420000 0.051061 0.048596 0.175551
0.430000 0.041158 0.039003 0.158513
0.440000 0.032877 0.031018 0.142625
0.450000 0.026024 0.024441 0.127875
0.460000 0.020412 0.019080 0.114241
0.470000 0.015862 0.014757 0.101693
0.480000 0.012213 0.011307 0.090196
0.490000 0.009316 0.008582 0.079708
0.500000 0.007039 0.006452 0.070181
0.510000 0.005269 0.004805 0.061565
0.520000 0.003906 0.003544 0.053807
0.530000 0.002868 0.002589 0.046852
0.540000 0.002086 0.001874 0.040643
0.550000 0.001502 0.001343 0.035124
0.560000 0.001072 0.000953 0.030240
0.570000 0.000757 0.000670 0.025936
0.580000 0.000529 0.000466 0.022160
0.590000 0.000367 0.000321 0.018862
0.600000 0.000251 0.000219 0.015993
0.610000 0.000171 0.000148 0.013508
0.620000 0.000115 0.000099 0.011365
0.630000 0.000076 0.000066 0.009525
0.640000 0.000050 0.000043 0.007951
0.650000 0.000033 0.000028 0.006612
0.660000 0.000021 0.000018 0.005477
0.670000 0.000014 0.000011 0.004519
0.680000 0.000009 0.000007 0.003714
0.690000 0.000005 0.000005 0.003040
0.700000 0.000003 0.000003 0.002479
0.710000 0.000002 0.000002 0.002013
0.720000 0.000001 0.000001 0.001628
0.730000 0.000001 0.000001 0.001312
0.740000 0.000000 0.000000 0.001053
0.750000 0.000000 0.000000 0.000841
0.760000 0.000000 0.000000 0.000670
0.770000 0.000000 0.000000 0.000531
0.780000 0.000000 0.000000 0.000419
0.790000 0.000000 0.000000 0.000330
0.800000 0.000000 0.000000 0.000258
0.810000 0.000000 0.000000 0.000201
0.820000 0.000000 0.000000 0.000156
0.830000 0.000000 0.000000 0.000121
0.840000 0.000000 0.000000 0.000093
0.850000 0.000000 0.000000 0.000072
0.860000 0.000000 0.000000 0.000055
0.870000 0.000000 0.000000 0.000042
0.880000 0.000000 0.000000 0.000032
0.890000 0.000000 0.000000 0.000024
0.900000 0.000000 0.000000 0.000018
0.910000 0.000000 0.000000 0.000013
0.920000 0.000000 0.000000 0.000010
0.930000 0.000000 0.000000 0.000007
0.940000 0.000000 0.000000 0.000006
0.950000 0.000000 0.000000 0.000004
0.960000 0.000000 0.000000 0.000003
0.970000 0.000000 0.000000 0.000002
0.980000 0.000000 0.000000 0.000002
0.990000 0.000000 0.000000 0.000001
1.000000 0.000000 0.000000 0.000001
