0.000000 1.000000 1.000000 0.999992
0.010000 1.000000 1.000000 0.999982
0.020000 1.000000 1.000000 0.999961
0.030000 1.000000 1.000000 0.999936
0.040000 1.000000 1.000000 0.999906
0.050000 1.000000 1.000000 0.999870
0.060000 1.000000 1.000000 0.999828
0.070000 1.000000 1.000000 0.999779
0.080000 0.999999 1.000000 0.999723
0.090000 0.999999 0.999999 0.999658
0.100000 0.999999 0.999999 0.999583
0.110000 0.999998 0.999999 0.999497
0.120000 0.999998 0.999998 0.999400
0.130000 0.999997 0.999998 0.999288
0.140000 0.999996 0.999997 0.999163
0.150000 0.999995 0.999996 0.999020
0.160000 0.999993 0.999994 0.998860
0.170000 0.999991 0.999993 0.998680
0.180000 0.999989 0.999990 0.998478
0.190000 0.999986 0.999987 0.998252
0.200000 0.999981 0.999984 0.998000
0.210000 0.999976 0.999979 0.997719
0.220000 0.999970 0.999973 0.997408
0.230000 0.999962 0.999966 0.997062
0.240000 0.999952 0.999957 0.996680
0.250000 0.999939 0.999946 0.996258
0.260000 0.999924 0.999932 0.995793
0.270000 0.999905 0.999915 0.995282
0.280000 0.999882 0.999894 0.994720
0.290000 0.999854 0.999869 0.994104
0.300000 0.999820 0.999838 0.993430
0.310000 0.999778 0.999800 0.992694
0.320000 0.999728 0.999754 0.991891
0.330000 0.999668 0.999699 0.991016
0.340000 0.999596 0.999633 0.990065
0.350000 0.999510 0.999553 0.989033
0.360000 0.999408 0.999458 0.987914
0.370000 0.999286 0.999345 0.986703
0.380000 0.999141 0.999211 0.985395
0.390000 0.998971 0.999053 0.983983
0.400000 0.998771 0.998865 0.982462
0.410000 0.998536 0.998645 0.980825
0.420000 0.998261 0.998387 0.979067
0.430000 0.997941 0.998085 0.977180
0.440000 0.997568 0.997734 0.975159
0.450000 0.997136 0.997325 0.972996
0.460000 0.996637 0.996852 0.970685
0.470000 0.996062 0.996306 0.968219
0.480000 0.995402 0.995676 0.965591
0.490000 0.994645 0.994954 0.962795
0.500000 0.993780 0.994127 0.959822
0.510000 0.992796 0.993183 0.956667
0.520000 0.991677 0.992108 0.953323
0.530000 0.990411 0.990888 0.949783
0.540000 0.988980 0.989508 0.946039
0.550000 0.987370 0.987950 0.942086
0.560000 0.985561 0.986198 0.937916
0.570000 0.983535 0.984231 0.933525
0.580000 0.981272 0.982031 0.928905
0.590000 0.978753 0.979576 0.924051
0.600000 0.975955 0.976845 0.918957
0.610000 0.972856 0.973814 0.913618
0.620000 0.969434 0.970461 0.908030
0.630000 0.965665 0.966762 0.902187
0.640000 0.961525 0.962693 0.896086
0.650000 0.956990 0.958228 0.889724
0.660000 0.952036 0.953342 0.883096
0.670000 0.946639 0.948012 0.876202
0.680000 0.940776 0.942212 0.869038
0.690000 0.934422 0.935919 0.861604
0.700000 0.927557 0.929109 0.853900
0.710000 0.920158 0.921760 0.845925
0.720000 0.912206 0.913851 0.837680
0.730000 0.903683 0.905363 0.829169
0.740000 0.894571 0.896278 0.820393
0.750000 0.884856 0.886581 0.811357
0.760000 0.874527 0.876259 0.802066
0.770000 0.863573 0.865301 0.792528
0.780000 0.851987 0.853700 0.782750
0.790000 0.839767 0.841451 0.772743
0.800000 0.826911 0.828553 0.762519
0.810000 0.813422 0.815009 0.752092
0.820000 0.799308 0.800824 0.741480
0.830000 0.784578 0.786008 0.730702
0.840000 0.769246 0.770576 0.719783
0.850000 0.753332 0.754544 0.708751
0.860000 0.736859 0.737934 0.697640
0.870000 0.719853 0.720772 0.686490
0.880000 0.702351 0.703087 0.675347
0.890000 0.684392 0.684912 0.664269
0.900000 0.666028 0.666283 0.653321
0.910000 0.647324 0.647240 0.642584
0.920000 0.628365 0.627826 0.632154
0.930000 0.609269 0.608087 0.622144
0.940000 0.590207 0.588071 0.612693
0.950000 0.571432 0.567828 0.603963
0.960000 0.553339 0.547411 0.596155
0.970000 0.536547 0.526872 0.589504
0.980000 0.522053 0.506267 0.584297
0.990000 0.511464 0.485650 0.580880
1.000000 0.507395 0.465075 0.579665
