0.000000 1.000000 1.000000 0.999783
0.010000 0.999987 0.999988 0.999516
0.020000 0.999966 0.999969 0.998932
0.030000 0.999935 0.999940 0.998235
0.040000 0.999891 0.999900 0.997412
0.050000 0.999828 0.999842 0.996448
0.060000 0.999743 0.999763 0.995327
0.070000 0.999627 0.999655 0.994034
0.080000 0.999473 0.999511 0.992551
0.090000 0.999271 0.999321 0.990859
0.100000 0.999007 0.999073 0.988942
0.110000 0.998667 0.998753 0.986777
0.120000 0.998235 0.998343 0.984346
0.130000 0.997688 0.997824 0.981628
0.140000 0.997004 0.997172 0.978601
0.150000 0.996155 0.996361 0.975243
0.160000 0.995109 0.995358 0.971533
0.170000 0.993830 0.994129 0.967449
0.180000 0.992279 0.992634 0.962969
0.190000 0.990410 0.990828 0.958072
0.200000 0.988175 0.988661 0.952736
0.210000 0.985520 0.986080 0.946942
0.220000 0.982386 0.983026 0.940668
0.230000 0.978712 0.979436 0.933897
0.240000 0.974431 0.975244 0.926612
0.250000 0.969477 0.970379 0.918796
0.260000 0.963776 0.964769 0.910434
0.270000 0.957258 0.958340 0.901515
0.280000 0.949851 0.951018 0.892027
0.290000 0.941483 0.942729 0.881963
0.300000 0.932085 0.933403 0.871316
0.310000 0.921594 0.922970 0.860082
0.320000 0.909949 0.911370 0.848261
0.330000 0.897098 0.898547 0.835854
0.340000 0.882998 0.884454 0.822866
0.350000 0.867615 0.869056 0.809306
0.360000 0.850926 0.852327 0.795182
0.370000 0.832924 0.834258 0.780510
0.380000 0.813612 0.814851 0.765306
0.390000 0.793010 0.794125 0.749590
0.400000 0.771154 0.772115 0.733384
0.410000 0.748095 0.748874 0.716714
0.420000 0.723899 0.724468 0.699608
0.430000 0.698650 0.698982 0.682098
0.440000 0.672444 0.672517 0.664216
0.450000 0.645393 0.645186 0.645999
0.460000 0.617619 0.617116 0.627483
0.470000 0.589258 0.588447 0.608710
0.480000 0.560452 0.559325 0.589719
0.490000 0.531350 0.529907 0.570553
0.500000 0.502108 0.500350 0.551257
0.510000 0.472880 0.470815 0.531873
0.520000 0.443821 0.441464 0.512447
0.530000 0.415085 0.412453 0.493023
0.540000 0.386817 0.383933 0.473647
0.550000 0.359157 0.356048 0.454362
0.560000 0.332236 0.328930 0.435211
0.570000 0.306170 0.302701 0.416238
0.580000 0.281066 0.277467 0.397482
0.590000 0.257014 0.253322 0.378985
0.600000 0.234093 0.230342 0.360782
0.610000 0.212362 0.208589 0.342911
0.620000 0.191868 0.188106 0.325404
0.630000 0.172642 0.168923 0.308292
0.640000 0.154699 0.151053 0.291605
0.650000 0.138041 0.134495 0.275367
0.660000 0.122657 0.119235 0.259603
0.670000 0.108522 0.105245 0.244332
0.680000 0.095604 0.092489 0.229572
0.690000 0.083858 0.080918 0.215337
0.700000 0.073235 0.070479 0.201640
0.710000 0.063676 0.061111 0.188488
0.720000 0.055119 0.052749 0.175889
0.730000 0.047500 0.045323 0.163846
0.740000 0.040750 0.038765 0.152359
0.750000 0.034802 0.033003 0.141428
0.760000 0.029587 0.027968 0.131048
0.770000 0.025039 0.023591 0.121213
0.780000 0.021093 0.019805 0.111915
0.790000 0.017687 0.016550 0.103144
0.800000 0.014763 0.013764 0.094889
0.810000 0.012264 0.011393 0.087136
0.820000 0.010141 0.009386 0.079872
0.830000 0.008347 0.007696 0.073081
0.840000 0.006837 0.006279 0.066746
0.850000 0.005574 0.005099 0.060852
0.860000 0.004523 0.004121 0.055381
0.870000 0.003653 0.003315 0.050316
0.880000 0.002936 0.002653 0.045640
0.890000 0.002348 0.002113 0.041337
0.900000 0.001869 0.001675 0.037392
0.910000 0.001481 0.001321 0.033791
0.920000 0.001168 0.001037 0.030523
0.930000 0.000916 0.000810 0.027580
0.940000 0.000716 0.000630 0.024959
0.950000 0.000557 0.000487 0.022661
0.960000 0.000432 0.000375 0.020695
0.970000 0.000336 0.000287 0.019083
0.980000 0.000264 0.000219 0.017855
0.990000 0.000218 0.000166 0.017065
1.000000 0.000200 0.000125 0.016787
