0.000000 1.000000 1.000000 0.999994
0.010000 1.000000 1.000000 0.999986
0.020000 1.000000 1.000000 0.999968
0.030000 1.000000 1.000000 0.999948
0.040000 1.000000 1.000000 0.999923
0.050000 1.000000 1.000000 0.999894
0.060000 1.000000 1.000000 0.999860
0.070000 1.000000 1.000000 0.999821
0.080000 1.000000 1.000000 0.999775
0.090000 0.999999 1.000000 0.999722
0.100000 0.999999 0.999999 0.999661
0.110000 0.999999 0.999999 0.999591
0.120000 0.999999 0.999999 0.999511
0.130000 0.999998 0.999998 0.999421
0.140000 0.999998 0.999998 0.999318
0.150000 0.999997 0.999997 0.999202
0.160000 0.999996 0.999996 0.999071
0.170000 0.999994 0.999995 0.998923
0.180000 0.999993 0.999994 0.998758
0.190000 0.999991 0.999992 0.998573
0.200000 0.999988 0.999990 0.998367
0.210000 0.999985 0.999987 0.998137
0.220000 0.999980 0.999983 0.997881
0.230000 0.999975 0.999978 0.997597
0.240000 0.999968 0.999972 0.997283
0.250000 0.999960 0.999965 0.996935
0.260000 0.999950 0.999956 0.996552
0.270000 0.999938 0.999945 0.996130
0.280000 0.999922 0.999931 0.995666
0.290000 0.999904 0.999914 0.995156
0.300000 0.999881 0.999893 0.994599
0.310000 0.999853 0.999868 0.993988
0.320000 0.999820 0.999838 0.993322
0.330000 0.999779 0.999801 0.992596
0.340000 0.999730 0.999756 0.991805
0.350000 0.999672 0.999703 0.990945
0.360000 0.999603 0.999639 0.990012
0.370000 0.999519 0.999562 0.989001
0.380000 0.999421 0.999471 0.987907
0.390000 0.999304 0.999363 0.986725
0.400000 0.999166 0.999235 0.985449
0.410000 0.999004 0.999084 0.984074
0.420000 0.998813 0.998906 0.982595
0.430000 0.998590 0.998697 0.981005
0.440000 0.998330 0.998453 0.979299
0.450000 0.998028 0.998168 0.977471
0.460000 0.997677 0.997837 0.975514
0.470000 0.997270 0.997453 0.973423
0.480000 0.996802 0.997009 0.971191
0.490000 0.996262 0.996497 0.968811
0.500000 0.995644 0.995909 0.966276
0.510000 0.994937 0.995234 0.963582
0.520000 0.994129 0.994463 0.960720
0.530000 0.993211 0.993583 0.957684
0.540000 0.992170 0.992583 0.954469
0.550000 0.990991 0.991450 0.951066
0.560000 0.989661 0.990168 0.947471
0.570000 0.988165 0.988723 0.943676
0.580000 0.986486 0.987098 0.939676
0.590000 0.984607 0.985275 0.935464
0.600000 0.982509 0.983238 0.931035
0.610000 0.980174 0.980965 0.926383
0.620000 0.977582 0.978437 0.921503
0.630000 0.974712 0.975633 0.916389
0.640000 0.971542 0.972532 0.911038
0.650000 0.968051 0.969110 0.905445
0.660000 0.964217 0.965345 0.899606
0.670000 0.960016 0.961214 0.893517
0.680000 0.955426 0.956692 0.887175
0.690000 0.950424 0.951757 0.880579
0.700000 0.944987 0.946385 0.873727
0.710000 0.939092 0.940553 0.866617
0.720000 0.932719 0.934238 0.859249
0.730000 0.925846 0.927419 0.851623
0.740000 0.918453 0.920074 0.843742
0.750000 0.910522 0.912184 0.835607
0.760000 0.902035 0.903730 0.827223
0.770000 0.892977 0.894698 0.818594
0.780000 0.883334 0.885072 0.809726
0.790000 0.873096 0.874839 0.800629
0.800000 0.862254 0.863992 0.791311
0.810000 0.850801 0.852522 0.781786
0.820000 0.838735 0.840426 0.772068
0.830000 0.826055 0.827703 0.762176
0.840000 0.812767 0.814356 0.752131
0.850000 0.798875 0.800390 0.741960
0.860000 0.784394 0.785815 0.731693
0.870000 0.769338 0.770643 0.721368
0.880000 0.753730 0.754893 0.711029
0.890000 0.737601 0.738583 0.700730
0.900000 0.720989 0.721738 0.690535
0.910000 0.703950 0.704386 0.680519
0.920000 0.686558 0.686557 0.670773
0.930000 0.668923 0.668287 0.661407
0.940000 0.651206 0.649612 0.652552
0.950000 0.633653 0.630574 0.644364
0.960000 0.616648 0.611214 0.637033
0.970000 0.600796 0.591579 0.630785
0.980000 0.587064 0.571716 0.625890
0.990000 0.577010 0.551674 0.622676
1.000000 0.573141 0.531504 0.621533
