0.000000 1.000000 1.000000 0.998790
0.010000 0.999630 0.999650 0.997299
0.020000 0.999063 0.999111 0.994048
0.030000 0.998235 0.998320 0.990189
0.040000 0.997068 0.997200 0.985665
0.050000 0.995468 0.995659 0.980419
0.060000 0.993327 0.993589 0.974392
0.070000 0.990521 0.990865 0.967531
0.080000 0.986908 0.987345 0.959780
0.090000 0.982335 0.982874 0.951091
0.100000 0.976634 0.977282 0.941419
0.110000 0.969628 0.970388 0.930722
0.120000 0.961136 0.962005 0.918966
0.130000 0.950975 0.951947 0.906125
0.140000 0.938968 0.940027 0.892178
0.150000 0.924949 0.926075 0.877115
0.160000 0.908771 0.909936 0.860934
0.170000 0.890313 0.891480 0.843642
0.180000 0.869487 0.870614 0.825258
0.190000 0.846242 0.847281 0.805809
0.200000 0.820575 0.821473 0.785335
0.210000 0.792530 0.793233 0.763883
0.220000 0.762203 0.762656 0.741513
0.230000 0.729744 0.729894 0.718292
0.240000 0.695352 0.695153 0.694299
0.250000 0.659278 0.658688 0.669619
0.260000 0.621813 0.620803 0.644344
0.270000 0.583286 0.581837 0.618574
0.280000 0.544054 0.542158 0.592413
0.290000 0.504491 0.502156 0.565969
0.300000 0.464978 0.462224 0.539354
0.310000 0.425893 0.422753 0.512679
0.320000 0.387601 0.384120 0.486056
0.330000 0.350442 0.346673 0.459597
0.340000 0.314723 0.310729 0.433409
0.350000 0.280711 0.276560 0.407595
0.360000 0.248631 0.244390 0.382256
0.370000 0.218655 0.214394 0.357483
0.380000 0.190907 0.186691 0.333363
0.390000 0.165461 0.161350 0.309972
0.400000 0.142343 0.138392 0.287381
0.410000 0.121535 0.117788 0.265649
0.420000 0.102980 0.099474 0.244827
0.430000 0.086587 0.083348 0.224957
0.440000 0.072239 0.069283 0.206070
0.450000 0.059795 0.057131 0.188188
0.460000 0.049104 0.046731 0.171326
0.470000 0.040002 0.037914 0.155488
0.480000 0.032326 0.030510 0.140669
0.490000 0.025911 0.024349 0.126859
0.500000 0.020599 0.019272 0.114040
0.510000 0.016242 0.015126 0.102186
0.520000 0.012701 0.011773 0.091269
0.530000 0.009849 0.009087 0.081252
0.540000 0.007574 0.006954 0.072098
0.550000 0.005775 0.005277 0.063765
0.560000 0.004366 0.003970 0.056209
0.570000 0.003273 0.002961 0.049383
0.580000 0.002433 0.002190 0.043241
0.590000 0.001793 0.001606 0.037736
0.600000 0.001309 0.001167 0.032821
0.610000 0.000948 0.000841 0.028450
0.620000 0.000681 0.000601 0.024577
0.630000 0.000484 0.000425 0.021158
0.640000 0.000342 0.000299 0.018153
0.650000 0.000239 0.000208 0.015521
0.660000 0.000166 0.000143 0.013225
0.670000 0.000114 0.000098 0.011230
0.680000 0.000077 0.000066 0.009503
0.690000 0.000052 0.000045 0.008013
0.700000 0.000035 0.000030 0.006733
0.710000 0.000023 0.000020 0.005638
0.720000 0.000015 0.000013 0.004705
0.730000 0.000010 0.000008 0.003912
0.740000 0.000006 0.000005 0.003241
0.750000 0.000004 0.000003 0.002676
0.760000 0.000003 0.000002 0.002202
0.770000 0.000002 0.000001 0.001805
0.780000 0.000001 0.000001 0.001474
0.790000 0.000001 0.000001 0.001200
0.800000 0.000000 0.000000 0.000973
0.810000 0.000000 0.000000 0.000786
0.820000 0.000000 0.000000 0.000633
0.830000 0.000000 0.000000 0.000508
0.840000 0.000000 0.000000 0.000406
0.850000 0.000000 0.000000 0.000324
0.860000 0.000000 0.000000 0.000257
0.870000 0.000000 0.000000 0.000203
0.880000 0.000000 0.000000 0.000160
0.890000 0.000000 0.000000 0.000126
0.900000 0.000000 0.000000 0.000098
0.910000 0.000000 0.000000 0.000077
0.920000 0.000000 0.000000 0.000060
0.930000 0.000000 0.000000 0.000046
0.940000 0.000000 0.000000 0.000036
0.950000 0.000000 0.000000 0.000028
0.960000 0.000000 0.000000 0.000021
0.970000 0.000000 0.000000 0.000017
0.980000 0.000000 0.000000 0.000014
0.990000 0.000000 0.000000 0.000012
1.000000 0.000000 0.000000 0.000011
