0.000000 1.000000 1.000000 0.998293
0.010000 0.999305 0.999338 0.996192
0.020000 0.998245 0.998323 0.991613
0.030000 0.996704 0.996840 0.986188
0.040000 0.994546 0.994754 0.979844
0.050000 0.991611 0.991905 0.972512
0.060000 0.987719 0.988112 0.964122
0.070000 0.982671 0.983173 0.954612
0.080000 0.976250 0.976869 0.943927
0.090000 0.968230 0.968967 0.932016
0.100000 0.958378 0.959229 0.918841
0.110000 0.946465 0.947416 0.904370
0.120000 0.932272 0.933303 0.888587
0.130000 0.915604 0.916684 0.871483
0.140000 0.896297 0.897385 0.853066
0.150000 0.874231 0.875278 0.833356
0.160000 0.849336 0.850286 0.812387
0.170000 0.821604 0.822396 0.790208
0.180000 0.791093 0.791662 0.766880
0.190000 0.757932 0.758214 0.742481
0.200000 0.722323 0.722256 0.717099
0.210000 0.684534 0.684066 0.690835
0.220000 0.644900 0.643988 0.663800
0.230000 0.603808 0.602422 0.636115
0.240000 0.561691 0.559818 0.607911
0.250000 0.519012 0.516654 0.579320
0.260000 0.476249 0.473426 0.550484
0.270000 0.433879 0.430628 0.521543
0.280000 0.392364 0.388737 0.492638
0.290000 0.352135 0.348196 0.463911
0.300000 0.313580 0.309403 0.435497
0.310000 0.277032 0.272698 0.407528
0.320000 0.242763 0.238354 0.380126
0.330000 0.210981 0.206578 0.353409
0.340000 0.181823 0.177502 0.327480
0.350000 0.155361 0.151191 0.302436
0.360000 0.131605 0.127643 0.278357
0.370000 0.110505 0.106800 0.255314
0.380000 0.091967 0.088553 0.233365
0.390000 0.075853 0.072753 0.212553
0.400000 0.061997 0.059221 0.192911
0.410000 0.050208 0.047757 0.174457
0.420000 0.040286 0.038152 0.157199
0.430000 0.032024 0.030191 0.141132
0.440000 0.025217 0.023664 0.126243
0.450000 0.019670 0.018370 0.112507
0.460000 0.015197 0.014124 0.099892
0.470000 0.011628 0.010754 0.088360
0.480000 0.008812 0.008109 0.077864
0.490000 0.006613 0.006054 0.068355
0.500000 0.004914 0.004476 0.059778
0.510000 0.003616 0.003277 0.052076
0.520000 0.002634 0.002375 0.045192
0.530000 0.001900 0.001704 0.039066
0.540000 0.001357 0.001211 0.033639
0.550000 0.000959 0.000852 0.028853
0.560000 0.000671 0.000593 0.024650
0.570000 0.000465 0.000409 0.020977
0.580000 0.000319 0.000279 0.017780
0.590000 0.000216 0.000189 0.015011
0.600000 0.000145 0.000126 0.012622
0.610000 0.000097 0.000083 0.010571
0.620000 0.000063 0.000055 0.008818
0.630000 0.000041 0.000035 0.007326
0.640000 0.000027 0.000023 0.006061
0.650000 0.000017 0.000014 0.004995
0.660000 0.000011 0.000009 0.004099
0.670000 0.000007 0.000006 0.003351
0.680000 0.000004 0.000003 0.002728
0.690000 0.000003 0.000002 0.002211
0.700000 0.000002 0.000001 0.001785
0.710000 0.000001 0.000001 0.001435
0.720000 0.000001 0.000000 0.001149
0.730000 0.000000 0.000000 0.000917
0.740000 0.000000 0.000000 0.000728
0.750000 0.000000 0.000000 0.000576
0.760000 0.000000 0.000000 0.000453
0.770000 0.000000 0.000000 0.000355
0.780000 0.000000 0.000000 0.000278
0.790000 0.000000 0.000000 0.000216
0.800000 0.000000 0.000000 0.000167
0.810000 0.000000 0.000000 0.000129
0.820000 0.000000 0.000000 0.000099
0.830000 0.000000 0.000000 0.000076
0.840000 0.000000 0.000000 0.000058
0.850000 0.000000 0.000000 0.000044
0.860000 0.000000 0.000000 0.000033
0.870000 0.000000 0.000000 0.000025
0.880000 0.000000 0.000000 0.000019
0.890000 0.000000 0.000000 0.000014
0.900000 0.000000 0.000000 0.000010
0.910000 0.000000 0.000000 0.000008
0.920000 0.000000 0.000000 0.000006
0.930000 0.000000 0.000000 0.000004
0.940000 0.000000 0.000000 0.000003
0.950000 0.000000 0.000000 0.000002
0.960000 0.000000 0.000000 0.000002
0.970000 0.000000 0.000000 0.000001
0.980000 0.000000 0.000000 0.000001
0.990000 0.000000 0.000000 0.000001
1.000000 0.000000 0.000000 0.000001
