0.000000 1.000000 1.000000 0.977976
0.010000 0.955105 0.955178 0.951195
0.020000 0.891331 0.890960 0.893991
0.030000 0.809376 0.807958 0.829405
0.040000 0.712416 0.709442 0.758889
0.050000 0.605784 0.601028 0.684239
0.060000 0.496146 0.489766 0.607469
0.070000 0.390367 0.382885 0.530674
0.080000 0.294378 0.286541 0.455873
0.090000 0.212329 0.204905 0.384878
0.100000 0.146205 0.139801 0.319182
0.110000 0.095938 0.090889 0.259885
0.120000 0.059888 0.056247 0.207665
0.130000 0.035503 0.033106 0.162783
0.140000 0.019952 0.018518 0.125128
0.150000 0.010609 0.009838 0.094287
0.160000 0.005327 0.004961 0.069623
0.170000 0.002520 0.002374 0.050366
0.180000 0.001120 0.001078 0.035684
0.190000 0.000466 0.000464 0.024753
0.200000 0.000181 0.000189 0.016808
0.210000 0.000065 0.000073 0.011168
0.220000 0.000022 0.000027 0.007260
0.230000 0.000007 0.000009 0.004616
0.240000 0.000002 0.000003 0.002870
0.250000 0.000000 0.000001 0.001745
0.260000 0.000000 0.000000 0.001037
0.270000 0.000000 0.000000 0.000602
0.280000 0.000000 0.000000 0.000341
0.290000 0.000000 0.000000 0.000189
0.300000 -0.000000 0.000000 0.000102
0.310000 -0.000000 0.000000 0.000054
0.320000 -0.000000 0.000000 0.000028
0.330000 -0.000000 0.000000 0.000014
0.340000 0.000000 0.000000 0.000007
0.350000 0.000000 0.000000 0.000003
0.360000 0.000000 0.000000 0.000002
0.370000 -0.000000 0.000000 0.000001
0.380000 -0.000000 0.000000 0.000000
0.390000 0.000000 0.000000 0.000000
0.400000 0.000000 0.000000 0.000000
0.410000 0.000000 0.000000 0.000000
0.420000 -0.000000 0.000000 0.000000
0.430000 -0.000000 0.000000 0.000000
0.440000 0.000000 0.000000 0.000000
0.450000 0.000000 0.000000 0.000000
0.460000 -0.000000 0.000000 0.000000
0.470000 -0.000000 0.000000 0.000000
0.480000 0.000000 0.000000 0.000000
0.490000 0.000000 0.000000 0.000000
0.500000 0.000000 0.000000 0.000000
0.510000 -0.000000 0.000000 0.000000
0.520000 -0.000000 0.000000 0.000000
0.530000 0.000000 0.000000 0.000000
0.540000 0.000000 0.000000 0.000000
0.550000 -0.000000 0.000000 0.000000
0.560000 0.000000 0.000000 0.000000
0.570000 0.000000 0.000000 0.000000
0.580000 -0.000000 0.000000 0.000000
0.590000 -0.000000 0.000000 0.000000
0.600000 0.000000 0.000000 0.000000
0.610000 0.000000 0.000000 0.000000
0.620000 -0.000000 0.000000 0.000000
0.630000 -0.000000 0.000000 0.000000
0.640000 0.000000 0.000000 0.000000
0.650000 -0.000000 0.000000 0.000000
0.660000 -0.000000 0.000000 0.000000
0.670000 0.000000 0.000000 0.000000
0.680000 0.000000 0.000000 0.000000
0.690000 -0.000000 0.000000 0.000000
0.700000 -0.000000 0.000000 0.000000
0.710000 0.000000 0.000000 0.000000
0.720000 -0.000000 0.000000 0.000000
0.730000 -0.000000 0.000000 0.000000
0.740000 0.000000 0.000000 0.000000
0.750000 -0.000000 0.000000 0.000000
0.760000 -0.000000 0.000000 0.000000
0.770000 0.000000 0.000000 0.000000
0.780000 0.000000 0.000000 0.000000
0.790000 -0.000000 0.000000 0.000000
0.800000 0.000000 0.000000 0.000000
0.810000 0.000000 0.000000 0.000000
0.820000 -0.000000 0.000000 0.000000
0.830000 0.000000 0.000000 0.000000
0.840000 0.000000 0.000000 0.000000
0.850000 -0.000000 0.000000 0.000000
0.860000 0.000000 0.000000 0.000000
0.870000 0.000000 0.000000 0.000000
0.880000 -0.000000 0.000000 0.000000
0.890000 0.000000 0.000000 0.000000
0.900000 0.000000 0.000000 0.000000
0.910000 -0.000000 0.000000 0.000000
0.920000 0.000000 0.000000 0.000000
0.930000 0.000000 0.000000 0.000000
0.940000 -0.000000 0.000000 0.000000
0.950000 0.000000 0.000000 0.000000
0.960000 0.000000 0.000000 0.000000
0.970000 -0.000000 0.000000 0.000000
0.980000 0.000000 0.000000 0.000000
0.990000 0.000000 0.000000 0.000000
1.000000 -0.000000 0.000000 0.000000
