0.000000 1.000000 1.000000 0.997952
0.010000 0.999036 0.999078 0.995431
0.020000 0.997566 0.997666 0.989940
0.030000 0.995437 0.995608 0.983442
0.040000 0.992466 0.992725 0.975857
0.050000 0.988446 0.988807 0.967106
0.060000 0.983146 0.983621 0.957118
0.070000 0.976317 0.976913 0.945829
0.080000 0.967697 0.968415 0.933186
0.090000 0.957019 0.957853 0.919143
0.100000 0.944023 0.944956 0.903671
0.110000 0.928465 0.929471 0.886752
0.120000 0.910132 0.911173 0.868383
0.130000 0.888852 0.889881 0.848578
0.140000 0.864512 0.865470 0.827367
0.150000 0.837063 0.837886 0.804797
0.160000 0.806533 0.807150 0.780931
0.170000 0.773033 0.773373 0.755850
0.180000 0.736758 0.736753 0.729650
0.190000 0.697987 0.697575 0.702441
0.200000 0.657079 0.656209 0.674347
0.210000 0.614460 0.613096 0.645504
0.220000 0.570612 0.568736 0.616057
0.230000 0.526058 0.523668 0.586160
0.240000 0.481339 0.478457 0.555970
0.250000 0.437001 0.433667 0.525650
0.260000 0.393570 0.389841 0.495361
0.270000 0.351539 0.347486 0.465264
0.280000 0.311347 0.307053 0.435513
0.290000 0.273371 0.268924 0.406258
0.300000 0.237912 0.233403 0.377639
0.310000 0.205193 0.200712 0.349787
0.320000 0.175357 0.170985 0.322819
0.330000 0.148468 0.144279 0.296840
0.340000 0.124519 0.120573 0.271940
0.350000 0.103436 0.099780 0.248195
0.360000 0.085093 0.081759 0.225664
0.370000 0.069318 0.066326 0.204393
0.380000 0.055910 0.053266 0.184410
0.390000 0.044645 0.042343 0.165731
0.400000 0.035291 0.033316 0.148358
0.410000 0.027614 0.025944 0.132278
0.420000 0.021385 0.019994 0.117469
0.430000 0.016390 0.015248 0.103897
0.440000 0.012431 0.011507 0.091520
0.450000 0.009330 0.008592 0.080287
0.460000 0.006929 0.006347 0.070144
0.470000 0.005091 0.004639 0.061028
0.480000 0.003700 0.003355 0.052876
0.490000 0.002661 0.002400 0.045621
0.500000 0.001893 0.001698 0.039196
0.510000 0.001331 0.001189 0.033534
0.520000 0.000927 0.000823 0.028568
0.530000 0.000638 0.000564 0.024233
0.540000 0.000434 0.000382 0.020468
0.550000 0.000292 0.000256 0.017213
0.560000 0.000194 0.000170 0.014414
0.570000 0.000128 0.000111 0.012017
0.580000 0.000083 0.000072 0.009976
0.590000 0.000054 0.000046 0.008245
0.600000 0.000034 0.000029 0.006784
0.610000 0.000021 0.000018 0.005558
0.620000 0.000013 0.000011 0.004533
0.630000 0.000008 0.000007 0.003681
0.640000 0.000005 0.000004 0.002976
0.650000 0.000003 0.000003 0.002395
0.660000 0.000002 0.000002 0.001919
0.670000 0.000001 0.000001 0.001531
0.680000 0.000001 0.000001 0.001215
0.690000 0.000000 0.000000 0.000961
0.700000 0.000000 0.000000 0.000756
0.710000 0.000000 0.000000 0.000592
0.720000 0.000000 0.000000 0.000462
0.730000 0.000000 0.000000 0.000359
0.740000 0.000000 0.000000 0.000277
0.750000 0.000000 0.000000 0.000213
0.760000 0.000000 0.000000 0.000163
0.770000 0.000000 0.000000 0.000124
0.780000 0.000000 0.000000 0.000094
0.790000 0.000000 0.000000 0.000071
0.800000 0.000000 0.000000 0.000054
0.810000 0.000000 0.000000 0.000040
0.820000 0.000000 0.000000 0.000030
0.830000 0.000000 0.000000 0.000022
0.840000 0.000000 0.000000 0.000016
0.850000 0.000000 0.000000 0.000012
0.860000 0.000000 0.000000 0.000009
0.870000 0.000000 0.000000 0.000006
0.880000 0.000000 0.000000 0.000005
0.890000 0.000000 0.000000 0.000003
0.900000 0.000000 0.000000 0.000002
0.910000 0.000000 0.000000 0.000002
0.920000 0.000000 0.000000 0.000001
0.930000 0.000000 0.000000 0.000001
0.940000 0.000000 0.000000 0.000001
0.950000 0.000000 0.000000 0.000000
0.960000 0.000000 0.000000 0.000000
0.970000 0.000000 0.000000 0.000000
0.980000 0.000000 0.000000 0.000000
0.990000 0.000000 0.000000 0.000000
1.000000 0.000000 0.000000 0.000000
